{
 "num_road_team_goals": "0", 
 "home_team": "Florida Panthers", 
 "num_home_team_goals": "2", 
 "summary_url": "http://www.flyershistory.com/cgi-bin/poboxscore.cgi?H20130950", 
 "result": "W", 
 "road_team": "Buffalo Sabres", 
 "date": "2014-03-07", 
 "goals": [
  {
   "season_index": "9", 
   "strength": "(PP)", 
   "time": "11:11", 
   "period": "1", 
   "player": "J.Winchester", 
   "assists": "(S.Upshall, S.Gomez)", 
   "game_index": "1", 
   "team": "FLA"
  }, 
  {
   "season_index": "7", 
   "strength": "(PP)", 
   "time": "4:04", 
   "period": "3", 
   "player": "D.Kulikov", 
   "assists": "(B.Boyes, N.Bjugstad)", 
   "game_index": "2", 
   "team": "FLA"
  }
 ], 
 "tweets": [
  {
   "text": ".@Strombone1 Do anything fun tonight?", 
   "label": "O", 
   "id": 442146351888236545, 
   "hashtags": [], 
   "user_mentions": [
    "strombone1"
   ], 
   "created_at": "Sat Mar 08 03:54:39 +0000 2014", 
   "retweet_count": 104, 
   "favorite_count": 143
  }, 
  {
   "text": "RT @FlaPanthersPR: Tonight's shutout marks Luongo's 66th career shutout &amp; leads the #FlaPanthers franchise with 27. He is ranked 2nd among \u2026", 
   "label": "O", 
   "id": 442141579189694464, 
   "hashtags": [
    "FlaPanthers"
   ], 
   "user_mentions": [
    "FlaPanthersPR"
   ], 
   "created_at": "Sat Mar 08 03:35:41 +0000 2014", 
   "retweet_count": 101, 
   "favorite_count": 0
  }, 
  {
   "text": "Check out what Luongo is wearing post-game: http://t.co/nHLPIDfg0v", 
   "label": "O", 
   "id": 442140738563104768, 
   "hashtags": [], 
   "user_mentions": [], 
   "created_at": "Sat Mar 08 03:32:21 +0000 2014", 
   "retweet_count": 34, 
   "favorite_count": 36
  }, 
  {
   "text": "RT @I_SKYNET: Now that is @FlaPanthers hockey.", 
   "label": "O", 
   "id": 442136975114784768, 
   "hashtags": [], 
   "user_mentions": [
    "I_SKYNET", 
    "FlaPanthers"
   ], 
   "created_at": "Sat Mar 08 03:17:24 +0000 2014", 
   "retweet_count": 6, 
   "favorite_count": 0
  }, 
  {
   "text": "ICYMI-- @ScottieUpshall dishes to @Jwinch18 for a PPG in the first. WATCH: http://t.co/jCJBMqQfeG #FlaPanthers", 
   "label": "O", 
   "id": 442136903648043008, 
   "hashtags": [
    "FlaPanthers"
   ], 
   "user_mentions": [
    "ScottieUpshall", 
    "jwinch18"
   ], 
   "created_at": "Sat Mar 08 03:17:06 +0000 2014", 
   "retweet_count": 6, 
   "favorite_count": 8
  }, 
  {
   "text": "With 25 saves and the shutout, Roberto Luongo is tonight's #1 star of the game! #FlaPanthers", 
   "label": "O", 
   "id": 442135545708560384, 
   "hashtags": [
    "FlaPanthers"
   ], 
   "user_mentions": [], 
   "created_at": "Sat Mar 08 03:11:43 +0000 2014", 
   "retweet_count": 611, 
   "favorite_count": 710
  }, 
  {
   "text": "RT @FlaPanthersPR: In his #NHL debut, @trocheck_89 finished the night with 17:35 TOI and 3 shots on goal.", 
   "label": "O", 
   "id": 442135413399257088, 
   "hashtags": [
    "NHL"
   ], 
   "user_mentions": [
    "FlaPanthersPR", 
    "trocheck_89"
   ], 
   "created_at": "Sat Mar 08 03:11:11 +0000 2014", 
   "retweet_count": 25, 
   "favorite_count": 0
  }, 
  {
   "text": "RT @Daniel_Klahr: Welcome home @strombone1 great game! Thats what i like to see out of my favorite @FlaPanthers #firststar", 
   "label": "O", 
   "id": 442134740385415170, 
   "hashtags": [
    "firststar"
   ], 
   "user_mentions": [
    "Daniel_Klahr", 
    "strombone1", 
    "FlaPanthers"
   ], 
   "created_at": "Sat Mar 08 03:08:31 +0000 2014", 
   "retweet_count": 9, 
   "favorite_count": 0
  }, 
  {
   "text": "And the Rats are Back!!!", 
   "label": "O", 
   "id": 442134532486352896, 
   "hashtags": [], 
   "user_mentions": [], 
   "created_at": "Sat Mar 08 03:07:41 +0000 2014", 
   "retweet_count": 40, 
   "favorite_count": 61
  }, 
  {
   "text": "LUUUUUUUUUU! #FlaPanthers top #Sabres 2-0 with their first shutout of the season!", 
   "label": "O", 
   "id": 442134434708717569, 
   "hashtags": [
    "FlaPanthers", 
    "Sabres"
   ], 
   "user_mentions": [], 
   "created_at": "Sat Mar 08 03:07:18 +0000 2014", 
   "retweet_count": 212, 
   "favorite_count": 178
  }, 
  {
   "text": "#FlaPanthers short handed for the last 59.6 seconds of this contest. Jovo in the box. #FlaPanthers lead 2-0.", 
   "label": "O", 
   "id": 442133861536133120, 
   "hashtags": [
    "FlaPanthers", 
    "FlaPanthers"
   ], 
   "user_mentions": [], 
   "created_at": "Sat Mar 08 03:05:01 +0000 2014", 
   "retweet_count": 3, 
   "favorite_count": 10
  }, 
  {
   "text": "#Sabres Adam sits two for interference late in this one.", 
   "label": "O", 
   "id": 442132048946683904, 
   "hashtags": [
    "Sabres"
   ], 
   "user_mentions": [], 
   "created_at": "Sat Mar 08 02:57:49 +0000 2014", 
   "retweet_count": 3, 
   "favorite_count": 1
  }, 
  {
   "text": "5:53 to play in the third. Your Cats are up 2-0 with goals from @jwinch18 &amp; Kulikov.", 
   "label": "O", 
   "id": 442131642698985472, 
   "hashtags": [], 
   "user_mentions": [
    "jwinch18"
   ], 
   "created_at": "Sat Mar 08 02:56:12 +0000 2014", 
   "retweet_count": 6, 
   "favorite_count": 6
  }, 
  {
   "text": "Tyler Myers sits two. Cats get another chance on the man advantage. #FlaPanthers #Sabres", 
   "label": "O", 
   "id": 442128300480430080, 
   "hashtags": [
    "FlaPanthers", 
    "Sabres"
   ], 
   "user_mentions": [], 
   "created_at": "Sat Mar 08 02:42:55 +0000 2014", 
   "retweet_count": 5, 
   "favorite_count": 1
  }, 
  {
   "text": "7 for 7! Kuli's 7th of the season assisted by Brad Boyes &amp; @NBjugstad72. #FlaPanthers #Sabres", 
   "label": "O", 
   "id": 442126924522201088, 
   "hashtags": [
    "FlaPanthers", 
    "Sabres"
   ], 
   "user_mentions": [
    "NBjugstad72"
   ], 
   "created_at": "Sat Mar 08 02:37:27 +0000 2014", 
   "retweet_count": 7, 
   "favorite_count": 11
  }, 
  {
   "text": "RT @Candegirl88: KULI!!!!!!!!! #FlaPanthers", 
   "label": "O", 
   "id": 442126729403174912, 
   "hashtags": [
    "FlaPanthers"
   ], 
   "user_mentions": [
    "Candegirl88"
   ], 
   "created_at": "Sat Mar 08 02:36:41 +0000 2014", 
   "retweet_count": 2, 
   "favorite_count": 0
  }, 
  {
   "text": "KULIKOV!! Another Power Play goal for the Cats and the #FlaPanthers grab a 2-0 lead.", 
   "label": "O", 
   "id": 442126457914290176, 
   "hashtags": [
    "FlaPanthers"
   ], 
   "user_mentions": [], 
   "created_at": "Sat Mar 08 02:35:36 +0000 2014", 
   "retweet_count": 24, 
   "favorite_count": 29
  }, 
  {
   "text": "D'Agostini sits two for high sticking at 3:18. #FlaPanthers POWER PLAY!", 
   "label": "O", 
   "id": 442126157195259904, 
   "hashtags": [
    "FlaPanthers"
   ], 
   "user_mentions": [], 
   "created_at": "Sat Mar 08 02:34:24 +0000 2014", 
   "retweet_count": 2, 
   "favorite_count": 1
  }, 
  {
   "text": "RT @Eric_Munter: @FlaPanthers enjoying Luongo's first game back! Only good times ahead! #LetsGoPanthers http://t.co/ccSWu67CGT", 
   "label": "O", 
   "id": 442125805439942657, 
   "hashtags": [
    "LetsGoPanthers"
   ], 
   "user_mentions": [
    "Eric_Munter", 
    "FlaPanthers"
   ], 
   "created_at": "Sat Mar 08 02:33:01 +0000 2014", 
   "retweet_count": 18, 
   "favorite_count": 0
  }, 
  {
   "text": "Back for the third. #FlaPanthers #Sabres", 
   "label": "O", 
   "id": 442124920211116032, 
   "hashtags": [
    "FlaPanthers", 
    "Sabres"
   ], 
   "user_mentions": [], 
   "created_at": "Sat Mar 08 02:29:29 +0000 2014", 
   "retweet_count": 2, 
   "favorite_count": 5
  }, 
  {
   "text": "End of 2 from Florida: Cats hold a 1-0 lead. Shots are #FlaPanthers 30, #Sabres 13.", 
   "label": "O", 
   "id": 442120303796555776, 
   "hashtags": [
    "FlaPanthers", 
    "Sabres"
   ], 
   "user_mentions": [], 
   "created_at": "Sat Mar 08 02:11:09 +0000 2014", 
   "retweet_count": 7, 
   "favorite_count": 12
  }, 
  {
   "text": "Buffalo will be short handed with Tyler Ennis in the box. With 18.9 seconds left in the second, this will carry into the third.", 
   "label": "O", 
   "id": 442120128524992512, 
   "hashtags": [], 
   "user_mentions": [], 
   "created_at": "Sat Mar 08 02:10:27 +0000 2014", 
   "retweet_count": 0, 
   "favorite_count": 5
  }, 
  {
   "text": "RT @menoetius26: LUUUUUUUUUUUU OMG @FlaPanthers", 
   "label": "O", 
   "id": 442117978512171008, 
   "hashtags": [], 
   "user_mentions": [
    "FlaPanthers"
   ], 
   "created_at": "Sat Mar 08 02:01:54 +0000 2014", 
   "retweet_count": 8, 
   "favorite_count": 0
  }, 
  {
   "text": "Cats complete the kill and we are back to even strength with a huge save by Luuuuuuu #FlaPanthers #Sabres", 
   "label": "O", 
   "id": 442117945553326080, 
   "hashtags": [
    "FlaPanthers", 
    "Sabres"
   ], 
   "user_mentions": [], 
   "created_at": "Sat Mar 08 02:01:47 +0000 2014", 
   "retweet_count": 15, 
   "favorite_count": 20
  }, 
  {
   "text": "#FlaPanthers @Guddy44 puts the Cats on the kill for the first time in this contest as he sits two for cross-checking.", 
   "label": "O", 
   "id": 442117196727468034, 
   "hashtags": [
    "FlaPanthers"
   ], 
   "user_mentions": [
    "Guddy44"
   ], 
   "created_at": "Sat Mar 08 01:58:48 +0000 2014", 
   "retweet_count": 3, 
   "favorite_count": 3
  }, 
  {
   "text": "No goal for Bergy. Score remains #FlaPanthers 1, #Sabres 0 with 7:42 left in the second.", 
   "label": "O", 
   "id": 442116719117881345, 
   "hashtags": [
    "FlaPanthers", 
    "Sabres"
   ], 
   "user_mentions": [], 
   "created_at": "Sat Mar 08 01:56:54 +0000 2014", 
   "retweet_count": 1, 
   "favorite_count": 5
  }, 
  {
   "text": "Penalty shot for Sean Bergenheim!", 
   "label": "O", 
   "id": 442116567577673729, 
   "hashtags": [], 
   "user_mentions": [], 
   "created_at": "Sat Mar 08 01:56:18 +0000 2014", 
   "retweet_count": 2, 
   "favorite_count": 5
  }, 
  {
   "text": "RT @assembly360: @flapanthers power play!! http://t.co/1DElEDLR7i", 
   "label": "O", 
   "id": 442116200555110400, 
   "hashtags": [], 
   "user_mentions": [
    "assembly360", 
    "FlaPanthers"
   ], 
   "created_at": "Sat Mar 08 01:54:51 +0000 2014", 
   "retweet_count": 5, 
   "favorite_count": 0
  }, 
  {
   "text": "#Sabres Ville Leino is guilty of slashing, #FlaPanthers on the PP with 9:33 to play in the second.", 
   "label": "O", 
   "id": 442115425644851201, 
   "hashtags": [
    "Sabres", 
    "FlaPanthers"
   ], 
   "user_mentions": [], 
   "created_at": "Sat Mar 08 01:51:46 +0000 2014", 
   "retweet_count": 1, 
   "favorite_count": 1
  }, 
  {
   "text": "RT @DrewGoldfarb: So great to see Roberto Luongo back between the pipes in #FlaPanthers gear. http://t.co/OquHohTXPd", 
   "label": "O", 
   "id": 442113716126220288, 
   "hashtags": [
    "FlaPanthers"
   ], 
   "user_mentions": [
    "DrewGoldfarb"
   ], 
   "created_at": "Sat Mar 08 01:44:58 +0000 2014", 
   "retweet_count": 11, 
   "favorite_count": 0
  }, 
  {
   "text": "RT @AMurphyTRT: Great shift by Brad Boyes. was all over the O-Zone. #FlaPanthers still bringing the pressure", 
   "label": "O", 
   "id": 442113499423318016, 
   "hashtags": [
    "FlaPanthers"
   ], 
   "user_mentions": [
    "AMurphyTRT"
   ], 
   "created_at": "Sat Mar 08 01:44:07 +0000 2014", 
   "retweet_count": 3, 
   "favorite_count": 0
  }, 
  {
   "text": "Here comes the second installment of #LuongoReturns--Period two is a go! #FlaPanthers #Sabres", 
   "label": "O", 
   "id": 442110865937276928, 
   "hashtags": [
    "LuongoReturns", 
    "FlaPanthers", 
    "Sabres"
   ], 
   "user_mentions": [], 
   "created_at": "Sat Mar 08 01:33:39 +0000 2014", 
   "retweet_count": 7, 
   "favorite_count": 18
  }, 
  {
   "text": "Listen to Randy Moller call @Jwinch18's tally. \"The Wickedly Talented Winchester!\": http://t.co/RS4epwEGXP", 
   "label": "O", 
   "id": 442109382185455616, 
   "hashtags": [], 
   "user_mentions": [
    "jwinch18"
   ], 
   "created_at": "Sat Mar 08 01:27:45 +0000 2014", 
   "retweet_count": 4, 
   "favorite_count": 2
  }, 
  {
   "text": "End of 1 from @TheBBTCenter: #FlaPanthers 1, #Sabres 0. Shots are 14-8 FL", 
   "label": "O", 
   "id": 442106250156068864, 
   "hashtags": [
    "FlaPanthers", 
    "Sabres"
   ], 
   "user_mentions": [
    "thebbtcenter"
   ], 
   "created_at": "Sat Mar 08 01:15:18 +0000 2014", 
   "retweet_count": 13, 
   "favorite_count": 12
  }, 
  {
   "text": "NHL Debut tonight!---&gt;MT @Pantherss88: Trocheck looks really good. @FlaPanthers", 
   "label": "O", 
   "id": 442104402229604352, 
   "hashtags": [], 
   "user_mentions": [
    "Pantherss88", 
    "FlaPanthers"
   ], 
   "created_at": "Sat Mar 08 01:07:58 +0000 2014", 
   "retweet_count": 9, 
   "favorite_count": 13
  }, 
  {
   "text": "RT @coreydumas954: GOOOOOOAAAALLLLLLL!!!!!!! I see a new vision a new team a new feel! Lets go cats!!!! @FlaPanthers it's a beginning of a \u2026", 
   "label": "O", 
   "id": 442102114119327745, 
   "hashtags": [], 
   "user_mentions": [
    "coreydumas954", 
    "FlaPanthers"
   ], 
   "created_at": "Sat Mar 08 00:58:52 +0000 2014", 
   "retweet_count": 6, 
   "favorite_count": 0
  }, 
  {
   "text": ".@jwinch18's 9th of the season is assisted by @ScottieUpshall &amp; @Bcampbell_51.#FlaPanthers 1, #Sabres 0 in the first.", 
   "label": "O", 
   "id": 442101725508665344, 
   "hashtags": [
    "FlaPanthers", 
    "Sabres"
   ], 
   "user_mentions": [
    "jwinch18", 
    "ScottieUpshall", 
    "bcampbell_51"
   ], 
   "created_at": "Sat Mar 08 00:57:19 +0000 2014", 
   "retweet_count": 2, 
   "favorite_count": 11
  }, 
  {
   "text": "WINCH GRANTED! @jwinch18 gets it behind Neuvirth on the PP! 1-0 #FlaPanthers", 
   "label": "O", 
   "id": 442101352010104832, 
   "hashtags": [
    "FlaPanthers"
   ], 
   "user_mentions": [
    "jwinch18"
   ], 
   "created_at": "Sat Mar 08 00:55:50 +0000 2014", 
   "retweet_count": 12, 
   "favorite_count": 20
  }, 
  {
   "text": "Cats will go 5 on 3 for 25 seconds as #Sabres Foligno heads to the box. He will sit five for boarding at 6:16. #FlaPanthers", 
   "label": "O", 
   "id": 442099786989453312, 
   "hashtags": [
    "Sabres", 
    "FlaPanthers"
   ], 
   "user_mentions": [], 
   "created_at": "Sat Mar 08 00:49:37 +0000 2014", 
   "retweet_count": 4, 
   "favorite_count": 4
  }, 
  {
   "text": "Delay of Game for D'Agostini, #FlaPanthers get a chance on the man advantage early in the first.", 
   "label": "O", 
   "id": 442098824077910016, 
   "hashtags": [
    "FlaPanthers"
   ], 
   "user_mentions": [], 
   "created_at": "Sat Mar 08 00:45:48 +0000 2014", 
   "retweet_count": 1, 
   "favorite_count": 3
  }, 
  {
   "text": "We're underway in Sunrise, FL! #FlaPanthers #Sabres #WeSeeRED", 
   "label": "O", 
   "id": 442097114546724864, 
   "hashtags": [
    "FlaPanthers", 
    "Sabres", 
    "WeSeeRED"
   ], 
   "user_mentions": [], 
   "created_at": "Sat Mar 08 00:39:00 +0000 2014", 
   "retweet_count": 10, 
   "favorite_count": 9
  }, 
  {
   "text": "RT @sarahjkurth: @FlaPanthers SO STOKED RIGHT NOW #FlaPanthers #GoCats \ud83d\ude3b http://t.co/Kp0JltGuKP", 
   "label": "O", 
   "id": 442095730682236929, 
   "hashtags": [
    "FlaPanthers", 
    "GoCats"
   ], 
   "user_mentions": [
    "sarahjkurth", 
    "FlaPanthers"
   ], 
   "created_at": "Sat Mar 08 00:33:30 +0000 2014", 
   "retweet_count": 3, 
   "favorite_count": 0
  }, 
  {
   "text": "Your #FlaPanthers starters: Kulikov, Bergenheim, Boyes, @NBjugstad72, Jovanovski, &amp; Luongo.", 
   "label": "O", 
   "id": 442094512606052353, 
   "hashtags": [
    "FlaPanthers"
   ], 
   "user_mentions": [
    "NBjugstad72"
   ], 
   "created_at": "Sat Mar 08 00:28:40 +0000 2014", 
   "retweet_count": 12, 
   "favorite_count": 19
  }, 
  {
   "text": "You know you want to get your paws on this--available now in Pantherland. http://t.co/kHtF1WauWG", 
   "label": "O", 
   "id": 442076787997442049, 
   "hashtags": [], 
   "user_mentions": [], 
   "created_at": "Fri Mar 07 23:18:14 +0000 2014", 
   "retweet_count": 58, 
   "favorite_count": 92
  }, 
  {
   "text": "@SouthPaw303 T.G.I.F.!", 
   "label": "O", 
   "id": 442049439637991424, 
   "hashtags": [], 
   "user_mentions": [
    "SouthPaw303"
   ], 
   "created_at": "Fri Mar 07 21:29:33 +0000 2014", 
   "retweet_count": 1, 
   "favorite_count": 1
  }, 
  {
   "text": "RT @AshleyCascio13: Found this gem of a pic. My little 9 year old self w Lu. Welcome back to the sunshine state @strombone1 @FlaPanthers ht\u2026", 
   "label": "O", 
   "id": 442048046395060224, 
   "hashtags": [], 
   "user_mentions": [
    "AshleyCascio13", 
    "strombone1", 
    "FlaPanthers"
   ], 
   "created_at": "Fri Mar 07 21:24:01 +0000 2014", 
   "retweet_count": 21, 
   "favorite_count": 0
  }, 
  {
   "text": "Puck drops at 7:30 tonight. Don't miss the action as #LuongoReturns TV: @FOXPanthers RADIO: @ESPN1063 &amp; @560WQAM http://t.co/E5qjhM8aPF", 
   "label": "O", 
   "id": 442045162249023488, 
   "hashtags": [
    "LuongoReturns"
   ], 
   "user_mentions": [
    "FOXPanthers", 
    "ESPN1063", 
    "560WQAM"
   ], 
   "created_at": "Fri Mar 07 21:12:34 +0000 2014", 
   "retweet_count": 24, 
   "favorite_count": 26
  }, 
  {
   "text": "RT @KyleSwain32: So excited for the @FlaPanthers game tonight!!!! The long awaited return of luongo. Let's go Cats", 
   "label": "O", 
   "id": 442044714829627393, 
   "hashtags": [], 
   "user_mentions": [
    "KyleSwain32", 
    "FlaPanthers"
   ], 
   "created_at": "Fri Mar 07 21:10:47 +0000 2014", 
   "retweet_count": 8, 
   "favorite_count": 0
  }, 
  {
   "text": "\"I think they'll work well together,\" -- Horachek on @ScottieUpshall working with the young players in the line up.", 
   "label": "O", 
   "id": 441972155845443584, 
   "hashtags": [], 
   "user_mentions": [
    "ScottieUpshall"
   ], 
   "created_at": "Fri Mar 07 16:22:28 +0000 2014", 
   "retweet_count": 7, 
   "favorite_count": 3
  }, 
  {
   "text": "Morning skate from @thebbtcenter. Which new face are you looking forward to for the Cats tonight? http://t.co/Pm6DeeE4Rs", 
   "label": "O", 
   "id": 441962771446759424, 
   "hashtags": [], 
   "user_mentions": [
    "thebbtcenter"
   ], 
   "created_at": "Fri Mar 07 15:45:10 +0000 2014", 
   "retweet_count": 11, 
   "favorite_count": 21
  }, 
  {
   "text": "In case you have been living under a rock this week...LOWDOWN: http://t.co/cLuQ3WHbKC", 
   "label": "O", 
   "id": 441956805716213760, 
   "hashtags": [], 
   "user_mentions": [], 
   "created_at": "Fri Mar 07 15:21:28 +0000 2014", 
   "retweet_count": 0, 
   "favorite_count": 5
  }, 
  {
   "text": "It's a #FlaPanthers GAME DAY! The Cats host the #Sabres @theBBTCenter tonight at 7:30 p.m. TIX:http://t.co/nCv7iyLte3", 
   "label": "O", 
   "id": 441935154400219136, 
   "hashtags": [
    "FlaPanthers", 
    "Sabres"
   ], 
   "user_mentions": [
    "thebbtcenter"
   ], 
   "created_at": "Fri Mar 07 13:55:26 +0000 2014", 
   "retweet_count": 17, 
   "favorite_count": 23
  }
 ]
}