{
 "num_road_team_goals": "2", 
 "home_team": "Boston Bruins", 
 "num_home_team_goals": "6", 
 "summary_url": "http://www.flyershistory.com/cgi-bin/poboxscore.cgi?H20130795", 
 "result": "L", 
 "road_team": "Florida Panthers", 
 "date": "2014-01-28", 
 "goals": [
  {
   "season_index": "14", 
   "strength": "(EV)", 
   "time": "7:41", 
   "period": "1", 
   "player": "M.Lucic", 
   "assists": "(J.Iginla, D.Krejci)", 
   "game_index": "1", 
   "team": "BOS"
  }, 
  {
   "season_index": "13", 
   "strength": "(EV)", 
   "time": "15:26", 
   "period": "1", 
   "player": "Z.Chara", 
   "assists": "(T.Krug, D.Krejci)", 
   "game_index": "2", 
   "team": "BOS"
  }, 
  {
   "season_index": "15", 
   "strength": "(EV)", 
   "time": "1:46", 
   "period": "2", 
   "player": "M.Lucic", 
   "assists": "(J.Iginla, M.Bartkowski)", 
   "game_index": "3", 
   "team": "BOS"
  }, 
  {
   "season_index": "18", 
   "strength": "(PP)", 
   "time": "14:54", 
   "period": "2", 
   "player": "R.Smith", 
   "assists": "(C.Soderberg, L.Eriksson)", 
   "game_index": "4", 
   "team": "BOS"
  }, 
  {
   "season_index": "14", 
   "strength": "(EV)", 
   "time": "19:27", 
   "period": "2", 
   "player": "B.Boyes", 
   "assists": "(N.Bjugstad)", 
   "game_index": "5", 
   "team": "FLA"
  }, 
  {
   "season_index": "5", 
   "strength": "(PP)", 
   "time": "4:00", 
   "period": "3", 
   "player": "D.Kulikov", 
   "assists": "(S.Bergenheim, S.Gomez)", 
   "game_index": "6", 
   "team": "FLA"
  }, 
  {
   "season_index": "4", 
   "strength": "(EV)", 
   "time": "8:14", 
   "period": "3", 
   "player": "S.Thornton", 
   "assists": "(G.Campbell)", 
   "game_index": "7", 
   "team": "BOS"
  }, 
  {
   "season_index": "11", 
   "strength": "(EV)", 
   "time": "17:51", 
   "period": "3", 
   "player": "D.Krejci", 
   "assists": null, 
   "game_index": "8", 
   "team": "BOS"
  }
 ], 
 "tweets": [
  {
   "text": "Cats are en route to Toronto where they earned a victory in December against their division rival. #BellLetsTaIk", 
   "label": "O", 
   "id": 428366785403174912, 
   "hashtags": [
    "BellLetsTaIk"
   ], 
   "user_mentions": [], 
   "created_at": "Wed Jan 29 03:19:34 +0000 2014", 
   "retweet_count": 23, 
   "favorite_count": 7
  }, 
  {
   "text": "Final from Boston: #NHLBruins 6, #FlaPanthers 2.", 
   "label": "O", 
   "id": 428356407566823424, 
   "hashtags": [
    "NHLBruins", 
    "FlaPanthers"
   ], 
   "user_mentions": [], 
   "created_at": "Wed Jan 29 02:38:20 +0000 2014", 
   "retweet_count": 3, 
   "favorite_count": 2
  }, 
  {
   "text": "Krejci with his 11th of the season... #FlaPanthers 2, #NHLBruins 6.", 
   "label": "O", 
   "id": 428355285942804481, 
   "hashtags": [
    "FlaPanthers", 
    "NHLBruins"
   ], 
   "user_mentions": [], 
   "created_at": "Wed Jan 29 02:33:53 +0000 2014", 
   "retweet_count": 1, 
   "favorite_count": 2
  }, 
  {
   "text": "Cats will be short handed with 6:42 to play in this contest. Kulikov will sit two for tripping.", 
   "label": "O", 
   "id": 428353379379990528, 
   "hashtags": [], 
   "user_mentions": [], 
   "created_at": "Wed Jan 29 02:26:18 +0000 2014", 
   "retweet_count": 0, 
   "favorite_count": 1
  }, 
  {
   "text": "Young Gun @DylanOlsen34 with a chance!", 
   "label": "O", 
   "id": 428352314899173376, 
   "hashtags": [], 
   "user_mentions": [
    "DylanOlsen34"
   ], 
   "created_at": "Wed Jan 29 02:22:04 +0000 2014", 
   "retweet_count": 0, 
   "favorite_count": 8
  }, 
  {
   "text": "#NHLBruins Shawn Thornton hits the back of the net. Boston leads 5-2.", 
   "label": "O", 
   "id": 428350677417730048, 
   "hashtags": [
    "NHLBruins"
   ], 
   "user_mentions": [], 
   "created_at": "Wed Jan 29 02:15:34 +0000 2014", 
   "retweet_count": 1, 
   "favorite_count": 1
  }, 
  {
   "text": "Thomas with a huge save and the score remains #FlaPanthers 2, #NHLBruins 4.", 
   "label": "O", 
   "id": 428349227165835264, 
   "hashtags": [
    "FlaPanthers", 
    "NHLBruins"
   ], 
   "user_mentions": [], 
   "created_at": "Wed Jan 29 02:09:48 +0000 2014", 
   "retweet_count": 4, 
   "favorite_count": 7
  }, 
  {
   "text": "RT @tara3434: That's what I'm talking about!!!  Great job, Kulikov!!  @FlaPanthers #ComeBackCats", 
   "label": "O", 
   "id": 428348852375392256, 
   "hashtags": [
    "ComeBackCats"
   ], 
   "user_mentions": [
    "tara3434", 
    "FlaPanthers"
   ], 
   "created_at": "Wed Jan 29 02:08:19 +0000 2014", 
   "retweet_count": 2, 
   "favorite_count": 0
  }, 
  {
   "text": "RT @Tigger0503: @FlaPanthers  Great Goal by @dimakulikov7 ! Let's GO #ComebackCats!!", 
   "label": "O", 
   "id": 428348772956262400, 
   "hashtags": [
    "ComebackCats"
   ], 
   "user_mentions": [
    "Tigger0503", 
    "FlaPanthers"
   ], 
   "created_at": "Wed Jan 29 02:08:00 +0000 2014", 
   "retweet_count": 3, 
   "favorite_count": 0
  }, 
  {
   "text": "KULIKOV WITH THE PPG and the Cats cut the #Bruins lead down to two.", 
   "label": "O", 
   "id": 428348320608968704, 
   "hashtags": [
    "Bruins"
   ], 
   "user_mentions": [], 
   "created_at": "Wed Jan 29 02:06:12 +0000 2014", 
   "retweet_count": 13, 
   "favorite_count": 14
  }, 
  {
   "text": "#FlaPanthers are heading on the man advantage---Thornton sits two for high-sticking in the third.", 
   "label": "O", 
   "id": 428347768693067776, 
   "hashtags": [
    "FlaPanthers"
   ], 
   "user_mentions": [], 
   "created_at": "Wed Jan 29 02:04:01 +0000 2014", 
   "retweet_count": 2, 
   "favorite_count": 0
  }, 
  {
   "text": "Puck has dropped and we're underway in the third. #FlaPanthers #NHLBruins", 
   "label": "O", 
   "id": 428346870671626240, 
   "hashtags": [
    "FlaPanthers", 
    "NHLBruins"
   ], 
   "user_mentions": [], 
   "created_at": "Wed Jan 29 02:00:26 +0000 2014", 
   "retweet_count": 2, 
   "favorite_count": 1
  }, 
  {
   "text": "Fact: Brad Boyes scored 26 goals in his rookie season with Boston (05/06).  He has one tonight....so far.  #FlaPanthers", 
   "label": "O", 
   "id": 428343102542479360, 
   "hashtags": [
    "FlaPanthers"
   ], 
   "user_mentions": [], 
   "created_at": "Wed Jan 29 01:45:28 +0000 2014", 
   "retweet_count": 4, 
   "favorite_count": 7
  }, 
  {
   "text": "RT @KyleSwain32: Good goal. Never give up keep fighting spirit from the @FlaPanthers", 
   "label": "O", 
   "id": 428342456896471040, 
   "hashtags": [], 
   "user_mentions": [
    "KyleSwain32", 
    "FlaPanthers"
   ], 
   "created_at": "Wed Jan 29 01:42:54 +0000 2014", 
   "retweet_count": 3, 
   "favorite_count": 0
  }, 
  {
   "text": "With just over 30 seconds remaining in the second, the Cats get on the board. We finish period 2 #FlaPanthers 1, #NHLBruins 4.", 
   "label": "O", 
   "id": 428342225232474112, 
   "hashtags": [
    "FlaPanthers", 
    "NHLBruins"
   ], 
   "user_mentions": [], 
   "created_at": "Wed Jan 29 01:41:59 +0000 2014", 
   "retweet_count": 4, 
   "favorite_count": 4
  }, 
  {
   "text": "BOYES from @NBjugstad72 and the Cats are on the board!", 
   "label": "O", 
   "id": 428341991634911232, 
   "hashtags": [], 
   "user_mentions": [
    "NBjugstad72"
   ], 
   "created_at": "Wed Jan 29 01:41:03 +0000 2014", 
   "retweet_count": 11, 
   "favorite_count": 17
  }, 
  {
   "text": "Goal!!", 
   "label": "O", 
   "id": 428341864799170560, 
   "hashtags": [], 
   "user_mentions": [], 
   "created_at": "Wed Jan 29 01:40:33 +0000 2014", 
   "retweet_count": 13, 
   "favorite_count": 14
  }, 
  {
   "text": "Bruins grab another on the PP. #FlaPanthers trail 4-0", 
   "label": "O", 
   "id": 428340334297632768, 
   "hashtags": [
    "FlaPanthers"
   ], 
   "user_mentions": [], 
   "created_at": "Wed Jan 29 01:34:28 +0000 2014", 
   "retweet_count": 4, 
   "favorite_count": 0
  }, 
  {
   "text": "Sean Bergenheim will sit four for high-sticking at 14:22. #FlaPanthers #NHLBruins", 
   "label": "O", 
   "id": 428340170979835904, 
   "hashtags": [
    "FlaPanthers", 
    "NHLBruins"
   ], 
   "user_mentions": [], 
   "created_at": "Wed Jan 29 01:33:49 +0000 2014", 
   "retweet_count": 2, 
   "favorite_count": 1
  }, 
  {
   "text": "Panthers will head on the PK.", 
   "label": "O", 
   "id": 428339538352951296, 
   "hashtags": [], 
   "user_mentions": [], 
   "created_at": "Wed Jan 29 01:31:18 +0000 2014", 
   "retweet_count": 0, 
   "favorite_count": 1
  }, 
  {
   "text": "#FlaPanthers are putting traffic in front of the Boston net!", 
   "label": "O", 
   "id": 428337692448157696, 
   "hashtags": [
    "FlaPanthers"
   ], 
   "user_mentions": [], 
   "created_at": "Wed Jan 29 01:23:58 +0000 2014", 
   "retweet_count": 2, 
   "favorite_count": 8
  }, 
  {
   "text": "We are halfway through the second period at @TDGarden. Score remains 3-0 Boston.", 
   "label": "O", 
   "id": 428337598592217088, 
   "hashtags": [], 
   "user_mentions": [
    "tdgarden"
   ], 
   "created_at": "Wed Jan 29 01:23:36 +0000 2014", 
   "retweet_count": 2, 
   "favorite_count": 2
  }, 
  {
   "text": "Lucic with another. #NHLBruins lead the Cats 3-0.", 
   "label": "O", 
   "id": 428334258990874624, 
   "hashtags": [
    "NHLBruins"
   ], 
   "user_mentions": [], 
   "created_at": "Wed Jan 29 01:10:20 +0000 2014", 
   "retweet_count": 2, 
   "favorite_count": 0
  }, 
  {
   "text": "Back for the second. #FlaPanthers #NHLBruins", 
   "label": "O", 
   "id": 428333492209192961, 
   "hashtags": [
    "FlaPanthers", 
    "NHLBruins"
   ], 
   "user_mentions": [], 
   "created_at": "Wed Jan 29 01:07:17 +0000 2014", 
   "retweet_count": 3, 
   "favorite_count": 2
  }, 
  {
   "text": "End of one from Boston. #FlaPanthers 0, #NHLBruins 2. We'll be looking for those #ComebackCats in the next 20!", 
   "label": "O", 
   "id": 428328799118581760, 
   "hashtags": [
    "FlaPanthers", 
    "NHLBruins", 
    "ComebackCats"
   ], 
   "user_mentions": [], 
   "created_at": "Wed Jan 29 00:48:38 +0000 2014", 
   "retweet_count": 7, 
   "favorite_count": 1
  }, 
  {
   "text": "Call is Chara for hooking.", 
   "label": "O", 
   "id": 428328127379816448, 
   "hashtags": [], 
   "user_mentions": [], 
   "created_at": "Wed Jan 29 00:45:58 +0000 2014", 
   "retweet_count": 1, 
   "favorite_count": 1
  }, 
  {
   "text": "#FlaPanthers will get a chance on the power play with 2:29 remaining in the first period. #WeSeeRED", 
   "label": "O", 
   "id": 428328079464083456, 
   "hashtags": [
    "FlaPanthers", 
    "WeSeeRED"
   ], 
   "user_mentions": [], 
   "created_at": "Wed Jan 29 00:45:46 +0000 2014", 
   "retweet_count": 3, 
   "favorite_count": 2
  }, 
  {
   "text": "Just after the end of the power play, Chara nets one. #FlaPanthers trail 2-0.", 
   "label": "O", 
   "id": 428326982364176384, 
   "hashtags": [
    "FlaPanthers"
   ], 
   "user_mentions": [], 
   "created_at": "Wed Jan 29 00:41:25 +0000 2014", 
   "retweet_count": 5, 
   "favorite_count": 1
  }, 
  {
   "text": "Cats complete the kill and we're back to even strength from @TDGarden.", 
   "label": "O", 
   "id": 428326538028011520, 
   "hashtags": [], 
   "user_mentions": [
    "tdgarden"
   ], 
   "created_at": "Wed Jan 29 00:39:39 +0000 2014", 
   "retweet_count": 2, 
   "favorite_count": 4
  }, 
  {
   "text": "#FlaPanthers will be short handed in the first as @mikeweaver_43 heads to the box for hooking.", 
   "label": "O", 
   "id": 428325773049868289, 
   "hashtags": [
    "FlaPanthers"
   ], 
   "user_mentions": [
    "mikeweaver_43"
   ], 
   "created_at": "Wed Jan 29 00:36:36 +0000 2014", 
   "retweet_count": 3, 
   "favorite_count": 1
  }, 
  {
   "text": "Congratulations to Tom Gilbert who is playing in his 500th career #NHL game tonight! http://t.co/VNTjAnXN4t", 
   "label": "O", 
   "id": 428323730264428544, 
   "hashtags": [
    "NHL"
   ], 
   "user_mentions": [], 
   "created_at": "Wed Jan 29 00:28:29 +0000 2014", 
   "retweet_count": 16, 
   "favorite_count": 25
  }, 
  {
   "text": "Lucic gets it behind Thomas and the #NHLBruins take a 1-0 lead.", 
   "label": "O", 
   "id": 428322684293111809, 
   "hashtags": [
    "NHLBruins"
   ], 
   "user_mentions": [], 
   "created_at": "Wed Jan 29 00:24:20 +0000 2014", 
   "retweet_count": 1, 
   "favorite_count": 1
  }, 
  {
   "text": "Timmy tested early but flashes the pad for a big save.", 
   "label": "O", 
   "id": 428319643464658944, 
   "hashtags": [], 
   "user_mentions": [], 
   "created_at": "Wed Jan 29 00:12:15 +0000 2014", 
   "retweet_count": 2, 
   "favorite_count": 7
  }, 
  {
   "text": "Game on! #FlaPanthers #NHLBruins", 
   "label": "O", 
   "id": 428318791744102401, 
   "hashtags": [
    "FlaPanthers", 
    "NHLBruins"
   ], 
   "user_mentions": [], 
   "created_at": "Wed Jan 29 00:08:52 +0000 2014", 
   "retweet_count": 11, 
   "favorite_count": 11
  }, 
  {
   "text": "Loud cheer as Tim Thomas is announced in the starting lineup in Boston. #flapanthers #bruins http://t.co/puN5AfuQkZ", 
   "label": "O", 
   "id": 428316867716202496, 
   "hashtags": [
    "flapanthers", 
    "bruins"
   ], 
   "user_mentions": [], 
   "created_at": "Wed Jan 29 00:01:13 +0000 2014", 
   "retweet_count": 11, 
   "favorite_count": 16
  }, 
  {
   "text": "Pregame warmups underway in Boston. Panthers looking to make it 4 straight away from @thebbtcenter. http://t.co/XGBvi0TlyB", 
   "label": "O", 
   "id": 428313074802896896, 
   "hashtags": [], 
   "user_mentions": [
    "thebbtcenter"
   ], 
   "created_at": "Tue Jan 28 23:46:09 +0000 2014", 
   "retweet_count": 13, 
   "favorite_count": 18
  }, 
  {
   "text": "RT @FLpantherpatrol: Coming to tonight's @flapanthers Watch Party at @duffysmvp? We are giving away a couple signed pucks by Dmitri... http\u2026", 
   "label": "O", 
   "id": 428311703647170561, 
   "hashtags": [], 
   "user_mentions": [
    "FLpantherpatrol", 
    "FlaPanthers", 
    "DuffysMVP"
   ], 
   "created_at": "Tue Jan 28 23:40:42 +0000 2014", 
   "retweet_count": 4, 
   "favorite_count": 0
  }, 
  {
   "text": "Tim Thomas leads the Florida Panthers on to the ice against the Boston Bruins.....in Boston. #flapanthers http://t.co/f8oHDsnNsT", 
   "label": "O", 
   "id": 428310247837827072, 
   "hashtags": [
    "flapanthers"
   ], 
   "user_mentions": [], 
   "created_at": "Tue Jan 28 23:34:55 +0000 2014", 
   "retweet_count": 6, 
   "favorite_count": 11
  }, 
  {
   "text": "Pregame soccer warmup underway. Plan is still to play hockey later. #flapanthers #bruins http://t.co/rvLTMhPWMn", 
   "label": "O", 
   "id": 428303029365133312, 
   "hashtags": [
    "flapanthers", 
    "bruins"
   ], 
   "user_mentions": [], 
   "created_at": "Tue Jan 28 23:06:14 +0000 2014", 
   "retweet_count": 3, 
   "favorite_count": 6
  }, 
  {
   "text": "It's the one-hour @PartyCity countdown! #FlaPanthers at #Bruins starts at 7 p.m.", 
   "label": "O", 
   "id": 428302245168676865, 
   "hashtags": [
    "FlaPanthers", 
    "Bruins"
   ], 
   "user_mentions": [
    "PartyCity"
   ], 
   "created_at": "Tue Jan 28 23:03:07 +0000 2014", 
   "retweet_count": 6, 
   "favorite_count": 8
  }, 
  {
   "text": "RT @FlaPanthersPR: #FlaPanthers @Kopy82 has been taken off of I.R. and @Barkovsasha95 has been placed on I.R. retroactive to Jan.21.", 
   "label": "O", 
   "id": 428292618041425922, 
   "hashtags": [
    "FlaPanthers"
   ], 
   "user_mentions": [
    "FlaPanthersPR", 
    "kopy82", 
    "Barkovsasha95"
   ], 
   "created_at": "Tue Jan 28 22:24:52 +0000 2014", 
   "retweet_count": 6, 
   "favorite_count": 0
  }, 
  {
   "text": ".@LindsayBHockey sat down with Tim Thomas: http://t.co/zryTCy4BNL For the entire interview tune into tonight's @FOXPanthers broadcast!", 
   "label": "O", 
   "id": 428282185863294976, 
   "hashtags": [], 
   "user_mentions": [
    "LindsayBHockey", 
    "FOXPanthers"
   ], 
   "created_at": "Tue Jan 28 21:43:24 +0000 2014", 
   "retweet_count": 4, 
   "favorite_count": 2
  }, 
  {
   "text": "Stick to your seat until the final whistle...Here's what to watch for as the #FlaPanthers take on the #Bruins READ: http://t.co/LA9l0j9oCv", 
   "label": "O", 
   "id": 428271309609766912, 
   "hashtags": [
    "FlaPanthers", 
    "Bruins"
   ], 
   "user_mentions": [], 
   "created_at": "Tue Jan 28 21:00:11 +0000 2014", 
   "retweet_count": 1, 
   "favorite_count": 0
  }, 
  {
   "text": "@turbuLENTZ We'll have to check the CBA.", 
   "label": "O", 
   "id": 428262056933220352, 
   "hashtags": [], 
   "user_mentions": [
    "turbuLENTZ"
   ], 
   "created_at": "Tue Jan 28 20:23:25 +0000 2014", 
   "retweet_count": 0, 
   "favorite_count": 1
  }, 
  {
   "text": "After tonight's game, Cats fly north to visit the Leafs. Last time in Canada, Cats picked up 6/8 possible points (all declared at customs).", 
   "label": "O", 
   "id": 428260721051598848, 
   "hashtags": [], 
   "user_mentions": [], 
   "created_at": "Tue Jan 28 20:18:07 +0000 2014", 
   "retweet_count": 5, 
   "favorite_count": 12
  }, 
  {
   "text": "#GoodLuckCharm. RT @irishman0700  Cats  Fan from 93.  Even flew to frigid Det to support Cats on Sunday at the Joe. http://t.co/T0nGCpxghh\u201d", 
   "label": "O", 
   "id": 428246006829166592, 
   "hashtags": [
    "GoodLuckCharm"
   ], 
   "user_mentions": [
    "irishman0700"
   ], 
   "created_at": "Tue Jan 28 19:19:39 +0000 2014", 
   "retweet_count": 1, 
   "favorite_count": 6
  }, 
  {
   "text": "RT @goldieonice: Over the last 2 1/2 months, #FlaPanthers are tied for 4th best road team in #NHL , 2nd best in Eastern conference. Impress\u2026", 
   "label": "O", 
   "id": 428244842968547328, 
   "hashtags": [
    "FlaPanthers", 
    "NHL", 
    "roadies"
   ], 
   "user_mentions": [
    "goldieonice"
   ], 
   "created_at": "Tue Jan 28 19:15:01 +0000 2014", 
   "retweet_count": 35, 
   "favorite_count": 0
  }, 
  {
   "text": "RT @ScottieUpshall: #BellLetsTalk", 
   "label": "O", 
   "id": 428241504076046337, 
   "hashtags": [
    "BellLetsTalk"
   ], 
   "user_mentions": [
    "ScottieUpshall"
   ], 
   "created_at": "Tue Jan 28 19:01:45 +0000 2014", 
   "retweet_count": 232, 
   "favorite_count": 0
  }, 
  {
   "text": "Where are you watching the game tonight? Join us at @DuffysMVP for the 7 p.m. match up! INFO: http://t.co/zq261J2mEQ", 
   "label": "O", 
   "id": 428239973721329664, 
   "hashtags": [], 
   "user_mentions": [
    "DuffysMVP"
   ], 
   "created_at": "Tue Jan 28 18:55:40 +0000 2014", 
   "retweet_count": 2, 
   "favorite_count": 1
  }, 
  {
   "text": "Morning skate from @tdgarden! #FlaPanthers and #Bruins meet at 7 p.m. http://t.co/Acg1arriH3", 
   "label": "O", 
   "id": 428210912382959616, 
   "hashtags": [
    "FlaPanthers", 
    "Bruins"
   ], 
   "user_mentions": [
    "tdgarden"
   ], 
   "created_at": "Tue Jan 28 17:00:11 +0000 2014", 
   "retweet_count": 19, 
   "favorite_count": 25
  }, 
  {
   "text": "RT @DrewGoldfarb: Today, send a tweet with the hashtag #BellLetsTalk and Bell will donate 5\u00a2 to mental health initiatives. A great and wort\u2026", 
   "label": "O", 
   "id": 428196166854254592, 
   "hashtags": [
    "BellLetsTalk"
   ], 
   "user_mentions": [
    "DrewGoldfarb"
   ], 
   "created_at": "Tue Jan 28 16:01:36 +0000 2014", 
   "retweet_count": 34, 
   "favorite_count": 0
  }, 
  {
   "text": "Panthers Defenseman Tom Gilbert has 11 points in his last 13 games.", 
   "label": "O", 
   "id": 428193064394715136, 
   "hashtags": [], 
   "user_mentions": [], 
   "created_at": "Tue Jan 28 15:49:16 +0000 2014", 
   "retweet_count": 13, 
   "favorite_count": 17
  }, 
  {
   "text": "Your Cats return home on Feb. 4 to face the #MapleLeafs. Enter here for your chance to watch from a suite: http://t.co/Mp0eSjZGIm", 
   "label": "O", 
   "id": 428178625528348672, 
   "hashtags": [
    "MapleLeafs"
   ], 
   "user_mentions": [], 
   "created_at": "Tue Jan 28 14:51:54 +0000 2014", 
   "retweet_count": 5, 
   "favorite_count": 6
  }, 
  {
   "text": "RT @JonnyHuby11: #BellCause #BellLetsTaIk", 
   "label": "O", 
   "id": 428167077988691968, 
   "hashtags": [
    "BellCause", 
    "BellLetsTaIk"
   ], 
   "user_mentions": [
    "JonnyHuby11"
   ], 
   "created_at": "Tue Jan 28 14:06:01 +0000 2014", 
   "retweet_count": 453, 
   "favorite_count": 0
  }, 
  {
   "text": "#FlaPanthers look to extend their road win streak to four games as they head to @tdgarden tonight to take on the #Bruins.", 
   "label": "O", 
   "id": 428166227341877249, 
   "hashtags": [
    "FlaPanthers", 
    "Bruins"
   ], 
   "user_mentions": [
    "tdgarden"
   ], 
   "created_at": "Tue Jan 28 14:02:38 +0000 2014", 
   "retweet_count": 8, 
   "favorite_count": 16
  }, 
  {
   "text": "@turbuLENTZ @Dougielarge \"the assist machine\" http://t.co/n5uDjCfzG0", 
   "label": "O", 
   "id": 428162425901182976, 
   "hashtags": [], 
   "user_mentions": [
    "turbuLENTZ", 
    "Dougielarge"
   ], 
   "created_at": "Tue Jan 28 13:47:32 +0000 2014", 
   "retweet_count": 1, 
   "favorite_count": 1
  }
 ]
}