{
 "num_road_team_goals": "3", 
 "home_team": "Florida Panthers", 
 "num_home_team_goals": "0", 
 "summary_url": "http://www.flyershistory.com/cgi-bin/poboxscore.cgi?H20131097", 
 "result": "L", 
 "road_team": "Carolina Hurricanes", 
 "date": "2014-03-27", 
 "goals": [
  {
   "season_index": "13", 
   "strength": "(EV)", 
   "time": "9:09", 
   "period": "1", 
   "player": "J.Tlusty", 
   "assists": "(E.Staal, B.Bellemore)", 
   "game_index": "1", 
   "team": "CAR"
  }, 
  {
   "season_index": "14", 
   "strength": "(EV)", 
   "time": "2:30", 
   "period": "2", 
   "player": "J.Tlusty", 
   "assists": "(A.Loktionov, J.Faulk)", 
   "game_index": "2", 
   "team": "CAR"
  }, 
  {
   "season_index": "28", 
   "strength": "(EV)", 
   "time": "5:46", 
   "period": "2", 
   "player": "J.Skinner", 
   "assists": "(P.Dwyer)", 
   "game_index": "3", 
   "team": "CAR"
  }
 ], 
 "tweets": [
  {
   "text": "Cats fire 35 shots on net but can't solve Khudobin in loss. Wrap-Up and Takeaways: http://t.co/AfuKiFrera", 
   "label": "O", 
   "id": 449384800051544064, 
   "hashtags": [], 
   "user_mentions": [], 
   "created_at": "Fri Mar 28 03:17:40 +0000 2014", 
   "retweet_count": 5, 
   "favorite_count": 7
  }, 
  {
   "text": "Post Game #FlaPanthers:\nEllis: http://t.co/jxOfWFg1Qb \nHorachek: http://t.co/YSZGaqSv1Y \nFleischmann: http://t.co/v2pidg7JS6", 
   "label": "O", 
   "id": 449377819651764224, 
   "hashtags": [
    "FlaPanthers"
   ], 
   "user_mentions": [], 
   "created_at": "Fri Mar 28 02:49:55 +0000 2014", 
   "retweet_count": 1, 
   "favorite_count": 3
  }, 
  {
   "text": "RT @FOXPanthers: Stay tuned following tonight's game vs. Carolina as we debut a new episode of Inside the @FlaPanthers: New Direction- http\u2026", 
   "label": "O", 
   "id": 449372489899343872, 
   "hashtags": [], 
   "user_mentions": [
    "FOXPanthers", 
    "FlaPanthers"
   ], 
   "created_at": "Fri Mar 28 02:28:45 +0000 2014", 
   "retweet_count": 4, 
   "favorite_count": 0
  }, 
  {
   "text": "#FlaPanthers outshoot #NHLCanes 35-32, but fall 3-0.", 
   "label": "O", 
   "id": 449365371171397632, 
   "hashtags": [
    "FlaPanthers", 
    "NHLCanes"
   ], 
   "user_mentions": [], 
   "created_at": "Fri Mar 28 02:00:27 +0000 2014", 
   "retweet_count": 2, 
   "favorite_count": 3
  }, 
  {
   "text": "RT @astro_dash: Come on Panthers, you can do it! #FlaPanthers", 
   "label": "O", 
   "id": 449363787947462657, 
   "hashtags": [
    "FlaPanthers"
   ], 
   "user_mentions": [
    "astro_dash"
   ], 
   "created_at": "Fri Mar 28 01:54:10 +0000 2014", 
   "retweet_count": 2, 
   "favorite_count": 0
  }, 
  {
   "text": "#FlaPanthers will head on the man advantage 54 seconds into the third period. #NHLCanes Liles heads to the box.", 
   "label": "O", 
   "id": 449357703673315328, 
   "hashtags": [
    "FlaPanthers", 
    "NHLCanes"
   ], 
   "user_mentions": [], 
   "created_at": "Fri Mar 28 01:29:59 +0000 2014", 
   "retweet_count": 1, 
   "favorite_count": 1
  }, 
  {
   "text": "RT @Joesanjoe119: @FlaPanthers let's go panthers!!! This is our period #FlaPanthers", 
   "label": "O", 
   "id": 449357331743379456, 
   "hashtags": [
    "FlaPanthers"
   ], 
   "user_mentions": [
    "Joesanjoe119", 
    "FlaPanthers"
   ], 
   "created_at": "Fri Mar 28 01:28:31 +0000 2014", 
   "retweet_count": 2, 
   "favorite_count": 0
  }, 
  {
   "text": "Third period! #FlaPanthers #NHLCanes", 
   "label": "O", 
   "id": 449357140965482496, 
   "hashtags": [
    "FlaPanthers", 
    "NHLCanes"
   ], 
   "user_mentions": [], 
   "created_at": "Fri Mar 28 01:27:45 +0000 2014", 
   "retweet_count": 2, 
   "favorite_count": 1
  }, 
  {
   "text": "RT @FlaPanthersPR: #FlaPanthers Roberto Luongo left the game after the first with an upper body injury--pulled as a precautionary measure.", 
   "label": "O", 
   "id": 449353376229494784, 
   "hashtags": [
    "FlaPanthers"
   ], 
   "user_mentions": [
    "FlaPanthersPR"
   ], 
   "created_at": "Fri Mar 28 01:12:48 +0000 2014", 
   "retweet_count": 16, 
   "favorite_count": 0
  }, 
  {
   "text": "End of 2 from Sunrise, FL. #NHLCanes 3, #FlaPanthers 0. Shots are 27-23 Carolina.", 
   "label": "O", 
   "id": 449352385065132032, 
   "hashtags": [
    "NHLCanes", 
    "FlaPanthers"
   ], 
   "user_mentions": [], 
   "created_at": "Fri Mar 28 01:08:51 +0000 2014", 
   "retweet_count": 2, 
   "favorite_count": 2
  }, 
  {
   "text": "3-0 Carolina from @JeffSkinner.", 
   "label": "O", 
   "id": 449345517697630209, 
   "hashtags": [], 
   "user_mentions": [
    "JeffSkinner"
   ], 
   "created_at": "Fri Mar 28 00:41:34 +0000 2014", 
   "retweet_count": 1, 
   "favorite_count": 2
  }, 
  {
   "text": "Carolina's @J_T_19 gets his second of the game. #NHLCanes lead 2-0 in the second.", 
   "label": "O", 
   "id": 449344074051768320, 
   "hashtags": [
    "NHLCanes"
   ], 
   "user_mentions": [
    "J_T_19"
   ], 
   "created_at": "Fri Mar 28 00:35:50 +0000 2014", 
   "retweet_count": 0, 
   "favorite_count": 1
  }, 
  {
   "text": "Second period underway. #FlaPanthers #NHLCanes", 
   "label": "O", 
   "id": 449343265142472704, 
   "hashtags": [
    "FlaPanthers", 
    "NHLCanes"
   ], 
   "user_mentions": [], 
   "created_at": "Fri Mar 28 00:32:37 +0000 2014", 
   "retweet_count": 2, 
   "favorite_count": 4
  }, 
  {
   "text": "Goaltending change for the #FlaPanthers. Dan Ellis is now in net.", 
   "label": "O", 
   "id": 449343184045604864, 
   "hashtags": [
    "FlaPanthers"
   ], 
   "user_mentions": [], 
   "created_at": "Fri Mar 28 00:32:18 +0000 2014", 
   "retweet_count": 8, 
   "favorite_count": 9
  }, 
  {
   "text": "End of one from @TheBBTCenter! #FlaPanthers trail 1-0. Shots are 12-9 Carolina.", 
   "label": "O", 
   "id": 449338494830514176, 
   "hashtags": [
    "FlaPanthers"
   ], 
   "user_mentions": [
    "thebbtcenter"
   ], 
   "created_at": "Fri Mar 28 00:13:40 +0000 2014", 
   "retweet_count": 5, 
   "favorite_count": 3
  }, 
  {
   "text": "The result is we have 4 on 4 for two minutes, followed by a three-minute chance on the man advantage for the #FlaPanthers.", 
   "label": "O", 
   "id": 449335862627934208, 
   "hashtags": [
    "FlaPanthers"
   ], 
   "user_mentions": [], 
   "created_at": "Fri Mar 28 00:03:12 +0000 2014", 
   "retweet_count": 2, 
   "favorite_count": 2
  }, 
  {
   "text": "After a scuffle in front of the net, Dvorak will serve a 5 minute major for charging. #FlaPanthers @Guddy44 will sit for two for roughing.", 
   "label": "O", 
   "id": 449335676912537600, 
   "hashtags": [
    "FlaPanthers"
   ], 
   "user_mentions": [
    "Guddy44"
   ], 
   "created_at": "Fri Mar 28 00:02:28 +0000 2014", 
   "retweet_count": 4, 
   "favorite_count": 4
  }, 
  {
   "text": "It takes more than that to get Mr. Luongo off his game, folks.", 
   "label": "O", 
   "id": 449335346783064064, 
   "hashtags": [], 
   "user_mentions": [], 
   "created_at": "Fri Mar 28 00:01:09 +0000 2014", 
   "retweet_count": 16, 
   "favorite_count": 30
  }, 
  {
   "text": "Help us #LightTheLamp! Get your vote in now for the Panther's goal of the year. http://t.co/cIeRjIiVEY", 
   "label": "O", 
   "id": 449333057284501504, 
   "hashtags": [
    "LightTheLamp"
   ], 
   "user_mentions": [], 
   "created_at": "Thu Mar 27 23:52:03 +0000 2014", 
   "retweet_count": 1, 
   "favorite_count": 3
  }, 
  {
   "text": "#NHLCanes @J_T_19 gets on the board first. Carolina 1, Florida 0.", 
   "label": "O", 
   "id": 449332684662538240, 
   "hashtags": [
    "NHLCanes"
   ], 
   "user_mentions": [
    "J_T_19"
   ], 
   "created_at": "Thu Mar 27 23:50:34 +0000 2014", 
   "retweet_count": 2, 
   "favorite_count": 3
  }, 
  {
   "text": "Cats complete the kill!", 
   "label": "O", 
   "id": 449331164445425664, 
   "hashtags": [], 
   "user_mentions": [], 
   "created_at": "Thu Mar 27 23:44:32 +0000 2014", 
   "retweet_count": 1, 
   "favorite_count": 5
  }, 
  {
   "text": "Cats will go on the kill early in the first period with @Jwinch18 in the box for slashing. #FlaPanthers #NHLCanes", 
   "label": "O", 
   "id": 449330677826473984, 
   "hashtags": [
    "FlaPanthers", 
    "NHLCanes"
   ], 
   "user_mentions": [
    "jwinch18"
   ], 
   "created_at": "Thu Mar 27 23:42:36 +0000 2014", 
   "retweet_count": 3, 
   "favorite_count": 1
  }, 
  {
   "text": "Game on from Sunrise, FL! Tonight's match-up is brought to you by @VisitTheBahamas. #FlaPanthers #NHLCanes", 
   "label": "O", 
   "id": 449329748611977216, 
   "hashtags": [
    "FlaPanthers", 
    "NHLCanes"
   ], 
   "user_mentions": [
    "VisitTheBahamas"
   ], 
   "created_at": "Thu Mar 27 23:38:54 +0000 2014", 
   "retweet_count": 2, 
   "favorite_count": 2
  }, 
  {
   "text": "Your #FlaPanthers starters: Fleischmann, @ScottieUpshall, @C_Robak, Jovo, @trocheck_89 &amp; G Luongo.", 
   "label": "O", 
   "id": 449328204122439680, 
   "hashtags": [
    "FlaPanthers"
   ], 
   "user_mentions": [
    "ScottieUpshall", 
    "c_robak", 
    "trocheck_89"
   ], 
   "created_at": "Thu Mar 27 23:32:46 +0000 2014", 
   "retweet_count": 5, 
   "favorite_count": 11
  }, 
  {
   "text": "@SanJoseSharks It was a pleasure to be part of Sam's special night! You really made it one to remember.", 
   "label": "O", 
   "id": 449325304419741696, 
   "hashtags": [], 
   "user_mentions": [
    "SanJoseSharks"
   ], 
   "created_at": "Thu Mar 27 23:21:15 +0000 2014", 
   "retweet_count": 12, 
   "favorite_count": 43
  }, 
  {
   "text": "RT @SharksCare: Wow, thank you, @FlaPanthers! We are so excited to pass this memento along to Sam &amp; truly appreciate the support. http://t.\u2026", 
   "label": "O", 
   "id": 449321938683723777, 
   "hashtags": [], 
   "user_mentions": [
    "SharksCare", 
    "FlaPanthers"
   ], 
   "created_at": "Thu Mar 27 23:07:52 +0000 2014", 
   "retweet_count": 420, 
   "favorite_count": 0
  }, 
  {
   "text": "Hockey Pat's #PickaPanther for tonight is @pirri91. Who's yours? MORE: http://t.co/4k5DqrNx5w", 
   "label": "O", 
   "id": 449317569036832768, 
   "hashtags": [
    "PickaPanther"
   ], 
   "user_mentions": [
    "pirri91"
   ], 
   "created_at": "Thu Mar 27 22:50:31 +0000 2014", 
   "retweet_count": 3, 
   "favorite_count": 1
  }, 
  {
   "text": "Game time is just an hour away! If you aren't @TheBBTCenter, you can catch it on @FOXPanthers &amp; @560WQAM. #FlaPanthers #NHLCanes", 
   "label": "O", 
   "id": 449313781324460032, 
   "hashtags": [
    "FlaPanthers", 
    "NHLCanes"
   ], 
   "user_mentions": [
    "thebbtcenter", 
    "FOXPanthers", 
    "560WQAM"
   ], 
   "created_at": "Thu Mar 27 22:35:27 +0000 2014", 
   "retweet_count": 6, 
   "favorite_count": 3
  }, 
  {
   "text": "We hope Roberto helped too--&gt;MT @lashinout31: Voicemail from @strombone1 made me renew my season seats for next year @FlaPanthers @Ekap77", 
   "label": "O", 
   "id": 449310785156968449, 
   "hashtags": [], 
   "user_mentions": [
    "lashinout31", 
    "strombone1", 
    "FlaPanthers", 
    "Ekap77"
   ], 
   "created_at": "Thu Mar 27 22:23:33 +0000 2014", 
   "retweet_count": 6, 
   "favorite_count": 11
  }, 
  {
   "text": "RT @Pantherss88: Coming to tonights @FlaPanthers game in style! http://t.co/zUPK5Udqlb", 
   "label": "O", 
   "id": 449303623890386944, 
   "hashtags": [], 
   "user_mentions": [
    "Pantherss88", 
    "FlaPanthers"
   ], 
   "created_at": "Thu Mar 27 21:55:06 +0000 2014", 
   "retweet_count": 6, 
   "favorite_count": 0
  }, 
  {
   "text": "@NeedDDubBackRub The Cats usually head out on the ice for warm-ups one half hour before puck drop!", 
   "label": "O", 
   "id": 449269024107798528, 
   "hashtags": [], 
   "user_mentions": [
    "NeedDDubBackRub"
   ], 
   "created_at": "Thu Mar 27 19:37:37 +0000 2014", 
   "retweet_count": 0, 
   "favorite_count": 0
  }, 
  {
   "text": "Help us get into the #FinalFour of @SunSentinel &amp; @SoFlaTweets's Best of March Bracket. Vote HERE: http://t.co/fK0yqIs4Rt", 
   "label": "O", 
   "id": 449254073913835520, 
   "hashtags": [
    "FinalFour"
   ], 
   "user_mentions": [
    "SunSentinel", 
    "SoFlaTweets"
   ], 
   "created_at": "Thu Mar 27 18:38:12 +0000 2014", 
   "retweet_count": 2, 
   "favorite_count": 1
  }, 
  {
   "text": "RT @FlaPanthersPR: #FlaPanthers D Tom Gilbert Undergoes Successful Surgery. He will be out for the remainder of the season and a full recov\u2026", 
   "label": "O", 
   "id": 449227618546896896, 
   "hashtags": [
    "FlaPanthers"
   ], 
   "user_mentions": [
    "FlaPanthersPR"
   ], 
   "created_at": "Thu Mar 27 16:53:05 +0000 2014", 
   "retweet_count": 12, 
   "favorite_count": 0
  }, 
  {
   "text": "The 20th Anniversary All-Time Line-up was announced Tuesday! Hear from Jovo &amp; Skrudland:  http://t.co/HnFbsidFCv http://t.co/ufPUlIA1qN", 
   "label": "O", 
   "id": 449226429717561344, 
   "hashtags": [], 
   "user_mentions": [], 
   "created_at": "Thu Mar 27 16:48:21 +0000 2014", 
   "retweet_count": 3, 
   "favorite_count": 5
  }, 
  {
   "text": "Defensive pairings at morning skate. #flapanthers http://t.co/yGE4DzDHws", 
   "label": "O", 
   "id": 449198336231604224, 
   "hashtags": [
    "flapanthers"
   ], 
   "user_mentions": [], 
   "created_at": "Thu Mar 27 14:56:43 +0000 2014", 
   "retweet_count": 11, 
   "favorite_count": 22
  }, 
  {
   "text": "Game day @thebbtcenter! Your #FlaPanthers host the @NHLCanes tonight at 7:30 p.m. TIX: http://t.co/0Ef6jW2zJP", 
   "label": "O", 
   "id": 449166107963043840, 
   "hashtags": [
    "FlaPanthers"
   ], 
   "user_mentions": [
    "thebbtcenter", 
    "NHLCanes"
   ], 
   "created_at": "Thu Mar 27 12:48:39 +0000 2014", 
   "retweet_count": 13, 
   "favorite_count": 11
  }
 ]
}