{
 "num_road_team_goals": "5", 
 "home_team": "Pittsburgh Penguins", 
 "num_home_team_goals": "1", 
 "summary_url": "http://www.flyershistory.com/cgi-bin/poboxscore.cgi?H20130741", 
 "result": "W", 
 "road_team": "Florida Panthers", 
 "date": "2014-01-20", 
 "goals": [
  {
   "season_index": "2", 
   "strength": "(SH)", 
   "time": "15:46", 
   "period": "1", 
   "player": "D.Shore", 
   "assists": "(S.Clemmensen)", 
   "game_index": "1", 
   "team": "FLA"
  }, 
  {
   "season_index": "3", 
   "strength": "(EV)", 
   "time": "13:34", 
   "period": "2", 
   "player": "D.Shore", 
   "assists": "(J.Winchester, J.Huberdeau)", 
   "game_index": "2", 
   "team": "FLA"
  }, 
  {
   "season_index": "4", 
   "strength": "(EV)", 
   "time": "1:17", 
   "period": "3", 
   "player": "D.Kulikov", 
   "assists": "(J.Winchester, M.Goc)", 
   "game_index": "3", 
   "team": "FLA"
  }, 
  {
   "season_index": "7", 
   "strength": "(EV)", 
   "time": "5:11", 
   "period": "3", 
   "player": "M.Niskanen", 
   "assists": "(K.Letang, E.Malkin)", 
   "game_index": "4", 
   "team": "PIT"
  }, 
  {
   "season_index": "8", 
   "strength": "(EV)", 
   "time": "13:50", 
   "period": "3", 
   "player": "J.Huberdeau", 
   "assists": "(N.Bjugstad)", 
   "game_index": "5", 
   "team": "FLA"
  }, 
  {
   "season_index": "5", 
   "strength": "(EV)", 
   "time": "14:02", 
   "period": "3", 
   "player": "S.Matthias", 
   "assists": "(J.Winchester, M.Weaver)", 
   "game_index": "6", 
   "team": "FLA"
  }
 ], 
 "tweets": [
  {
   "text": "\"Feels good to get the win,\" -- Drew Shore http://t.co/I0hh8eB9Dp #FlaPanthers", 
   "label": "O", 
   "id": 425490169148370944, 
   "hashtags": [
    "FlaPanthers"
   ], 
   "user_mentions": [], 
   "created_at": "Tue Jan 21 04:48:56 +0000 2014", 
   "retweet_count": 6, 
   "favorite_count": 16
  }, 
  {
   "text": "#FlaPanthers post-game \nHorachek: http://t.co/1Lgq5g7g0e\nClemmensen: http://t.co/1Lgq5g7g0e\nHuberdeau: http://t.co/1Lgq5g7g0e", 
   "label": "O", 
   "id": 425486953535275008, 
   "hashtags": [
    "FlaPanthers"
   ], 
   "user_mentions": [], 
   "created_at": "Tue Jan 21 04:36:09 +0000 2014", 
   "retweet_count": 4, 
   "favorite_count": 7
  }, 
  {
   "text": "#FlaPanthers are en route to Buffalo. No word yet on whether the #Sabres still use the same nets as last time we were there. #PostPostPost", 
   "label": "O", 
   "id": 425484735050027008, 
   "hashtags": [
    "FlaPanthers", 
    "Sabres", 
    "PostPostPost"
   ], 
   "user_mentions": [], 
   "created_at": "Tue Jan 21 04:27:20 +0000 2014", 
   "retweet_count": 12, 
   "favorite_count": 18
  }, 
  {
   "text": "RT @FlaPanthersPR: #FlaPanthers @Mikeweaver_43 recorded a career high +5 rating in tonight's match up.", 
   "label": "O", 
   "id": 425465540778688512, 
   "hashtags": [
    "FlaPanthers"
   ], 
   "user_mentions": [
    "FlaPanthersPR", 
    "mikeweaver_43"
   ], 
   "created_at": "Tue Jan 21 03:11:04 +0000 2014", 
   "retweet_count": 11, 
   "favorite_count": 0
  }, 
  {
   "text": "\"That's when you know everything is going your way..when you get an assist,\" -- Scott Clemmensen post-game. #FlaPanthers", 
   "label": "O", 
   "id": 425465239136894976, 
   "hashtags": [
    "FlaPanthers"
   ], 
   "user_mentions": [], 
   "created_at": "Tue Jan 21 03:09:52 +0000 2014", 
   "retweet_count": 14, 
   "favorite_count": 32
  }, 
  {
   "text": "RT @turbuLENTZ: How to beat the Penguins...allow the @FlaPanthers to Clemmenstrate.", 
   "label": "O", 
   "id": 425464770758967297, 
   "hashtags": [], 
   "user_mentions": [
    "turbuLENTZ", 
    "FlaPanthers"
   ], 
   "created_at": "Tue Jan 21 03:08:00 +0000 2014", 
   "retweet_count": 28, 
   "favorite_count": 0
  }, 
  {
   "text": "RT @FlaPanthersPR: The #FlaPanthers end a 13-game home win streak for the #Pens tonight with a 5-1 victory.", 
   "label": "O", 
   "id": 425459170004180992, 
   "hashtags": [
    "FlaPanthers", 
    "Pens"
   ], 
   "user_mentions": [
    "FlaPanthersPR"
   ], 
   "created_at": "Tue Jan 21 02:45:45 +0000 2014", 
   "retweet_count": 52, 
   "favorite_count": 0
  }, 
  {
   "text": "#FlaPanthers get the @PartyCity win 5-1 in Pittsburgh with more goals than rivers.", 
   "label": "O", 
   "id": 425458723432448000, 
   "hashtags": [
    "FlaPanthers"
   ], 
   "user_mentions": [
    "PartyCity"
   ], 
   "created_at": "Tue Jan 21 02:43:58 +0000 2014", 
   "retweet_count": 74, 
   "favorite_count": 51
  }, 
  {
   "text": "That goal was quicker than that phone call. #FlaPanthers", 
   "label": "O", 
   "id": 425456171043291136, 
   "hashtags": [
    "FlaPanthers"
   ], 
   "user_mentions": [], 
   "created_at": "Tue Jan 21 02:33:50 +0000 2014", 
   "retweet_count": 50, 
   "favorite_count": 56
  }, 
  {
   "text": "DANGER!! We're on the board again. @ShawnMatthias makes it 5-1 before you can even celebrate that last one! #FlaPanthers", 
   "label": "O", 
   "id": 425456034346725376, 
   "hashtags": [
    "FlaPanthers"
   ], 
   "user_mentions": [
    "ShawnMatthias"
   ], 
   "created_at": "Tue Jan 21 02:33:17 +0000 2014", 
   "retweet_count": 51, 
   "favorite_count": 38
  }, 
  {
   "text": "MATTY NICE!!", 
   "label": "O", 
   "id": 425456010875375618, 
   "hashtags": [], 
   "user_mentions": [], 
   "created_at": "Tue Jan 21 02:33:12 +0000 2014", 
   "retweet_count": 14, 
   "favorite_count": 20
  }, 
  {
   "text": "Upon review, The Cats will take a 4-1 lead over the #Pens. Pressure in front of the net, crosses the line!", 
   "label": "O", 
   "id": 425455785058267136, 
   "hashtags": [
    "Pens"
   ], 
   "user_mentions": [], 
   "created_at": "Tue Jan 21 02:32:18 +0000 2014", 
   "retweet_count": 28, 
   "favorite_count": 25
  }, 
  {
   "text": "Someone give the ref another loonie in case this is a collect call. #FlaPanthers #pens", 
   "label": "O", 
   "id": 425455168982110208, 
   "hashtags": [
    "FlaPanthers", 
    "pens"
   ], 
   "user_mentions": [], 
   "created_at": "Tue Jan 21 02:29:51 +0000 2014", 
   "retweet_count": 20, 
   "favorite_count": 24
  }, 
  {
   "text": "The play is STILL under review.", 
   "label": "O", 
   "id": 425454775489298432, 
   "hashtags": [], 
   "user_mentions": [], 
   "created_at": "Tue Jan 21 02:28:17 +0000 2014", 
   "retweet_count": 5, 
   "favorite_count": 13
  }, 
  {
   "text": "Bjugstad with the deke. Huby in front. Looks like the puck may have crossed.  The. Line.  Let's see what Toronto says, eh?", 
   "label": "O", 
   "id": 425454344549728256, 
   "hashtags": [], 
   "user_mentions": [], 
   "created_at": "Tue Jan 21 02:26:34 +0000 2014", 
   "retweet_count": 7, 
   "favorite_count": 16
  }, 
  {
   "text": "Play is under review.", 
   "label": "O", 
   "id": 425454112717930496, 
   "hashtags": [], 
   "user_mentions": [], 
   "created_at": "Tue Jan 21 02:25:39 +0000 2014", 
   "retweet_count": 2, 
   "favorite_count": 4
  }, 
  {
   "text": "Things heating up between Bergenheim and Orpik. Slashing minors will go to both and we will have some more of that 4 on 4.", 
   "label": "O", 
   "id": 425451735550009344, 
   "hashtags": [], 
   "user_mentions": [], 
   "created_at": "Tue Jan 21 02:16:12 +0000 2014", 
   "retweet_count": 3, 
   "favorite_count": 5
  }, 
  {
   "text": "Niskanen from @malkin71_ gets the #Pens on the board. #FlaPanthers 3, #Pens 1.", 
   "label": "O", 
   "id": 425449555245928448, 
   "hashtags": [
    "Pens", 
    "FlaPanthers", 
    "Pens"
   ], 
   "user_mentions": [
    "malkin71_"
   ], 
   "created_at": "Tue Jan 21 02:07:33 +0000 2014", 
   "retweet_count": 6, 
   "favorite_count": 3
  }, 
  {
   "text": "Clemmer with the shutdown D like he's @RSherman_25.  May want to stay tuned for postgame interview. (cc: @ErinAndrews) #FlaPanthers #Pens", 
   "label": "O", 
   "id": 425448970190864384, 
   "hashtags": [
    "FlaPanthers", 
    "Pens"
   ], 
   "user_mentions": [
    "RSherman_25", 
    "ErinAndrews"
   ], 
   "created_at": "Tue Jan 21 02:05:13 +0000 2014", 
   "retweet_count": 29, 
   "favorite_count": 22
  }, 
  {
   "text": "Crosby &amp; @Mikeweaver_43 get a little scrappy. Each will sit two for roughing. Coincidental minors with 16:44 to play in the third.", 
   "label": "O", 
   "id": 425448449044393984, 
   "hashtags": [], 
   "user_mentions": [
    "mikeweaver_43"
   ], 
   "created_at": "Tue Jan 21 02:03:09 +0000 2014", 
   "retweet_count": 5, 
   "favorite_count": 4
  }, 
  {
   "text": "RT @Gregory_FLA_Fan: @FlaPanthers I've never been so happy!!!   3-0! That's how you play hockey!", 
   "label": "O", 
   "id": 425447848675901440, 
   "hashtags": [], 
   "user_mentions": [
    "Gregory_FLA_Fan", 
    "FlaPanthers"
   ], 
   "created_at": "Tue Jan 21 02:00:46 +0000 2014", 
   "retweet_count": 6, 
   "favorite_count": 0
  }, 
  {
   "text": "Goc and @Jwinch18 get the assists on Kulikov's 4th. #FlaPanthers 3, #Pens 0.", 
   "label": "O", 
   "id": 425447667905626112, 
   "hashtags": [
    "FlaPanthers", 
    "Pens"
   ], 
   "user_mentions": [
    "jwinch18"
   ], 
   "created_at": "Tue Jan 21 02:00:03 +0000 2014", 
   "retweet_count": 11, 
   "favorite_count": 12
  }, 
  {
   "text": "KULIKOV! #FlaPanthers lead 3-0 in the third.", 
   "label": "O", 
   "id": 425447526062645248, 
   "hashtags": [
    "FlaPanthers"
   ], 
   "user_mentions": [], 
   "created_at": "Tue Jan 21 01:59:29 +0000 2014", 
   "retweet_count": 23, 
   "favorite_count": 20
  }, 
  {
   "text": "Third is underway! #FlaPanthers #Pens", 
   "label": "O", 
   "id": 425446987090395136, 
   "hashtags": [
    "FlaPanthers", 
    "Pens"
   ], 
   "user_mentions": [], 
   "created_at": "Tue Jan 21 01:57:20 +0000 2014", 
   "retweet_count": 4, 
   "favorite_count": 3
  }, 
  {
   "text": "Shore talks to @foxpanthers during the second intermission. http://t.co/XXjFPbKi7x", 
   "label": "O", 
   "id": 425446744567328768, 
   "hashtags": [], 
   "user_mentions": [
    "FOXPanthers"
   ], 
   "created_at": "Tue Jan 21 01:56:22 +0000 2014", 
   "retweet_count": 6, 
   "favorite_count": 14
  }, 
  {
   "text": "RT @turbuLENTZ: 1 away from 250. Who will be my next victim...er, follower?\u201d Allow us to assist you.", 
   "label": "O", 
   "id": 425446548630413312, 
   "hashtags": [], 
   "user_mentions": [
    "turbuLENTZ"
   ], 
   "created_at": "Tue Jan 21 01:55:36 +0000 2014", 
   "retweet_count": 3, 
   "favorite_count": 7
  }, 
  {
   "text": "End of 2 from Pittsburgh. #FlaPanthers lead 2-0 from Shore &amp; Shore. Shots are 24-19 Pittsburgh.", 
   "label": "O", 
   "id": 425442298990968832, 
   "hashtags": [
    "FlaPanthers"
   ], 
   "user_mentions": [], 
   "created_at": "Tue Jan 21 01:38:43 +0000 2014", 
   "retweet_count": 7, 
   "favorite_count": 9
  }, 
  {
   "text": "RT @FlaPanthersPR: This is Drew Shore's second multi-point night of his career. (2/21/13 at Philadelphia) and his first career two goal gam\u2026", 
   "label": "O", 
   "id": 425441390601175040, 
   "hashtags": [
    "FlaPanthers"
   ], 
   "user_mentions": [
    "FlaPanthersPR"
   ], 
   "created_at": "Tue Jan 21 01:35:06 +0000 2014", 
   "retweet_count": 10, 
   "favorite_count": 0
  }, 
  {
   "text": ".@ScottieUpshall heads to the sin bin. Cats on the kill.", 
   "label": "O", 
   "id": 425440270139031552, 
   "hashtags": [], 
   "user_mentions": [
    "ScottieUpshall"
   ], 
   "created_at": "Tue Jan 21 01:30:39 +0000 2014", 
   "retweet_count": 2, 
   "favorite_count": 7
  }, 
  {
   "text": "RT @uhseda: @FlaPanthers he's for Shore killing it tonight!! #thisshoreispunny", 
   "label": "O", 
   "id": 425439560127238144, 
   "hashtags": [
    "thisshoreispunny"
   ], 
   "user_mentions": [
    "uhseda", 
    "FlaPanthers"
   ], 
   "created_at": "Tue Jan 21 01:27:50 +0000 2014", 
   "retweet_count": 4, 
   "favorite_count": 0
  }, 
  {
   "text": "Assists on Shore's third of the season and second of the night go to @Jwinch18 and @JonnyHuby11.", 
   "label": "O", 
   "id": 425439362135113728, 
   "hashtags": [], 
   "user_mentions": [
    "jwinch18", 
    "JonnyHuby11"
   ], 
   "created_at": "Tue Jan 21 01:27:02 +0000 2014", 
   "retweet_count": 4, 
   "favorite_count": 12
  }, 
  {
   "text": "#FlaPanthers on the Shores of a lead tonight. 2-0 over the #Pens both from No. 15.", 
   "label": "O", 
   "id": 425438968155742208, 
   "hashtags": [
    "FlaPanthers", 
    "Pens"
   ], 
   "user_mentions": [], 
   "created_at": "Tue Jan 21 01:25:28 +0000 2014", 
   "retweet_count": 23, 
   "favorite_count": 21
  }, 
  {
   "text": "TWO SHORE!", 
   "label": "O", 
   "id": 425438850333548544, 
   "hashtags": [], 
   "user_mentions": [], 
   "created_at": "Tue Jan 21 01:25:00 +0000 2014", 
   "retweet_count": 22, 
   "favorite_count": 30
  }, 
  {
   "text": "Just as the Crosby penalty expires, Kunitz joins him in the box for slashing. 5 on 3 for 5 seconds and another #FlaPanthers power play.", 
   "label": "O", 
   "id": 425437806501322752, 
   "hashtags": [
    "FlaPanthers"
   ], 
   "user_mentions": [], 
   "created_at": "Tue Jan 21 01:20:51 +0000 2014", 
   "retweet_count": 4, 
   "favorite_count": 4
  }, 
  {
   "text": "Crosby heads to the box for hooking and #FlaPanthers will get a Power Play chance!", 
   "label": "O", 
   "id": 425436888699523072, 
   "hashtags": [
    "FlaPanthers"
   ], 
   "user_mentions": [], 
   "created_at": "Tue Jan 21 01:17:13 +0000 2014", 
   "retweet_count": 8, 
   "favorite_count": 11
  }, 
  {
   "text": "DJ was always our favorite Tanner. #15 in black, not so much. #FullHouseReference", 
   "label": "O", 
   "id": 425435158356168704, 
   "hashtags": [
    "FullHouseReference"
   ], 
   "user_mentions": [], 
   "created_at": "Tue Jan 21 01:10:20 +0000 2014", 
   "retweet_count": 7, 
   "favorite_count": 17
  }, 
  {
   "text": "Glass heads back to the box. This time for high-sticking. #FlaPanthers will get their first chance on the man advantage.", 
   "label": "O", 
   "id": 425435080165982209, 
   "hashtags": [
    "FlaPanthers"
   ], 
   "user_mentions": [], 
   "created_at": "Tue Jan 21 01:10:01 +0000 2014", 
   "retweet_count": 4, 
   "favorite_count": 4
  }, 
  {
   "text": "Jovo and @TGlass15 exchange words and we've got coincidental minors and 4 on 4 hockey. #FlaPanthers #Pens", 
   "label": "O", 
   "id": 425433941223694338, 
   "hashtags": [
    "FlaPanthers", 
    "Pens"
   ], 
   "user_mentions": [
    "TGlass15"
   ], 
   "created_at": "Tue Jan 21 01:05:30 +0000 2014", 
   "retweet_count": 4, 
   "favorite_count": 7
  }, 
  {
   "text": "Jovo puts Glass on his....rear end.", 
   "label": "O", 
   "id": 425433848001089536, 
   "hashtags": [], 
   "user_mentions": [], 
   "created_at": "Tue Jan 21 01:05:08 +0000 2014", 
   "retweet_count": 13, 
   "favorite_count": 27
  }, 
  {
   "text": "Back for the second! #Flapanthers own a 1-0 lead. http://t.co/2wGJz9RkC6", 
   "label": "O", 
   "id": 425432680340398081, 
   "hashtags": [
    "Flapanthers"
   ], 
   "user_mentions": [], 
   "created_at": "Tue Jan 21 01:00:29 +0000 2014", 
   "retweet_count": 7, 
   "favorite_count": 11
  }, 
  {
   "text": "Young Guns on the board---&gt;RT @Ewener: I love it when our youth scores! #FlaPanthers #Shorety", 
   "label": "O", 
   "id": 425431412108713985, 
   "hashtags": [
    "FlaPanthers", 
    "Shorety"
   ], 
   "user_mentions": [
    "Ewener"
   ], 
   "created_at": "Tue Jan 21 00:55:27 +0000 2014", 
   "retweet_count": 3, 
   "favorite_count": 3
  }, 
  {
   "text": "End of 1 from the @CONSOLEnergyCtr. #FlaPanthers lead #Pens 1-0 on a shorty from Shore. Shots are 13-7 in favor of Pittsburgh.", 
   "label": "O", 
   "id": 425427800829730816, 
   "hashtags": [
    "FlaPanthers", 
    "Pens"
   ], 
   "user_mentions": [
    "CONSOLEnergyCtr"
   ], 
   "created_at": "Tue Jan 21 00:41:06 +0000 2014", 
   "retweet_count": 4, 
   "favorite_count": 8
  }, 
  {
   "text": "RT @LauraByTheSea48: WOW!!!! Drew Shore, what a amazing short handed goal !!!! #FlaPanthers @FlaPanthers", 
   "label": "O", 
   "id": 425427218383503360, 
   "hashtags": [
    "FlaPanthers"
   ], 
   "user_mentions": [
    "LauraByTheSea48", 
    "FlaPanthers"
   ], 
   "created_at": "Tue Jan 21 00:38:47 +0000 2014", 
   "retweet_count": 3, 
   "favorite_count": 0
  }, 
  {
   "text": "RT @me_kimba: Shore 'nuff @FlaPanthers  #shorthanded #15", 
   "label": "O", 
   "id": 425426921074466816, 
   "hashtags": [
    "shorthanded"
   ], 
   "user_mentions": [
    "me_kimba", 
    "FlaPanthers"
   ], 
   "created_at": "Tue Jan 21 00:37:36 +0000 2014", 
   "retweet_count": 6, 
   "favorite_count": 0
  }, 
  {
   "text": "Yeah, Clemmensen just got an assist on Shore's second of the season. #FlaPanthers 1, #Pens 0.", 
   "label": "O", 
   "id": 425426835971645440, 
   "hashtags": [
    "FlaPanthers", 
    "Pens"
   ], 
   "user_mentions": [], 
   "created_at": "Tue Jan 21 00:37:16 +0000 2014", 
   "retweet_count": 16, 
   "favorite_count": 11
  }, 
  {
   "text": "DREW SHOREETTTHANDED. #FlaPanthers take the lead in the first off a shorthanded effort from Shore. 1-0.", 
   "label": "O", 
   "id": 425426562314690560, 
   "hashtags": [
    "FlaPanthers"
   ], 
   "user_mentions": [], 
   "created_at": "Tue Jan 21 00:36:11 +0000 2014", 
   "retweet_count": 35, 
   "favorite_count": 33
  }, 
  {
   "text": "SHORE-TY!!!!!", 
   "label": "O", 
   "id": 425426535362068480, 
   "hashtags": [], 
   "user_mentions": [], 
   "created_at": "Tue Jan 21 00:36:04 +0000 2014", 
   "retweet_count": 16, 
   "favorite_count": 30
  }, 
  {
   "text": "First penalty in this contest. Gilbert sits two for high-sticking at 15:08 #FlaPanthers #Pens", 
   "label": "O", 
   "id": 425425866546774016, 
   "hashtags": [
    "FlaPanthers", 
    "Pens"
   ], 
   "user_mentions": [], 
   "created_at": "Tue Jan 21 00:33:25 +0000 2014", 
   "retweet_count": 3, 
   "favorite_count": 2
  }, 
  {
   "text": "RT @Michaelocalypse: PING! #KillerBs #EnergizerBergy #FlaPanthers", 
   "label": "O", 
   "id": 425423406553894912, 
   "hashtags": [
    "KillerBs", 
    "EnergizerBergy", 
    "FlaPanthers"
   ], 
   "user_mentions": [
    "Michaelocalypse"
   ], 
   "created_at": "Tue Jan 21 00:23:38 +0000 2014", 
   "retweet_count": 3, 
   "favorite_count": 0
  }, 
  {
   "text": "DING! Bergenheim rings one off the post. #FlaPanthers", 
   "label": "O", 
   "id": 425423151015940096, 
   "hashtags": [
    "FlaPanthers"
   ], 
   "user_mentions": [], 
   "created_at": "Tue Jan 21 00:22:37 +0000 2014", 
   "retweet_count": 4, 
   "favorite_count": 10
  }, 
  {
   "text": "Another big stop by Clemmer on @malkin71_ and we're scoreless in the Steel City. Shots are 5-3 #Pens.", 
   "label": "O", 
   "id": 425422394522873856, 
   "hashtags": [
    "Pens"
   ], 
   "user_mentions": [
    "malkin71_"
   ], 
   "created_at": "Tue Jan 21 00:19:37 +0000 2014", 
   "retweet_count": 1, 
   "favorite_count": 3
  }, 
  {
   "text": "Clemmer with a quick save and the action is on from @CONSOLEnergyCtr. Tune in now to @FOXPanthers &amp; @560WQAM. #FlaPanthers #Pens", 
   "label": "O", 
   "id": 425420150595403776, 
   "hashtags": [
    "FlaPanthers", 
    "Pens"
   ], 
   "user_mentions": [
    "CONSOLEnergyCtr", 
    "FOXPanthers", 
    "560WQAM"
   ], 
   "created_at": "Tue Jan 21 00:10:42 +0000 2014", 
   "retweet_count": 2, 
   "favorite_count": 3
  }, 
  {
   "text": "Puck drop from Pittsburgh! #FlaPanthers #Pens", 
   "label": "O", 
   "id": 425419582384635904, 
   "hashtags": [
    "FlaPanthers", 
    "Pens"
   ], 
   "user_mentions": [], 
   "created_at": "Tue Jan 21 00:08:27 +0000 2014", 
   "retweet_count": 10, 
   "favorite_count": 6
  }, 
  {
   "text": "Please welcome @Jwinch18 back to the line up tonight as the #FlaPanthers take on the #Pens.", 
   "label": "O", 
   "id": 425417991908782080, 
   "hashtags": [
    "FlaPanthers", 
    "Pens"
   ], 
   "user_mentions": [
    "jwinch18"
   ], 
   "created_at": "Tue Jan 21 00:02:07 +0000 2014", 
   "retweet_count": 6, 
   "favorite_count": 5
  }, 
  {
   "text": "Your #FlaPanthers starters: @Barkovsasha95, Bergenheim, Boyes, @Bcampbell_51, Gilbert and in net Scott Clemmensen.", 
   "label": "O", 
   "id": 425417608398401536, 
   "hashtags": [
    "FlaPanthers"
   ], 
   "user_mentions": [
    "Barkovsasha95", 
    "bcampbell_51"
   ], 
   "created_at": "Tue Jan 21 00:00:36 +0000 2014", 
   "retweet_count": 3, 
   "favorite_count": 3
  }, 
  {
   "text": "RT @DianeMRabb: We are ready for the puck to drop. LET'S GO CATS! #FlaPanthers", 
   "label": "O", 
   "id": 425414523051589632, 
   "hashtags": [
    "FlaPanthers"
   ], 
   "user_mentions": [
    "DianeMRabb"
   ], 
   "created_at": "Mon Jan 20 23:48:20 +0000 2014", 
   "retweet_count": 3, 
   "favorite_count": 0
  }, 
  {
   "text": "Young Guns @NBjugstad72, @jonnyhuby11, &amp; @Guddy44 at warm ups @CONSOLEnergyCtr. #GameTime coming up! http://t.co/Cp7qwvkju2", 
   "label": "O", 
   "id": 425414272790061056, 
   "hashtags": [
    "GameTime"
   ], 
   "user_mentions": [
    "NBjugstad72", 
    "JonnyHuby11", 
    "Guddy44", 
    "CONSOLEnergyCtr"
   ], 
   "created_at": "Mon Jan 20 23:47:21 +0000 2014", 
   "retweet_count": 5, 
   "favorite_count": 6
  }, 
  {
   "text": "Screened in Front! Cats go head-to-head with the top of the east #Pens tonight. Time to see RED! http://t.co/WnanpvVIwP #REDRising", 
   "label": "O", 
   "id": 425406474601652224, 
   "hashtags": [
    "Pens", 
    "REDRising"
   ], 
   "user_mentions": [], 
   "created_at": "Mon Jan 20 23:16:21 +0000 2014", 
   "retweet_count": 5, 
   "favorite_count": 2
  }, 
  {
   "text": "The one hour @PartyCity countdown starts NOW. #FlaPanthers at @Penguins gets underway at 7 p.m. on @FOXPanthers &amp; @560WQAM.", 
   "label": "O", 
   "id": 425403021649272832, 
   "hashtags": [
    "FlaPanthers"
   ], 
   "user_mentions": [
    "PartyCity", 
    "penguins", 
    "FOXPanthers", 
    "560WQAM"
   ], 
   "created_at": "Mon Jan 20 23:02:38 +0000 2014", 
   "retweet_count": 6, 
   "favorite_count": 9
  }, 
  {
   "text": "RT @ThatNerdyFLGirl: Can't wait for the @FlaPanthers game tonight! #GoCats", 
   "label": "O", 
   "id": 425374761049268224, 
   "hashtags": [
    "GoCats"
   ], 
   "user_mentions": [
    "ThatNerdyFLGirl", 
    "FlaPanthers"
   ], 
   "created_at": "Mon Jan 20 21:10:20 +0000 2014", 
   "retweet_count": 3, 
   "favorite_count": 0
  }, 
  {
   "text": "Five things to watch for as the #FlaPanthers visit the #Pens tonight at 7 p.m. READ: http://t.co/YP7uwDPzJj", 
   "label": "O", 
   "id": 425367158634602496, 
   "hashtags": [
    "FlaPanthers", 
    "Pens"
   ], 
   "user_mentions": [], 
   "created_at": "Mon Jan 20 20:40:08 +0000 2014", 
   "retweet_count": 5, 
   "favorite_count": 5
  }, 
  {
   "text": "Get up close &amp; personal with #FlaPanthers @JonnyHuby11, @Bcampbell_51s &amp; Drew Shore this THURSDAY @DuffysMVP. INFO: http://t.co/mS06vUSBI8", 
   "label": "O", 
   "id": 425329243493793792, 
   "hashtags": [
    "FlaPanthers"
   ], 
   "user_mentions": [
    "JonnyHuby11", 
    "DuffysMVP"
   ], 
   "created_at": "Mon Jan 20 18:09:28 +0000 2014", 
   "retweet_count": 5, 
   "favorite_count": 7
  }, 
  {
   "text": ".@LindsayBHockey came early to get a good seat... Tune into @FOXPanthers tonight at 7 p.m. http://t.co/iFyixNePuh", 
   "label": "O", 
   "id": 425313992592998401, 
   "hashtags": [], 
   "user_mentions": [
    "LindsayBHockey", 
    "FOXPanthers"
   ], 
   "created_at": "Mon Jan 20 17:08:52 +0000 2014", 
   "retweet_count": 4, 
   "favorite_count": 9
  }, 
  {
   "text": "Geared up for the match up. #FlaPanthers at #Pens http://t.co/7olESuIPX1", 
   "label": "O", 
   "id": 425311179787874305, 
   "hashtags": [
    "FlaPanthers", 
    "Pens"
   ], 
   "user_mentions": [], 
   "created_at": "Mon Jan 20 16:57:41 +0000 2014", 
   "retweet_count": 9, 
   "favorite_count": 18
  }, 
  {
   "text": "Assistant coach John Madden works with the Cats at #FlaPanthers morning skate in the Steel City. http://t.co/ktA24swtNu", 
   "label": "O", 
   "id": 425308300679200768, 
   "hashtags": [
    "FlaPanthers"
   ], 
   "user_mentions": [], 
   "created_at": "Mon Jan 20 16:46:15 +0000 2014", 
   "retweet_count": 3, 
   "favorite_count": 2
  }, 
  {
   "text": "Morning skate from the @CONSOLEnergyCtr. http://t.co/xAuO8cHuBI", 
   "label": "O", 
   "id": 425306559107698688, 
   "hashtags": [], 
   "user_mentions": [
    "CONSOLEnergyCtr"
   ], 
   "created_at": "Mon Jan 20 16:39:20 +0000 2014", 
   "retweet_count": 6, 
   "favorite_count": 10
  }, 
  {
   "text": "Happy Birthday to #FlaPanthers broadcaster @goldieonice spending his birthday in Pittsburgh for the game!", 
   "label": "O", 
   "id": 425275082940755968, 
   "hashtags": [
    "FlaPanthers"
   ], 
   "user_mentions": [
    "goldieonice"
   ], 
   "created_at": "Mon Jan 20 14:34:15 +0000 2014", 
   "retweet_count": 13, 
   "favorite_count": 29
  }, 
  {
   "text": "@v3ktorious Awesome.  Thanks for the support! Nothing better than passion for the game at a young age! Go Cats!", 
   "label": "O", 
   "id": 425269448258232320, 
   "hashtags": [], 
   "user_mentions": [
    "v3ktorious"
   ], 
   "created_at": "Mon Jan 20 14:11:52 +0000 2014", 
   "retweet_count": 0, 
   "favorite_count": 0
  }, 
  {
   "text": "This is the third and final meeting between the #Cats &amp; #Pens this season. Each team has tallied one victory so far.", 
   "label": "O", 
   "id": 425267945464668161, 
   "hashtags": [
    "Cats", 
    "Pens"
   ], 
   "user_mentions": [], 
   "created_at": "Mon Jan 20 14:05:53 +0000 2014", 
   "retweet_count": 7, 
   "favorite_count": 4
  }, 
  {
   "text": "It's a #FlaPanthers Gameday as the Cats take on the @penguins at 7. Pens are riding a 13-game home win streak at @CONSOLEnergyCtr.", 
   "label": "O", 
   "id": 425266025064435715, 
   "hashtags": [
    "FlaPanthers"
   ], 
   "user_mentions": [
    "penguins", 
    "CONSOLEnergyCtr"
   ], 
   "created_at": "Mon Jan 20 13:58:16 +0000 2014", 
   "retweet_count": 9, 
   "favorite_count": 4
  }
 ]
}