{
 "num_road_team_goals": "5", 
 "home_team": "Detroit Red Wings", 
 "num_home_team_goals": "4", 
 "summary_url": "http://www.flyershistory.com/cgi-bin/poboxscore.cgi?H20130785", 
 "result": "W (SO)", 
 "road_team": "Florida Panthers", 
 "date": "2014-01-26", 
 "goals": [
  {
   "season_index": "12", 
   "strength": "(EV)", 
   "time": "1:48", 
   "period": "1", 
   "player": "S.Bergenheim", 
   "assists": "(D.Kulikov, M.Weaver)", 
   "game_index": "1", 
   "team": "FLA"
  }, 
  {
   "season_index": "9", 
   "strength": "(EV)", 
   "time": "8:12", 
   "period": "2", 
   "player": "G.Nyquist", 
   "assists": "(J.Franzen)", 
   "game_index": "2", 
   "team": "DET"
  }, 
  {
   "season_index": "12", 
   "strength": "(EV)", 
   "time": "9:31", 
   "period": "2", 
   "player": "D.Alfredsson", 
   "assists": "(B.Smith, B.Lashoff)", 
   "game_index": "3", 
   "team": "DET"
  }, 
  {
   "season_index": "3", 
   "strength": "(PP)", 
   "time": "18:15", 
   "period": "2", 
   "player": "R.Sheahan", 
   "assists": "(T.Tatar, P.Eaves)", 
   "game_index": "4", 
   "team": "DET"
  }, 
  {
   "season_index": "7", 
   "strength": "(EV)", 
   "time": "9:12", 
   "period": "3", 
   "player": "J.Winchester", 
   "assists": "(T.Gilbert, M.Goc)", 
   "game_index": "5", 
   "team": "FLA"
  }, 
  {
   "season_index": "12", 
   "strength": "(EV)", 
   "time": "13:33", 
   "period": "3", 
   "player": "T.Tatar", 
   "assists": "(R.Sheahan, T.Jurco)", 
   "game_index": "6", 
   "team": "DET"
  }, 
  {
   "season_index": "4", 
   "strength": "(EV)", 
   "time": "14:28", 
   "period": "3", 
   "player": "D.Shore", 
   "assists": "(T.Fleischmann, T.Gilbert)", 
   "game_index": "7", 
   "team": "FLA"
  }, 
  {
   "season_index": "13", 
   "strength": "(SH)", 
   "time": "16:14", 
   "period": "3", 
   "player": "B.Boyes", 
   "assists": "(B.Campbell)", 
   "game_index": "8", 
   "team": "FLA"
  }
 ], 
 "tweets": [
  {
   "text": "ICYMI--&gt; RT @NHL: WOW. Talk about a game-saver for the @FLAPanthers! Watch: http://t.co/ZQvCaHErHO", 
   "label": "O", 
   "id": 427645005575241728, 
   "hashtags": [], 
   "user_mentions": [
    "NHL", 
    "FlaPanthers"
   ], 
   "created_at": "Mon Jan 27 03:31:29 +0000 2014", 
   "retweet_count": 4, 
   "favorite_count": 9
  }, 
  {
   "text": "RT to wish Interim Head Coach Peter Horachek a Happy Birthday! (Complete  with a Cats victory).", 
   "label": "O", 
   "id": 427637674548424704, 
   "hashtags": [], 
   "user_mentions": [], 
   "created_at": "Mon Jan 27 03:02:21 +0000 2014", 
   "retweet_count": 48, 
   "favorite_count": 32
  }, 
  {
   "text": "Keep up with the Cats with our new mobile app for Apple Store and Google Marketplace. Search \"Florida Panthers\" and give it a download!", 
   "label": "O", 
   "id": 427630735571558400, 
   "hashtags": [], 
   "user_mentions": [], 
   "created_at": "Mon Jan 27 02:34:47 +0000 2014", 
   "retweet_count": 2, 
   "favorite_count": 9
  }, 
  {
   "text": "The \"Assist Machine\"--&gt;RT @FlaPanthersPR: #FlaPanthers Tom Gilbert now has two assists in his last three straight games.", 
   "label": "O", 
   "id": 427619476251877376, 
   "hashtags": [
    "FlaPanthers"
   ], 
   "user_mentions": [
    "FlaPanthersPR"
   ], 
   "created_at": "Mon Jan 27 01:50:02 +0000 2014", 
   "retweet_count": 7, 
   "favorite_count": 7
  }, 
  {
   "text": "@serdarsirin Happy Birthday!", 
   "label": "O", 
   "id": 427617159406432257, 
   "hashtags": [], 
   "user_mentions": [
    "serdarsirin"
   ], 
   "created_at": "Mon Jan 27 01:40:50 +0000 2014", 
   "retweet_count": 0, 
   "favorite_count": 0
  }, 
  {
   "text": "Congrats to our #CatCaption contest winner: @BC_Castaldo. Check out your headline live on http://t.co/ENx2rDEXer \n http://t.co/mxElKngv5J", 
   "label": "O", 
   "id": 427616875762438144, 
   "hashtags": [
    "CatCaption"
   ], 
   "user_mentions": [
    "BC_Castaldo"
   ], 
   "created_at": "Mon Jan 27 01:39:42 +0000 2014", 
   "retweet_count": 3, 
   "favorite_count": 9
  }, 
  {
   "text": "\"So I was like I gotta shoot,\" -- Brad Boyes on the short-handed breakaway. WATCH: http://t.co/eAa6VMpIaf", 
   "label": "O", 
   "id": 427614036885520384, 
   "hashtags": [], 
   "user_mentions": [], 
   "created_at": "Mon Jan 27 01:28:25 +0000 2014", 
   "retweet_count": 7, 
   "favorite_count": 6
  }, 
  {
   "text": "Post game with Tim Thomas. WATCH: http://t.co/rs464WU7hC", 
   "label": "O", 
   "id": 427613679878934528, 
   "hashtags": [], 
   "user_mentions": [], 
   "created_at": "Mon Jan 27 01:27:00 +0000 2014", 
   "retweet_count": 4, 
   "favorite_count": 5
  }, 
  {
   "text": "@YouAre138 Noted! :)", 
   "label": "O", 
   "id": 427612729692536832, 
   "hashtags": [], 
   "user_mentions": [
    "YouAre138"
   ], 
   "created_at": "Mon Jan 27 01:23:14 +0000 2014", 
   "retweet_count": 0, 
   "favorite_count": 0
  }, 
  {
   "text": "RT @BC_Castaldo: @FlaPanthers Cats Rock Detroit #CatCaption", 
   "label": "O", 
   "id": 427609859304214528, 
   "hashtags": [
    "CatCaption"
   ], 
   "user_mentions": [
    "BC_Castaldo", 
    "FlaPanthers"
   ], 
   "created_at": "Mon Jan 27 01:11:49 +0000 2014", 
   "retweet_count": 1, 
   "favorite_count": 0
  }, 
  {
   "text": "What has two T's and two points? THIS GUY!! Timmy came up big in the Shootout again and the Cats\u2026 http://t.co/ER9Vze9bdc", 
   "label": "O", 
   "id": 427608413367840770, 
   "hashtags": [], 
   "user_mentions": [], 
   "created_at": "Mon Jan 27 01:06:04 +0000 2014", 
   "retweet_count": 8, 
   "favorite_count": 9
  }, 
  {
   "text": "WATCH again--Here's Boyes' tying tally that sent us into OT http://t.co/kuqxk6L1dR #FlaPanthers top #RedWings 5-4.", 
   "label": "O", 
   "id": 427608320611213312, 
   "hashtags": [
    "FlaPanthers", 
    "RedWings"
   ], 
   "user_mentions": [], 
   "created_at": "Mon Jan 27 01:05:42 +0000 2014", 
   "retweet_count": 7, 
   "favorite_count": 8
  }, 
  {
   "text": "@sarampage No kidding! Those Michigan teams.", 
   "label": "O", 
   "id": 427607038659928064, 
   "hashtags": [], 
   "user_mentions": [
    "sarampage"
   ], 
   "created_at": "Mon Jan 27 01:00:37 +0000 2014", 
   "retweet_count": 6, 
   "favorite_count": 10
  }, 
  {
   "text": "Give us your best headline for tonight's comeback victory and it just may appear on http://t.co/bRKTTujVrq !! #CatCaption", 
   "label": "O", 
   "id": 427606499884429312, 
   "hashtags": [
    "CatCaption"
   ], 
   "user_mentions": [], 
   "created_at": "Mon Jan 27 00:58:28 +0000 2014", 
   "retweet_count": 4, 
   "favorite_count": 4
  }, 
  {
   "text": "Drew Shore awaits the post-game interview spotlight after helping lead the Comeback Cats to victory in Detroit! http://t.co/Mf5Iq06FoU", 
   "label": "O", 
   "id": 427606045083463680, 
   "hashtags": [], 
   "user_mentions": [], 
   "created_at": "Mon Jan 27 00:56:40 +0000 2014", 
   "retweet_count": 17, 
   "favorite_count": 25
  }, 
  {
   "text": "The #FlaPanthers have now won three of four against the #RedWings this season.", 
   "label": "O", 
   "id": 427605376792793088, 
   "hashtags": [
    "FlaPanthers", 
    "RedWings"
   ], 
   "user_mentions": [], 
   "created_at": "Mon Jan 27 00:54:01 +0000 2014", 
   "retweet_count": 35, 
   "favorite_count": 29
  }, 
  {
   "text": "RT @StephRose99: And the @FlaPanthers see victory!! Huge win by the #FlaPanthers!!", 
   "label": "O", 
   "id": 427605201538015232, 
   "hashtags": [
    "FlaPanthers"
   ], 
   "user_mentions": [
    "StephRose99", 
    "FlaPanthers"
   ], 
   "created_at": "Mon Jan 27 00:53:19 +0000 2014", 
   "retweet_count": 12, 
   "favorite_count": 0
  }, 
  {
   "text": "Both the #FlaPanthers &amp; #SaRampage come back from deficits to defeat the #RedWings and #GRG. Double win!", 
   "label": "O", 
   "id": 427605165244297217, 
   "hashtags": [
    "FlaPanthers", 
    "SaRampage", 
    "RedWings", 
    "GRG"
   ], 
   "user_mentions": [], 
   "created_at": "Mon Jan 27 00:53:10 +0000 2014", 
   "retweet_count": 27, 
   "favorite_count": 26
  }, 
  {
   "text": "Thomas DENIES THE WINGS! We've got a 5-4 @PartyCity win!", 
   "label": "O", 
   "id": 427604898566664194, 
   "hashtags": [], 
   "user_mentions": [
    "PartyCity"
   ], 
   "created_at": "Mon Jan 27 00:52:07 +0000 2014", 
   "retweet_count": 65, 
   "favorite_count": 51
  }, 
  {
   "text": "#RedWings send out Eaves.", 
   "label": "O", 
   "id": 427604801032306688, 
   "hashtags": [
    "RedWings"
   ], 
   "user_mentions": [], 
   "created_at": "Mon Jan 27 00:51:43 +0000 2014", 
   "retweet_count": 1, 
   "favorite_count": 3
  }, 
  {
   "text": "#FlaPanthers Young Gun @JonnyHuby11 is stopped.", 
   "label": "O", 
   "id": 427604719046246400, 
   "hashtags": [
    "FlaPanthers"
   ], 
   "user_mentions": [
    "JonnyHuby11"
   ], 
   "created_at": "Mon Jan 27 00:51:24 +0000 2014", 
   "retweet_count": 2, 
   "favorite_count": 7
  }, 
  {
   "text": "Next for Detroit is @DAlfredsson11. THOMAS says no.", 
   "label": "O", 
   "id": 427604638318469120, 
   "hashtags": [], 
   "user_mentions": [
    "DAlfredsson11"
   ], 
   "created_at": "Mon Jan 27 00:51:04 +0000 2014", 
   "retweet_count": 4, 
   "favorite_count": 5
  }, 
  {
   "text": "First for the #FlaPanthers is @NBjugstad72--- HE SCORES GLOVESIDE!", 
   "label": "O", 
   "id": 427604482693013504, 
   "hashtags": [
    "FlaPanthers"
   ], 
   "user_mentions": [
    "NBjugstad72"
   ], 
   "created_at": "Mon Jan 27 00:50:27 +0000 2014", 
   "retweet_count": 16, 
   "favorite_count": 20
  }, 
  {
   "text": "Thomas with the save.", 
   "label": "O", 
   "id": 427604366015860736, 
   "hashtags": [], 
   "user_mentions": [], 
   "created_at": "Mon Jan 27 00:50:00 +0000 2014", 
   "retweet_count": 4, 
   "favorite_count": 3
  }, 
  {
   "text": "Up first for the #RedWings is Tatar.", 
   "label": "O", 
   "id": 427604318796410880, 
   "hashtags": [
    "RedWings"
   ], 
   "user_mentions": [], 
   "created_at": "Mon Jan 27 00:49:48 +0000 2014", 
   "retweet_count": 1, 
   "favorite_count": 2
  }, 
  {
   "text": "Time for a shootout! #FlaPanthers #RedWings #REDRising", 
   "label": "O", 
   "id": 427604263649705984, 
   "hashtags": [
    "FlaPanthers", 
    "RedWings", 
    "REDRising"
   ], 
   "user_mentions": [], 
   "created_at": "Mon Jan 27 00:49:35 +0000 2014", 
   "retweet_count": 4, 
   "favorite_count": 8
  }, 
  {
   "text": "Thomas is 5-2 in shootouts this season.", 
   "label": "O", 
   "id": 427603946077945856, 
   "hashtags": [], 
   "user_mentions": [], 
   "created_at": "Mon Jan 27 00:48:19 +0000 2014", 
   "retweet_count": 10, 
   "favorite_count": 5
  }, 
  {
   "text": "That'll do it for overtime. Your #FlaPanthers are heading to a shoot out in Hockeytown.", 
   "label": "O", 
   "id": 427603386251620352, 
   "hashtags": [
    "FlaPanthers"
   ], 
   "user_mentions": [], 
   "created_at": "Mon Jan 27 00:46:06 +0000 2014", 
   "retweet_count": 12, 
   "favorite_count": 9
  }, 
  {
   "text": "Fact: Tom Gilbert is the backup backup goalie tonight. Huge save to keep it going in OT!", 
   "label": "O", 
   "id": 427602419132792832, 
   "hashtags": [], 
   "user_mentions": [], 
   "created_at": "Mon Jan 27 00:42:15 +0000 2014", 
   "retweet_count": 26, 
   "favorite_count": 26
  }, 
  {
   "text": "RT @baseballLuis: @FlaPanthers OHHHHHHHHHHHHHHHHH. GILBERT. CLUTCH DEFENSE.", 
   "label": "O", 
   "id": 427602215638138880, 
   "hashtags": [], 
   "user_mentions": [
    "baseballLuis", 
    "FlaPanthers"
   ], 
   "created_at": "Mon Jan 27 00:41:27 +0000 2014", 
   "retweet_count": 4, 
   "favorite_count": 0
  }, 
  {
   "text": "TIM THOMAS with some big time saves in OT!", 
   "label": "O", 
   "id": 427602174525583360, 
   "hashtags": [], 
   "user_mentions": [], 
   "created_at": "Mon Jan 27 00:41:17 +0000 2014", 
   "retweet_count": 9, 
   "favorite_count": 17
  }, 
  {
   "text": "OT period starts NOW! #REDRising", 
   "label": "O", 
   "id": 427601553055580160, 
   "hashtags": [
    "REDRising"
   ], 
   "user_mentions": [], 
   "created_at": "Mon Jan 27 00:38:49 +0000 2014", 
   "retweet_count": 5, 
   "favorite_count": 9
  }, 
  {
   "text": "Shots in the 3rd period were 15-4 for the Snipers from Sunrise. #flapanthers", 
   "label": "O", 
   "id": 427601328018182146, 
   "hashtags": [
    "flapanthers"
   ], 
   "user_mentions": [], 
   "created_at": "Mon Jan 27 00:37:55 +0000 2014", 
   "retweet_count": 7, 
   "favorite_count": 7
  }, 
  {
   "text": "And the #ComebackCats have forced OVERTIME in Detroit. #FlaPanthers 4, #RedWings 4", 
   "label": "O", 
   "id": 427600895338356736, 
   "hashtags": [
    "ComebackCats", 
    "FlaPanthers", 
    "RedWings"
   ], 
   "user_mentions": [], 
   "created_at": "Mon Jan 27 00:36:12 +0000 2014", 
   "retweet_count": 20, 
   "favorite_count": 22
  }, 
  {
   "text": "RT @NinaGerardi: OMG short handed goal! Tied game 4-4 what a 3rd period!!! @FlaPanthers keep up this energy!  #goal #FlaPanthers", 
   "label": "O", 
   "id": 427600251839848448, 
   "hashtags": [
    "goal", 
    "FlaPanthers"
   ], 
   "user_mentions": [
    "NinaGerardi", 
    "FlaPanthers"
   ], 
   "created_at": "Mon Jan 27 00:33:39 +0000 2014", 
   "retweet_count": 5, 
   "favorite_count": 0
  }, 
  {
   "text": "RT @Wc5216: The @FlaPanthers and the @sarampage have both tied the game against the Red Wings and Griffs. Organization battles are awesome.", 
   "label": "O", 
   "id": 427600009891426304, 
   "hashtags": [], 
   "user_mentions": [
    "Wc5216", 
    "FlaPanthers", 
    "sarampage"
   ], 
   "created_at": "Mon Jan 27 00:32:41 +0000 2014", 
   "retweet_count": 9, 
   "favorite_count": 0
  }, 
  {
   "text": "Brad Boyes with a well-timed short hander and we've got a TIED GAME! 4-4 #FlaPanthers #RedWings", 
   "label": "O", 
   "id": 427599722686451712, 
   "hashtags": [
    "FlaPanthers", 
    "RedWings"
   ], 
   "user_mentions": [], 
   "created_at": "Mon Jan 27 00:31:32 +0000 2014", 
   "retweet_count": 28, 
   "favorite_count": 26
  }, 
  {
   "text": "BRAD BOYES BRAD BOYES WHATCHA GONNA DO?", 
   "label": "O", 
   "id": 427599616377638912, 
   "hashtags": [], 
   "user_mentions": [], 
   "created_at": "Mon Jan 27 00:31:07 +0000 2014", 
   "retweet_count": 62, 
   "favorite_count": 73
  }, 
  {
   "text": "Cats are on the kill as Goc serves two for roughing.", 
   "label": "O", 
   "id": 427599462316666880, 
   "hashtags": [], 
   "user_mentions": [], 
   "created_at": "Mon Jan 27 00:30:30 +0000 2014", 
   "retweet_count": 3, 
   "favorite_count": 6
  }, 
  {
   "text": "Young Gun Drew Shore records his 4th of the season to make it #FlaPanthers 3, #RedWings 4. Assists go to Flash &amp; @Bcampbell_51.", 
   "label": "O", 
   "id": 427599123144261632, 
   "hashtags": [
    "FlaPanthers", 
    "RedWings"
   ], 
   "user_mentions": [
    "bcampbell_51"
   ], 
   "created_at": "Mon Jan 27 00:29:10 +0000 2014", 
   "retweet_count": 5, 
   "favorite_count": 11
  }, 
  {
   "text": "BUT THE CATS ANSWER! It's a 4-3 game from Drew Shore.", 
   "label": "O", 
   "id": 427598494317441024, 
   "hashtags": [], 
   "user_mentions": [], 
   "created_at": "Mon Jan 27 00:26:40 +0000 2014", 
   "retweet_count": 13, 
   "favorite_count": 15
  }, 
  {
   "text": "Tatar goes up top. #RedWings lead 4-2.", 
   "label": "O", 
   "id": 427598038207852545, 
   "hashtags": [
    "RedWings"
   ], 
   "user_mentions": [], 
   "created_at": "Mon Jan 27 00:24:51 +0000 2014", 
   "retweet_count": 3, 
   "favorite_count": 4
  }, 
  {
   "text": "When the Cats are in a pinch, they call on J-Winch! #FlaPanthers 2, #RedWings 3 in the third.", 
   "label": "O", 
   "id": 427596375237603328, 
   "hashtags": [
    "FlaPanthers", 
    "RedWings"
   ], 
   "user_mentions": [], 
   "created_at": "Mon Jan 27 00:18:14 +0000 2014", 
   "retweet_count": 9, 
   "favorite_count": 11
  }, 
  {
   "text": "RT @davidbub_2: Tom \"Assist Machine\" Gilbert #FlaPanthers @FlaPanthers", 
   "label": "O", 
   "id": 427596142386638848, 
   "hashtags": [
    "FlaPanthers"
   ], 
   "user_mentions": [
    "davidbub_2", 
    "FlaPanthers"
   ], 
   "created_at": "Mon Jan 27 00:17:19 +0000 2014", 
   "retweet_count": 2, 
   "favorite_count": 0
  }, 
  {
   "text": "GOAL!! @Jwinch18 nets one and it's a one goal game!! #FlaPanthers #RedWings", 
   "label": "O", 
   "id": 427596102213570560, 
   "hashtags": [
    "FlaPanthers", 
    "RedWings"
   ], 
   "user_mentions": [
    "jwinch18"
   ], 
   "created_at": "Mon Jan 27 00:17:09 +0000 2014", 
   "retweet_count": 12, 
   "favorite_count": 15
  }, 
  {
   "text": "RT @DianeMRabb: Let's go Panthers! We're on the prowl. It's time to turn this game around! #COMEBACKCATS #WeSeeRED @FlaPanthers", 
   "label": "O", 
   "id": 427595901331599361, 
   "hashtags": [
    "COMEBACKCATS", 
    "WeSeeRED"
   ], 
   "user_mentions": [
    "DianeMRabb", 
    "FlaPanthers"
   ], 
   "created_at": "Mon Jan 27 00:16:21 +0000 2014", 
   "retweet_count": 5, 
   "favorite_count": 0
  }, 
  {
   "text": "#RedWings @justinabss is in the box for slashing.", 
   "label": "O", 
   "id": 427594887677378560, 
   "hashtags": [
    "RedWings"
   ], 
   "user_mentions": [
    "justinabss"
   ], 
   "created_at": "Mon Jan 27 00:12:20 +0000 2014", 
   "retweet_count": 3, 
   "favorite_count": 1
  }, 
  {
   "text": "#FlaPanthers will get a chance on the man advantage coming up! We are looking for the #ComebackCats. #BelieveRED", 
   "label": "O", 
   "id": 427594644659372032, 
   "hashtags": [
    "FlaPanthers", 
    "ComebackCats", 
    "BelieveRED"
   ], 
   "user_mentions": [], 
   "created_at": "Mon Jan 27 00:11:22 +0000 2014", 
   "retweet_count": 2, 
   "favorite_count": 2
  }, 
  {
   "text": "RT @kwkouki: All aboard the #COMEBACKCATS express!!!!!!! @FlaPanthers", 
   "label": "O", 
   "id": 427592937586065408, 
   "hashtags": [
    "COMEBACKCATS"
   ], 
   "user_mentions": [
    "kwkouki", 
    "FlaPanthers"
   ], 
   "created_at": "Mon Jan 27 00:04:35 +0000 2014", 
   "retweet_count": 5, 
   "favorite_count": 0
  }, 
  {
   "text": "No goal call for Red Wings. Explanation is Cleary made contact with the goaltender. Score remains 3-1 #RedWings leading #FlaPanthers", 
   "label": "O", 
   "id": 427592839934267392, 
   "hashtags": [
    "RedWings", 
    "FlaPanthers"
   ], 
   "user_mentions": [], 
   "created_at": "Mon Jan 27 00:04:11 +0000 2014", 
   "retweet_count": 5, 
   "favorite_count": 3
  }, 
  {
   "text": "Underway in the third. #FlaPanthers #RedWings", 
   "label": "O", 
   "id": 427591605923889153, 
   "hashtags": [
    "FlaPanthers", 
    "RedWings"
   ], 
   "user_mentions": [], 
   "created_at": "Sun Jan 26 23:59:17 +0000 2014", 
   "retweet_count": 6, 
   "favorite_count": 5
  }, 
  {
   "text": "Third period will begin with 24 seconds of 4v4 hockey followed by a Cats power play with  @justinabss in the sin bin.", 
   "label": "O", 
   "id": 427587121646686208, 
   "hashtags": [], 
   "user_mentions": [
    "justinabss"
   ], 
   "created_at": "Sun Jan 26 23:41:28 +0000 2014", 
   "retweet_count": 6, 
   "favorite_count": 1
  }, 
  {
   "text": "End of two in Detroit. #RedWings 3, #FlaPanthers 1.", 
   "label": "O", 
   "id": 427586952129687552, 
   "hashtags": [
    "RedWings", 
    "FlaPanthers"
   ], 
   "user_mentions": [], 
   "created_at": "Sun Jan 26 23:40:48 +0000 2014", 
   "retweet_count": 5, 
   "favorite_count": 3
  }, 
  {
   "text": "PK unit up for the Panthers as Bergy serves another minor.", 
   "label": "O", 
   "id": 427586455238868992, 
   "hashtags": [], 
   "user_mentions": [], 
   "created_at": "Sun Jan 26 23:38:49 +0000 2014", 
   "retweet_count": 3, 
   "favorite_count": 0
  }, 
  {
   "text": "#RedWings get a PPG. It's 3-1 Detroit.", 
   "label": "O", 
   "id": 427586190049832960, 
   "hashtags": [
    "RedWings"
   ], 
   "user_mentions": [], 
   "created_at": "Sun Jan 26 23:37:46 +0000 2014", 
   "retweet_count": 2, 
   "favorite_count": 2
  }, 
  {
   "text": "Bergenheim heads to the box at 16:30 of the second for tripping. Cats will head on the penalty kill.", 
   "label": "O", 
   "id": 427585552893095936, 
   "hashtags": [], 
   "user_mentions": [], 
   "created_at": "Sun Jan 26 23:35:14 +0000 2014", 
   "retweet_count": 1, 
   "favorite_count": 1
  }, 
  {
   "text": "Back to even strength. #FlaPanthers trail 2-1 with 5:11 to play in the second.", 
   "label": "O", 
   "id": 427584163357925376, 
   "hashtags": [
    "FlaPanthers"
   ], 
   "user_mentions": [], 
   "created_at": "Sun Jan 26 23:29:43 +0000 2014", 
   "retweet_count": 2, 
   "favorite_count": 1
  }, 
  {
   "text": "Delayed penalty on the Red Wings. #FlaPanthers will get another chance on the man advantage.", 
   "label": "O", 
   "id": 427583450087182337, 
   "hashtags": [
    "FlaPanthers"
   ], 
   "user_mentions": [], 
   "created_at": "Sun Jan 26 23:26:53 +0000 2014", 
   "retweet_count": 3, 
   "favorite_count": 3
  }, 
  {
   "text": "It's #FlaPanthers 1, #RedWings 2.  @DAlfredsson11 gets it behind Thomas.", 
   "label": "O", 
   "id": 427581991203381248, 
   "hashtags": [
    "FlaPanthers", 
    "RedWings"
   ], 
   "user_mentions": [
    "DAlfredsson11"
   ], 
   "created_at": "Sun Jan 26 23:21:05 +0000 2014", 
   "retweet_count": 4, 
   "favorite_count": 0
  }, 
  {
   "text": "#RedWings tie it up. 1-1 from Nyquist.", 
   "label": "O", 
   "id": 427581205333422081, 
   "hashtags": [
    "RedWings"
   ], 
   "user_mentions": [], 
   "created_at": "Sun Jan 26 23:17:58 +0000 2014", 
   "retweet_count": 3, 
   "favorite_count": 3
  }, 
  {
   "text": "#FlaPanthers POWER PLAY! Detroit's Ericsson sits two for hooking at 4:47 of the second.", 
   "label": "O", 
   "id": 427579735598956544, 
   "hashtags": [
    "FlaPanthers"
   ], 
   "user_mentions": [], 
   "created_at": "Sun Jan 26 23:12:07 +0000 2014", 
   "retweet_count": 4, 
   "favorite_count": 4
  }, 
  {
   "text": "Blast from @ScottieUpshall! Cats are putting on the pressure in the second. Looks like we're in for an exciting period! #REDRising", 
   "label": "O", 
   "id": 427578578742812672, 
   "hashtags": [
    "REDRising"
   ], 
   "user_mentions": [
    "ScottieUpshall"
   ], 
   "created_at": "Sun Jan 26 23:07:31 +0000 2014", 
   "retweet_count": 4, 
   "favorite_count": 7
  }, 
  {
   "text": "Back for the second! Panthers hold a 1-0 lead.", 
   "label": "O", 
   "id": 427577405260460032, 
   "hashtags": [], 
   "user_mentions": [], 
   "created_at": "Sun Jan 26 23:02:52 +0000 2014", 
   "retweet_count": 9, 
   "favorite_count": 6
  }, 
  {
   "text": "The defense continues to contribute to the #FlaPanthers offense. Assists on the Cats goal in this contest go to @Mikeweaver_43 &amp; Kulikov.", 
   "label": "O", 
   "id": 427573425226674176, 
   "hashtags": [
    "FlaPanthers"
   ], 
   "user_mentions": [
    "mikeweaver_43"
   ], 
   "created_at": "Sun Jan 26 22:47:03 +0000 2014", 
   "retweet_count": 2, 
   "favorite_count": 3
  }, 
  {
   "text": "RT @FLpantherpatrol: Join us on Tuesday, Jan 28th for a @flapanthers Watch Party! We will be at @duffysmvp in Plantation to watch the... ht\u2026", 
   "label": "O", 
   "id": 427573217562492928, 
   "hashtags": [], 
   "user_mentions": [
    "FLpantherpatrol", 
    "FlaPanthers", 
    "DuffysMVP"
   ], 
   "created_at": "Sun Jan 26 22:46:13 +0000 2014", 
   "retweet_count": 2, 
   "favorite_count": 0
  }, 
  {
   "text": "#FlaPanthers penalty and period one expire. The Cats lead 1-0 after one in Detroit.", 
   "label": "O", 
   "id": 427572797028966400, 
   "hashtags": [
    "FlaPanthers"
   ], 
   "user_mentions": [], 
   "created_at": "Sun Jan 26 22:44:33 +0000 2014", 
   "retweet_count": 3, 
   "favorite_count": 7
  }, 
  {
   "text": "#RedWings will get the extra man as Goc sits two for high sticking at 17:55. #CatsontheKill", 
   "label": "O", 
   "id": 427572016691314688, 
   "hashtags": [
    "RedWings", 
    "CatsontheKill"
   ], 
   "user_mentions": [], 
   "created_at": "Sun Jan 26 22:41:27 +0000 2014", 
   "retweet_count": 0, 
   "favorite_count": 0
  }, 
  {
   "text": "RT @sarampage: RT to congratulate @4ortie1 on his two goals and his 50th career AHL tally!", 
   "label": "O", 
   "id": 427571238706642944, 
   "hashtags": [], 
   "user_mentions": [
    "sarampage", 
    "4ortie1"
   ], 
   "created_at": "Sun Jan 26 22:38:21 +0000 2014", 
   "retweet_count": 11, 
   "favorite_count": 0
  }, 
  {
   "text": "Cats out shooting the Wings 5-1 in the first. #REDRising", 
   "label": "O", 
   "id": 427569654622871554, 
   "hashtags": [
    "REDRising"
   ], 
   "user_mentions": [], 
   "created_at": "Sun Jan 26 22:32:04 +0000 2014", 
   "retweet_count": 2, 
   "favorite_count": 4
  }, 
  {
   "text": "Halfway through one and the Cats are up by one on an early goal by Sean Bergenheim.  #flapanthers", 
   "label": "O", 
   "id": 427568483883184128, 
   "hashtags": [
    "flapanthers"
   ], 
   "user_mentions": [], 
   "created_at": "Sun Jan 26 22:27:25 +0000 2014", 
   "retweet_count": 4, 
   "favorite_count": 13
  }, 
  {
   "text": "@dsilverstone29 Glad you dig it! We're excited about it.", 
   "label": "O", 
   "id": 427567261080387584, 
   "hashtags": [], 
   "user_mentions": [
    "dsilverstone29"
   ], 
   "created_at": "Sun Jan 26 22:22:33 +0000 2014", 
   "retweet_count": 1, 
   "favorite_count": 1
  }, 
  {
   "text": "RT @KreidichM71: What a pass by Kuli! #FlaPanthers", 
   "label": "O", 
   "id": 427564866237628416, 
   "hashtags": [
    "FlaPanthers"
   ], 
   "user_mentions": [
    "KreidichM71"
   ], 
   "created_at": "Sun Jan 26 22:13:02 +0000 2014", 
   "retweet_count": 4, 
   "favorite_count": 0
  }, 
  {
   "text": "BERGEN-TIME! Just 1:48 into the first and the Cats hold a 1-0 lead. #FlaPanthers #RedWings", 
   "label": "O", 
   "id": 427564672800522240, 
   "hashtags": [
    "FlaPanthers", 
    "RedWings"
   ], 
   "user_mentions": [], 
   "created_at": "Sun Jan 26 22:12:16 +0000 2014", 
   "retweet_count": 24, 
   "favorite_count": 28
  }, 
  {
   "text": "Goal!!!!", 
   "label": "O", 
   "id": 427564518017757184, 
   "hashtags": [], 
   "user_mentions": [], 
   "created_at": "Sun Jan 26 22:11:39 +0000 2014", 
   "retweet_count": 13, 
   "favorite_count": 19
  }, 
  {
   "text": "RT @DrewGoldfarb: #FlaPanthers vs Red Wings - NOW on @FOXPanthers!!", 
   "label": "O", 
   "id": 427564060637675520, 
   "hashtags": [
    "FlaPanthers"
   ], 
   "user_mentions": [
    "DrewGoldfarb", 
    "FOXPanthers"
   ], 
   "created_at": "Sun Jan 26 22:09:50 +0000 2014", 
   "retweet_count": 4, 
   "favorite_count": 0
  }, 
  {
   "text": "And we're underway! #FlaPanthers #RedWings", 
   "label": "O", 
   "id": 427563810501971968, 
   "hashtags": [
    "FlaPanthers", 
    "RedWings"
   ], 
   "user_mentions": [], 
   "created_at": "Sun Jan 26 22:08:50 +0000 2014", 
   "retweet_count": 5, 
   "favorite_count": 7
  }, 
  {
   "text": "National Anthem at the Joe. Puck drop is next. #flapanthers http://t.co/CKg8n6Ouvl", 
   "label": "O", 
   "id": 427563457387315200, 
   "hashtags": [
    "flapanthers"
   ], 
   "user_mentions": [], 
   "created_at": "Sun Jan 26 22:07:26 +0000 2014", 
   "retweet_count": 4, 
   "favorite_count": 16
  }, 
  {
   "text": "Warmups underway in Detroit! #FlaPanthers looking to extend their hot streak on the road to 3 in a row. http://t.co/cRaIr8U2R9", 
   "label": "O", 
   "id": 427555366235541504, 
   "hashtags": [
    "FlaPanthers"
   ], 
   "user_mentions": [], 
   "created_at": "Sun Jan 26 21:35:17 +0000 2014", 
   "retweet_count": 8, 
   "favorite_count": 11
  }, 
  {
   "text": "RT @FlaPanthersPR: ROSTER MOVES: @DylanOlsen34 has been activated from injured reserve and @kopy82 was placed on IR retroactive to Jan. 18.", 
   "label": "O", 
   "id": 427547902471581696, 
   "hashtags": [], 
   "user_mentions": [
    "FlaPanthersPR", 
    "DylanOlsen34", 
    "kopy82"
   ], 
   "created_at": "Sun Jan 26 21:05:38 +0000 2014", 
   "retweet_count": 9, 
   "favorite_count": 0
  }, 
  {
   "text": "REMINDER: #FlaPanthers at #RedWings starts at 5 p.m., which means the one-hour @PartyCity countdown starts now!", 
   "label": "O", 
   "id": 427547208041635840, 
   "hashtags": [
    "FlaPanthers", 
    "RedWings"
   ], 
   "user_mentions": [
    "PartyCity"
   ], 
   "created_at": "Sun Jan 26 21:02:52 +0000 2014", 
   "retweet_count": 9, 
   "favorite_count": 5
  }, 
  {
   "text": "The Cats have arrived early at the Joe to discover a formidable opponent already on the ice. #flapanthers #RedWings http://t.co/1CZuUiPTHB", 
   "label": "O", 
   "id": 427528414531035136, 
   "hashtags": [
    "flapanthers", 
    "RedWings"
   ], 
   "user_mentions": [], 
   "created_at": "Sun Jan 26 19:48:11 +0000 2014", 
   "retweet_count": 9, 
   "favorite_count": 17
  }, 
  {
   "text": "#34 signs some autographs before heading to the rink. Save that signature guys, the kid may become a star someday. http://t.co/ZlAWOzIccX", 
   "label": "O", 
   "id": 427524095232966656, 
   "hashtags": [], 
   "user_mentions": [], 
   "created_at": "Sun Jan 26 19:31:01 +0000 2014", 
   "retweet_count": 2, 
   "favorite_count": 6
  }, 
  {
   "text": "Your Cats are on the road--But you don't need to miss a shift. Catch it tonight on TV: @FoxPanthers Radio: @560WQAM.", 
   "label": "O", 
   "id": 427505082641694720, 
   "hashtags": [], 
   "user_mentions": [
    "FOXPanthers", 
    "560WQAM"
   ], 
   "created_at": "Sun Jan 26 18:15:29 +0000 2014", 
   "retweet_count": 2, 
   "favorite_count": 6
  }, 
  {
   "text": "Which Cat's game is \"Pointing Up(Shall)\"? You can probably guess, but should click on our game preview anyway. READ: http://t.co/cPDTkGOnZC", 
   "label": "O", 
   "id": 427479463878602752, 
   "hashtags": [], 
   "user_mentions": [], 
   "created_at": "Sun Jan 26 16:33:41 +0000 2014", 
   "retweet_count": 1, 
   "favorite_count": 5
  }, 
  {
   "text": "#FlaPanthers have won two of three battles with the Atlantic Division foe #RedWings this season. They meet again tonight at the Joe.", 
   "label": "O", 
   "id": 427478738188894208, 
   "hashtags": [
    "FlaPanthers", 
    "RedWings"
   ], 
   "user_mentions": [], 
   "created_at": "Sun Jan 26 16:30:48 +0000 2014", 
   "retweet_count": 7, 
   "favorite_count": 9
  }, 
  {
   "text": "Early Bird Gets The Win! 5pm start time today in the Motor City where the Cats take on the Wings looking to accelerate the road streak to 3!", 
   "label": "O", 
   "id": 427444106348863489, 
   "hashtags": [], 
   "user_mentions": [], 
   "created_at": "Sun Jan 26 14:13:11 +0000 2014", 
   "retweet_count": 9, 
   "favorite_count": 11
  }
 ]
}