{
 "num_road_team_goals": "3", 
 "home_team": "Toronto Maple Leafs", 
 "num_home_team_goals": "6", 
 "summary_url": "http://www.flyershistory.com/cgi-bin/poboxscore.cgi?H20130810", 
 "result": "L", 
 "road_team": "Florida Panthers", 
 "date": "2014-01-30", 
 "goals": [
  {
   "season_index": "12", 
   "strength": "(EV)", 
   "time": "1:39", 
   "period": "1", 
   "player": "N.Bjugstad", 
   "assists": "(S.Upshall, D.Shore)", 
   "game_index": "1", 
   "team": "FLA"
  }, 
  {
   "season_index": "13", 
   "strength": "(EV)", 
   "time": "13:50", 
   "period": "1", 
   "player": "S.Bergenheim", 
   "assists": "(B.Boyes, S.Gomez)", 
   "game_index": "2", 
   "team": "FLA"
  }, 
  {
   "season_index": "4", 
   "strength": "(EV)", 
   "time": "16:49", 
   "period": "1", 
   "player": "C.Franson", 
   "assists": "(N.Kadri, J.van)", 
   "game_index": "3", 
   "team": "TOR"
  }, 
  {
   "season_index": "14", 
   "strength": "(EV)", 
   "time": "0:27", 
   "period": "2", 
   "player": "M.Raymond", 
   "assists": "(T.Bodie, T.Gleason)", 
   "game_index": "4", 
   "team": "TOR"
  }, 
  {
   "season_index": null, 
   "strength": "(PP)", 
   "time": "0:58", 
   "period": "2", 
   "player": "J.van", 
   "assists": "(P.Kessel, D.Phaneuf)", 
   "game_index": "5", 
   "team": "TOR"
  }, 
  {
   "season_index": "8", 
   "strength": "(EV)", 
   "time": "4:00", 
   "period": "3", 
   "player": "N.Kulemin", 
   "assists": "(J.Lupul, N.Kadri)", 
   "game_index": "6", 
   "team": "TOR"
  }, 
  {
   "season_index": "16", 
   "strength": "(PP)", 
   "time": "6:22", 
   "period": "3", 
   "player": "J.Lupul", 
   "assists": "(N.Kadri, M.Rielly)", 
   "game_index": "7", 
   "team": "TOR"
  }, 
  {
   "season_index": "6", 
   "strength": "(EV)", 
   "time": "14:29", 
   "period": "3", 
   "player": "D.Kulikov", 
   "assists": "(M.Goc)", 
   "game_index": "8", 
   "team": "FLA"
  }, 
  {
   "season_index": "10", 
   "strength": "(EV)", 
   "time": "18:37", 
   "period": "3", 
   "player": "T.Bozak", 
   "assists": "(P.Kessel)", 
   "game_index": "9", 
   "team": "TOR"
  }
 ], 
 "tweets": [
  {
   "text": "@BlueJacketsNHL In that case we hear a bowl of press box candy a day keeps the doctor away....", 
   "label": "O", 
   "id": 429111688278069248, 
   "hashtags": [], 
   "user_mentions": [
    "BlueJacketsNHL"
   ], 
   "created_at": "Fri Jan 31 04:39:33 +0000 2014", 
   "retweet_count": 11, 
   "favorite_count": 13
  }, 
  {
   "text": "@BlueJacketsNHL We just searched OpenTable but can't seem to find a table for 46. Any suggestions?", 
   "label": "O", 
   "id": 429111137733734400, 
   "hashtags": [], 
   "user_mentions": [
    "BlueJacketsNHL"
   ], 
   "created_at": "Fri Jan 31 04:37:22 +0000 2014", 
   "retweet_count": 17, 
   "favorite_count": 21
  }, 
  {
   "text": "#FlaPanthers are off to Columbus to take on the @BlueJacketsNHL on Saturday with hopes of bookending this 4-game road trip with a second W.", 
   "label": "O", 
   "id": 429110497229934592, 
   "hashtags": [
    "FlaPanthers"
   ], 
   "user_mentions": [
    "BlueJacketsNHL"
   ], 
   "created_at": "Fri Jan 31 04:34:49 +0000 2014", 
   "retweet_count": 2, 
   "favorite_count": 6
  }, 
  {
   "text": "Final from Toronto: #Leafs 6, #FlaPanthers 3.", 
   "label": "O", 
   "id": 429083093581172736, 
   "hashtags": [
    "Leafs", 
    "FlaPanthers"
   ], 
   "user_mentions": [], 
   "created_at": "Fri Jan 31 02:45:56 +0000 2014", 
   "retweet_count": 6, 
   "favorite_count": 2
  }, 
  {
   "text": "Bozak nets his 10th of the season. It's 6-3 #Leafs.", 
   "label": "O", 
   "id": 429082340061888513, 
   "hashtags": [
    "Leafs"
   ], 
   "user_mentions": [], 
   "created_at": "Fri Jan 31 02:42:56 +0000 2014", 
   "retweet_count": 1, 
   "favorite_count": 3
  }, 
  {
   "text": "RT @moviemichelle: #flapanthers plenty of time. ......go CATS!", 
   "label": "O", 
   "id": 429081886770864128, 
   "hashtags": [
    "flapanthers"
   ], 
   "user_mentions": [
    "moviemichelle"
   ], 
   "created_at": "Fri Jan 31 02:41:08 +0000 2014", 
   "retweet_count": 2, 
   "favorite_count": 0
  }, 
  {
   "text": "Kulikov's sixth of the season was assisted by Marcel Goc. #FlaPanthers trail 5-3 with 2:58 in the third.", 
   "label": "O", 
   "id": 429081774879412224, 
   "hashtags": [
    "FlaPanthers"
   ], 
   "user_mentions": [], 
   "created_at": "Fri Jan 31 02:40:41 +0000 2014", 
   "retweet_count": 3, 
   "favorite_count": 5
  }, 
  {
   "text": "KULIKOV with a blast! #FlaPanthers 3, #Leafs 5 with just over five minutes remaining in the third.", 
   "label": "O", 
   "id": 429080764471574528, 
   "hashtags": [
    "FlaPanthers", 
    "Leafs"
   ], 
   "user_mentions": [], 
   "created_at": "Fri Jan 31 02:36:40 +0000 2014", 
   "retweet_count": 6, 
   "favorite_count": 9
  }, 
  {
   "text": "#FlaPanthers will try again on the man advantage. @JVReemer21 in the box for the #Leafs.", 
   "label": "O", 
   "id": 429077923740782592, 
   "hashtags": [
    "FlaPanthers", 
    "Leafs"
   ], 
   "user_mentions": [
    "JVReemer21"
   ], 
   "created_at": "Fri Jan 31 02:25:23 +0000 2014", 
   "retweet_count": 1, 
   "favorite_count": 1
  }, 
  {
   "text": "RT @PR_NHL: #HockeyOps explains no goal video review at 1:57 of the third period in the @FlaPanthers / @MapleLeafs game. http://t.co/aOIE7A\u2026", 
   "label": "O", 
   "id": 429076252595879936, 
   "hashtags": [
    "HockeyOps"
   ], 
   "user_mentions": [
    "PR_NHL", 
    "FlaPanthers", 
    "MapleLeafs"
   ], 
   "created_at": "Fri Jan 31 02:18:45 +0000 2014", 
   "retweet_count": 1, 
   "favorite_count": 0
  }, 
  {
   "text": ".@JLupul on the power play. #Leafs 5, #FlaPanthers 2.", 
   "label": "O", 
   "id": 429076212347334656, 
   "hashtags": [
    "Leafs", 
    "FlaPanthers"
   ], 
   "user_mentions": [
    "JLupul"
   ], 
   "created_at": "Fri Jan 31 02:18:35 +0000 2014", 
   "retweet_count": 1, 
   "favorite_count": 2
  }, 
  {
   "text": "The Panthers will head on the kill with 15:33 to play in the third. @Bcampbell_51 heads to the sin bin for hooking.", 
   "label": "O", 
   "id": 429075152853553152, 
   "hashtags": [], 
   "user_mentions": [
    "bcampbell_51"
   ], 
   "created_at": "Fri Jan 31 02:14:22 +0000 2014", 
   "retweet_count": 0, 
   "favorite_count": 1
  }, 
  {
   "text": "Kulemin's eighth of the season gets behind Clemmer. #Leafs lead #FlaPanthers 4-2.", 
   "label": "O", 
   "id": 429074902931742721, 
   "hashtags": [
    "Leafs", 
    "FlaPanthers"
   ], 
   "user_mentions": [], 
   "created_at": "Fri Jan 31 02:13:23 +0000 2014", 
   "retweet_count": 3, 
   "favorite_count": 1
  }, 
  {
   "text": "Quick review confirms no goal on #FlaPanthers third period scoring chance.", 
   "label": "O", 
   "id": 429074043221065728, 
   "hashtags": [
    "FlaPanthers"
   ], 
   "user_mentions": [], 
   "created_at": "Fri Jan 31 02:09:58 +0000 2014", 
   "retweet_count": 3, 
   "favorite_count": 2
  }, 
  {
   "text": "Dion Phaneuf heads to the box. #FlaPanthers POWER PLAY!", 
   "label": "O", 
   "id": 429073444412858368, 
   "hashtags": [
    "FlaPanthers"
   ], 
   "user_mentions": [], 
   "created_at": "Fri Jan 31 02:07:35 +0000 2014", 
   "retweet_count": 3, 
   "favorite_count": 2
  }, 
  {
   "text": "Congratulations @DJBuddha94, You've been randomly selected as our T-shirt winner! Stay tuned to #FlaPanthers social for more chances to win.", 
   "label": "O", 
   "id": 429073054883651584, 
   "hashtags": [
    "FlaPanthers"
   ], 
   "user_mentions": [
    "DJBuddha94"
   ], 
   "created_at": "Fri Jan 31 02:06:02 +0000 2014", 
   "retweet_count": 1, 
   "favorite_count": 1
  }, 
  {
   "text": "Puck has dropped in the third. Time for those #ComebackCats... #FlaPanthers trail 3-2.", 
   "label": "O", 
   "id": 429072741539778560, 
   "hashtags": [
    "ComebackCats", 
    "FlaPanthers"
   ], 
   "user_mentions": [], 
   "created_at": "Fri Jan 31 02:04:48 +0000 2014", 
   "retweet_count": 6, 
   "favorite_count": 3
  }, 
  {
   "text": "End of two periods from @AirCanadaCentre. #FlaPanthers trail 3-2. Shots are 26-21 FL.", 
   "label": "O", 
   "id": 429068272064286720, 
   "hashtags": [
    "FlaPanthers"
   ], 
   "user_mentions": [
    "AirCanadaCentre"
   ], 
   "created_at": "Fri Jan 31 01:47:02 +0000 2014", 
   "retweet_count": 6, 
   "favorite_count": 6
  }, 
  {
   "text": "Gomez heads to the box for holding at 15:41. #CatsontheKill", 
   "label": "O", 
   "id": 429066745912250369, 
   "hashtags": [
    "CatsontheKill"
   ], 
   "user_mentions": [], 
   "created_at": "Fri Jan 31 01:40:58 +0000 2014", 
   "retweet_count": 2, 
   "favorite_count": 3
  }, 
  {
   "text": "Five minutes remaining in the second. #Cats 2, #Leafs 3.", 
   "label": "O", 
   "id": 429066202229788672, 
   "hashtags": [
    "Cats", 
    "Leafs"
   ], 
   "user_mentions": [], 
   "created_at": "Fri Jan 31 01:38:48 +0000 2014", 
   "retweet_count": 5, 
   "favorite_count": 4
  }, 
  {
   "text": "#FlaPanthers will get their third power play chance with Toronto's Bodie in the box for tripping.", 
   "label": "O", 
   "id": 429061050294878208, 
   "hashtags": [
    "FlaPanthers"
   ], 
   "user_mentions": [], 
   "created_at": "Fri Jan 31 01:18:20 +0000 2014", 
   "retweet_count": 4, 
   "favorite_count": 4
  }, 
  {
   "text": "#Leafs grab a PPG tipped in by @JVReemer21. It's 3-2 Toronto.", 
   "label": "O", 
   "id": 429058653170454528, 
   "hashtags": [
    "Leafs"
   ], 
   "user_mentions": [
    "JVReemer21"
   ], 
   "created_at": "Fri Jan 31 01:08:49 +0000 2014", 
   "retweet_count": 3, 
   "favorite_count": 3
  }, 
  {
   "text": "Cats will go on the kill for the first time in this contest as Gomez sits two.", 
   "label": "O", 
   "id": 429058470068125696, 
   "hashtags": [], 
   "user_mentions": [], 
   "created_at": "Fri Jan 31 01:08:05 +0000 2014", 
   "retweet_count": 0, 
   "favorite_count": 2
  }, 
  {
   "text": "Mason Raymond ties it up for the #Leafs 2-2 in the second.", 
   "label": "O", 
   "id": 429058222700625920, 
   "hashtags": [
    "Leafs"
   ], 
   "user_mentions": [], 
   "created_at": "Fri Jan 31 01:07:06 +0000 2014", 
   "retweet_count": 2, 
   "favorite_count": 1
  }, 
  {
   "text": "Back for the second. #FlaPanthers #Leafs", 
   "label": "O", 
   "id": 429057856173010944, 
   "hashtags": [
    "FlaPanthers", 
    "Leafs"
   ], 
   "user_mentions": [], 
   "created_at": "Fri Jan 31 01:05:39 +0000 2014", 
   "retweet_count": 4, 
   "favorite_count": 3
  }, 
  {
   "text": "Congratulations @JonnyHuby11! This Panthers #YoungGun is playing in his 100th Career NHL game tonight! http://t.co/YHYKMiMfH1", 
   "label": "O", 
   "id": 429053379856596992, 
   "hashtags": [
    "YoungGun"
   ], 
   "user_mentions": [
    "JonnyHuby11"
   ], 
   "created_at": "Fri Jan 31 00:47:51 +0000 2014", 
   "retweet_count": 14, 
   "favorite_count": 12
  }, 
  {
   "text": "End of one from Toronto. #FlaPanthers lead 2-1 with goals from @NBjugstad72 and Bergenheim.", 
   "label": "O", 
   "id": 429053230224797698, 
   "hashtags": [
    "FlaPanthers"
   ], 
   "user_mentions": [
    "NBjugstad72"
   ], 
   "created_at": "Fri Jan 31 00:47:16 +0000 2014", 
   "retweet_count": 8, 
   "favorite_count": 9
  }, 
  {
   "text": "The #Leafs answer back. Franson with his 4th of the season. #FlaPanthers lead 2-1.", 
   "label": "O", 
   "id": 429052056016789504, 
   "hashtags": [
    "Leafs", 
    "FlaPanthers"
   ], 
   "user_mentions": [], 
   "created_at": "Fri Jan 31 00:42:36 +0000 2014", 
   "retweet_count": 2, 
   "favorite_count": 5
  }, 
  {
   "text": "RT @FlaPanthersPR: With that goal, Bergenheim is now riding a five-game point streak. #FlaPanthers", 
   "label": "O", 
   "id": 429051006455132160, 
   "hashtags": [
    "FlaPanthers"
   ], 
   "user_mentions": [
    "FlaPanthersPR"
   ], 
   "created_at": "Fri Jan 31 00:38:25 +0000 2014", 
   "retweet_count": 12, 
   "favorite_count": 0
  }, 
  {
   "text": "Some of those #KIllerBs are in action tonight!! #FlaPanthers hold a 2-0 lead in the first from Bergenheim's 13th of the season.", 
   "label": "O", 
   "id": 429050523627819008, 
   "hashtags": [
    "KIllerBs", 
    "FlaPanthers"
   ], 
   "user_mentions": [], 
   "created_at": "Fri Jan 31 00:36:30 +0000 2014", 
   "retweet_count": 15, 
   "favorite_count": 8
  }, 
  {
   "text": "Killer B's have crossed the border!!!!", 
   "label": "O", 
   "id": 429050244131987456, 
   "hashtags": [], 
   "user_mentions": [], 
   "created_at": "Fri Jan 31 00:35:24 +0000 2014", 
   "retweet_count": 13, 
   "favorite_count": 14
  }, 
  {
   "text": "Back to even strength and we are halfway through the first. #FlaPanthers lead the #Leafs 1-0.", 
   "label": "O", 
   "id": 429048457354297344, 
   "hashtags": [
    "FlaPanthers", 
    "Leafs"
   ], 
   "user_mentions": [], 
   "created_at": "Fri Jan 31 00:28:18 +0000 2014", 
   "retweet_count": 3, 
   "favorite_count": 4
  }, 
  {
   "text": "Another #FlaPanthers power play coming up. Gleason in the box again--this time for Delay of Game.", 
   "label": "O", 
   "id": 429047808751337472, 
   "hashtags": [
    "FlaPanthers"
   ], 
   "user_mentions": [], 
   "created_at": "Fri Jan 31 00:25:43 +0000 2014", 
   "retweet_count": 1, 
   "favorite_count": 3
  }, 
  {
   "text": "#FlaPanthers will get a chance on the man advantage as #Leafs Gleason sits two for cross checking.", 
   "label": "O", 
   "id": 429045402785292288, 
   "hashtags": [
    "FlaPanthers", 
    "Leafs"
   ], 
   "user_mentions": [], 
   "created_at": "Fri Jan 31 00:16:09 +0000 2014", 
   "retweet_count": 1, 
   "favorite_count": 6
  }, 
  {
   "text": "WHAT A START! @NBjugstad72 delivers! #FlaPanthers take a 1-0 lead early in the first.", 
   "label": "O", 
   "id": 429044634237808641, 
   "hashtags": [
    "FlaPanthers"
   ], 
   "user_mentions": [
    "NBjugstad72"
   ], 
   "created_at": "Fri Jan 31 00:13:06 +0000 2014", 
   "retweet_count": 24, 
   "favorite_count": 25
  }, 
  {
   "text": "BJUG---STUD!!!!!", 
   "label": "O", 
   "id": 429044372416786432, 
   "hashtags": [], 
   "user_mentions": [], 
   "created_at": "Fri Jan 31 00:12:04 +0000 2014", 
   "retweet_count": 22, 
   "favorite_count": 26
  }, 
  {
   "text": "Game on from @AirCanadaCentre! #FlaPanthers #Leafs", 
   "label": "O", 
   "id": 429043806164746240, 
   "hashtags": [
    "FlaPanthers", 
    "Leafs"
   ], 
   "user_mentions": [
    "AirCanadaCentre"
   ], 
   "created_at": "Fri Jan 31 00:09:49 +0000 2014", 
   "retweet_count": 5, 
   "favorite_count": 0
  }, 
  {
   "text": "View from the press box in Toronto. Cats will hope to generate some big headlines for tomorrow's papers tonight. http://t.co/6pDcq0W3GP", 
   "label": "O", 
   "id": 429040211310682113, 
   "hashtags": [], 
   "user_mentions": [], 
   "created_at": "Thu Jan 30 23:55:32 +0000 2014", 
   "retweet_count": 7, 
   "favorite_count": 6
  }, 
  {
   "text": "Cats hit the ice for warmups. Puck drops at 7.  #FlaPanthers http://t.co/LtE7ZmgdTG", 
   "label": "O", 
   "id": 429034702909878273, 
   "hashtags": [
    "FlaPanthers"
   ], 
   "user_mentions": [], 
   "created_at": "Thu Jan 30 23:33:38 +0000 2014", 
   "retweet_count": 14, 
   "favorite_count": 11
  }, 
  {
   "text": "Tonight's Game is on TV:@FoxPanthers &amp; RADIO:@560WQAM. Remember to tweet with #FlaPanthers &amp; one randomly selected fan will win a T-shirt!", 
   "label": "O", 
   "id": 429031336506974209, 
   "hashtags": [
    "FlaPanthers"
   ], 
   "user_mentions": [
    "FOXPanthers", 
    "560WQAM"
   ], 
   "created_at": "Thu Jan 30 23:20:16 +0000 2014", 
   "retweet_count": 3, 
   "favorite_count": 2
  }, 
  {
   "text": "It's the one-hour @PartyCity countdown! #Cats at #Leafs gets underway at 7 p.m. from @AirCanadaCentre.", 
   "label": "O", 
   "id": 429026803785551872, 
   "hashtags": [
    "Cats", 
    "Leafs"
   ], 
   "user_mentions": [
    "PartyCity", 
    "AirCanadaCentre"
   ], 
   "created_at": "Thu Jan 30 23:02:15 +0000 2014", 
   "retweet_count": 3, 
   "favorite_count": 7
  }, 
  {
   "text": "Get your orders in!! The Cats will look to deliver 2 points tonight as they take on the @MapleLeafs at the ACC. http://t.co/hON8YEYkuY", 
   "label": "O", 
   "id": 429023024491134978, 
   "hashtags": [], 
   "user_mentions": [
    "MapleLeafs"
   ], 
   "created_at": "Thu Jan 30 22:47:14 +0000 2014", 
   "retweet_count": 5, 
   "favorite_count": 7
  }, 
  {
   "text": "RT @tnoid: @flapanthers getting close to game time and I'm #excited to see the Cats at the #ACC", 
   "label": "O", 
   "id": 429016077914210304, 
   "hashtags": [
    "excited", 
    "ACC"
   ], 
   "user_mentions": [
    "tnoid", 
    "FlaPanthers"
   ], 
   "created_at": "Thu Jan 30 22:19:38 +0000 2014", 
   "retweet_count": 4, 
   "favorite_count": 0
  }, 
  {
   "text": "FLA at #StadiumSeries last night!--&gt;MT @ZaslowShow Still representing the @FlaPanthers at the Stadium Series in NY!...", 
   "label": "O", 
   "id": 429014012739604480, 
   "hashtags": [
    "StadiumSeries"
   ], 
   "user_mentions": [
    "ZaslowShow", 
    "FlaPanthers"
   ], 
   "created_at": "Thu Jan 30 22:11:25 +0000 2014", 
   "retweet_count": 2, 
   "favorite_count": 4
  }, 
  {
   "text": "Tonight marks the second meeting this season between the #FlaPanthers and the #Leafs. The Cats won their Dec.17 decision 3-1.", 
   "label": "O", 
   "id": 429002879287177216, 
   "hashtags": [
    "FlaPanthers", 
    "Leafs"
   ], 
   "user_mentions": [], 
   "created_at": "Thu Jan 30 21:27:11 +0000 2014", 
   "retweet_count": 5, 
   "favorite_count": 8
  }, 
  {
   "text": ".@Soflaford presented the Florida Panthers Hockey School 2013 with @JonnyHuby11. WATCH: http://t.co/mVPpscweNF", 
   "label": "O", 
   "id": 428984952450203648, 
   "hashtags": [], 
   "user_mentions": [
    "soflaford", 
    "JonnyHuby11"
   ], 
   "created_at": "Thu Jan 30 20:15:57 +0000 2014", 
   "retweet_count": 2, 
   "favorite_count": 3
  }, 
  {
   "text": "Tweet using #FlaPanthers tonight and one randomly selected winner will win this hashtag T-shirt! http://t.co/cqMu2tywNY", 
   "label": "O", 
   "id": 428959486330826752, 
   "hashtags": [
    "FlaPanthers"
   ], 
   "user_mentions": [], 
   "created_at": "Thu Jan 30 18:34:45 +0000 2014", 
   "retweet_count": 14, 
   "favorite_count": 14
  }, 
  {
   "text": "See how quickly you can spot the Coach in this shot of the sizable post-practice media scrum in TO. http://t.co/kbaSv0YjEa", 
   "label": "O", 
   "id": 428936795179737089, 
   "hashtags": [], 
   "user_mentions": [], 
   "created_at": "Thu Jan 30 17:04:35 +0000 2014", 
   "retweet_count": 2, 
   "favorite_count": 2
  }, 
  {
   "text": "Cats Assistant Coach John Madden runs the team through a morning practice drill at the ACC. #flapanthers http://t.co/dwNtkZin0T", 
   "label": "O", 
   "id": 428931203656581120, 
   "hashtags": [
    "flapanthers"
   ], 
   "user_mentions": [], 
   "created_at": "Thu Jan 30 16:42:22 +0000 2014", 
   "retweet_count": 6, 
   "favorite_count": 14
  }, 
  {
   "text": "RT @Welsher45: Going to see the @FlaPanthers play tonight in #Toronto with the wife tonight!!! #FlaPanthers #WeSeeRED #Catsare20 #Pumped", 
   "label": "O", 
   "id": 428921037070553089, 
   "hashtags": [
    "Toronto", 
    "FlaPanthers", 
    "WeSeeRED", 
    "Catsare20", 
    "Pumped"
   ], 
   "user_mentions": [
    "Welsher45", 
    "FlaPanthers"
   ], 
   "created_at": "Thu Jan 30 16:01:58 +0000 2014", 
   "retweet_count": 2, 
   "favorite_count": 0
  }, 
  {
   "text": "Isn't she cute? #FanOfTheGame--&gt;MT @panthersvision: 1/24/2014 - Giggles McGee http://t.co/wW3W4lYRpY", 
   "label": "O", 
   "id": 428913351885082624, 
   "hashtags": [
    "FanOfTheGame"
   ], 
   "user_mentions": [
    "PanthersVision"
   ], 
   "created_at": "Thu Jan 30 15:31:26 +0000 2014", 
   "retweet_count": 0, 
   "favorite_count": 5
  }, 
  {
   "text": "We know @kopy82 &amp; @Barkovsasha95 are!--&gt;RT @NBCSports: The Sochi Olympics start in ONE WEEK! RT if you can't wait! http://t.co/OECJ6WrWVb", 
   "label": "O", 
   "id": 428900644867833856, 
   "hashtags": [], 
   "user_mentions": [
    "kopy82", 
    "Barkovsasha95", 
    "NBCSports"
   ], 
   "created_at": "Thu Jan 30 14:40:56 +0000 2014", 
   "retweet_count": 12, 
   "favorite_count": 8
  }, 
  {
   "text": "Have you voted for your 20th Anniversary All-Time Team? Select your line-up HERE: http://t.co/kXFUhSDZHI #Catsare20", 
   "label": "O", 
   "id": 428892541933854720, 
   "hashtags": [
    "Catsare20"
   ], 
   "user_mentions": [], 
   "created_at": "Thu Jan 30 14:08:45 +0000 2014", 
   "retweet_count": 3, 
   "favorite_count": 6
  }, 
  {
   "text": "#FlaPanthers GAME DAY! The Cats are in Toronto where they will take on the #MapleLeafs at the @AirCanadaCentre tonight at 7 p.m.", 
   "label": "O", 
   "id": 428888817303846914, 
   "hashtags": [
    "FlaPanthers", 
    "MapleLeafs"
   ], 
   "user_mentions": [
    "AirCanadaCentre"
   ], 
   "created_at": "Thu Jan 30 13:53:57 +0000 2014", 
   "retweet_count": 16, 
   "favorite_count": 16
  }, 
  {
   "text": "RT @sarampage: RECAP: @Mhouser29 made an #AHL career-high 44 saves tonight to beat the @TexasStars 4-2. http://t.co/c742stEN0k http://t.co/\u2026", 
   "label": "O", 
   "id": 428863919420354560, 
   "hashtags": [
    "AHL"
   ], 
   "user_mentions": [
    "sarampage", 
    "Mhouser29", 
    "TexasStars"
   ], 
   "created_at": "Thu Jan 30 12:15:00 +0000 2014", 
   "retweet_count": 12, 
   "favorite_count": 0
  }
 ]
}