{
 "num_road_team_goals": "8", 
 "home_team": "Edmonton Oilers", 
 "num_home_team_goals": "1", 
 "summary_url": "http://www.flyershistory.com/cgi-bin/poboxscore.cgi?H20131064", 
 "result": "L", 
 "road_team": "Calgary Flames", 
 "date": "2014-03-22", 
 "goals": [
  {
   "season_index": "6", 
   "strength": "(PP)", 
   "time": "4:34", 
   "period": "1", 
   "player": "J.Petry", 
   "assists": "(R.Nugent-Hopkins, J.Eberle)", 
   "game_index": "1", 
   "team": "EDM"
  }, 
  {
   "season_index": "12", 
   "strength": "(EV)", 
   "time": "8:29", 
   "period": "1", 
   "player": "M.Giordano", 
   "assists": "(M.Cammalleri, T.Brodie)", 
   "game_index": "2", 
   "team": "CGY"
  }, 
  {
   "season_index": "23", 
   "strength": "(EV)", 
   "time": "4:13", 
   "period": "2", 
   "player": "M.Cammalleri", 
   "assists": "(M.Backlund)", 
   "game_index": "3", 
   "team": "CGY"
  }, 
  {
   "season_index": "11", 
   "strength": "(EV-PS)", 
   "time": "5:20", 
   "period": "2", 
   "player": "M.Stajan", 
   "assists": "(Shot)", 
   "game_index": "4", 
   "team": "CGY"
  }, 
  {
   "season_index": "6", 
   "strength": "(EV)", 
   "time": "6:00", 
   "period": "2", 
   "player": "P.Byron", 
   "assists": "(M.Cammalleri, T.Brodie)", 
   "game_index": "5", 
   "team": "CGY"
  }, 
  {
   "season_index": "8", 
   "strength": "(EV)", 
   "time": "7:18", 
   "period": "2", 
   "player": "C.Glencross", 
   "assists": "(M.Stajan, M.Giordano)", 
   "game_index": "6", 
   "team": "CGY"
  }, 
  {
   "season_index": "9", 
   "strength": "(EV)", 
   "time": "4:50", 
   "period": "3", 
   "player": "C.Glencross", 
   "assists": "(M.Stajan, J.Hudler)", 
   "game_index": "7", 
   "team": "CGY"
  }, 
  {
   "season_index": "2", 
   "strength": "(EV)", 
   "time": "5:27", 
   "period": "3", 
   "player": "K.Westgarth", 
   "assists": "(T.Wotherspoon, L.Smid)", 
   "game_index": "8", 
   "team": "CGY"
  }, 
  {
   "season_index": "10", 
   "strength": "(EV)", 
   "time": "13:19", 
   "period": "3", 
   "player": "C.Glencross", 
   "assists": "(M.Stajan, C.Butler)", 
   "game_index": "9", 
   "team": "CGY"
  }
 ], 
 "tweets": [
  {
   "text": "Cammalleri gives Lander a nice spear and the #Oilers head to 2nd intermission trailing the #Flames 5-1 | READ &gt; http://t.co/oBvYiWBBjf", 
   "label": "O", 
   "id": 447579630283665408, 
   "hashtags": [
    "Oilers", 
    "Flames"
   ], 
   "user_mentions": [], 
   "created_at": "Sun Mar 23 03:44:34 +0000 2014", 
   "retweet_count": 4, 
   "favorite_count": 3
  }, 
  {
   "text": "Big glove save by #TheProfessor to deny Hudler on the partial break.", 
   "label": "O", 
   "id": 447577575959699457, 
   "hashtags": [
    "TheProfessor"
   ], 
   "user_mentions": [], 
   "created_at": "Sun Mar 23 03:36:24 +0000 2014", 
   "retweet_count": 2, 
   "favorite_count": 16
  }, 
  {
   "text": "Glencross bursts down the left wing and beats Fasth top-shelf to make it 5-1 Calgary, Scrivens now in net for the #Oilers.", 
   "label": "O", 
   "id": 447573901225103361, 
   "hashtags": [
    "Oilers"
   ], 
   "user_mentions": [], 
   "created_at": "Sun Mar 23 03:21:48 +0000 2014", 
   "retweet_count": 9, 
   "favorite_count": 11
  }, 
  {
   "text": "4-1, Byron one-timer.", 
   "label": "O", 
   "id": 447572322627502080, 
   "hashtags": [], 
   "user_mentions": [], 
   "created_at": "Sun Mar 23 03:15:31 +0000 2014", 
   "retweet_count": 6, 
   "favorite_count": 9
  }, 
  {
   "text": "Stajan dekes to his forehand, then backhand and beats Fasth to give the #Flames a 3-1 advantage with 14:40 on the clock.", 
   "label": "O", 
   "id": 447572074425380864, 
   "hashtags": [
    "Flames"
   ], 
   "user_mentions": [], 
   "created_at": "Sun Mar 23 03:14:32 +0000 2014", 
   "retweet_count": 4, 
   "favorite_count": 5
  }, 
  {
   "text": "Penalty shot coming up for Stajan.", 
   "label": "O", 
   "id": 447571863137288192, 
   "hashtags": [], 
   "user_mentions": [], 
   "created_at": "Sun Mar 23 03:13:42 +0000 2014", 
   "retweet_count": 6, 
   "favorite_count": 8
  }, 
  {
   "text": "Backlund to Cammalleri for the wrist shot into the wide open #Oilers net and Calgary leads 2-1 with 15:47 to go in the middle frame.", 
   "label": "O", 
   "id": 447571355823648768, 
   "hashtags": [
    "Oilers"
   ], 
   "user_mentions": [], 
   "created_at": "Sun Mar 23 03:11:41 +0000 2014", 
   "retweet_count": 5, 
   "favorite_count": 5
  }, 
  {
   "text": "RT @hockeynight: A peek inside our #hockeynight control room as @NHLFlames face @EdmontonOilers. http://t.co/tNRbQjN9vG", 
   "label": "O", 
   "id": 447569625606131713, 
   "hashtags": [
    "hockeynight"
   ], 
   "user_mentions": [
    "hockeynight", 
    "NHLFlames", 
    "EdmontonOilers"
   ], 
   "created_at": "Sun Mar 23 03:04:48 +0000 2014", 
   "retweet_count": 17, 
   "favorite_count": 0
  }, 
  {
   "text": "#BattleOfAlberta couldn't be more even as we head into the 2nd period... Score 1-1, shots on goal 9-9, faceoffs won 9-9.", 
   "label": "O", 
   "id": 447569459268419584, 
   "hashtags": [
    "BattleOfAlberta"
   ], 
   "user_mentions": [], 
   "created_at": "Sun Mar 23 03:04:09 +0000 2014", 
   "retweet_count": 8, 
   "favorite_count": 15
  }, 
  {
   "text": "#BattleOfAlberta tied 1-1 through 20 mins, @PetryJ scores for the #Oilers and Giordano for the #Flames | READ &gt; http://t.co/oBvYiWBBjf", 
   "label": "O", 
   "id": 447564835253800960, 
   "hashtags": [
    "BattleOfAlberta", 
    "Oilers", 
    "Flames"
   ], 
   "user_mentions": [
    "PetryJ"
   ], 
   "created_at": "Sun Mar 23 02:45:46 +0000 2014", 
   "retweet_count": 10, 
   "favorite_count": 11
  }, 
  {
   "text": "Hard drive to the net by @hallsy04 but Ramo shuts the door.", 
   "label": "O", 
   "id": 447562534170529792, 
   "hashtags": [], 
   "user_mentions": [
    "hallsy04"
   ], 
   "created_at": "Sun Mar 23 02:36:38 +0000 2014", 
   "retweet_count": 6, 
   "favorite_count": 13
  }, 
  {
   "text": "REPLAY! Watch as @PetryJ fires a slapshot from the point past Ramo for the #Oilers power-play goal | VIDEO &gt; http://t.co/mdUGG4Vcg6", 
   "label": "O", 
   "id": 447561253150392320, 
   "hashtags": [
    "Oilers"
   ], 
   "user_mentions": [
    "PetryJ"
   ], 
   "created_at": "Sun Mar 23 02:31:32 +0000 2014", 
   "retweet_count": 5, 
   "favorite_count": 9
  }, 
  {
   "text": "And we're all tied up at 1-1 as #Flames captain Mark Giordano wires a one-timer top shelf with 11:31 left in the opening frame.", 
   "label": "O", 
   "id": 447559707247398913, 
   "hashtags": [
    "Flames"
   ], 
   "user_mentions": [], 
   "created_at": "Sun Mar 23 02:25:24 +0000 2014", 
   "retweet_count": 10, 
   "favorite_count": 13
  }, 
  {
   "text": "@huntmix ... everyone?", 
   "label": "O", 
   "id": 447559308792692736, 
   "hashtags": [], 
   "user_mentions": [
    "huntmix"
   ], 
   "created_at": "Sun Mar 23 02:23:49 +0000 2014", 
   "retweet_count": 0, 
   "favorite_count": 4
  }, 
  {
   "text": "Everybody knew it was coming! @lukegazdic vs. Westgarth Round 2 a much more even scrap, heck of an effort by both combatants!", 
   "label": "O", 
   "id": 447558845171126272, 
   "hashtags": [], 
   "user_mentions": [
    "lukegazdic"
   ], 
   "created_at": "Sun Mar 23 02:21:58 +0000 2014", 
   "retweet_count": 24, 
   "favorite_count": 23
  }, 
  {
   "text": "6th goal and 15th point of the season for @PetryJ with the PPG, assists to @RNH_93 (48th point) and @ebs_14 (54th point)", 
   "label": "O", 
   "id": 447557792920907776, 
   "hashtags": [], 
   "user_mentions": [
    "PetryJ", 
    "RNH_93", 
    "ebs_14"
   ], 
   "created_at": "Sun Mar 23 02:17:47 +0000 2014", 
   "retweet_count": 9, 
   "favorite_count": 22
  }, 
  {
   "text": "#OILERS GOOAAAAL! @PetryJ with a slap shot from the point through a stick-less Jones screen and past Ramo for the power-play tally!", 
   "label": "O", 
   "id": 447557602780536832, 
   "hashtags": [
    "OILERS"
   ], 
   "user_mentions": [
    "PetryJ"
   ], 
   "created_at": "Sun Mar 23 02:17:02 +0000 2014", 
   "retweet_count": 30, 
   "favorite_count": 41
  }, 
  {
   "text": "Westgarth gives Klefbom a shot in the mouth after the whistle and the #Oilers head to the PP 3 minutes into the game.", 
   "label": "O", 
   "id": 447557008787374080, 
   "hashtags": [
    "Oilers"
   ], 
   "user_mentions": [], 
   "created_at": "Sun Mar 23 02:14:40 +0000 2014", 
   "retweet_count": 3, 
   "favorite_count": 9
  }, 
  {
   "text": "@Sounduh Most definitely!", 
   "label": "O", 
   "id": 447556190973595648, 
   "hashtags": [], 
   "user_mentions": [
    "Sounduh"
   ], 
   "created_at": "Sun Mar 23 02:11:25 +0000 2014", 
   "retweet_count": 0, 
   "favorite_count": 0
  }, 
  {
   "text": "LET'S DO THIS! Final #BattleOfAlberta of the season is officially underway! Catch the action live on @hockeynight and @630CHED. #HNIC", 
   "label": "O", 
   "id": 447555995204464640, 
   "hashtags": [
    "BattleOfAlberta", 
    "HNIC"
   ], 
   "user_mentions": [
    "hockeynight", 
    "630CHED"
   ], 
   "created_at": "Sun Mar 23 02:10:39 +0000 2014", 
   "retweet_count": 23, 
   "favorite_count": 21
  }, 
  {
   "text": "100 years young! He's been an #Oilers fan since the beginning and we're proud to welcome Bob to his first @NHL game! http://t.co/VFlRjCldgY", 
   "label": "O", 
   "id": 447554960343830528, 
   "hashtags": [
    "Oilers"
   ], 
   "user_mentions": [
    "NHL"
   ], 
   "created_at": "Sun Mar 23 02:06:32 +0000 2014", 
   "retweet_count": 200, 
   "favorite_count": 267
  }, 
  {
   "text": "@yakcitybelieve Nope, sorry! Still nursing that sore ankle. Improving though!", 
   "label": "O", 
   "id": 447553786467217408, 
   "hashtags": [], 
   "user_mentions": [
    "yakcitybelieve"
   ], 
   "created_at": "Sun Mar 23 02:01:52 +0000 2014", 
   "retweet_count": 1, 
   "favorite_count": 3
  }, 
  {
   "text": "Tonight's #Oilers starting lineup --&gt; Fasth between the pipes, @Ferknuckle-@6Schultz6 on D, @hallsy04-@89SGagner-@DP_57 up front.", 
   "label": "O", 
   "id": 447553250909122561, 
   "hashtags": [
    "Oilers"
   ], 
   "user_mentions": [
    "Ferknuckle", 
    "6Schultz6", 
    "hallsy04", 
    "89SGagner", 
    "DP_57"
   ], 
   "created_at": "Sun Mar 23 01:59:44 +0000 2014", 
   "retweet_count": 9, 
   "favorite_count": 8
  }, 
  {
   "text": "Fasth debuting his new #Oilers mask tonight! http://t.co/nKpXydC66p", 
   "label": "O", 
   "id": 447550247447703553, 
   "hashtags": [
    "Oilers"
   ], 
   "user_mentions": [], 
   "created_at": "Sun Mar 23 01:47:48 +0000 2014", 
   "retweet_count": 56, 
   "favorite_count": 107
  }, 
  {
   "text": "--&gt; RT @prefontaine03 Kail getting ready to watch his first #Oilers game at Rexall. #BattleOfAlberta @EdmontonOilers http://t.co/oZPR9a0z1S", 
   "label": "O", 
   "id": 447547997052604417, 
   "hashtags": [
    "Oilers", 
    "BattleOfAlberta"
   ], 
   "user_mentions": [
    "prefontaine03", 
    "EdmontonOilers"
   ], 
   "created_at": "Sun Mar 23 01:38:52 +0000 2014", 
   "retweet_count": 5, 
   "favorite_count": 13
  }, 
  {
   "text": "Tonight's #BattleOfAlberta game is presented by @RogersBuzz and they've got a sweet Rogers First Rewards offer! http://t.co/91i43rClGZ", 
   "label": "O", 
   "id": 447546839420510208, 
   "hashtags": [
    "BattleOfAlberta"
   ], 
   "user_mentions": [
    "RogersBuzz"
   ], 
   "created_at": "Sun Mar 23 01:34:16 +0000 2014", 
   "retweet_count": 3, 
   "favorite_count": 4
  }, 
  {
   "text": "T it up! Check out tonight's item of the game available at The #Oilers Store in @kingswaymall and Rexall Place. http://t.co/KxcSdjFEAG", 
   "label": "O", 
   "id": 447543216749826048, 
   "hashtags": [
    "Oilers"
   ], 
   "user_mentions": [
    "kingswaymall"
   ], 
   "created_at": "Sun Mar 23 01:19:52 +0000 2014", 
   "retweet_count": 6, 
   "favorite_count": 5
  }, 
  {
   "text": "Sick mitts! Colin snags some #Oilers gear at tonight's Mini Locker Room Sale on the concourse. http://t.co/ZZsbTXSORv", 
   "label": "O", 
   "id": 447541945980968960, 
   "hashtags": [
    "Oilers"
   ], 
   "user_mentions": [], 
   "created_at": "Sun Mar 23 01:14:49 +0000 2014", 
   "retweet_count": 2, 
   "favorite_count": 5
  }, 
  {
   "text": "Jordan Eberle, back in the lineup and gracing the cover of #OilCountry! Get your free copy tonight! http://t.co/TVst20jGB8", 
   "label": "O", 
   "id": 447536300904964096, 
   "hashtags": [
    "OilCountry"
   ], 
   "user_mentions": [], 
   "created_at": "Sun Mar 23 00:52:23 +0000 2014", 
   "retweet_count": 19, 
   "favorite_count": 16
  }, 
  {
   "text": "Although we battle on the ice, we are all Albertans! @redcrosscanada selling 50/50 tonight in support of #ABflood relief. #BattleOfAlberta", 
   "label": "O", 
   "id": 447530875493048320, 
   "hashtags": [
    "ABflood", 
    "BattleOfAlberta"
   ], 
   "user_mentions": [
    "redcrosscanada"
   ], 
   "created_at": "Sun Mar 23 00:30:50 +0000 2014", 
   "retweet_count": 10, 
   "favorite_count": 18
  }, 
  {
   "text": "Nice work, @GBHKY! Bring it all home tomorrow! #UniversityCup", 
   "label": "O", 
   "id": 447518473455816704, 
   "hashtags": [
    "UniversityCup"
   ], 
   "user_mentions": [
    "GBHKY"
   ], 
   "created_at": "Sat Mar 22 23:41:33 +0000 2014", 
   "retweet_count": 24, 
   "favorite_count": 24
  }, 
  {
   "text": "PA Raiders top prospect Leon Draisaitl chats with the #yeg media following today's game vs. @EdmOilKings | VIDEO &gt; http://t.co/kwEefjra6N", 
   "label": "O", 
   "id": 447513690321854464, 
   "hashtags": [
    "yeg"
   ], 
   "user_mentions": [
    "EdmOilKings"
   ], 
   "created_at": "Sat Mar 22 23:22:32 +0000 2014", 
   "retweet_count": 6, 
   "favorite_count": 5
  }, 
  {
   "text": "RT @hockeynight: Tweet Qs now to @ScottOake and he'll bring them to @EdmontonOilers' Matt Hendricks @MattHendy26 &amp; Jordan Eberle @ebs_14 on\u2026", 
   "label": "O", 
   "id": 447494372641095681, 
   "hashtags": [], 
   "user_mentions": [
    "hockeynight", 
    "ScottOake", 
    "EdmontonOilers", 
    "MattHendy26", 
    "ebs_14", 
    "CBCAfterHours"
   ], 
   "created_at": "Sat Mar 22 22:05:47 +0000 2014", 
   "retweet_count": 8, 
   "favorite_count": 0
  }, 
  {
   "text": "Skate and smile all summer at #Oilers Hockey School presented by @RogersBuzz w/ @NHL and @TheWHL talent! Register &gt; http://t.co/9GOUKmkEw9", 
   "label": "O", 
   "id": 447491748651339777, 
   "hashtags": [
    "Oilers"
   ], 
   "user_mentions": [
    "RogersBuzz", 
    "NHL", 
    "TheWHL"
   ], 
   "created_at": "Sat Mar 22 21:55:21 +0000 2014", 
   "retweet_count": 2, 
   "favorite_count": 5
  }, 
  {
   "text": "Nice work, boys! Game 2 tomorrow --&gt; RT @EdmOilKings: Game 1 goes to the #OilKings! 5-3 the final to take a 1-0 series lead! #TakeItBack", 
   "label": "O", 
   "id": 447491471151595520, 
   "hashtags": [
    "OilKings", 
    "TakeItBack"
   ], 
   "user_mentions": [
    "EdmOilKings"
   ], 
   "created_at": "Sat Mar 22 21:54:15 +0000 2014", 
   "retweet_count": 6, 
   "favorite_count": 9
  }, 
  {
   "text": "#Oilers legends Fuhr &amp; McSorley at @RanchRoadhouse for @Molson_Canadian #GameDayLive Tweetup April 2! Free RSVP &gt; http://t.co/CU2x7KdVlU", 
   "label": "O", 
   "id": 447472809028386816, 
   "hashtags": [
    "Oilers", 
    "GameDayLive"
   ], 
   "user_mentions": [
    "RanchRoadhouse", 
    "Molson_Canadian"
   ], 
   "created_at": "Sat Mar 22 20:40:05 +0000 2014", 
   "retweet_count": 12, 
   "favorite_count": 9
  }, 
  {
   "text": "One of our #Oilers MBNA Rewards MasterCard holders redeemed his points for a VIP experience at today's morning skate! http://t.co/AUSnIJlWWQ", 
   "label": "O", 
   "id": 447465657915809793, 
   "hashtags": [
    "Oilers"
   ], 
   "user_mentions": [], 
   "created_at": "Sat Mar 22 20:11:41 +0000 2014", 
   "retweet_count": 3, 
   "favorite_count": 14
  }, 
  {
   "text": "#Oilers welcome @ebs_14 back to the lineup as they look to win the 2013-14 #BattleOfAlberta season series | VIDEO &gt; http://t.co/JSLBUKEUH8", 
   "label": "O", 
   "id": 447453284391866369, 
   "hashtags": [
    "Oilers", 
    "BattleOfAlberta"
   ], 
   "user_mentions": [
    "ebs_14"
   ], 
   "created_at": "Sat Mar 22 19:22:30 +0000 2014", 
   "retweet_count": 16, 
   "favorite_count": 21
  }, 
  {
   "text": "@ZachBear_ That one side is almost always closed. Other side is wide open. Can fit nearly 10,000 even with that one side curtained off.", 
   "label": "O", 
   "id": 447451346606645248, 
   "hashtags": [], 
   "user_mentions": [
    "ZachBear_"
   ], 
   "created_at": "Sat Mar 22 19:14:48 +0000 2014", 
   "retweet_count": 0, 
   "favorite_count": 0
  }, 
  {
   "text": "Warmups! Still plenty of time to get down to Rexall Place for today's @EdmOilKings @TheWHL Playoffs opener! http://t.co/P9W8R7kOcQ", 
   "label": "O", 
   "id": 447447708979048449, 
   "hashtags": [], 
   "user_mentions": [
    "EdmOilKings", 
    "TheWHL"
   ], 
   "created_at": "Sat Mar 22 19:00:21 +0000 2014", 
   "retweet_count": 12, 
   "favorite_count": 20
  }, 
  {
   "text": "Our @EdmOilKings open @TheWHL Playoffs today at 1:30pm at Rexall Place against Prince Albert! Purchase tickets &gt; http://t.co/SI8sxi4c4p", 
   "label": "O", 
   "id": 447442575168110592, 
   "hashtags": [], 
   "user_mentions": [
    "EdmOilKings", 
    "TheWHL"
   ], 
   "created_at": "Sat Mar 22 18:39:57 +0000 2014", 
   "retweet_count": 2, 
   "favorite_count": 4
  }, 
  {
   "text": "--&gt; RT @TheChrisWescott Inside The #Oilers: Klefbom looking to add offence &amp; more on Hendricks' leadership &gt; http://t.co/K774AaI9MA", 
   "label": "O", 
   "id": 447439258605715456, 
   "hashtags": [
    "Oilers"
   ], 
   "user_mentions": [
    "TheChrisWescott"
   ], 
   "created_at": "Sat Mar 22 18:26:46 +0000 2014", 
   "retweet_count": 1, 
   "favorite_count": 3
  }, 
  {
   "text": "@NITROMAN_88 We have an @Oil_Foundation Online Auction going on right now with some similar items &gt; http://t.co/49ROosKKWd", 
   "label": "O", 
   "id": 447438192287830018, 
   "hashtags": [], 
   "user_mentions": [
    "NITROMAN_88", 
    "Oil_Foundation"
   ], 
   "created_at": "Sat Mar 22 18:22:32 +0000 2014", 
   "retweet_count": 1, 
   "favorite_count": 0
  }, 
  {
   "text": "--&gt; RT @TheChrisWescott Morning Skate Report: Eberle returns to action as #Oilers look to earn #BattleOfAlberta win &gt; http://t.co/v42tKxH1hT", 
   "label": "O", 
   "id": 447437808743874561, 
   "hashtags": [
    "Oilers", 
    "BattleOfAlberta"
   ], 
   "user_mentions": [
    "TheChrisWescott"
   ], 
   "created_at": "Sat Mar 22 18:21:01 +0000 2014", 
   "retweet_count": 3, 
   "favorite_count": 3
  }, 
  {
   "text": "Get your game-used and practice-worn #Oilers gear at tonight's BOA game! Mini Locker Room Sale starts at 6:30pm. http://t.co/WLMw5jLFzp", 
   "label": "O", 
   "id": 447433996629065728, 
   "hashtags": [
    "Oilers"
   ], 
   "user_mentions": [], 
   "created_at": "Sat Mar 22 18:05:52 +0000 2014", 
   "retweet_count": 16, 
   "favorite_count": 28
  }, 
  {
   "text": "RT @TheStollery: Couldn't tell who was more famous! #greatday #SoManySmiles @neuro_kids @oil_foundation @EdmontonOilers http://t.co/k9CvIw7\u2026", 
   "label": "O", 
   "id": 447432542874906624, 
   "hashtags": [
    "greatday", 
    "SoManySmiles"
   ], 
   "user_mentions": [
    "TheStollery", 
    "neuro_kids", 
    "Oil_Foundation", 
    "EdmontonOilers"
   ], 
   "created_at": "Sat Mar 22 18:00:05 +0000 2014", 
   "retweet_count": 13, 
   "favorite_count": 0
  }, 
  {
   "text": "The captain spends some quality time with Skyler from #TheStollery's Neurosurgery Kids Fund. http://t.co/9Rk5SDPO6b", 
   "label": "O", 
   "id": 447432110081839104, 
   "hashtags": [
    "TheStollery"
   ], 
   "user_mentions": [], 
   "created_at": "Sat Mar 22 17:58:22 +0000 2014", 
   "retweet_count": 6, 
   "favorite_count": 13
  }, 
  {
   "text": "RT @TheStollery: Best morning! @neuro_kids @Oil_Foundation @EdmontonOilers #thankyou http://t.co/bmeZagGJaR", 
   "label": "O", 
   "id": 447429649052614656, 
   "hashtags": [
    "thankyou"
   ], 
   "user_mentions": [
    "TheStollery", 
    "neuro_kids", 
    "Oil_Foundation", 
    "EdmontonOilers"
   ], 
   "created_at": "Sat Mar 22 17:48:35 +0000 2014", 
   "retweet_count": 10, 
   "favorite_count": 0
  }, 
  {
   "text": "Watch more #BattleOfAlberta pre-game interviews with #Oilers @DP_57 (http://t.co/dtWuVp2iLm) and Coach Eakins (http://t.co/MJKKRBNHGe).", 
   "label": "O", 
   "id": 447429584074440704, 
   "hashtags": [
    "BattleOfAlberta", 
    "Oilers"
   ], 
   "user_mentions": [
    "DP_57"
   ], 
   "created_at": "Sat Mar 22 17:48:20 +0000 2014", 
   "retweet_count": 2, 
   "favorite_count": 3
  }, 
  {
   "text": "\"It was good to take a couple days and get (my knee) back to where I feel like I could play.\" @ebs_14 | VIDEO &gt; http://t.co/DFhuCp4BZ3", 
   "label": "O", 
   "id": 447426395367804929, 
   "hashtags": [], 
   "user_mentions": [
    "ebs_14"
   ], 
   "created_at": "Sat Mar 22 17:35:40 +0000 2014", 
   "retweet_count": 3, 
   "favorite_count": 5
  }, 
  {
   "text": "RT @Oil_Foundation: A great group of @neuro_kids from @TheStollery are all smiles after meeting @Ferknuckle. http://t.co/h8EgotdsMw", 
   "label": "O", 
   "id": 447424453127860225, 
   "hashtags": [], 
   "user_mentions": [
    "Oil_Foundation", 
    "neuro_kids", 
    "TheStollery", 
    "Ferknuckle"
   ], 
   "created_at": "Sat Mar 22 17:27:57 +0000 2014", 
   "retweet_count": 18, 
   "favorite_count": 0
  }, 
  {
   "text": "Coach Eakins says he's impressed with players' willingness to battle through their ailments lately despite their position in the standings.", 
   "label": "O", 
   "id": 447420556032241665, 
   "hashtags": [], 
   "user_mentions": [], 
   "created_at": "Sat Mar 22 17:12:27 +0000 2014", 
   "retweet_count": 3, 
   "favorite_count": 13
  }, 
  {
   "text": "\"You fully understand the value of a player when you're looking for him on the bench and he's not there.\" - Coach Eakins on Eberle's return", 
   "label": "O", 
   "id": 447418873868865536, 
   "hashtags": [], 
   "user_mentions": [], 
   "created_at": "Sat Mar 22 17:05:46 +0000 2014", 
   "retweet_count": 33, 
   "favorite_count": 32
  }, 
  {
   "text": "Watch Coach Eakins' live pre-game press conference heading into tonight's #BattleOfAlberta &gt; https://t.co/y4wV9u145o", 
   "label": "O", 
   "id": 447418513800433664, 
   "hashtags": [
    "BattleOfAlberta"
   ], 
   "user_mentions": [], 
   "created_at": "Sat Mar 22 17:04:20 +0000 2014", 
   "retweet_count": 3, 
   "favorite_count": 1
  }, 
  {
   "text": "#Oilers continue with goalie rotation tonight vs. Calgary --&gt; RT @TomGazzola Viktor Fasth first goalie off the ice this morning.", 
   "label": "O", 
   "id": 447418135721676800, 
   "hashtags": [
    "Oilers"
   ], 
   "user_mentions": [
    "TomGazzola"
   ], 
   "created_at": "Sat Mar 22 17:02:50 +0000 2014", 
   "retweet_count": 3, 
   "favorite_count": 3
  }, 
  {
   "text": "RT @TheStollery: So awesome to hang out with @neuro_kids and @EdmontonOilers! Thanks @Oil_Foundation for having us! #LittleHockeyFans http:\u2026", 
   "label": "O", 
   "id": 447413550852485120, 
   "hashtags": [
    "LittleHockeyFans"
   ], 
   "user_mentions": [
    "TheStollery", 
    "neuro_kids", 
    "EdmontonOilers", 
    "Oil_Foundation"
   ], 
   "created_at": "Sat Mar 22 16:44:37 +0000 2014", 
   "retweet_count": 13, 
   "favorite_count": 0
  }, 
  {
   "text": "We gave you the sneak-peek earlier this week, and now Viktor Fasth is using his new #Oilers mask! http://t.co/ILDqDKq9ge", 
   "label": "O", 
   "id": 447412484044247040, 
   "hashtags": [
    "Oilers"
   ], 
   "user_mentions": [], 
   "created_at": "Sat Mar 22 16:40:23 +0000 2014", 
   "retweet_count": 8, 
   "favorite_count": 20
  }, 
  {
   "text": "Just another perk of @RogersBuzz #Oilers Hockey School: watching practice! 2014 sign-up at http://t.co/S6s4cblLpl! http://t.co/Z0TJyRtpE2", 
   "label": "O", 
   "id": 447411498961211393, 
   "hashtags": [
    "Oilers"
   ], 
   "user_mentions": [
    "RogersBuzz"
   ], 
   "created_at": "Sat Mar 22 16:36:28 +0000 2014", 
   "retweet_count": 5, 
   "favorite_count": 7
  }, 
  {
   "text": "Eberle (knee) taking morning skate line rushes with RNH and Lander. Hall-Gagner-Perron, Hendricks-Gordon-Pitlick, Gazdic-Smyth-Jones.", 
   "label": "O", 
   "id": 447410262719488000, 
   "hashtags": [], 
   "user_mentions": [], 
   "created_at": "Sat Mar 22 16:31:33 +0000 2014", 
   "retweet_count": 10, 
   "favorite_count": 8
  }, 
  {
   "text": "RT @Oil_Foundation: Jacob &amp; other patients from @TheStollery were some of the first in the building today to watch morning skate. http://t.\u2026", 
   "label": "O", 
   "id": 447404369508450304, 
   "hashtags": [], 
   "user_mentions": [
    "Oil_Foundation", 
    "TheStollery"
   ], 
   "created_at": "Sat Mar 22 16:08:08 +0000 2014", 
   "retweet_count": 24, 
   "favorite_count": 0
  }, 
  {
   "text": "Now this should be good! Tonight's @Molson_Canadian #GameDayLive location for the 8pm #BattleOfAlberta is @HudsonsPub Whyte Ave.", 
   "label": "O", 
   "id": 447389283196743680, 
   "hashtags": [
    "GameDayLive", 
    "BattleOfAlberta"
   ], 
   "user_mentions": [
    "Molson_Canadian", 
    "HudsonsPub"
   ], 
   "created_at": "Sat Mar 22 15:08:11 +0000 2014", 
   "retweet_count": 7, 
   "favorite_count": 6
  }
 ]
}