{
 "num_road_team_goals": "2", 
 "home_team": "Edmonton Oilers", 
 "num_home_team_goals": "4", 
 "summary_url": "http://www.flyershistory.com/cgi-bin/poboxscore.cgi?H20131176", 
 "result": "W", 
 "road_team": "Anaheim Mighty Ducks", 
 "date": "2014-04-06", 
 "goals": [
  {
   "season_index": "9", 
   "strength": "(EV)", 
   "time": "1:20", 
   "period": "1", 
   "player": "J.Silfverberg", 
   "assists": "(A.Cogliano, R.Rakell)", 
   "game_index": "1", 
   "team": "ANA"
  }, 
  {
   "season_index": "27", 
   "strength": "(PP)", 
   "time": "6:17", 
   "period": "2", 
   "player": "T.Hall", 
   "assists": "(R.Nugent-Hopkins, J.Schultz)", 
   "game_index": "2", 
   "team": "EDM"
  }, 
  {
   "season_index": "27", 
   "strength": "(SH)", 
   "time": "9:21", 
   "period": "2", 
   "player": "D.Perron", 
   "assists": "(S.Gagner, P.Larsen)", 
   "game_index": "3", 
   "team": "EDM"
  }, 
  {
   "season_index": "11", 
   "strength": "(EV)", 
   "time": "16:38", 
   "period": "2", 
   "player": "J.Schultz", 
   "assists": "(J.Eberle, T.Hall)", 
   "game_index": "4", 
   "team": "EDM"
  }, 
  {
   "season_index": "42", 
   "strength": "(PP)", 
   "time": "0:25", 
   "period": "3", 
   "player": "C.Perry", 
   "assists": "(R.Getzlaf, H.Lindholm)", 
   "game_index": "5", 
   "team": "ANA"
  }, 
  {
   "season_index": "27", 
   "strength": "(EV-EN)", 
   "time": "19:46", 
   "period": "3", 
   "player": "J.Eberle", 
   "assists": "(T.Hall)", 
   "game_index": "6", 
   "team": "EDM"
  }
 ], 
 "tweets": [
  {
   "text": "VIKTORIOUS! 34 saves for Fasth tonight | http://t.co/vuUgXQkO2u", 
   "label": "O", 
   "id": 453013775675686913, 
   "hashtags": [], 
   "user_mentions": [], 
   "created_at": "Mon Apr 07 03:37:55 +0000 2014", 
   "retweet_count": 59, 
   "favorite_count": 151
  }, 
  {
   "text": "Coach Eakins reflects on tonight's #Oilers victory, particularly the 2nd period scraps and Schultz's play | VIDEO &gt; http://t.co/uvcvjaTaFN", 
   "label": "O", 
   "id": 453012401042882560, 
   "hashtags": [
    "Oilers"
   ], 
   "user_mentions": [], 
   "created_at": "Mon Apr 07 03:32:27 +0000 2014", 
   "retweet_count": 5, 
   "favorite_count": 11
  }, 
  {
   "text": "RT @Bob_Stauffer: Taylor Hall 9pts, Jordan Eberle 8 pts, RNH 5 pts last 4 GP since they have been re-united full-time", 
   "label": "O", 
   "id": 453010960165253120, 
   "hashtags": [], 
   "user_mentions": [
    "Bob_Stauffer"
   ], 
   "created_at": "Mon Apr 07 03:26:44 +0000 2014", 
   "retweet_count": 85, 
   "favorite_count": 0
  }, 
  {
   "text": "Watch #Oilers post-victory player interviews:\nFasth &gt; http://t.co/OVRE9ZH5O9\nHall &gt; http://t.co/eDDPzbBbd3\nSchultz &gt; http://t.co/ieeh9x4UBy", 
   "label": "O", 
   "id": 453010914841591808, 
   "hashtags": [
    "Oilers"
   ], 
   "user_mentions": [], 
   "created_at": "Mon Apr 07 03:26:33 +0000 2014", 
   "retweet_count": 4, 
   "favorite_count": 13
  }, 
  {
   "text": "Watch all the highlights from tonight's 4-2 #Oilers victory over the #NHLDucks | VIDEO &gt; http://t.co/x2xlqMYveU | http://t.co/0EWh25Lfvx", 
   "label": "O", 
   "id": 453009912277118976, 
   "hashtags": [
    "Oilers", 
    "NHLDucks"
   ], 
   "user_mentions": [], 
   "created_at": "Mon Apr 07 03:22:34 +0000 2014", 
   "retweet_count": 18, 
   "favorite_count": 29
  }, 
  {
   "text": "@RempelEric Not live anymore, but here you go &gt; https://t.co/AszomRxNtP", 
   "label": "O", 
   "id": 453009433090482178, 
   "hashtags": [], 
   "user_mentions": [
    "RempelEric"
   ], 
   "created_at": "Mon Apr 07 03:20:40 +0000 2014", 
   "retweet_count": 0, 
   "favorite_count": 0
  }, 
  {
   "text": "Another big night for @hallsy04! 1st star performance with a goal and two helpers, moves up to 7th in @NHL scoring. http://t.co/LZicKYpWdt", 
   "label": "O", 
   "id": 453009141091430400, 
   "hashtags": [], 
   "user_mentions": [
    "hallsy04", 
    "NHL"
   ], 
   "created_at": "Mon Apr 07 03:19:30 +0000 2014", 
   "retweet_count": 147, 
   "favorite_count": 315
  }, 
  {
   "text": "\"It was another bonding experience for our guys. They knew they were in the fight together.\" - Coach Eakins on the three 2nd period scraps", 
   "label": "O", 
   "id": 453005648054079488, 
   "hashtags": [], 
   "user_mentions": [], 
   "created_at": "Mon Apr 07 03:05:37 +0000 2014", 
   "retweet_count": 7, 
   "favorite_count": 14
  }, 
  {
   "text": "RT @EdmontonJack: 2nd victory in nine days for the Oilers over the Pacific Division leaders.  EDM 13-10-2 last 25 games.", 
   "label": "O", 
   "id": 453005191420186624, 
   "hashtags": [], 
   "user_mentions": [
    "EdmontonJack"
   ], 
   "created_at": "Mon Apr 07 03:03:48 +0000 2014", 
   "retweet_count": 25, 
   "favorite_count": 0
  }, 
  {
   "text": "\"He was working all 200 feet of the ice... It didn't surprise me he was there to bang it in.\" - Coach Eakins on @6Schultz6's game-winner", 
   "label": "O", 
   "id": 453005143403814912, 
   "hashtags": [], 
   "user_mentions": [
    "6Schultz6"
   ], 
   "created_at": "Mon Apr 07 03:03:37 +0000 2014", 
   "retweet_count": 6, 
   "favorite_count": 15
  }, 
  {
   "text": "\"We're through the pain and suffering and there's a little bit of sunlight I think.\" - Coach Eakins on 4, 57 and 14 each now at 27 goals", 
   "label": "O", 
   "id": 453004810380255232, 
   "hashtags": [], 
   "user_mentions": [], 
   "created_at": "Mon Apr 07 03:02:17 +0000 2014", 
   "retweet_count": 12, 
   "favorite_count": 10
  }, 
  {
   "text": "Avoiding the \"road trip hangover\" was key tonight says Coach Eakins. #Oilers started with short shifts and guys got engaged physically.", 
   "label": "O", 
   "id": 453004459795152896, 
   "hashtags": [
    "Oilers"
   ], 
   "user_mentions": [], 
   "created_at": "Mon Apr 07 03:00:54 +0000 2014", 
   "retweet_count": 3, 
   "favorite_count": 8
  }, 
  {
   "text": "\"The guys fought for everything for me today.\" - Fasth on the win against his former team, citing plenty of blocked shots and scrum work", 
   "label": "O", 
   "id": 453003348325568512, 
   "hashtags": [], 
   "user_mentions": [], 
   "created_at": "Mon Apr 07 02:56:29 +0000 2014", 
   "retweet_count": 6, 
   "favorite_count": 19
  }, 
  {
   "text": "\"Our line has been playing well and those points just seem to come naturally.\" - @hallsy04 on continued hot play with @ebs_14 and @RNH_93", 
   "label": "O", 
   "id": 453003094415011840, 
   "hashtags": [], 
   "user_mentions": [
    "hallsy04", 
    "ebs_14", 
    "RNH_93"
   ], 
   "created_at": "Mon Apr 07 02:55:28 +0000 2014", 
   "retweet_count": 20, 
   "favorite_count": 33
  }, 
  {
   "text": "\"We did a good job of sticking together in those scrums and fighting for each other tonight.\" - @6Schultz6 on the #Oilers victory", 
   "label": "O", 
   "id": 453002464883515392, 
   "hashtags": [
    "Oilers"
   ], 
   "user_mentions": [
    "6Schultz6"
   ], 
   "created_at": "Mon Apr 07 02:52:58 +0000 2014", 
   "retweet_count": 10, 
   "favorite_count": 22
  }, 
  {
   "text": "Tune into live #Oilers post-game &gt; https://t.co/AszomRxNtP", 
   "label": "O", 
   "id": 453000758867132416, 
   "hashtags": [
    "Oilers"
   ], 
   "user_mentions": [], 
   "created_at": "Mon Apr 07 02:46:11 +0000 2014", 
   "retweet_count": 2, 
   "favorite_count": 4
  }, 
  {
   "text": "Tonight's @Molson_Canadian Three Stars --&gt; 3) @6Schultz6 with 1G1A 2) Cogliano for the #NHLDucks 1) @hallsy04 with 1G2A!", 
   "label": "O", 
   "id": 453000559352500225, 
   "hashtags": [
    "NHLDucks"
   ], 
   "user_mentions": [
    "Molson_Canadian", 
    "6Schultz6", 
    "hallsy04"
   ], 
   "created_at": "Mon Apr 07 02:45:24 +0000 2014", 
   "retweet_count": 9, 
   "favorite_count": 19
  }, 
  {
   "text": "#OILERS WIN! @6Schultz6's goal holds up as the GWG in a 4-2 victory over the #NHLDucks tonight at Rexall Place! http://t.co/waNRW64MV1", 
   "label": "O", 
   "id": 453000033424515072, 
   "hashtags": [
    "OILERS", 
    "NHLDucks"
   ], 
   "user_mentions": [
    "6Schultz6"
   ], 
   "created_at": "Mon Apr 07 02:43:19 +0000 2014", 
   "retweet_count": 144, 
   "favorite_count": 183
  }, 
  {
   "text": "#OILERS GOOAAAAL! Empty-netter @ebs_14! 4-2 for the home team!", 
   "label": "O", 
   "id": 452999760559878144, 
   "hashtags": [
    "OILERS"
   ], 
   "user_mentions": [
    "ebs_14"
   ], 
   "created_at": "Mon Apr 07 02:42:13 +0000 2014", 
   "retweet_count": 49, 
   "favorite_count": 93
  }, 
  {
   "text": "Hiller heads to the Anaheim bench with 85 seconds remaining.", 
   "label": "O", 
   "id": 452998970726313984, 
   "hashtags": [], 
   "user_mentions": [], 
   "created_at": "Mon Apr 07 02:39:05 +0000 2014", 
   "retweet_count": 4, 
   "favorite_count": 16
  }, 
  {
   "text": "@the_gunnshow @amvanimere It's the T-Shirt Toss song... the guys who shoot the t-shirt cannons are blue...?", 
   "label": "O", 
   "id": 452997098347057152, 
   "hashtags": [], 
   "user_mentions": [
    "the_gunnshow", 
    "amvanimere"
   ], 
   "created_at": "Mon Apr 07 02:31:39 +0000 2014", 
   "retweet_count": 1, 
   "favorite_count": 1
  }, 
  {
   "text": "Final TV timeout. #Oilers hanging onto 3-2 lead with 5:36 left in the 3rd.", 
   "label": "O", 
   "id": 452996877508542465, 
   "hashtags": [
    "Oilers"
   ], 
   "user_mentions": [], 
   "created_at": "Mon Apr 07 02:30:46 +0000 2014", 
   "retweet_count": 5, 
   "favorite_count": 14
  }, 
  {
   "text": "Getzlaf gets iron on that power-play cannon from the point. Yipes!", 
   "label": "O", 
   "id": 452993116736200704, 
   "hashtags": [], 
   "user_mentions": [], 
   "created_at": "Mon Apr 07 02:15:49 +0000 2014", 
   "retweet_count": 3, 
   "favorite_count": 2
  }, 
  {
   "text": "Keep cheering on your #Oilers with @scotiahockey High Five for a chance to win with every goal. Visit https://t.co/z2o4V8R3aB to play!", 
   "label": "O", 
   "id": 452991710654525440, 
   "hashtags": [
    "Oilers"
   ], 
   "user_mentions": [
    "scotiahockey"
   ], 
   "created_at": "Mon Apr 07 02:10:14 +0000 2014", 
   "retweet_count": 3, 
   "favorite_count": 9
  }, 
  {
   "text": "Perry becoming a bigger thorn in the #Oilers side by the game, scoring 25 seconds into the 3rd period on the PP. 3-2 Edmonton.", 
   "label": "O", 
   "id": 452990978279108608, 
   "hashtags": [
    "Oilers"
   ], 
   "user_mentions": [], 
   "created_at": "Mon Apr 07 02:07:20 +0000 2014", 
   "retweet_count": 5, 
   "favorite_count": 9
  }, 
  {
   "text": "One more for good measure! Watch as @6Schultz6 completes the #Oilers trifecta of goals in the middle frame | VIDEO &gt; http://t.co/hLFtVKC1nf", 
   "label": "O", 
   "id": 452986900262178816, 
   "hashtags": [
    "Oilers"
   ], 
   "user_mentions": [
    "6Schultz6"
   ], 
   "created_at": "Mon Apr 07 01:51:07 +0000 2014", 
   "retweet_count": 2, 
   "favorite_count": 7
  }, 
  {
   "text": "How 'bout that middle frame?! Three goals, three fights (@hallsy04, @DP_57, @6Schultz6) and a 3-1 lead | READ &gt; http://t.co/XFNUdnkWfI", 
   "label": "O", 
   "id": 452986281530626048, 
   "hashtags": [], 
   "user_mentions": [
    "hallsy04", 
    "DP_57", 
    "6Schultz6"
   ], 
   "created_at": "Mon Apr 07 01:48:40 +0000 2014", 
   "retweet_count": 7, 
   "favorite_count": 20
  }, 
  {
   "text": "@fgaileysnell Haha, yup! We get that one a lot!", 
   "label": "O", 
   "id": 452985229045547008, 
   "hashtags": [], 
   "user_mentions": [
    "fgaileysnell"
   ], 
   "created_at": "Mon Apr 07 01:44:29 +0000 2014", 
   "retweet_count": 0, 
   "favorite_count": 1
  }, 
  {
   "text": "You scored your 27th goal, eh @hallsy04? No worries, I can match that! Watch the replay of @DP_57's SHG | VIDEO &gt; http://t.co/JAPfYx0qk3", 
   "label": "O", 
   "id": 452985063957753856, 
   "hashtags": [], 
   "user_mentions": [
    "hallsy04", 
    "DP_57"
   ], 
   "created_at": "Mon Apr 07 01:43:49 +0000 2014", 
   "retweet_count": 7, 
   "favorite_count": 14
  }, 
  {
   "text": "2nd point of the night, 32nd of the season for @6Schultz6 while @ebs_14 (63rd point) and @hallsy04 (76th point) pick up the helpers.", 
   "label": "O", 
   "id": 452984757979062272, 
   "hashtags": [], 
   "user_mentions": [
    "6Schultz6", 
    "ebs_14", 
    "hallsy04"
   ], 
   "created_at": "Mon Apr 07 01:42:37 +0000 2014", 
   "retweet_count": 10, 
   "favorite_count": 11
  }, 
  {
   "text": "#OILERS GOOOAAAAL! @6Schultz6 bangs in the loose puck at the side of the net and its 3-1 with 3:22 to go in the middle frame!", 
   "label": "O", 
   "id": 452984478198030336, 
   "hashtags": [
    "OILERS"
   ], 
   "user_mentions": [
    "6Schultz6"
   ], 
   "created_at": "Mon Apr 07 01:41:30 +0000 2014", 
   "retweet_count": 39, 
   "favorite_count": 65
  }, 
  {
   "text": "#WrestleMania also happening right now. Coincidence?", 
   "label": "O", 
   "id": 452983409531711488, 
   "hashtags": [
    "WrestleMania"
   ], 
   "user_mentions": [], 
   "created_at": "Mon Apr 07 01:37:15 +0000 2014", 
   "retweet_count": 42, 
   "favorite_count": 67
  }, 
  {
   "text": "Fraser dropping rights on the back of Maroon's head. Third scrap of the middle frame! 3rd game in 10 days for the teams, can you tell?", 
   "label": "O", 
   "id": 452982933507538944, 
   "hashtags": [], 
   "user_mentions": [], 
   "created_at": "Mon Apr 07 01:35:22 +0000 2014", 
   "retweet_count": 9, 
   "favorite_count": 14
  }, 
  {
   "text": "ROUND 3! Fraser and Maroon this time!", 
   "label": "O", 
   "id": 452982471324602368, 
   "hashtags": [], 
   "user_mentions": [], 
   "created_at": "Mon Apr 07 01:33:31 +0000 2014", 
   "retweet_count": 15, 
   "favorite_count": 17
  }, 
  {
   "text": "Pinizzotto and Beleskey jawing during the faceoff, each guy gets a 10-minute misconduct. Hendricks and Getzlaf chirping as well.", 
   "label": "O", 
   "id": 452982268156727297, 
   "hashtags": [], 
   "user_mentions": [], 
   "created_at": "Mon Apr 07 01:32:43 +0000 2014", 
   "retweet_count": 5, 
   "favorite_count": 9
  }, 
  {
   "text": "Replays! Get your replays here! Watch as @hallsy04 gets the #Oilers on the board earlier this period | VIDEO &gt; http://t.co/UvaACX9qbc", 
   "label": "O", 
   "id": 452981216892178432, 
   "hashtags": [
    "Oilers"
   ], 
   "user_mentions": [
    "hallsy04"
   ], 
   "created_at": "Mon Apr 07 01:28:32 +0000 2014", 
   "retweet_count": 5, 
   "favorite_count": 8
  }, 
  {
   "text": "Tie once again for the #Oilers goal-scoring lead as @hallsy04 and @DP_57 have each scored their 27th during the middle frame.", 
   "label": "O", 
   "id": 452980631341764608, 
   "hashtags": [
    "Oilers"
   ], 
   "user_mentions": [
    "hallsy04", 
    "DP_57"
   ], 
   "created_at": "Mon Apr 07 01:26:13 +0000 2014", 
   "retweet_count": 15, 
   "favorite_count": 13
  }, 
  {
   "text": "Since the Anaheim penalty had just expired, that one counts as a shorty for @DP_57 as he tallies his 27th goal and 56th point!", 
   "label": "O", 
   "id": 452980438718369793, 
   "hashtags": [], 
   "user_mentions": [
    "DP_57"
   ], 
   "created_at": "Mon Apr 07 01:25:27 +0000 2014", 
   "retweet_count": 8, 
   "favorite_count": 7
  }, 
  {
   "text": "#OILERS GOOOAAAAL! @DP_57 with the wrist shot that squeaks through Hiller's pads and in to make it 2-1 from @89SGagner and @PLarsen36.", 
   "label": "O", 
   "id": 452980200666443776, 
   "hashtags": [
    "OILERS"
   ], 
   "user_mentions": [
    "DP_57", 
    "89SGagner", 
    "PLarsen36"
   ], 
   "created_at": "Mon Apr 07 01:24:30 +0000 2014", 
   "retweet_count": 30, 
   "favorite_count": 48
  }, 
  {
   "text": "@fgaileysnell Haha, he most certainly did not! \"Nuuuuuuuuuge!\"", 
   "label": "O", 
   "id": 452979897351168001, 
   "hashtags": [], 
   "user_mentions": [
    "fgaileysnell"
   ], 
   "created_at": "Mon Apr 07 01:23:18 +0000 2014", 
   "retweet_count": 0, 
   "favorite_count": 0
  }, 
  {
   "text": "@bickfordjesse For Calgary? Not too sure...", 
   "label": "O", 
   "id": 452979353517711360, 
   "hashtags": [], 
   "user_mentions": [
    "bickfordjesse"
   ], 
   "created_at": "Mon Apr 07 01:21:08 +0000 2014", 
   "retweet_count": 0, 
   "favorite_count": 1
  }, 
  {
   "text": "RT @ReidWilkins: Maroon has three inches and 20 pounds on Hendricks. Hendricks doesn't care.", 
   "label": "O", 
   "id": 452978681502109696, 
   "hashtags": [], 
   "user_mentions": [
    "ReidWilkins"
   ], 
   "created_at": "Mon Apr 07 01:18:28 +0000 2014", 
   "retweet_count": 26, 
   "favorite_count": 0
  }, 
  {
   "text": "For @6Schultz6, the power-play assist is his 31st point of the season, while @RNH_93's setup gives him his 54th point.", 
   "label": "O", 
   "id": 452978646400004100, 
   "hashtags": [], 
   "user_mentions": [
    "6Schultz6", 
    "RNH_93"
   ], 
   "created_at": "Mon Apr 07 01:18:19 +0000 2014", 
   "retweet_count": 7, 
   "favorite_count": 12
  }, 
  {
   "text": "Back to the goal, point pass from @6Schultz6 to @RNH_93 on the half-wall to @hallsy04 down low for his 27th goal and 75th point.", 
   "label": "O", 
   "id": 452978264231796736, 
   "hashtags": [], 
   "user_mentions": [
    "6Schultz6", 
    "RNH_93", 
    "hallsy04"
   ], 
   "created_at": "Mon Apr 07 01:16:48 +0000 2014", 
   "retweet_count": 9, 
   "favorite_count": 17
  }, 
  {
   "text": "Another scrap! @MattHendy26 and Maroon duking it out this time and the #Oilers winger lands a few punishing lefts to win it!", 
   "label": "O", 
   "id": 452978106039427072, 
   "hashtags": [
    "Oilers"
   ], 
   "user_mentions": [
    "MattHendy26"
   ], 
   "created_at": "Mon Apr 07 01:16:11 +0000 2014", 
   "retweet_count": 21, 
   "favorite_count": 18
  }, 
  {
   "text": "#OILERS GOOOAAAL! @hallsy04 bangs one in from the side of the net on the power play and we've got a 1-1 tie, 13:43 to go in the 2nd!", 
   "label": "O", 
   "id": 452977822844215296, 
   "hashtags": [
    "OILERS"
   ], 
   "user_mentions": [
    "hallsy04"
   ], 
   "created_at": "Mon Apr 07 01:15:03 +0000 2014", 
   "retweet_count": 33, 
   "favorite_count": 62
  }, 
  {
   "text": "@EHeels10 Our guy wins that one too. Take it from the tweeter!", 
   "label": "O", 
   "id": 452976295140282368, 
   "hashtags": [], 
   "user_mentions": [
    "EHeels10"
   ], 
   "created_at": "Mon Apr 07 01:08:59 +0000 2014", 
   "retweet_count": 0, 
   "favorite_count": 0
  }, 
  {
   "text": "Beleskey and Pinizzotto engaged in a lengthy discussion from the sin bins.", 
   "label": "O", 
   "id": 452975519772839936, 
   "hashtags": [], 
   "user_mentions": [], 
   "created_at": "Mon Apr 07 01:05:54 +0000 2014", 
   "retweet_count": 3, 
   "favorite_count": 19
  }, 
  {
   "text": "Decisive fight victory for @stevepinizzotto in his #Oilers home debut!", 
   "label": "O", 
   "id": 452975158672642048, 
   "hashtags": [
    "Oilers"
   ], 
   "user_mentions": [
    "stevepinizzotto"
   ], 
   "created_at": "Mon Apr 07 01:04:28 +0000 2014", 
   "retweet_count": 17, 
   "favorite_count": 23
  }, 
  {
   "text": "Hendricks trying to get Beleskey to scrap with him on that faceoff but the #NHLDucks forward opts for Pinizzotto instead!", 
   "label": "O", 
   "id": 452974975767412736, 
   "hashtags": [
    "NHLDucks"
   ], 
   "user_mentions": [], 
   "created_at": "Mon Apr 07 01:03:44 +0000 2014", 
   "retweet_count": 5, 
   "favorite_count": 9
  }, 
  {
   "text": "#Oilers get 43 seconds of power-play time as we're underway in the 2nd.", 
   "label": "O", 
   "id": 452974317253308416, 
   "hashtags": [
    "Oilers"
   ], 
   "user_mentions": [], 
   "created_at": "Mon Apr 07 01:01:07 +0000 2014", 
   "retweet_count": 3, 
   "favorite_count": 4
  }, 
  {
   "text": "#NHLDucks lead #Oilers 1-0 through 20 mins on Silfverberg's early goal, Edmonton to open middle frame on PP | READ &gt; http://t.co/XFNUdnkWfI", 
   "label": "O", 
   "id": 452970618833494016, 
   "hashtags": [
    "NHLDucks", 
    "Oilers"
   ], 
   "user_mentions": [], 
   "created_at": "Mon Apr 07 00:46:25 +0000 2014", 
   "retweet_count": 6, 
   "favorite_count": 5
  }, 
  {
   "text": "@BrettMoyse Rally monkey?! Let's hope!", 
   "label": "O", 
   "id": 452970329262919680, 
   "hashtags": [], 
   "user_mentions": [
    "BrettMoyse"
   ], 
   "created_at": "Mon Apr 07 00:45:16 +0000 2014", 
   "retweet_count": 0, 
   "favorite_count": 0
  }, 
  {
   "text": "Robidas off for hooking to put the #Oilers on the PP late 1st!", 
   "label": "O", 
   "id": 452969382004551680, 
   "hashtags": [
    "Oilers"
   ], 
   "user_mentions": [], 
   "created_at": "Mon Apr 07 00:41:31 +0000 2014", 
   "retweet_count": 3, 
   "favorite_count": 1
  }, 
  {
   "text": "@NHLbyMatty Better call Chief Wiggum for the assault on Reverend Lovejoy.", 
   "label": "O", 
   "id": 452967984177225728, 
   "hashtags": [], 
   "user_mentions": [
    "NHLbyMatty"
   ], 
   "created_at": "Mon Apr 07 00:35:57 +0000 2014", 
   "retweet_count": 5, 
   "favorite_count": 12
  }, 
  {
   "text": "Heck of a sliding pad save by Hiller there as @DP_57 scorched a pass to Smytty on the doorstep to no avail. #NHLDucks still lead 1-0.", 
   "label": "O", 
   "id": 452967721064353792, 
   "hashtags": [
    "NHLDucks"
   ], 
   "user_mentions": [
    "DP_57"
   ], 
   "created_at": "Mon Apr 07 00:34:55 +0000 2014", 
   "retweet_count": 4, 
   "favorite_count": 3
  }, 
  {
   "text": "Acton with a beauty feed to Hendricks but the point-blank shot is denied by Hiller, #Oilers best chance of the game thus far.", 
   "label": "O", 
   "id": 452965555037667328, 
   "hashtags": [
    "Oilers"
   ], 
   "user_mentions": [], 
   "created_at": "Mon Apr 07 00:26:18 +0000 2014", 
   "retweet_count": 5, 
   "favorite_count": 1
  }, 
  {
   "text": "Nuge with a glorious chance in front but is denied by Hiller and takes a spill. He's slow to get up but skates to the bench fine.", 
   "label": "O", 
   "id": 452963864817041408, 
   "hashtags": [], 
   "user_mentions": [], 
   "created_at": "Mon Apr 07 00:19:35 +0000 2014", 
   "retweet_count": 3, 
   "favorite_count": 13
  }, 
  {
   "text": "Silfverberg's first shot is saved by Fasth, rebound bounces off Gagner's skate and into the net, Anaheim leads 1-0 just 80 seconds in.", 
   "label": "O", 
   "id": 452962210348679168, 
   "hashtags": [], 
   "user_mentions": [], 
   "created_at": "Mon Apr 07 00:13:01 +0000 2014", 
   "retweet_count": 6, 
   "favorite_count": 2
  }, 
  {
   "text": "GAME ON! #Oilers and #NHLDucks underway from Rexall Place! Watch live on @NHLonTSN, tune @EdmontonJack and @Bob_Stauffer on @630CHED.", 
   "label": "O", 
   "id": 452961519706206208, 
   "hashtags": [
    "Oilers", 
    "NHLDucks"
   ], 
   "user_mentions": [
    "NHLonTSN", 
    "EdmontonJack", 
    "Bob_Stauffer", 
    "630CHED"
   ], 
   "created_at": "Mon Apr 07 00:10:16 +0000 2014", 
   "retweet_count": 5, 
   "favorite_count": 8
  }, 
  {
   "text": "@KurtLeavins You guys ARE hardcore!", 
   "label": "O", 
   "id": 452959864675770368, 
   "hashtags": [], 
   "user_mentions": [
    "KurtLeavins"
   ], 
   "created_at": "Mon Apr 07 00:03:41 +0000 2014", 
   "retweet_count": 0, 
   "favorite_count": 1
  }, 
  {
   "text": "#Oilers starting lineup --&gt; Fasth between the pipes, @MartinMarincin-@PetryJ on defence and @hallsy04-@RNH_93-@ebs_14 up front.", 
   "label": "O", 
   "id": 452959628330950656, 
   "hashtags": [
    "Oilers"
   ], 
   "user_mentions": [
    "MartinMarincin", 
    "PetryJ", 
    "hallsy04", 
    "RNH_93", 
    "ebs_14"
   ], 
   "created_at": "Mon Apr 07 00:02:45 +0000 2014", 
   "retweet_count": 5, 
   "favorite_count": 4
  }, 
  {
   "text": "Klefbom good to go for tonight. Larsen in, Pitlick (knee) not playing.", 
   "label": "O", 
   "id": 452959359937806337, 
   "hashtags": [], 
   "user_mentions": [], 
   "created_at": "Mon Apr 07 00:01:41 +0000 2014", 
   "retweet_count": 9, 
   "favorite_count": 9
  }, 
  {
   "text": "@StevieGoller That's the beauty of it. That prize is up for grabs to EVERYONE! Just complete the form and you're entered.", 
   "label": "O", 
   "id": 452958448674959361, 
   "hashtags": [], 
   "user_mentions": [
    "StevieGoller"
   ], 
   "created_at": "Sun Apr 06 23:58:04 +0000 2014", 
   "retweet_count": 0, 
   "favorite_count": 1
  }, 
  {
   "text": "Love this! --&gt; RT @TheRealKendo In one of my favourite spots. Hoping for a big @EdmontonOilers win tonight! http://t.co/yX7By9btTR", 
   "label": "O", 
   "id": 452957914701889536, 
   "hashtags": [], 
   "user_mentions": [
    "TheRealKendo", 
    "EdmontonOilers"
   ], 
   "created_at": "Sun Apr 06 23:55:57 +0000 2014", 
   "retweet_count": 8, 
   "favorite_count": 19
  }, 
  {
   "text": "@krching2 Believe it's a remix of Drake's \"The Motto\"!", 
   "label": "O", 
   "id": 452957511000129537, 
   "hashtags": [], 
   "user_mentions": [
    "krching2"
   ], 
   "created_at": "Sun Apr 06 23:54:20 +0000 2014", 
   "retweet_count": 1, 
   "favorite_count": 1
  }, 
  {
   "text": "RT @TheChrisWescott: #Oilers affiliate #OKCBarons climb to 7th with weekend series sweep of Charlotte to stay in the AHL playoff race", 
   "label": "O", 
   "id": 452957097253011456, 
   "hashtags": [
    "Oilers", 
    "OKCBarons"
   ], 
   "user_mentions": [
    "TheChrisWescott"
   ], 
   "created_at": "Sun Apr 06 23:52:42 +0000 2014", 
   "retweet_count": 6, 
   "favorite_count": 0
  }, 
  {
   "text": "It's a family affair for the Dobia clan from Grande Prairie for tonight's #Oilers vs. #NHLDucks game! http://t.co/e9l6mqeMYI", 
   "label": "O", 
   "id": 452956820663828480, 
   "hashtags": [
    "Oilers", 
    "NHLDucks"
   ], 
   "user_mentions": [], 
   "created_at": "Sun Apr 06 23:51:36 +0000 2014", 
   "retweet_count": 3, 
   "favorite_count": 14
  }, 
  {
   "text": "RT @okcbarons: #OKCBarons defeat the Charlotte Checkers, 6-4! Recap coming soon to http://t.co/S0QxtG0SIp. http://t.co/fhgliwqIAR", 
   "label": "O", 
   "id": 452953148194185216, 
   "hashtags": [
    "OKCBarons"
   ], 
   "user_mentions": [
    "okcbarons"
   ], 
   "created_at": "Sun Apr 06 23:37:00 +0000 2014", 
   "retweet_count": 11, 
   "favorite_count": 0
  }, 
  {
   "text": "Most definitely! Congrats, you two! --&gt; RT @ksyrota @EdmontonOilers Can we get a retweet for our Oilers Honeymoon? http://t.co/EnQEB69dnv", 
   "label": "O", 
   "id": 452952843968724992, 
   "hashtags": [], 
   "user_mentions": [
    "ksyrota", 
    "EdmontonOilers"
   ], 
   "created_at": "Sun Apr 06 23:35:48 +0000 2014", 
   "retweet_count": 27, 
   "favorite_count": 53
  }, 
  {
   "text": "@love_doctor4 8pm ET, 6pm MT", 
   "label": "O", 
   "id": 452952573201240066, 
   "hashtags": [], 
   "user_mentions": [
    "love_doctor4"
   ], 
   "created_at": "Sun Apr 06 23:34:43 +0000 2014", 
   "retweet_count": 0, 
   "favorite_count": 0
  }, 
  {
   "text": "Warmup time! http://t.co/4szyTZWS11", 
   "label": "O", 
   "id": 452951364272795648, 
   "hashtags": [], 
   "user_mentions": [], 
   "created_at": "Sun Apr 06 23:29:55 +0000 2014", 
   "retweet_count": 13, 
   "favorite_count": 40
  }, 
  {
   "text": "@Oilkings44 We will announce the date soon! Stay tuned.", 
   "label": "O", 
   "id": 452950206892367873, 
   "hashtags": [], 
   "user_mentions": [
    "Oilkings44"
   ], 
   "created_at": "Sun Apr 06 23:25:19 +0000 2014", 
   "retweet_count": 0, 
   "favorite_count": 1
  }, 
  {
   "text": "RT @ENMAX: Check out our booth in the concourse at tonight's @EdmontonOilers game and get a free #ENMAXmoment photo! #YEG http://t.co/aNJvT\u2026", 
   "label": "O", 
   "id": 452950032850096128, 
   "hashtags": [
    "ENMAXmoment", 
    "YEG"
   ], 
   "user_mentions": [
    "ENMAX", 
    "EdmontonOilers"
   ], 
   "created_at": "Sun Apr 06 23:24:37 +0000 2014", 
   "retweet_count": 3, 
   "favorite_count": 0
  }, 
  {
   "text": "Want to win a trip to the @NHL Awards in #Vegas? Simply enter online as part of #Oilers Fan Appreciation Night &gt; http://t.co/iQGFjs2ldk", 
   "label": "O", 
   "id": 452945109408292864, 
   "hashtags": [
    "Vegas", 
    "Oilers"
   ], 
   "user_mentions": [
    "NHL"
   ], 
   "created_at": "Sun Apr 06 23:05:04 +0000 2014", 
   "retweet_count": 2, 
   "favorite_count": 13
  }, 
  {
   "text": "Make #Oilers vs. #NHLDucks game predictions for a shot at 2014-15 season tix w/ #lastfanstanding presented by #MBNA &gt; http://t.co/pDyWmOHBqK", 
   "label": "O", 
   "id": 452936443187724288, 
   "hashtags": [
    "Oilers", 
    "NHLDucks", 
    "lastfanstanding", 
    "MBNA"
   ], 
   "user_mentions": [], 
   "created_at": "Sun Apr 06 22:30:37 +0000 2014", 
   "retweet_count": 2, 
   "favorite_count": 4
  }, 
  {
   "text": "Special edition youth black jerseys are today's feature item at The #Oilers Store in @kingswaymall and Rexall Place! http://t.co/zYVUMRWHgI", 
   "label": "O", 
   "id": 452926335896125441, 
   "hashtags": [
    "Oilers"
   ], 
   "user_mentions": [
    "kingswaymall"
   ], 
   "created_at": "Sun Apr 06 21:50:28 +0000 2014", 
   "retweet_count": 4, 
   "favorite_count": 7
  }, 
  {
   "text": "G'day, mates! Genevieve &amp; Kevin Maguire from Melbourne, Australia made it to a recent #Oilers game! #OilersSnapshots http://t.co/BjUI4AZPXL", 
   "label": "O", 
   "id": 452914734942023680, 
   "hashtags": [
    "Oilers", 
    "OilersSnapshots"
   ], 
   "user_mentions": [], 
   "created_at": "Sun Apr 06 21:04:22 +0000 2014", 
   "retweet_count": 8, 
   "favorite_count": 37
  }, 
  {
   "text": "Check out Billy Budds Restaurant &amp; Lounge (9839 63 Ave NW) for tonight's @Molson_Canadian #GameDayLive! #Oilers vs. Anaheim 6pm MT.", 
   "label": "O", 
   "id": 452904487363956736, 
   "hashtags": [
    "GameDayLive", 
    "Oilers"
   ], 
   "user_mentions": [
    "Molson_Canadian"
   ], 
   "created_at": "Sun Apr 06 20:23:39 +0000 2014", 
   "retweet_count": 2, 
   "favorite_count": 2
  }, 
  {
   "text": "Corey Perry scored twice and set up the GWG last Wed vs. #Oilers. @EdmontonJack chats w/ the #NHLDucks RW | VIDEO &gt; http://t.co/ohFoE70fg9", 
   "label": "O", 
   "id": 452891425043017728, 
   "hashtags": [
    "Oilers", 
    "NHLDucks"
   ], 
   "user_mentions": [
    "EdmontonJack"
   ], 
   "created_at": "Sun Apr 06 19:31:44 +0000 2014", 
   "retweet_count": 4, 
   "favorite_count": 2
  }, 
  {
   "text": "--&gt; RT @TheChrisWescott Inside the #Oilers: Coach Dallas Eakins reflects on changes made this season &amp; more &gt; http://t.co/K774AaI9MA", 
   "label": "O", 
   "id": 452882340230856704, 
   "hashtags": [
    "Oilers"
   ], 
   "user_mentions": [
    "TheChrisWescott"
   ], 
   "created_at": "Sun Apr 06 18:55:38 +0000 2014", 
   "retweet_count": 2, 
   "favorite_count": 5
  }, 
  {
   "text": "\"If we play that well again as a team, we'll have a great chance of winning.\" #Oilers set to host Anaheim | VIDEO &gt; http://t.co/ItvuPdqHke", 
   "label": "O", 
   "id": 452872625954357248, 
   "hashtags": [
    "Oilers"
   ], 
   "user_mentions": [], 
   "created_at": "Sun Apr 06 18:17:02 +0000 2014", 
   "retweet_count": 7, 
   "favorite_count": 9
  }, 
  {
   "text": "#Oilers vs. #NHLDucks preview --&gt; RT @TheChrisWescott More on tonight's game in the #Oilers Morning Skate Report &gt; http://t.co/dW0lzMvfTc", 
   "label": "O", 
   "id": 452867999611899905, 
   "hashtags": [
    "Oilers", 
    "NHLDucks", 
    "Oilers"
   ], 
   "user_mentions": [
    "TheChrisWescott"
   ], 
   "created_at": "Sun Apr 06 17:58:39 +0000 2014", 
   "retweet_count": 3, 
   "favorite_count": 3
  }, 
  {
   "text": "Coach Eakins discusses the #Oilers outlook on the final four games, provides an update on Klefbom &amp; more | VIDEO &gt; http://t.co/gNzSZ4BFev", 
   "label": "O", 
   "id": 452858908676087808, 
   "hashtags": [
    "Oilers"
   ], 
   "user_mentions": [], 
   "created_at": "Sun Apr 06 17:22:32 +0000 2014", 
   "retweet_count": 4, 
   "favorite_count": 8
  }, 
  {
   "text": "Watch more #Oilers pre-game chatter with @ebs_14 and Viktor Fasth:\nEbs &gt; http://t.co/xbGD2DaUMI | Fasth &gt; http://t.co/wCjwPPy7t3", 
   "label": "O", 
   "id": 452857263405805569, 
   "hashtags": [
    "Oilers"
   ], 
   "user_mentions": [
    "ebs_14"
   ], 
   "created_at": "Sun Apr 06 17:15:59 +0000 2014", 
   "retweet_count": 3, 
   "favorite_count": 3
  }, 
  {
   "text": "\"It's feeling a lot better today and hopefully I get back in the lineup.\" #Oilers @Pitty687 (bruised knee) | VIDEO &gt; http://t.co/6fENZqEpLL", 
   "label": "O", 
   "id": 452856282282598400, 
   "hashtags": [
    "Oilers"
   ], 
   "user_mentions": [
    "Pitty687"
   ], 
   "created_at": "Sun Apr 06 17:12:06 +0000 2014", 
   "retweet_count": 2, 
   "favorite_count": 3
  }, 
  {
   "text": "RT @EdmontonJack: Teemu Selanne will be scratched tonight.  Career numbers against the Oilers:  49-43-92 in 84 games.", 
   "label": "O", 
   "id": 452855692982906880, 
   "hashtags": [], 
   "user_mentions": [
    "EdmontonJack"
   ], 
   "created_at": "Sun Apr 06 17:09:45 +0000 2014", 
   "retweet_count": 10, 
   "favorite_count": 0
  }, 
  {
   "text": "\"He's taking steps forward and still learning his trade.\" - Coach Eakins on Petry, who leads the #Oilers in hits (171) and blocks (121)", 
   "label": "O", 
   "id": 452842950427303936, 
   "hashtags": [
    "Oilers"
   ], 
   "user_mentions": [], 
   "created_at": "Sun Apr 06 16:19:07 +0000 2014", 
   "retweet_count": 5, 
   "favorite_count": 6
  }, 
  {
   "text": "RT @EdmontonJack: Klefbom a little banged up but he may try to gut it out tonight.  If he plays, my hunch is Larsen moves up front, Pitlick\u2026", 
   "label": "O", 
   "id": 452842434406256640, 
   "hashtags": [], 
   "user_mentions": [
    "EdmontonJack"
   ], 
   "created_at": "Sun Apr 06 16:17:04 +0000 2014", 
   "retweet_count": 8, 
   "favorite_count": 0
  }, 
  {
   "text": "Klefbom will take warmup and is 50/50 for tonight says Coach Eakins.", 
   "label": "O", 
   "id": 452842391980875776, 
   "hashtags": [], 
   "user_mentions": [], 
   "created_at": "Sun Apr 06 16:16:54 +0000 2014", 
   "retweet_count": 8, 
   "favorite_count": 8
  }, 
  {
   "text": "\"I practice it a lot... It's a nice feeling when you get the goalie to bite and can help with the win.\" - Gagner on Friday's shootout move", 
   "label": "O", 
   "id": 452840016822038528, 
   "hashtags": [], 
   "user_mentions": [], 
   "created_at": "Sun Apr 06 16:07:28 +0000 2014", 
   "retweet_count": 7, 
   "favorite_count": 19
  }, 
  {
   "text": "\"We want to end with a good feeling and start looking forward to next season. I want to end on a high note.\" - Fasth, starts vs. former team", 
   "label": "O", 
   "id": 452838805641240577, 
   "hashtags": [], 
   "user_mentions": [], 
   "created_at": "Sun Apr 06 16:02:39 +0000 2014", 
   "retweet_count": 5, 
   "favorite_count": 12
  }, 
  {
   "text": "\"We feel good about the road trip. We played three solid games... We want to give our fans something to feel good about this week.\" - Eberle", 
   "label": "O", 
   "id": 452838514187448320, 
   "hashtags": [], 
   "user_mentions": [], 
   "created_at": "Sun Apr 06 16:01:29 +0000 2014", 
   "retweet_count": 8, 
   "favorite_count": 15
  }, 
  {
   "text": "RT @EdmontonJack: Fasth starts vs Anaheim.  Hall 4-8-12 last 10 games, Eberle 5-7-12 last 8.  Klefbom out, Pitlick in, Larsen back on D.", 
   "label": "O", 
   "id": 452837863575396354, 
   "hashtags": [], 
   "user_mentions": [
    "EdmontonJack"
   ], 
   "created_at": "Sun Apr 06 15:58:54 +0000 2014", 
   "retweet_count": 12, 
   "favorite_count": 0
  }, 
  {
   "text": "RT @Bob_Stauffer: Hall-RNH-Eberle, Lander-Gagner-Perron, Smyth-Gordon-Pinizotto, Hendricks-Acton-Pitlick, Marincin-Petry, Belov-Schultz, Fr\u2026", 
   "label": "O", 
   "id": 452832432379547649, 
   "hashtags": [], 
   "user_mentions": [
    "Bob_Stauffer"
   ], 
   "created_at": "Sun Apr 06 15:37:19 +0000 2014", 
   "retweet_count": 9, 
   "favorite_count": 0
  }, 
  {
   "text": "--&gt; RT @Bob_Stauffer Klefbom not on the ice for the Oilers morning skate, everyone else including Ference and Pitlick accounted for.", 
   "label": "O", 
   "id": 452832404671963136, 
   "hashtags": [], 
   "user_mentions": [
    "Bob_Stauffer"
   ], 
   "created_at": "Sun Apr 06 15:37:13 +0000 2014", 
   "retweet_count": 2, 
   "favorite_count": 1
  }
 ]
}