{
 "num_road_team_goals": "4", 
 "home_team": "Edmonton Oilers", 
 "num_home_team_goals": "2", 
 "summary_url": "http://www.flyershistory.com/cgi-bin/poboxscore.cgi?H20130967", 
 "result": "L", 
 "road_team": "Los Angeles Kings", 
 "date": "2014-03-09", 
 "goals": [
  {
   "season_index": "23", 
   "strength": "(EV)", 
   "time": "1:36", 
   "period": "1", 
   "player": "J.Carter", 
   "assists": "(T.Toffoli)", 
   "game_index": "1", 
   "team": "L.A"
  }, 
  {
   "season_index": "22", 
   "strength": "(EV)", 
   "time": "7:24", 
   "period": "1", 
   "player": "T.Hall", 
   "assists": "(D.Perron, S.Gagner)", 
   "game_index": "2", 
   "team": "EDM"
  }, 
  {
   "season_index": "7", 
   "strength": "(EV)", 
   "time": "8:49", 
   "period": "2", 
   "player": "A.Martinez", 
   "assists": "(R.Regehr, D.Brown)", 
   "game_index": "3", 
   "team": "L.A"
  }, 
  {
   "season_index": "24", 
   "strength": "(PP)", 
   "time": "10:16", 
   "period": "2", 
   "player": "J.Carter", 
   "assists": "(A.Kopitar, S.Voynov)", 
   "game_index": "4", 
   "team": "L.A"
  }, 
  {
   "season_index": "3", 
   "strength": "(EV)", 
   "time": "15:49", 
   "period": "2", 
   "player": "T.Lewis", 
   "assists": "(J.Carter)", 
   "game_index": "5", 
   "team": "L.A"
  }, 
  {
   "season_index": "7", 
   "strength": "(EV)", 
   "time": "2:05", 
   "period": "3", 
   "player": "S.Gagner", 
   "assists": "(T.Hall, J.Schultz)", 
   "game_index": "6", 
   "team": "EDM"
  }
 ], 
 "tweets": [
  {
   "text": "Coach Eakins assesses tonight's #Oilers effort against the #LAKings, particularly own-zone turnovers | VIDEO &gt; http://t.co/cWUKGILNzc", 
   "label": "O", 
   "id": 442866718143041536, 
   "hashtags": [
    "Oilers", 
    "LAKings"
   ], 
   "user_mentions": [], 
   "created_at": "Mon Mar 10 03:37:08 +0000 2014", 
   "retweet_count": 5, 
   "favorite_count": 6
  }, 
  {
   "text": "@jgordon_jim Did we say that? Obviously we want the two points.", 
   "label": "O", 
   "id": 442865042858332160, 
   "hashtags": [], 
   "user_mentions": [
    "jgordon_jim"
   ], 
   "created_at": "Mon Mar 10 03:30:28 +0000 2014", 
   "retweet_count": 1, 
   "favorite_count": 0
  }, 
  {
   "text": "\"I think he is just what this team needed here in Edmonton.\" #LAKings Quick on former teammate @scrivens_30 | VIDEO &gt; http://t.co/F3pKyLmkuJ", 
   "label": "O", 
   "id": 442863989802819584, 
   "hashtags": [
    "LAKings"
   ], 
   "user_mentions": [
    "scrivens_30"
   ], 
   "created_at": "Mon Mar 10 03:26:17 +0000 2014", 
   "retweet_count": 13, 
   "favorite_count": 18
  }, 
  {
   "text": "Despite tonight's loss, the #Oilers did score a pair of nifty goals vs. LA. Check out the highlights | VIDEO &gt; http://t.co/yeDhBApXpO", 
   "label": "O", 
   "id": 442863449198964736, 
   "hashtags": [
    "Oilers"
   ], 
   "user_mentions": [], 
   "created_at": "Mon Mar 10 03:24:08 +0000 2014", 
   "retweet_count": 3, 
   "favorite_count": 5
  }, 
  {
   "text": "#Oilers post-game interviews:\n@scrivens_30 &gt; http://t.co/0Za5wb63YT\n@hallsy04 &gt; http://t.co/R9OmCcf3Ef\n@6Schultz6 &gt; http://t.co/89TJtRyyGa", 
   "label": "O", 
   "id": 442860665087086594, 
   "hashtags": [
    "Oilers"
   ], 
   "user_mentions": [
    "scrivens_30", 
    "hallsy04", 
    "6Schultz6"
   ], 
   "created_at": "Mon Mar 10 03:13:05 +0000 2014", 
   "retweet_count": 4, 
   "favorite_count": 12
  }, 
  {
   "text": "\"You have no control over how many shots get taken, so you just have to prepare for anything and everything.\" @scrivens_30 post-game", 
   "label": "O", 
   "id": 442853844674826240, 
   "hashtags": [], 
   "user_mentions": [
    "scrivens_30"
   ], 
   "created_at": "Mon Mar 10 02:45:59 +0000 2014", 
   "retweet_count": 10, 
   "favorite_count": 20
  }, 
  {
   "text": "#Oilers post-game interviews coming up momentarily. Watch them live right here &gt; http://t.co/QXqN02tXfE", 
   "label": "O", 
   "id": 442851916716855296, 
   "hashtags": [
    "Oilers"
   ], 
   "user_mentions": [], 
   "created_at": "Mon Mar 10 02:38:19 +0000 2014", 
   "retweet_count": 3, 
   "favorite_count": 3
  }, 
  {
   "text": "#Oilers get goals from @hallsy04 and @89SGagner plus 46 saves from @scrivens_30 but fall 4-2 to #LAKings | READ &gt; http://t.co/CZFhALf3Cr", 
   "label": "O", 
   "id": 442851184223596544, 
   "hashtags": [
    "Oilers", 
    "LAKings"
   ], 
   "user_mentions": [
    "hallsy04", 
    "89SGagner", 
    "scrivens_30"
   ], 
   "created_at": "Mon Mar 10 02:35:24 +0000 2014", 
   "retweet_count": 10, 
   "favorite_count": 7
  }, 
  {
   "text": "Masterful no-look pass by @ebs_14 from the corner right on @Nail10_1993's tape but Quick denies him and it remains 4-2 late 3rd.", 
   "label": "O", 
   "id": 442850093046063104, 
   "hashtags": [], 
   "user_mentions": [
    "ebs_14", 
    "Nail10_1993"
   ], 
   "created_at": "Mon Mar 10 02:31:04 +0000 2014", 
   "retweet_count": 4, 
   "favorite_count": 7
  }, 
  {
   "text": "#Oilers vs. St. Louis @Molson_Canadian #GameDayLive Tweetup this Thursday at @TheCDNBrewhouse Ellerslie! RSVP &gt; http://t.co/ozWpUMWBIx", 
   "label": "O", 
   "id": 442848614725853184, 
   "hashtags": [
    "Oilers", 
    "GameDayLive"
   ], 
   "user_mentions": [
    "Molson_Canadian", 
    "TheCDNBrewhouse"
   ], 
   "created_at": "Mon Mar 10 02:25:12 +0000 2014", 
   "retweet_count": 5, 
   "favorite_count": 8
  }, 
  {
   "text": "45 saves for #TheProfessor thus far! http://t.co/z3XWDioMU1", 
   "label": "O", 
   "id": 442847846614581248, 
   "hashtags": [
    "TheProfessor"
   ], 
   "user_mentions": [], 
   "created_at": "Mon Mar 10 02:22:09 +0000 2014", 
   "retweet_count": 52, 
   "favorite_count": 106
  }, 
  {
   "text": "RT @Condors: PIC: How good was this guy tonight? @LBrossoit with 36 saves and 7 in the shootout. #Condorstown | http://t.co/VoBC1X7F6s", 
   "label": "O", 
   "id": 442847425187700736, 
   "hashtags": [
    "Condorstown"
   ], 
   "user_mentions": [
    "Condors", 
    "LBrossoit"
   ], 
   "created_at": "Mon Mar 10 02:20:28 +0000 2014", 
   "retweet_count": 21, 
   "favorite_count": 0
  }, 
  {
   "text": "Schultz just drew a penalty and now he's been given the second assist on Gagner's goal, giving @6Schultz6 his 25th point.", 
   "label": "O", 
   "id": 442846014135734272, 
   "hashtags": [], 
   "user_mentions": [
    "6Schultz6"
   ], 
   "created_at": "Mon Mar 10 02:14:52 +0000 2014", 
   "retweet_count": 4, 
   "favorite_count": 9
  }, 
  {
   "text": "@dabigbeastie The PP had just ended, teams were playing 4-on-4. Close!", 
   "label": "O", 
   "id": 442845742785257472, 
   "hashtags": [], 
   "user_mentions": [
    "dabigbeastie"
   ], 
   "created_at": "Mon Mar 10 02:13:47 +0000 2014", 
   "retweet_count": 0, 
   "favorite_count": 0
  }, 
  {
   "text": "Kopitar trips up Schultz, #Oilers PP with 13:40 on the clock!", 
   "label": "O", 
   "id": 442845556495233024, 
   "hashtags": [
    "Oilers"
   ], 
   "user_mentions": [], 
   "created_at": "Mon Mar 10 02:13:03 +0000 2014", 
   "retweet_count": 0, 
   "favorite_count": 4
  }, 
  {
   "text": "Scratch that, goal given to @89SGagner (7th tally, 30th point), @hallsy04 picks up 2nd point of the game, team-leading 61st of season.", 
   "label": "O", 
   "id": 442843976274419712, 
   "hashtags": [], 
   "user_mentions": [
    "89SGagner", 
    "hallsy04"
   ], 
   "created_at": "Mon Mar 10 02:06:46 +0000 2014", 
   "retweet_count": 15, 
   "favorite_count": 18
  }, 
  {
   "text": "#OILERS GOOOAAAL! So close to being the PPG franchise record-breaker but Smytty cuts the lead to 4-2 on a great pass from Gagner!", 
   "label": "O", 
   "id": 442843605724430337, 
   "hashtags": [
    "OILERS"
   ], 
   "user_mentions": [], 
   "created_at": "Mon Mar 10 02:05:17 +0000 2014", 
   "retweet_count": 13, 
   "favorite_count": 34
  }, 
  {
   "text": "Richards draws a crowd at the #Oilers net now after giving Scrivens an extra jab after the whistle. Tensions certainly mounting.", 
   "label": "O", 
   "id": 442843227839012864, 
   "hashtags": [
    "Oilers"
   ], 
   "user_mentions": [], 
   "created_at": "Mon Mar 10 02:03:47 +0000 2014", 
   "retweet_count": 2, 
   "favorite_count": 5
  }, 
  {
   "text": "Both teams' goal-scoring leaders, Perron and Carter, getting into it after the whistle now as we're playing 4-on-4 hockey.", 
   "label": "O", 
   "id": 442842960015925248, 
   "hashtags": [], 
   "user_mentions": [], 
   "created_at": "Mon Mar 10 02:02:43 +0000 2014", 
   "retweet_count": 2, 
   "favorite_count": 3
  }, 
  {
   "text": "Joensuu and Nolan exchange a few more words from the penalty box after the late 2nd period sucker punch. 3rd frame underway!", 
   "label": "O", 
   "id": 442842334342811648, 
   "hashtags": [], 
   "user_mentions": [], 
   "created_at": "Mon Mar 10 02:00:14 +0000 2014", 
   "retweet_count": 1, 
   "favorite_count": 7
  }, 
  {
   "text": "Happy b-day to hardcore #Oilers fan Margaret Grove who recently turned 99 and got a fitting jersey! #OilersSnapshots http://t.co/37718Zk0pq", 
   "label": "O", 
   "id": 442839712756019200, 
   "hashtags": [
    "Oilers", 
    "OilersSnapshots"
   ], 
   "user_mentions": [], 
   "created_at": "Mon Mar 10 01:49:49 +0000 2014", 
   "retweet_count": 19, 
   "favorite_count": 50
  }, 
  {
   "text": "LA puts three on the board in the middle frame to lead 4-1 through 40, #Oilers start 3rd with power play | READ &gt; http://t.co/CZFhALf3Cr", 
   "label": "O", 
   "id": 442838083315060736, 
   "hashtags": [
    "Oilers"
   ], 
   "user_mentions": [], 
   "created_at": "Mon Mar 10 01:43:21 +0000 2014", 
   "retweet_count": 5, 
   "favorite_count": 3
  }, 
  {
   "text": "Nolan getting boo'd off the ice after clobbering Joensuu with a left hook as the linesmen were holding back both of Jesse's arms.", 
   "label": "O", 
   "id": 442837537497698304, 
   "hashtags": [], 
   "user_mentions": [], 
   "created_at": "Mon Mar 10 01:41:11 +0000 2014", 
   "retweet_count": 12, 
   "favorite_count": 15
  }, 
  {
   "text": "Lewis with the redirect from the slot and it's 4-1 LA w/ 4:11 left in 2nd.", 
   "label": "O", 
   "id": 442835265816494080, 
   "hashtags": [], 
   "user_mentions": [], 
   "created_at": "Mon Mar 10 01:32:09 +0000 2014", 
   "retweet_count": 9, 
   "favorite_count": 6
  }, 
  {
   "text": "Crossbar for Justin and the unfortunate puck luck tonight continues...", 
   "label": "O", 
   "id": 442835038531366912, 
   "hashtags": [], 
   "user_mentions": [], 
   "created_at": "Mon Mar 10 01:31:15 +0000 2014", 
   "retweet_count": 2, 
   "favorite_count": 12
  }, 
  {
   "text": "Oh baby! Congrats! --&gt; RT @kc_biddiscombe Little Gretzky in the making #babyshower @EdmontonOilers http://t.co/vNCfinRfD6", 
   "label": "O", 
   "id": 442834415979212800, 
   "hashtags": [
    "babyshower"
   ], 
   "user_mentions": [
    "kc_biddiscombe", 
    "EdmontonOilers"
   ], 
   "created_at": "Mon Mar 10 01:28:46 +0000 2014", 
   "retweet_count": 6, 
   "favorite_count": 13
  }, 
  {
   "text": "RT @JenScrivs: I take back that dinner I made you last night @amartinez_27 !! Thought we had an understanding...", 
   "label": "O", 
   "id": 442833182597980161, 
   "hashtags": [], 
   "user_mentions": [
    "JenScrivs", 
    "amartinez_27"
   ], 
   "created_at": "Mon Mar 10 01:23:52 +0000 2014", 
   "retweet_count": 243, 
   "favorite_count": 0
  }, 
  {
   "text": "--&gt; RT @Schesbalz Hey @EdmontonOilers, we represented this afternoon at the @WaskatenauCC winning the \"A\" final! http://t.co/GAHqR7zxj7", 
   "label": "O", 
   "id": 442833125651931136, 
   "hashtags": [], 
   "user_mentions": [
    "Schesbalz", 
    "EdmontonOilers", 
    "WaskatenauCC"
   ], 
   "created_at": "Mon Mar 10 01:23:39 +0000 2014", 
   "retweet_count": 8, 
   "favorite_count": 12
  }, 
  {
   "text": "With Gagner in the box for high-sticking, Kopitar's shot is stopped by Scrivens but then goes off Carter's skate and in. 3-1 LA.", 
   "label": "O", 
   "id": 442832225898209280, 
   "hashtags": [], 
   "user_mentions": [], 
   "created_at": "Mon Mar 10 01:20:04 +0000 2014", 
   "retweet_count": 5, 
   "favorite_count": 7
  }, 
  {
   "text": "@linziejaneen Woop woop! Hope she has an awesome night!", 
   "label": "O", 
   "id": 442831547041722370, 
   "hashtags": [], 
   "user_mentions": [
    "linziejaneen"
   ], 
   "created_at": "Mon Mar 10 01:17:22 +0000 2014", 
   "retweet_count": 0, 
   "favorite_count": 2
  }, 
  {
   "text": "Martinez's point shot goes through a bunch of traffic and gets past Scrivens to give LA a 2-1 lead with 11:11 to go in the 2nd.", 
   "label": "O", 
   "id": 442831344859508736, 
   "hashtags": [], 
   "user_mentions": [], 
   "created_at": "Mon Mar 10 01:16:34 +0000 2014", 
   "retweet_count": 2, 
   "favorite_count": 4
  }, 
  {
   "text": "Anyone at @TheCDNBrewhouse right now? Tweet a #selfie with the menu and a @Molson_Canadian w/ #CanadianVIP to win! http://t.co/D6pesPNn8g", 
   "label": "O", 
   "id": 442826889917239297, 
   "hashtags": [
    "selfie", 
    "CanadianVIP"
   ], 
   "user_mentions": [
    "TheCDNBrewhouse", 
    "Molson_Canadian"
   ], 
   "created_at": "Mon Mar 10 00:58:53 +0000 2014", 
   "retweet_count": 9, 
   "favorite_count": 4
  }, 
  {
   "text": "#Oilers out-hitting #LAKings 15-6, won 68% of faceoffs in the 1st period.", 
   "label": "O", 
   "id": 442825104452358144, 
   "hashtags": [
    "Oilers", 
    "LAKings"
   ], 
   "user_mentions": [], 
   "created_at": "Mon Mar 10 00:51:46 +0000 2014", 
   "retweet_count": 13, 
   "favorite_count": 18
  }, 
  {
   "text": "Some big shorthanded saves by Scrivens keep the game tied 1-1 through 20! Hall &amp; Carter with the goals | READ &gt; http://t.co/CZFhALf3Cr", 
   "label": "O", 
   "id": 442823159733960704, 
   "hashtags": [], 
   "user_mentions": [], 
   "created_at": "Mon Mar 10 00:44:03 +0000 2014", 
   "retweet_count": 12, 
   "favorite_count": 10
  }, 
  {
   "text": "@theroyalhalf Sadly, you didn't include your seat location... No prize for you.", 
   "label": "O", 
   "id": 442822406793461760, 
   "hashtags": [], 
   "user_mentions": [
    "theroyalhalf"
   ], 
   "created_at": "Mon Mar 10 00:41:03 +0000 2014", 
   "retweet_count": 2, 
   "favorite_count": 11
  }, 
  {
   "text": "More backhand brilliance! #Oilers come very close to taking a 2-1 lead with some more slick passing but Quick keeps it out.", 
   "label": "O", 
   "id": 442821186766921728, 
   "hashtags": [
    "Oilers"
   ], 
   "user_mentions": [], 
   "created_at": "Mon Mar 10 00:36:12 +0000 2014", 
   "retweet_count": 6, 
   "favorite_count": 10
  }, 
  {
   "text": "Puck movement and finish executed to perfection on this first #Oilers tally! Watch the @hallsy04 replay | VIDEO &gt; http://t.co/gr7DqStqQd", 
   "label": "O", 
   "id": 442820548209278976, 
   "hashtags": [
    "Oilers"
   ], 
   "user_mentions": [
    "hallsy04"
   ], 
   "created_at": "Mon Mar 10 00:33:40 +0000 2014", 
   "retweet_count": 7, 
   "favorite_count": 12
  }, 
  {
   "text": "No argument here --&gt; RT @LAKings As if Scrivens couldn't get any cooler, he paints a @aof_official heart on his mask. http://t.co/sCvhdUjInw", 
   "label": "O", 
   "id": 442819915032969217, 
   "hashtags": [], 
   "user_mentions": [
    "LAKings", 
    "aof_official"
   ], 
   "created_at": "Mon Mar 10 00:31:09 +0000 2014", 
   "retweet_count": 187, 
   "favorite_count": 202
  }, 
  {
   "text": "@EMA_GoKingsGo Oh, but it was.", 
   "label": "O", 
   "id": 442818211075997696, 
   "hashtags": [], 
   "user_mentions": [
    "EMA_GoKingsGo"
   ], 
   "created_at": "Mon Mar 10 00:24:23 +0000 2014", 
   "retweet_count": 0, 
   "favorite_count": 2
  }, 
  {
   "text": "@chrismwyman Three more call-ups we can make with OKC.", 
   "label": "O", 
   "id": 442817398001762304, 
   "hashtags": [], 
   "user_mentions": [
    "chrismwyman"
   ], 
   "created_at": "Mon Mar 10 00:21:09 +0000 2014", 
   "retweet_count": 0, 
   "favorite_count": 0
  }, 
  {
   "text": "22nd goal and 60th point for @hallsy04 on the equalizer, @DP_57 45th point on the filthy setup, @89SGagner 29th point w/ other helper.", 
   "label": "O", 
   "id": 442817258457284608, 
   "hashtags": [], 
   "user_mentions": [
    "hallsy04", 
    "DP_57", 
    "89SGagner"
   ], 
   "created_at": "Mon Mar 10 00:20:36 +0000 2014", 
   "retweet_count": 13, 
   "favorite_count": 28
  }, 
  {
   "text": "#OILERS GOOOAAAAL! AND WHAT A GOAL! @DP_57 with the ridiculous backhand pass to @hallsy04 for the backhand deke tally! 1-1 tie game!", 
   "label": "O", 
   "id": 442817023178178560, 
   "hashtags": [
    "OILERS"
   ], 
   "user_mentions": [
    "DP_57", 
    "hallsy04"
   ], 
   "created_at": "Mon Mar 10 00:19:40 +0000 2014", 
   "retweet_count": 36, 
   "favorite_count": 86
  }, 
  {
   "text": "@Oil_Foundation Who's the Dark Horse to win this sweet prize?!", 
   "label": "O", 
   "id": 442816482792075265, 
   "hashtags": [], 
   "user_mentions": [
    "Oil_Foundation"
   ], 
   "created_at": "Mon Mar 10 00:17:31 +0000 2014", 
   "retweet_count": 3, 
   "favorite_count": 3
  }, 
  {
   "text": "Carter slides the puck toward the net for Toffoli but it hits Larsen's skate on the way and goes in, 1-0 LA, 18:24 left in 1st.", 
   "label": "O", 
   "id": 442815074483204096, 
   "hashtags": [], 
   "user_mentions": [], 
   "created_at": "Mon Mar 10 00:11:55 +0000 2014", 
   "retweet_count": 4, 
   "favorite_count": 5
  }, 
  {
   "text": "LET'S DO THIS! #Oilers and #LAKings underway! Watch live on @Sportsnet West, listen to @EdmontonJack and @Bob_Stauffer on @630CHED!", 
   "label": "O", 
   "id": 442814397954539521, 
   "hashtags": [
    "Oilers", 
    "LAKings"
   ], 
   "user_mentions": [
    "Sportsnet", 
    "EdmontonJack", 
    "Bob_Stauffer", 
    "630CHED"
   ], 
   "created_at": "Mon Mar 10 00:09:14 +0000 2014", 
   "retweet_count": 7, 
   "favorite_count": 10
  }, 
  {
   "text": "Boys night out! #Oilers fans Al, Vincent, Emerson &amp; Dylan from Stony Plain are ready for some puck! http://t.co/WfrdeDqI8S", 
   "label": "O", 
   "id": 442813331481837570, 
   "hashtags": [
    "Oilers"
   ], 
   "user_mentions": [], 
   "created_at": "Mon Mar 10 00:04:59 +0000 2014", 
   "retweet_count": 5, 
   "favorite_count": 13
  }, 
  {
   "text": "RT @Sportsnet: LIVE NOW: #NHL action --\nLos Angeles Kings vs. @EdmontonOilers on @Sportsnet West; Restrictions Apply: http://t.co/v4IrDROH0Y", 
   "label": "O", 
   "id": 442812663538520064, 
   "hashtags": [
    "NHL"
   ], 
   "user_mentions": [
    "Sportsnet", 
    "EdmontonOilers", 
    "Sportsnet"
   ], 
   "created_at": "Mon Mar 10 00:02:20 +0000 2014", 
   "retweet_count": 3, 
   "favorite_count": 0
  }, 
  {
   "text": "Tonight's #Oilers starters vs. #LAKings --&gt; @scrivens_30 in net, @Ferknuckle-@6Schultz6 on D, @MattHendy26-Gordon-@jouneri6 up front.", 
   "label": "O", 
   "id": 442811771800125441, 
   "hashtags": [
    "Oilers", 
    "LAKings"
   ], 
   "user_mentions": [
    "scrivens_30", 
    "Ferknuckle", 
    "6Schultz6", 
    "MattHendy26", 
    "jouneri6"
   ], 
   "created_at": "Sun Mar 09 23:58:48 +0000 2014", 
   "retweet_count": 13, 
   "favorite_count": 9
  }, 
  {
   "text": "RT @TheChrisWescott: Pretty incredible how @Barons_Coach has #Oilers affiliate playing right now. Nothing fazes them. 6-0-0-1 in last 7, 12\u2026", 
   "label": "O", 
   "id": 442810653762277376, 
   "hashtags": [
    "Oilers"
   ], 
   "user_mentions": [
    "TheChrisWescott", 
    "Barons_Coach"
   ], 
   "created_at": "Sun Mar 09 23:54:21 +0000 2014", 
   "retweet_count": 12, 
   "favorite_count": 0
  }, 
  {
   "text": "RT @Bob_Stauffer: Roman Horak picks up 1-3-4 as the OKC Barons rally from 4-2 to defeat Rochester 5-4 today. Horak now has 38 points in 44 \u2026", 
   "label": "O", 
   "id": 442809882949853184, 
   "hashtags": [], 
   "user_mentions": [
    "Bob_Stauffer"
   ], 
   "created_at": "Sun Mar 09 23:51:17 +0000 2014", 
   "retweet_count": 14, 
   "favorite_count": 0
  }, 
  {
   "text": "RT @okcbarons: #OKCBarons GOAL!!!! Davidson scores from just in front of the net to give the Barons a 5-4 OT win!! Recap coming to http://t\u2026", 
   "label": "O", 
   "id": 442809835482914816, 
   "hashtags": [
    "OKCBarons"
   ], 
   "user_mentions": [
    "okcbarons"
   ], 
   "created_at": "Sun Mar 09 23:51:06 +0000 2014", 
   "retweet_count": 3, 
   "favorite_count": 0
  }, 
  {
   "text": "Representing the 306! #CommissionerGordon --&gt; RT @destiny_1414 Sask boys!! @EdmontonOilers http://t.co/38afv6WB9F", 
   "label": "O", 
   "id": 442809195134349312, 
   "hashtags": [
    "CommissionerGordon"
   ], 
   "user_mentions": [
    "destiny_1414", 
    "EdmontonOilers"
   ], 
   "created_at": "Sun Mar 09 23:48:33 +0000 2014", 
   "retweet_count": 10, 
   "favorite_count": 13
  }, 
  {
   "text": "RT @ENMAX: Check out our booth in the concourse at tonight's @EdmontonOilers game and get a free photo! #YEG", 
   "label": "O", 
   "id": 442808977303146497, 
   "hashtags": [
    "YEG"
   ], 
   "user_mentions": [
    "ENMAX", 
    "EdmontonOilers"
   ], 
   "created_at": "Sun Mar 09 23:47:41 +0000 2014", 
   "retweet_count": 2, 
   "favorite_count": 0
  }, 
  {
   "text": "Warmup time at Rexall Place! #Oilers wrap up five-game homestand tonight against #LAKings. http://t.co/sgqRT7qhI0", 
   "label": "O", 
   "id": 442805581959921665, 
   "hashtags": [
    "Oilers", 
    "LAKings"
   ], 
   "user_mentions": [], 
   "created_at": "Sun Mar 09 23:34:12 +0000 2014", 
   "retweet_count": 7, 
   "favorite_count": 3
  }, 
  {
   "text": "RT @Oil_Foundation: The kids from the Boys &amp; Girls Club in Wetaskiwin are ready to cheer on @89SGagner and the #Oilers tonight! http://t.co\u2026", 
   "label": "O", 
   "id": 442801516177412097, 
   "hashtags": [
    "Oilers"
   ], 
   "user_mentions": [
    "Oil_Foundation", 
    "89SGagner"
   ], 
   "created_at": "Sun Mar 09 23:18:02 +0000 2014", 
   "retweet_count": 8, 
   "favorite_count": 0
  }, 
  {
   "text": "@LAKings Something like this? http://t.co/bVYVnxEWZg", 
   "label": "O", 
   "id": 442800987950940161, 
   "hashtags": [], 
   "user_mentions": [
    "LAKings"
   ], 
   "created_at": "Sun Mar 09 23:15:57 +0000 2014", 
   "retweet_count": 13, 
   "favorite_count": 44
  }, 
  {
   "text": "It's T-shirt weather in #OilCountry! Grab a brand new one at The #Oilers Store in @kingswaymall and Rexall Place! http://t.co/N8ENDHaqvl", 
   "label": "O", 
   "id": 442794079340855297, 
   "hashtags": [
    "OilCountry", 
    "Oilers"
   ], 
   "user_mentions": [
    "kingswaymall"
   ], 
   "created_at": "Sun Mar 09 22:48:30 +0000 2014", 
   "retweet_count": 10, 
   "favorite_count": 16
  }, 
  {
   "text": "@Jill_Kristine Oh we know. Isn't it glorious?!", 
   "label": "O", 
   "id": 442782898702123008, 
   "hashtags": [], 
   "user_mentions": [
    "Jill_Kristine"
   ], 
   "created_at": "Sun Mar 09 22:04:04 +0000 2014", 
   "retweet_count": 1, 
   "favorite_count": 2
  }, 
  {
   "text": "Awfully nice of the @LAKings to bring the #SoCal weather with them!", 
   "label": "O", 
   "id": 442781266895577088, 
   "hashtags": [
    "SoCal"
   ], 
   "user_mentions": [
    "LAKings"
   ], 
   "created_at": "Sun Mar 09 21:57:35 +0000 2014", 
   "retweet_count": 57, 
   "favorite_count": 127
  }, 
  {
   "text": "@SPaszko @Oilerland @Oilfan Sorry everyone, we haven't been able to track it down yet. All cameras were on the the dogpile.", 
   "label": "O", 
   "id": 442781045163700224, 
   "hashtags": [], 
   "user_mentions": [
    "SPaszko", 
    "Oilerland", 
    "Oilfan"
   ], 
   "created_at": "Sun Mar 09 21:56:42 +0000 2014", 
   "retweet_count": 0, 
   "favorite_count": 1
  }, 
  {
   "text": "Our deepest condolences to @NHLFlames fwd Matt Stajan &amp; family. All of #OilCountry's thoughts and prayers are with you right now.", 
   "label": "O", 
   "id": 442773715583901696, 
   "hashtags": [
    "OilCountry"
   ], 
   "user_mentions": [
    "NHLFlames"
   ], 
   "created_at": "Sun Mar 09 21:27:34 +0000 2014", 
   "retweet_count": 396, 
   "favorite_count": 258
  }, 
  {
   "text": "At 7-2-2 in their last 11 games, the #Oilers look to maintain their strong play tonight vs. #LAKings | VIDEO &gt; http://t.co/rOv6BH51Va", 
   "label": "O", 
   "id": 442763374493839360, 
   "hashtags": [
    "Oilers", 
    "LAKings"
   ], 
   "user_mentions": [], 
   "created_at": "Sun Mar 09 20:46:29 +0000 2014", 
   "retweet_count": 18, 
   "favorite_count": 14
  }, 
  {
   "text": "GABBO IS COMING... to Rexall Place tonight for the first time with the #LAKings | VIDEO &gt; http://t.co/pvCoiAeBUE | http://t.co/DyBNvppzfH", 
   "label": "O", 
   "id": 442738612740689920, 
   "hashtags": [
    "LAKings"
   ], 
   "user_mentions": [], 
   "created_at": "Sun Mar 09 19:08:05 +0000 2014", 
   "retweet_count": 53, 
   "favorite_count": 61
  }, 
  {
   "text": "Enter the #BetterStateExperience contest from @StateFarmCanada for a chance at an exclusive #Oilers experience &gt; http://t.co/qS6I9wprtm", 
   "label": "O", 
   "id": 442735430195490817, 
   "hashtags": [
    "BetterStateExperience", 
    "Oilers"
   ], 
   "user_mentions": [
    "StateFarmCanada"
   ], 
   "created_at": "Sun Mar 09 18:55:26 +0000 2014", 
   "retweet_count": 2, 
   "favorite_count": 3
  }, 
  {
   "text": "@BaileyLAKings Born ready, Bailey. Born ready!", 
   "label": "O", 
   "id": 442734058976468992, 
   "hashtags": [], 
   "user_mentions": [
    "BaileyLAKings"
   ], 
   "created_at": "Sun Mar 09 18:49:59 +0000 2014", 
   "retweet_count": 2, 
   "favorite_count": 5
  }, 
  {
   "text": "Play #LastFanStanding presented by #MBNA today and enter your secret code SHUTOUT for a chance to win instantly &gt; http://t.co/gNbAYkpMic", 
   "label": "O", 
   "id": 442724168120156161, 
   "hashtags": [
    "LastFanStanding", 
    "MBNA"
   ], 
   "user_mentions": [], 
   "created_at": "Sun Mar 09 18:10:41 +0000 2014", 
   "retweet_count": 4, 
   "favorite_count": 4
  }, 
  {
   "text": "--&gt; RT @TheChrisWescott Morning Skate Report: Scrivens to duel with former team as #Oilers host the Kings &gt; http://t.co/rUoUIduxf7", 
   "label": "O", 
   "id": 442717987972206592, 
   "hashtags": [
    "Oilers"
   ], 
   "user_mentions": [
    "TheChrisWescott"
   ], 
   "created_at": "Sun Mar 09 17:46:08 +0000 2014", 
   "retweet_count": 8, 
   "favorite_count": 5
  }, 
  {
   "text": "Roustabout's Restaurant &amp; Bar in Fort Sask is where we'll be for tonight's @Molson_Canadian #GameDayLive party! #Oilers vs. LA 6pm MT.", 
   "label": "O", 
   "id": 442715984336396289, 
   "hashtags": [
    "GameDayLive", 
    "Oilers"
   ], 
   "user_mentions": [
    "Molson_Canadian"
   ], 
   "created_at": "Sun Mar 09 17:38:10 +0000 2014", 
   "retweet_count": 6, 
   "favorite_count": 4
  }, 
  {
   "text": "Coach Eakins discusses tonight's #Oilers lineup vs. #LAKings, RNH's play of late and keys to the game | VIDEO &gt; http://t.co/B8OrKvGy0A", 
   "label": "O", 
   "id": 442713540109950976, 
   "hashtags": [
    "Oilers", 
    "LAKings"
   ], 
   "user_mentions": [], 
   "created_at": "Sun Mar 09 17:28:27 +0000 2014", 
   "retweet_count": 8, 
   "favorite_count": 6
  }, 
  {
   "text": "@leannebelbin Pre-game meal at @TimHortons!", 
   "label": "O", 
   "id": 442708618425540608, 
   "hashtags": [], 
   "user_mentions": [
    "leannebelbin", 
    "TimHortons"
   ], 
   "created_at": "Sun Mar 09 17:08:54 +0000 2014", 
   "retweet_count": 1, 
   "favorite_count": 0
  }, 
  {
   "text": "More #Oilers pre-game interviews:\n@6Schultz6 &gt; http://t.co/TWkPsw28v5\n@hallsy04 &gt; http://t.co/1lYtcPwt7t\n@PetryJ &gt; http://t.co/fZDF42Bnr0", 
   "label": "O", 
   "id": 442702577071689728, 
   "hashtags": [
    "Oilers"
   ], 
   "user_mentions": [
    "6Schultz6", 
    "hallsy04", 
    "PetryJ"
   ], 
   "created_at": "Sun Mar 09 16:44:54 +0000 2014", 
   "retweet_count": 4, 
   "favorite_count": 6
  }, 
  {
   "text": "#Oilers goalie @scrivens_30 will play his former team the #LAKings tonight. Watch #TheProfessor's comments | VIDEO &gt; http://t.co/oGgHGWLipt", 
   "label": "O", 
   "id": 442702101731237888, 
   "hashtags": [
    "Oilers", 
    "LAKings", 
    "TheProfessor"
   ], 
   "user_mentions": [
    "scrivens_30"
   ], 
   "created_at": "Sun Mar 09 16:43:00 +0000 2014", 
   "retweet_count": 9, 
   "favorite_count": 13
  }, 
  {
   "text": "RT @EdmontonJack: Petry will play.  Same Oiler lineup as Thursday vs NYI.  Scrivens vs Quick, who's 5-0 w/0.79 GAA and .964 save % in his l\u2026", 
   "label": "O", 
   "id": 442698491794440194, 
   "hashtags": [], 
   "user_mentions": [
    "EdmontonJack"
   ], 
   "created_at": "Sun Mar 09 16:28:40 +0000 2014", 
   "retweet_count": 12, 
   "favorite_count": 0
  }, 
  {
   "text": "\"It looks like everybody is going to be good to go.\" - Coach Eakins on injury situation, unlikely Klefbom or Lander play tonight", 
   "label": "O", 
   "id": 442697372242419712, 
   "hashtags": [], 
   "user_mentions": [], 
   "created_at": "Sun Mar 09 16:24:13 +0000 2014", 
   "retweet_count": 6, 
   "favorite_count": 5
  }, 
  {
   "text": "\"There's still fight left even though we're at where we're at in the standings... We're continuing to put in building blocks.\" - Eakins", 
   "label": "O", 
   "id": 442697161977786368, 
   "hashtags": [], 
   "user_mentions": [], 
   "created_at": "Sun Mar 09 16:23:22 +0000 2014", 
   "retweet_count": 4, 
   "favorite_count": 4
  }, 
  {
   "text": "\"Hopefully nothing changes from now until game time and I should be good.\" - @PetryJ (back) says he should be healthy enough to play", 
   "label": "O", 
   "id": 442693727551631362, 
   "hashtags": [], 
   "user_mentions": [
    "PetryJ"
   ], 
   "created_at": "Sun Mar 09 16:09:44 +0000 2014", 
   "retweet_count": 4, 
   "favorite_count": 4
  }, 
  {
   "text": "RT @Sportsnet: #NHL action LIVE tonight: \nLos Angeles Kings vs. @EdmontonOilers \u2013 6pmMT on @Sportsnet West; \nRestrictions Apply: http://t.c\u2026", 
   "label": "O", 
   "id": 442691654101655553, 
   "hashtags": [
    "NHL"
   ], 
   "user_mentions": [
    "Sportsnet", 
    "EdmontonOilers", 
    "Sportsnet"
   ], 
   "created_at": "Sun Mar 09 16:01:29 +0000 2014", 
   "retweet_count": 6, 
   "favorite_count": 0
  }, 
  {
   "text": "@lostdog82 @Oilfan @Oilerfanforever That's correct, Frosty. The team had a full-length, full-squad skate yesterday.", 
   "label": "O", 
   "id": 442691310789484544, 
   "hashtags": [], 
   "user_mentions": [
    "lostdog82", 
    "Oilfan", 
    "Oilerfanforever"
   ], 
   "created_at": "Sun Mar 09 16:00:07 +0000 2014", 
   "retweet_count": 0, 
   "favorite_count": 2
  }, 
  {
   "text": "\"No hard feelings. I'm an Edmonton Oiler now and happy to be home.\" - @scrivens_30 reflecting on trade from LA, facing former team tonight", 
   "label": "O", 
   "id": 442691000348057600, 
   "hashtags": [], 
   "user_mentions": [
    "scrivens_30"
   ], 
   "created_at": "Sun Mar 09 15:58:53 +0000 2014", 
   "retweet_count": 21, 
   "favorite_count": 37
  }, 
  {
   "text": "Very optional #Oilers morning skate. Lander, Klefbom, Hendricks, Fraser, Petry, Gazdic, Fasth. #slomo http://t.co/CJ6Wf9wh1U", 
   "label": "O", 
   "id": 442689007676575744, 
   "hashtags": [
    "Oilers", 
    "slomo"
   ], 
   "user_mentions": [], 
   "created_at": "Sun Mar 09 15:50:58 +0000 2014", 
   "retweet_count": 6, 
   "favorite_count": 18
  }, 
  {
   "text": "Congrats @GBHKY! --&gt; RT @Bob_Stauffer Alberta wins 51st Canada West title in 78 Conference seasons and 12th CW title in the last 14 seasons.", 
   "label": "O", 
   "id": 442530709731672064, 
   "hashtags": [], 
   "user_mentions": [
    "GBHKY", 
    "Bob_Stauffer"
   ], 
   "created_at": "Sun Mar 09 05:21:57 +0000 2014", 
   "retweet_count": 20, 
   "favorite_count": 16
  }, 
  {
   "text": "Do you or someone you know look like a past or present #Oilers player?! Enter @EdmontonSun Look-OIL-likes contest &gt; http://t.co/NdJLv3hCs4", 
   "label": "O", 
   "id": 442525426423181312, 
   "hashtags": [
    "Oilers"
   ], 
   "user_mentions": [
    "Edmontonsun"
   ], 
   "created_at": "Sun Mar 09 05:00:58 +0000 2014", 
   "retweet_count": 1, 
   "favorite_count": 8
  }
 ]
}