{
 "num_road_team_goals": "1", 
 "home_team": "Edmonton Oilers", 
 "num_home_team_goals": "5", 
 "summary_url": "http://www.flyershistory.com/cgi-bin/poboxscore.cgi?H20131035", 
 "result": "W", 
 "road_team": "Nashville Predators", 
 "date": "2014-03-18", 
 "goals": [
  {
   "season_index": "8", 
   "strength": "(EV)", 
   "time": "19:25", 
   "period": "1", 
   "player": "S.Gagner", 
   "assists": "(M.Marincin, D.Perron)", 
   "game_index": "1", 
   "team": "EDM"
  }, 
  {
   "season_index": "16", 
   "strength": "(PP)", 
   "time": "8:18", 
   "period": "2", 
   "player": "R.Nugent-Hopkins", 
   "assists": "(J.Eberle, P.Larsen)", 
   "game_index": "2", 
   "team": "EDM"
  }, 
  {
   "season_index": "23", 
   "strength": "(EV)", 
   "time": "14:48", 
   "period": "2", 
   "player": "T.Hall", 
   "assists": "(S.Gagner, A.Ference)", 
   "game_index": "3", 
   "team": "EDM"
  }, 
  {
   "season_index": "6", 
   "strength": "(EV)", 
   "time": "18:39", 
   "period": "2", 
   "player": "G.Bourque", 
   "assists": "(P.Hornqvist, S.Weber)", 
   "game_index": "4", 
   "team": "NSH"
  }, 
  {
   "season_index": "22", 
   "strength": "(EV)", 
   "time": "8:38", 
   "period": "3", 
   "player": "J.Eberle", 
   "assists": "(A.Lander, R.Nugent-Hopkins)", 
   "game_index": "5", 
   "team": "EDM"
  }, 
  {
   "season_index": "23", 
   "strength": "(EV)", 
   "time": "10:01", 
   "period": "3", 
   "player": "J.Eberle", 
   "assists": "(R.Nugent-Hopkins)", 
   "game_index": "6", 
   "team": "EDM"
  }
 ], 
 "tweets": [
  {
   "text": "The Nuge picks up an assist on that last goal by @ebs_14 to give him a three-point night as well. 5 mins to go in the 3rd.", 
   "label": "O", 
   "id": 446133482746421248, 
   "hashtags": [], 
   "user_mentions": [
    "ebs_14"
   ], 
   "created_at": "Wed Mar 19 03:58:05 +0000 2014", 
   "retweet_count": 14, 
   "favorite_count": 29
  }, 
  {
   "text": "5-1 not 5-0 midway through the 3rd period. Sorry tweeps!", 
   "label": "O", 
   "id": 446130938355798016, 
   "hashtags": [], 
   "user_mentions": [], 
   "created_at": "Wed Mar 19 03:47:59 +0000 2014", 
   "retweet_count": 11, 
   "favorite_count": 40
  }, 
  {
   "text": "With another three points tonight, that's three goals and four assists in three games against the #Preds this season for @ebs_14!", 
   "label": "O", 
   "id": 446130723502559232, 
   "hashtags": [
    "Preds"
   ], 
   "user_mentions": [
    "ebs_14"
   ], 
   "created_at": "Wed Mar 19 03:47:07 +0000 2014", 
   "retweet_count": 23, 
   "favorite_count": 47
  }, 
  {
   "text": "Rinne gets the hook, Hutton now playing goal for Nashville.", 
   "label": "O", 
   "id": 446130568388816896, 
   "hashtags": [], 
   "user_mentions": [], 
   "created_at": "Wed Mar 19 03:46:30 +0000 2014", 
   "retweet_count": 4, 
   "favorite_count": 25
  }, 
  {
   "text": "#OILERS GOOOAAAAL! @ebs_14 fools Rinne again with the backhand, bursting down the left wing and going five-hole! 5-0 home team!", 
   "label": "O", 
   "id": 446130487468105728, 
   "hashtags": [
    "OILERS"
   ], 
   "user_mentions": [
    "ebs_14"
   ], 
   "created_at": "Wed Mar 19 03:46:11 +0000 2014", 
   "retweet_count": 33, 
   "favorite_count": 56
  }, 
  {
   "text": "1st point of the season for @Landie51 on the second assist!", 
   "label": "O", 
   "id": 446130168709390337, 
   "hashtags": [], 
   "user_mentions": [
    "Landie51"
   ], 
   "created_at": "Wed Mar 19 03:44:55 +0000 2014", 
   "retweet_count": 10, 
   "favorite_count": 27
  }, 
  {
   "text": "22nd goal, 52nd point, 2nd point of the night for @ebs_14 while @RNH_93 also gets his 2nd point of the game, 46th on the season.", 
   "label": "O", 
   "id": 446130094415687680, 
   "hashtags": [], 
   "user_mentions": [
    "ebs_14", 
    "RNH_93"
   ], 
   "created_at": "Wed Mar 19 03:44:37 +0000 2014", 
   "retweet_count": 12, 
   "favorite_count": 19
  }, 
  {
   "text": "#OILERS GOOOAAAL! Just as the #Preds penalty is expiring, @ebs_14 flips a backhand off Rinne and into the net, 4-1 mid 3rd!", 
   "label": "O", 
   "id": 446129848679809024, 
   "hashtags": [
    "OILERS", 
    "Preds"
   ], 
   "user_mentions": [
    "ebs_14"
   ], 
   "created_at": "Wed Mar 19 03:43:39 +0000 2014", 
   "retweet_count": 38, 
   "favorite_count": 60
  }, 
  {
   "text": "Excellent save by Rinne to rob Ebs and Nuge from another sweet hookup.", 
   "label": "O", 
   "id": 446129679548678146, 
   "hashtags": [], 
   "user_mentions": [], 
   "created_at": "Wed Mar 19 03:42:58 +0000 2014", 
   "retweet_count": 3, 
   "favorite_count": 14
  }, 
  {
   "text": "Assists changed to @89SGagner (33rd point, 2nd of the night) and @Ferknuckle (16th point) on @hallsy04's goal late in the 2nd.", 
   "label": "O", 
   "id": 446128393075957762, 
   "hashtags": [], 
   "user_mentions": [
    "89SGagner", 
    "Ferknuckle", 
    "hallsy04"
   ], 
   "created_at": "Wed Mar 19 03:37:52 +0000 2014", 
   "retweet_count": 3, 
   "favorite_count": 7
  }, 
  {
   "text": "RT @NHL: #HockeyOps explains video review of Taylor Hall's goal at 14:48 of the 2nd period in @PredsNHL / @EdmontonOilers game http://t.co/\u2026", 
   "label": "O", 
   "id": 446127905899167744, 
   "hashtags": [
    "HockeyOps"
   ], 
   "user_mentions": [
    "NHL", 
    "PredsNHL", 
    "EdmontonOilers"
   ], 
   "created_at": "Wed Mar 19 03:35:56 +0000 2014", 
   "retweet_count": 9, 
   "favorite_count": 0
  }, 
  {
   "text": "It's the goal that almost wasn't! @hallsy04 knew it was in but everyone else had to wait for the whistle | VIDEO &gt; http://t.co/kXEXzIWAGV", 
   "label": "O", 
   "id": 446127498158305281, 
   "hashtags": [], 
   "user_mentions": [
    "hallsy04"
   ], 
   "created_at": "Wed Mar 19 03:34:18 +0000 2014", 
   "retweet_count": 7, 
   "favorite_count": 18
  }, 
  {
   "text": "Matt Hendricks (leg) will not return to tonight's game.", 
   "label": "O", 
   "id": 446126836695584768, 
   "hashtags": [], 
   "user_mentions": [], 
   "created_at": "Wed Mar 19 03:31:41 +0000 2014", 
   "retweet_count": 10, 
   "favorite_count": 3
  }, 
  {
   "text": "#Oilers get a pair from @RNH_93 and @hallsy04 but the #Preds get on the board, 3-1 through 40 mins | READ &gt; http://t.co/2CXW49wPNx", 
   "label": "O", 
   "id": 446122058905161728, 
   "hashtags": [
    "Oilers", 
    "Preds"
   ], 
   "user_mentions": [
    "RNH_93", 
    "hallsy04"
   ], 
   "created_at": "Wed Mar 19 03:12:42 +0000 2014", 
   "retweet_count": 8, 
   "favorite_count": 11
  }, 
  {
   "text": "Hornqvist's wraparound attempt is unsuccessful but Bourque gets the puck in front and beats Fasth to the glove side, 3-1 #Oilers.", 
   "label": "O", 
   "id": 446121574605676545, 
   "hashtags": [
    "Oilers"
   ], 
   "user_mentions": [], 
   "created_at": "Wed Mar 19 03:10:46 +0000 2014", 
   "retweet_count": 6, 
   "favorite_count": 10
  }, 
  {
   "text": "Someone order a replay of @RNH_93's power-play goal? Well, here it is as the #Oilers took a 2-0 lead | VIDEO &gt; http://t.co/lXQbKoqkf2", 
   "label": "O", 
   "id": 446121364714307584, 
   "hashtags": [
    "Oilers"
   ], 
   "user_mentions": [
    "RNH_93"
   ], 
   "created_at": "Wed Mar 19 03:09:56 +0000 2014", 
   "retweet_count": 9, 
   "favorite_count": 16
  }, 
  {
   "text": "@trueoilfan It's OK we just killed it. No harm no foul.", 
   "label": "O", 
   "id": 446120729252093952, 
   "hashtags": [], 
   "user_mentions": [
    "trueoilfan"
   ], 
   "created_at": "Wed Mar 19 03:07:25 +0000 2014", 
   "retweet_count": 1, 
   "favorite_count": 1
  }, 
  {
   "text": "FASTH PADS!", 
   "label": "O", 
   "id": 446120303253393408, 
   "hashtags": [], 
   "user_mentions": [], 
   "created_at": "Wed Mar 19 03:05:43 +0000 2014", 
   "retweet_count": 13, 
   "favorite_count": 35
  }, 
  {
   "text": "Team-leading 64th point of the season for @hallsy04 on his 23rd goal, assists to Fraser (3rd point) and Klefbom (2nd @NHL point)", 
   "label": "O", 
   "id": 446120086693101569, 
   "hashtags": [], 
   "user_mentions": [
    "hallsy04", 
    "NHL"
   ], 
   "created_at": "Wed Mar 19 03:04:51 +0000 2014", 
   "retweet_count": 8, 
   "favorite_count": 22
  }, 
  {
   "text": "#OILERS GOOAAAL! @hallsy04 was right all along!", 
   "label": "O", 
   "id": 446119725517402112, 
   "hashtags": [
    "OILERS"
   ], 
   "user_mentions": [
    "hallsy04"
   ], 
   "created_at": "Wed Mar 19 03:03:25 +0000 2014", 
   "retweet_count": 40, 
   "favorite_count": 96
  }, 
  {
   "text": "Hold up, we may have scored!", 
   "label": "O", 
   "id": 446119548480020480, 
   "hashtags": [], 
   "user_mentions": [], 
   "created_at": "Wed Mar 19 03:02:43 +0000 2014", 
   "retweet_count": 29, 
   "favorite_count": 48
  }, 
  {
   "text": "Crossbar for Taylor as well on that backhand whack! #Oilers with a goal and two more off the bar so far this period.", 
   "label": "O", 
   "id": 446119274084442112, 
   "hashtags": [
    "Oilers"
   ], 
   "user_mentions": [], 
   "created_at": "Wed Mar 19 03:01:38 +0000 2014", 
   "retweet_count": 7, 
   "favorite_count": 16
  }, 
  {
   "text": "RT @EdmOilKings: Even though we don't know who we are playing, tickets are already on sale for Games 1 and 2 of the playoffs! http://t.co/X\u2026", 
   "label": "O", 
   "id": 446118765600600065, 
   "hashtags": [], 
   "user_mentions": [
    "EdmOilKings"
   ], 
   "created_at": "Wed Mar 19 02:59:36 +0000 2014", 
   "retweet_count": 4, 
   "favorite_count": 0
  }, 
  {
   "text": "16th goal and 45th point of the season for @RNH_93 with the power-play tally! @ebs_14 gets his 51st point, @PLarsen36 with his 8th.", 
   "label": "O", 
   "id": 446116588249296897, 
   "hashtags": [], 
   "user_mentions": [
    "RNH_93", 
    "ebs_14", 
    "PLarsen36"
   ], 
   "created_at": "Wed Mar 19 02:50:57 +0000 2014", 
   "retweet_count": 9, 
   "favorite_count": 26
  }, 
  {
   "text": "#OILERS GOOOAAAL! Scoring slump? What scoring slump? THE NUUUUGE takes a beauty feed from Ebs and it's 2-0 for the home team!", 
   "label": "O", 
   "id": 446116345575264256, 
   "hashtags": [
    "OILERS"
   ], 
   "user_mentions": [], 
   "created_at": "Wed Mar 19 02:49:59 +0000 2014", 
   "retweet_count": 49, 
   "favorite_count": 70
  }, 
  {
   "text": "Remember that Schultz slapshot we talked about? Another one rattled off the crossbar as the #Oilers PP looks to make it 2-0.", 
   "label": "O", 
   "id": 446116000539226112, 
   "hashtags": [
    "Oilers"
   ], 
   "user_mentions": [], 
   "created_at": "Wed Mar 19 02:48:37 +0000 2014", 
   "retweet_count": 3, 
   "favorite_count": 15
  }, 
  {
   "text": "Another #Oilers PP coming right up as Nystrom is off for tripping.", 
   "label": "O", 
   "id": 446115315064123392, 
   "hashtags": [
    "Oilers"
   ], 
   "user_mentions": [], 
   "created_at": "Wed Mar 19 02:45:54 +0000 2014", 
   "retweet_count": 3, 
   "favorite_count": 9
  }, 
  {
   "text": "Welcome @ryanfry79, @bradjacobs, @eharnden83 and @RyanTHarnden (@TeamBradJacobs) to tonight's #Oilers game! http://t.co/mnlJCiwEfI", 
   "label": "O", 
   "id": 446114216513003520, 
   "hashtags": [
    "Oilers"
   ], 
   "user_mentions": [
    "ryanfry79", 
    "bradjacobs", 
    "eharnden83", 
    "RyanTHarnden", 
    "TeamBradJacobs"
   ], 
   "created_at": "Wed Mar 19 02:41:32 +0000 2014", 
   "retweet_count": 67, 
   "favorite_count": 129
  }, 
  {
   "text": "RT @RyanTHarnden: Puck dropping at the @EdmontonOilers game tonight! Awesome experience! http://t.co/dLv2nHrRSb", 
   "label": "O", 
   "id": 446113270601375744, 
   "hashtags": [], 
   "user_mentions": [
    "RyanTHarnden", 
    "EdmontonOilers"
   ], 
   "created_at": "Wed Mar 19 02:37:46 +0000 2014", 
   "retweet_count": 11, 
   "favorite_count": 0
  }, 
  {
   "text": "@HeartGRRRZz @89SGagner Nailed it!", 
   "label": "O", 
   "id": 446113232793513985, 
   "hashtags": [], 
   "user_mentions": [
    "HeartGRRRZz", 
    "89SGagner"
   ], 
   "created_at": "Wed Mar 19 02:37:37 +0000 2014", 
   "retweet_count": 1, 
   "favorite_count": 1
  }, 
  {
   "text": "We're underway in the middle frame with this goal from @89SGagner to thank for the #Oilers 1-0 cushion | VIDEO &gt; http://t.co/OIjuoPVRHm", 
   "label": "O", 
   "id": 446112960751366144, 
   "hashtags": [
    "Oilers"
   ], 
   "user_mentions": [
    "89SGagner"
   ], 
   "created_at": "Wed Mar 19 02:36:32 +0000 2014", 
   "retweet_count": 3, 
   "favorite_count": 8
  }, 
  {
   "text": "Late 1st period goal from @89SGagner gives the #Oilers a 1-0 lead on the #Preds through 20 minutes | READ &gt; http://t.co/2CXW49wPNx", 
   "label": "O", 
   "id": 446108596544106496, 
   "hashtags": [
    "Oilers", 
    "Preds"
   ], 
   "user_mentions": [
    "89SGagner"
   ], 
   "created_at": "Wed Mar 19 02:19:12 +0000 2014", 
   "retweet_count": 8, 
   "favorite_count": 10
  }, 
  {
   "text": "8th goal and 32nd point for Gagner on that tally, set up by the point shot by Marincin (3rd point), Perron also assists (49th point)", 
   "label": "O", 
   "id": 446107880467345408, 
   "hashtags": [], 
   "user_mentions": [], 
   "created_at": "Wed Mar 19 02:16:21 +0000 2014", 
   "retweet_count": 4, 
   "favorite_count": 9
  }, 
  {
   "text": "#OILERS GOOOAAAAAAL! SAM I AM! @89SGagner all over that rebound and it's 1-0 for the home side with 34 seconds left in the 1st!", 
   "label": "O", 
   "id": 446107642897764352, 
   "hashtags": [
    "OILERS"
   ], 
   "user_mentions": [
    "89SGagner"
   ], 
   "created_at": "Wed Mar 19 02:15:25 +0000 2014", 
   "retweet_count": 29, 
   "favorite_count": 56
  }, 
  {
   "text": "Hendricks perfecting the art of the shorthanded spin-o-rama!", 
   "label": "O", 
   "id": 446107120157470720, 
   "hashtags": [], 
   "user_mentions": [], 
   "created_at": "Wed Mar 19 02:13:20 +0000 2014", 
   "retweet_count": 10, 
   "favorite_count": 15
  }, 
  {
   "text": "Ference knocks Hornqvist's stick out his hands, gets called for tripping.", 
   "label": "O", 
   "id": 446106931455729665, 
   "hashtags": [], 
   "user_mentions": [], 
   "created_at": "Wed Mar 19 02:12:35 +0000 2014", 
   "retweet_count": 2, 
   "favorite_count": 10
  }, 
  {
   "text": "Great work by Fasth &amp; Klefbom to keep the puck out there as Hornqvist was in the crease ready to pounce on that rebound.", 
   "label": "O", 
   "id": 446106174216101889, 
   "hashtags": [], 
   "user_mentions": [], 
   "created_at": "Wed Mar 19 02:09:34 +0000 2014", 
   "retweet_count": 3, 
   "favorite_count": 11
  }, 
  {
   "text": "Fraser sticks up for Fasth after the #Preds give the #Oilers goalie an extra whack and gets rewarded with a roughing penalty.", 
   "label": "O", 
   "id": 446104552819802112, 
   "hashtags": [
    "Preds", 
    "Oilers"
   ], 
   "user_mentions": [], 
   "created_at": "Wed Mar 19 02:03:08 +0000 2014", 
   "retweet_count": 2, 
   "favorite_count": 14
  }, 
  {
   "text": "Klefbom with a warm welcome back in #OilCountry as he plays his first #Oilers home game! http://t.co/BTdUZq7xmk", 
   "label": "O", 
   "id": 446102788721090560, 
   "hashtags": [
    "OilCountry", 
    "Oilers"
   ], 
   "user_mentions": [], 
   "created_at": "Wed Mar 19 01:56:07 +0000 2014", 
   "retweet_count": 5, 
   "favorite_count": 9
  }, 
  {
   "text": "Coach Eakins talked about wanting Schultz to use his slapshot more on the #Oilers PP. Two clappers by #19 on that sequence.", 
   "label": "O", 
   "id": 446101193748533248, 
   "hashtags": [
    "Oilers"
   ], 
   "user_mentions": [], 
   "created_at": "Wed Mar 19 01:49:47 +0000 2014", 
   "retweet_count": 2, 
   "favorite_count": 10
  }, 
  {
   "text": "RT @TeamBradJacobs: Puck drop was successful - thank you again @EdmontonOilers for the opportunity &amp; the fans for the standing O #unreal ht\u2026", 
   "label": "O", 
   "id": 446100734304464896, 
   "hashtags": [
    "unreal"
   ], 
   "user_mentions": [
    "TeamBradJacobs", 
    "EdmontonOilers"
   ], 
   "created_at": "Wed Mar 19 01:47:57 +0000 2014", 
   "retweet_count": 57, 
   "favorite_count": 0
  }, 
  {
   "text": "Eberle appears no worse for wear after the vicious hit by Ellis. #Oilers back to the PP after #Preds get called for too many men.", 
   "label": "O", 
   "id": 446100220653219840, 
   "hashtags": [
    "Oilers", 
    "Preds"
   ], 
   "user_mentions": [], 
   "created_at": "Wed Mar 19 01:45:55 +0000 2014", 
   "retweet_count": 3, 
   "favorite_count": 15
  }, 
  {
   "text": "Ellis hammers Eberle from behind just 48 seconds into the opening frame. #14 getting checked out on the #Oiler bench. Power play time.", 
   "label": "O", 
   "id": 446099005110374400, 
   "hashtags": [
    "Oiler"
   ], 
   "user_mentions": [], 
   "created_at": "Wed Mar 19 01:41:05 +0000 2014", 
   "retweet_count": 4, 
   "favorite_count": 10
  }, 
  {
   "text": "LET'S DO THIS! #Oilers and @PredsNHL underway from Rexall Place! Watch live on @Sportsnet West. tune Jack &amp; Bob on @630CHED.", 
   "label": "O", 
   "id": 446098506072080384, 
   "hashtags": [
    "Oilers"
   ], 
   "user_mentions": [
    "PredsNHL", 
    "Sportsnet", 
    "630CHED"
   ], 
   "created_at": "Wed Mar 19 01:39:06 +0000 2014", 
   "retweet_count": 5, 
   "favorite_count": 11
  }, 
  {
   "text": "Pretty pumped to have #Sochi2014 gold medalists @TeamBradJacobs in the house tonight doing the ceremonial puck-drop! Those guys rock.", 
   "label": "O", 
   "id": 446097535724036096, 
   "hashtags": [
    "Sochi2014"
   ], 
   "user_mentions": [
    "TeamBradJacobs"
   ], 
   "created_at": "Wed Mar 19 01:35:15 +0000 2014", 
   "retweet_count": 7, 
   "favorite_count": 12
  }, 
  {
   "text": "Larsen will play instead of Yakupov, #Oilers dress seven defencemen.", 
   "label": "O", 
   "id": 446097083406118912, 
   "hashtags": [
    "Oilers"
   ], 
   "user_mentions": [], 
   "created_at": "Wed Mar 19 01:33:27 +0000 2014", 
   "retweet_count": 8, 
   "favorite_count": 8
  }, 
  {
   "text": "@14Annali @emoric #Oilers + @BlueJays = AWESOME combo.", 
   "label": "O", 
   "id": 446096785300144128, 
   "hashtags": [
    "Oilers"
   ], 
   "user_mentions": [
    "14Annali", 
    "emoric", 
    "BlueJays"
   ], 
   "created_at": "Wed Mar 19 01:32:16 +0000 2014", 
   "retweet_count": 0, 
   "favorite_count": 0
  }, 
  {
   "text": "Yakupov (ankle) will not play tonight.", 
   "label": "O", 
   "id": 446096571688820736, 
   "hashtags": [], 
   "user_mentions": [], 
   "created_at": "Wed Mar 19 01:31:25 +0000 2014", 
   "retweet_count": 15, 
   "favorite_count": 12
  }, 
  {
   "text": "Tonight's #Oilers starters vs. Nashville --&gt; Fasth between the pipes, Marincin-Petry on defence and Lander-RNH-Eberle up front.", 
   "label": "O", 
   "id": 446096316280487937, 
   "hashtags": [
    "Oilers"
   ], 
   "user_mentions": [], 
   "created_at": "Wed Mar 19 01:30:24 +0000 2014", 
   "retweet_count": 2, 
   "favorite_count": 7
  }, 
  {
   "text": "@skozy6 Just don't bang on the glass! They don't take kindly to that.", 
   "label": "O", 
   "id": 446095989967814656, 
   "hashtags": [], 
   "user_mentions": [
    "skozy6"
   ], 
   "created_at": "Wed Mar 19 01:29:06 +0000 2014", 
   "retweet_count": 0, 
   "favorite_count": 0
  }, 
  {
   "text": "@JoeisCranky Can't think of a better reason!", 
   "label": "O", 
   "id": 446093156379922434, 
   "hashtags": [], 
   "user_mentions": [
    "JoeisCranky"
   ], 
   "created_at": "Wed Mar 19 01:17:51 +0000 2014", 
   "retweet_count": 0, 
   "favorite_count": 1
  }, 
  {
   "text": "This little guy is PUMPED --&gt; RT @macroraptor My little guy and I at his first @EdmontonOilers game! #goOilers http://t.co/I95SqwG9lZ", 
   "label": "O", 
   "id": 446092689805561856, 
   "hashtags": [
    "goOilers"
   ], 
   "user_mentions": [
    "macroraptor", 
    "EdmontonOilers"
   ], 
   "created_at": "Wed Mar 19 01:15:59 +0000 2014", 
   "retweet_count": 11, 
   "favorite_count": 26
  }, 
  {
   "text": "@illuminailti Tweet your request with #OilersTunes and we may play it!", 
   "label": "O", 
   "id": 446090845955977216, 
   "hashtags": [
    "OilersTunes"
   ], 
   "user_mentions": [
    "illuminailti"
   ], 
   "created_at": "Wed Mar 19 01:08:40 +0000 2014", 
   "retweet_count": 2, 
   "favorite_count": 3
  }, 
  {
   "text": "@oilers_cat You crack us up almost every time, Oilers Cat.", 
   "label": "O", 
   "id": 446090279800406016, 
   "hashtags": [], 
   "user_mentions": [
    "oilers_cat"
   ], 
   "created_at": "Wed Mar 19 01:06:25 +0000 2014", 
   "retweet_count": 0, 
   "favorite_count": 1
  }, 
  {
   "text": "RT @KONGOSMUSIC: \u201c@EdmontonOilers: New warmup tunes track #2 --&gt; Come With Me Now by @KONGOSMUSIC.\u201d Sweet!!", 
   "label": "O", 
   "id": 446090139102490624, 
   "hashtags": [], 
   "user_mentions": [
    "KONGOSMUSIC", 
    "EdmontonOilers", 
    "KONGOSMUSIC"
   ], 
   "created_at": "Wed Mar 19 01:05:51 +0000 2014", 
   "retweet_count": 11, 
   "favorite_count": 0
  }, 
  {
   "text": "RT @eharnden83: Arrived at #Rexall home of the @EdmontonOilers &amp; where we won the #Brier last year - brings back good memories http://t.co/\u2026", 
   "label": "O", 
   "id": 446089979086004224, 
   "hashtags": [
    "Rexall", 
    "Brier"
   ], 
   "user_mentions": [
    "eharnden83", 
    "EdmontonOilers"
   ], 
   "created_at": "Wed Mar 19 01:05:13 +0000 2014", 
   "retweet_count": 5, 
   "favorite_count": 0
  }, 
  {
   "text": "@Baresnake Players pick the warmup tunes, good sir!", 
   "label": "O", 
   "id": 446089760051036163, 
   "hashtags": [], 
   "user_mentions": [
    "Baresnake"
   ], 
   "created_at": "Wed Mar 19 01:04:21 +0000 2014", 
   "retweet_count": 1, 
   "favorite_count": 0
  }, 
  {
   "text": "@Turpin19 @AwolKailers Great #selfie you two! Enjoy the game!", 
   "label": "O", 
   "id": 446089682930368513, 
   "hashtags": [
    "selfie"
   ], 
   "user_mentions": [
    "Turpin19", 
    "AwolKailers"
   ], 
   "created_at": "Wed Mar 19 01:04:03 +0000 2014", 
   "retweet_count": 0, 
   "favorite_count": 1
  }, 
  {
   "text": "New warmup tunes track #2 --&gt; Come With Me Now by @KONGOSMUSIC.", 
   "label": "O", 
   "id": 446089550247755776, 
   "hashtags": [], 
   "user_mentions": [
    "KONGOSMUSIC"
   ], 
   "created_at": "Wed Mar 19 01:03:31 +0000 2014", 
   "retweet_count": 1, 
   "favorite_count": 18
  }, 
  {
   "text": "RT @Oil_Foundation: It's the last Gagner's Gang of the season and these kids are super excited! Thanks @89SGagner. http://t.co/7CjglgNPvR", 
   "label": "O", 
   "id": 446088878366027776, 
   "hashtags": [], 
   "user_mentions": [
    "Oil_Foundation", 
    "89SGagner"
   ], 
   "created_at": "Wed Mar 19 01:00:51 +0000 2014", 
   "retweet_count": 5, 
   "favorite_count": 0
  }, 
  {
   "text": "A little @Drake on the speakers and it's warmup time at Rexall Place!", 
   "label": "O", 
   "id": 446088713731198976, 
   "hashtags": [], 
   "user_mentions": [
    "Drake"
   ], 
   "created_at": "Wed Mar 19 01:00:11 +0000 2014", 
   "retweet_count": 11, 
   "favorite_count": 29
  }, 
  {
   "text": "The boys are back in town and the Siemens family is ready for little Aidan's first #Oilers game! http://t.co/ueuK3iB4ou", 
   "label": "O", 
   "id": 446088016285552640, 
   "hashtags": [
    "Oilers"
   ], 
   "user_mentions": [], 
   "created_at": "Wed Mar 19 00:57:25 +0000 2014", 
   "retweet_count": 5, 
   "favorite_count": 18
  }, 
  {
   "text": "Hit the ice with #Oilers Hockey School presented by @RogersBuzz this summer in St. Albert &amp; Leduc! Register now &gt; http://t.co/TW45FPV6kw", 
   "label": "O", 
   "id": 446067428104364033, 
   "hashtags": [
    "Oilers"
   ], 
   "user_mentions": [
    "RogersBuzz"
   ], 
   "created_at": "Tue Mar 18 23:35:37 +0000 2014", 
   "retweet_count": 5, 
   "favorite_count": 2
  }, 
  {
   "text": "Congrats as well to our #StHatTricksDay Facebook winners (http://t.co/jWxPQVSABp) --&gt; Christie Pederson, Travis Taylor and Connie Paskemin!", 
   "label": "O", 
   "id": 446057082811207680, 
   "hashtags": [
    "StHatTricksDay"
   ], 
   "user_mentions": [], 
   "created_at": "Tue Mar 18 22:54:30 +0000 2014", 
   "retweet_count": 4, 
   "favorite_count": 2
  }, 
  {
   "text": "The luck of the OIL! Congrats to our #StHatTricksDay prize pack winners from Twitter --&gt; @AceofChades, @ainsleybaldwin and @Pretty__G!", 
   "label": "O", 
   "id": 446056813927346177, 
   "hashtags": [
    "StHatTricksDay"
   ], 
   "user_mentions": [
    "AceofChades", 
    "ainsleybaldwin", 
    "Pretty__G"
   ], 
   "created_at": "Tue Mar 18 22:53:26 +0000 2014", 
   "retweet_count": 4, 
   "favorite_count": 8
  }, 
  {
   "text": "Tip of the cap to you! Tonight's item of the game available at The #Oilers Store in @kingswaymall and Rexall Place! http://t.co/pmdIw3tceO", 
   "label": "O", 
   "id": 446049718750044160, 
   "hashtags": [
    "Oilers"
   ], 
   "user_mentions": [
    "kingswaymall"
   ], 
   "created_at": "Tue Mar 18 22:25:14 +0000 2014", 
   "retweet_count": 5, 
   "favorite_count": 9
  }, 
  {
   "text": "@_JamesK We'll tweet it out right now, since you asked!", 
   "label": "O", 
   "id": 446049224124530688, 
   "hashtags": [], 
   "user_mentions": [
    "_JamesK"
   ], 
   "created_at": "Tue Mar 18 22:23:16 +0000 2014", 
   "retweet_count": 0, 
   "favorite_count": 1
  }, 
  {
   "text": "RT @TeamBradJacobs: Thank you @EdmontonOilers for the opportunity to drop the puck at tonight's game against the @PredsNHL - looking forwar\u2026", 
   "label": "O", 
   "id": 446032581163614208, 
   "hashtags": [], 
   "user_mentions": [
    "TeamBradJacobs", 
    "EdmontonOilers", 
    "PredsNHL", 
    "NHL"
   ], 
   "created_at": "Tue Mar 18 21:17:08 +0000 2014", 
   "retweet_count": 28, 
   "favorite_count": 0
  }, 
  {
   "text": "Predict #Oilers games and win! 2014-15 season tickets up for grabs with #lastfanstanding presented by #MBNA &gt; http://t.co/IPgftWPqSH", 
   "label": "O", 
   "id": 446032158881513472, 
   "hashtags": [
    "Oilers", 
    "lastfanstanding", 
    "MBNA"
   ], 
   "user_mentions": [], 
   "created_at": "Tue Mar 18 21:15:28 +0000 2014", 
   "retweet_count": 2, 
   "favorite_count": 8
  }, 
  {
   "text": "\"We've got a good feeling in here right now and we've got to keep that confidence going.\" EDM-NSH preview | VIDEO &gt; http://t.co/3ISRDhAQI4", 
   "label": "O", 
   "id": 446018221187948544, 
   "hashtags": [], 
   "user_mentions": [], 
   "created_at": "Tue Mar 18 20:20:05 +0000 2014", 
   "retweet_count": 9, 
   "favorite_count": 12
  }, 
  {
   "text": "RT @RNH_93: Pumped to use my new CCM superfast stick tonight!", 
   "label": "O", 
   "id": 446014766012583936, 
   "hashtags": [], 
   "user_mentions": [
    "RNH_93"
   ], 
   "created_at": "Tue Mar 18 20:06:21 +0000 2014", 
   "retweet_count": 122, 
   "favorite_count": 0
  }, 
  {
   "text": "Fresh off scoring Sunday's GWG vs. the #Canes, J-Schultz is on the cover of tonight's #OilCountry! http://t.co/FPzVHBOV47", 
   "label": "O", 
   "id": 446008983665795072, 
   "hashtags": [
    "Canes", 
    "OilCountry"
   ], 
   "user_mentions": [], 
   "created_at": "Tue Mar 18 19:43:22 +0000 2014", 
   "retweet_count": 6, 
   "favorite_count": 9
  }, 
  {
   "text": "RT @RyanTHarnden: Can't wait to drop the puck at the @EdmontonOilers game tonight. Going to be a great night. Thank you! #classyfranchise", 
   "label": "O", 
   "id": 446004556581703680, 
   "hashtags": [
    "classyfranchise"
   ], 
   "user_mentions": [
    "RyanTHarnden", 
    "EdmontonOilers"
   ], 
   "created_at": "Tue Mar 18 19:25:47 +0000 2014", 
   "retweet_count": 12, 
   "favorite_count": 0
  }, 
  {
   "text": "#Preds fwd Mike Fisher chats with @EdmontonJack today about Rinne's return, facing the #Oilers and more | VIDEO &gt; http://t.co/La1PS38o4y", 
   "label": "O", 
   "id": 446004484531974145, 
   "hashtags": [
    "Preds", 
    "Oilers"
   ], 
   "user_mentions": [
    "EdmontonJack"
   ], 
   "created_at": "Tue Mar 18 19:25:30 +0000 2014", 
   "retweet_count": 1, 
   "favorite_count": 6
  }, 
  {
   "text": "--&gt; RT @TheChrisWescott Morning Skate Report: #Oilers looking to finish season strong, Klefbom makes home debut &gt; http://t.co/3c7dvzredp", 
   "label": "O", 
   "id": 445994431796477952, 
   "hashtags": [
    "Oilers"
   ], 
   "user_mentions": [
    "TheChrisWescott"
   ], 
   "created_at": "Tue Mar 18 18:45:33 +0000 2014", 
   "retweet_count": 5, 
   "favorite_count": 2
  }, 
  {
   "text": "@jamesdouglasp @Nail10_1993 #YakCity!", 
   "label": "O", 
   "id": 445993080119132160, 
   "hashtags": [
    "YakCity"
   ], 
   "user_mentions": [
    "jamesdouglasp", 
    "Nail10_1993"
   ], 
   "created_at": "Tue Mar 18 18:40:11 +0000 2014", 
   "retweet_count": 0, 
   "favorite_count": 0
  }, 
  {
   "text": "Coach Eakins discusses Klefbom's play thus far, Yakupov's progression, Joensuu's injury &amp; more pre-game | VIDEO &gt; http://t.co/MUW7mpfIvd", 
   "label": "O", 
   "id": 445992965392330752, 
   "hashtags": [], 
   "user_mentions": [], 
   "created_at": "Tue Mar 18 18:39:43 +0000 2014", 
   "retweet_count": 3, 
   "favorite_count": 6
  }, 
  {
   "text": "@Smitty94 It sure does! We can't wait to play there! Enjoy the luncheon!", 
   "label": "O", 
   "id": 445990022614110208, 
   "hashtags": [], 
   "user_mentions": [
    "Smitty94"
   ], 
   "created_at": "Tue Mar 18 18:28:02 +0000 2014", 
   "retweet_count": 0, 
   "favorite_count": 0
  }, 
  {
   "text": "@CALLIDUSDevMgmt @IanOyeg You got that right! Glad you're enjoying it!", 
   "label": "O", 
   "id": 445989930976940032, 
   "hashtags": [], 
   "user_mentions": [
    "CALLIDUSDevMgmt", 
    "IanOyeg"
   ], 
   "created_at": "Tue Mar 18 18:27:40 +0000 2014", 
   "retweet_count": 0, 
   "favorite_count": 1
  }, 
  {
   "text": "RT @EdmontonJack: Rinne starts for Nashville. 9-5-1 against EDM but has been lit up occasionally (.895 save %). Joensuu likely out for the \u2026", 
   "label": "O", 
   "id": 445986238416564226, 
   "hashtags": [], 
   "user_mentions": [
    "EdmontonJack"
   ], 
   "created_at": "Tue Mar 18 18:13:00 +0000 2014", 
   "retweet_count": 6, 
   "favorite_count": 0
  }, 
  {
   "text": "RT @OilersNow: Today's show: #Preds #Oilers preview; @dallaseakins; @Ferknuckle in conversation w/@Bob_Stauffer; @ReidWilkins; @JoshuaCoope\u2026", 
   "label": "O", 
   "id": 445986091301347329, 
   "hashtags": [
    "Preds", 
    "Oilers"
   ], 
   "user_mentions": [
    "OilersNow", 
    "dallaseakins", 
    "Ferknuckle", 
    "Bob_Stauffer", 
    "ReidWilkins", 
    "JoshuaCooper"
   ], 
   "created_at": "Tue Mar 18 18:12:24 +0000 2014", 
   "retweet_count": 4, 
   "favorite_count": 0
  }, 
  {
   "text": "Watch today's #Oilers pre-game interviews:\nSmyth &gt; http://t.co/wCWMLF0OVB\nKlefbom &gt; http://t.co/Q8qVpzKCcg\nRNH &gt; http://t.co/7gUHFwobU0", 
   "label": "O", 
   "id": 445979257953476608, 
   "hashtags": [
    "Oilers"
   ], 
   "user_mentions": [], 
   "created_at": "Tue Mar 18 17:45:15 +0000 2014", 
   "retweet_count": 7, 
   "favorite_count": 5
  }, 
  {
   "text": "RT @EdmontonJack: Fasth and Klefbom make their home debuts tonight for the Oilers.  Three of Fasth's 18 career NHL wins have come against N\u2026", 
   "label": "O", 
   "id": 445975884621553664, 
   "hashtags": [], 
   "user_mentions": [
    "EdmontonJack"
   ], 
   "created_at": "Tue Mar 18 17:31:51 +0000 2014", 
   "retweet_count": 13, 
   "favorite_count": 0
  }, 
  {
   "text": "Minimum four weeks recovery for Joensuu's high ankle sprain. \"I feel for him. He's been so dedicated this year.\" - Coach Eakins", 
   "label": "O", 
   "id": 445974982330679297, 
   "hashtags": [], 
   "user_mentions": [], 
   "created_at": "Tue Mar 18 17:28:16 +0000 2014", 
   "retweet_count": 8, 
   "favorite_count": 12
  }, 
  {
   "text": "\"Our stats on Nail in-house show he's getting better. I know he's committed.\" - Coach Eakins on Yakupov's progression as a sophomore", 
   "label": "O", 
   "id": 445974109626052608, 
   "hashtags": [], 
   "user_mentions": [], 
   "created_at": "Tue Mar 18 17:24:48 +0000 2014", 
   "retweet_count": 13, 
   "favorite_count": 17
  }, 
  {
   "text": "Viktor Fasth makes a save during #Oilers morning skate. He'll get his first home start tonight vs.\u2026 http://t.co/s8FWV1n4pM", 
   "label": "O", 
   "id": 445972014021750784, 
   "hashtags": [
    "Oilers"
   ], 
   "user_mentions": [], 
   "created_at": "Tue Mar 18 17:16:28 +0000 2014", 
   "retweet_count": 6, 
   "favorite_count": 11
  }, 
  {
   "text": "\"He's been steady... He's had a good start with us and we'll see how he progresses... All the tools are there.\" - Coach Eakins on Klefbom", 
   "label": "O", 
   "id": 445971348465020928, 
   "hashtags": [], 
   "user_mentions": [], 
   "created_at": "Tue Mar 18 17:13:49 +0000 2014", 
   "retweet_count": 6, 
   "favorite_count": 11
  }, 
  {
   "text": "Coach Eakins about to address the media following #Oilers morning skate. Watch his comments live &gt; https://t.co/wGQfUCoc2g", 
   "label": "O", 
   "id": 445968373453561856, 
   "hashtags": [
    "Oilers"
   ], 
   "user_mentions": [], 
   "created_at": "Tue Mar 18 17:02:00 +0000 2014", 
   "retweet_count": 3, 
   "favorite_count": 3
  }, 
  {
   "text": "\"There's misery and winning, and nothing in between. Right now we're finding ways to win and it's been a lot of fun.\" - Ryan Smyth", 
   "label": "O", 
   "id": 445966458636345344, 
   "hashtags": [], 
   "user_mentions": [], 
   "created_at": "Tue Mar 18 16:54:24 +0000 2014", 
   "retweet_count": 14, 
   "favorite_count": 30
  }, 
  {
   "text": "\"It's a huge night for me in my career. I'm really looking forward to it.\" - Oscar Klefbom, will make his #Oilers home debut tonight", 
   "label": "O", 
   "id": 445965364929638401, 
   "hashtags": [
    "Oilers"
   ], 
   "user_mentions": [], 
   "created_at": "Tue Mar 18 16:50:03 +0000 2014", 
   "retweet_count": 22, 
   "favorite_count": 37
  }, 
  {
   "text": "First goalie off the ice at #Oilers morning skate --&gt; RT @EdmontonJack Fasth looks like he'll start vs. the Predators.", 
   "label": "O", 
   "id": 445964295818334208, 
   "hashtags": [
    "Oilers"
   ], 
   "user_mentions": [
    "EdmontonJack"
   ], 
   "created_at": "Tue Mar 18 16:45:48 +0000 2014", 
   "retweet_count": 11, 
   "favorite_count": 15
  }, 
  {
   "text": "RT @Sportsnet: More #NHL action LIVE tonight: Nashville Predators vs. @EdmontonOilers - 7:30pmMT on @Sportsnet West", 
   "label": "O", 
   "id": 445960669230161920, 
   "hashtags": [
    "NHL"
   ], 
   "user_mentions": [
    "Sportsnet", 
    "EdmontonOilers", 
    "Sportsnet"
   ], 
   "created_at": "Tue Mar 18 16:31:23 +0000 2014", 
   "retweet_count": 5, 
   "favorite_count": 0
  }, 
  {
   "text": "#Oilers lines at morning skate --&gt; 4-89-57, 64-93-14, 23-27-51, 20-94-28 up front, 21-19, 85-2, 5-84 on defence. Starting goalie TBD.", 
   "label": "O", 
   "id": 445960583888642048, 
   "hashtags": [
    "Oilers"
   ], 
   "user_mentions": [], 
   "created_at": "Tue Mar 18 16:31:03 +0000 2014", 
   "retweet_count": 10, 
   "favorite_count": 10
  }, 
  {
   "text": "#Oilers morning skate underway! @FreddyChab @lukegazdic and @scrivens_30 talking some strategy around the net. http://t.co/j4HbdL59eI", 
   "label": "O", 
   "id": 445957098912759808, 
   "hashtags": [
    "Oilers"
   ], 
   "user_mentions": [
    "FreddyChab", 
    "lukegazdic", 
    "scrivens_30"
   ], 
   "created_at": "Tue Mar 18 16:17:12 +0000 2014", 
   "retweet_count": 9, 
   "favorite_count": 10
  }, 
  {
   "text": "Chicago Joe's Pizza &amp; Pub (10425 158 Ave NW) is tonight's @Molson_Canadian #GameDayLive location, #Oilers host Nashville at 7:30pm MT.", 
   "label": "O", 
   "id": 445928276016365569, 
   "hashtags": [
    "GameDayLive", 
    "Oilers"
   ], 
   "user_mentions": [
    "Molson_Canadian"
   ], 
   "created_at": "Tue Mar 18 14:22:40 +0000 2014", 
   "retweet_count": 6, 
   "favorite_count": 6
  }
 ]
}