{
 "num_road_team_goals": "1", 
 "home_team": "Chicago Blackhawks", 
 "num_home_team_goals": "3", 
 "summary_url": "http://www.flyershistory.com/cgi-bin/poboxscore.cgi?H20130503", 
 "result": "W", 
 "road_team": "Los Angeles Kings", 
 "date": "2013-12-15", 
 "goals": [
  {
   "season_index": "14", 
   "strength": "(SH)", 
   "time": "5:45", 
   "period": "1", 
   "player": "M.Hossa", 
   "assists": "(J.Toews, N.Hjalmarsson)", 
   "game_index": "1", 
   "team": "CHI"
  }, 
  {
   "season_index": "6", 
   "strength": "(EV)", 
   "time": "9:59", 
   "period": "1", 
   "player": "K.Versteeg", 
   "assists": "(P.Kane, B.Seabrook)", 
   "game_index": "2", 
   "team": "CHI"
  }, 
  {
   "season_index": "16", 
   "strength": "(PP)", 
   "time": "19:31", 
   "period": "1", 
   "player": "P.Sharp", 
   "assists": "(J.Toews, D.Keith)", 
   "game_index": "3", 
   "team": "CHI"
  }, 
  {
   "season_index": "2", 
   "strength": "(EV)", 
   "time": "16:06", 
   "period": "3", 
   "player": "A.Martinez", 
   "assists": "(M.Greene, J.Nolan)", 
   "game_index": "4", 
   "team": "L.A"
  }
 ], 
 "tweets": [
  {
   "text": "Coach Q on tonight's bounce-back effort: \"Good response from last night's game. Johnny led the charge.\" #CHIvsLAK", 
   "label": "O", 
   "id": 412418459260047361, 
   "hashtags": [
    "CHIvsLAK"
   ], 
   "user_mentions": [], 
   "created_at": "Mon Dec 16 03:06:37 +0000 2013", 
   "retweet_count": 76, 
   "favorite_count": 156
  }, 
  {
   "text": "Your three stars of the game: (3) Marian Hossa, (2) Antti Raanta, (1) Jonathan Toews. #CHIvsLAK", 
   "label": "O", 
   "id": 412409871732977664, 
   "hashtags": [
    "CHIvsLAK"
   ], 
   "user_mentions": [], 
   "created_at": "Mon Dec 16 02:32:30 +0000 2013", 
   "retweet_count": 204, 
   "favorite_count": 314
  }, 
  {
   "text": "THERE'S THE HORN! #Blackhawks win, 3-1! #CHIvsLAK", 
   "label": "O", 
   "id": 412409466122817536, 
   "hashtags": [
    "Blackhawks", 
    "CHIvsLAK"
   ], 
   "user_mentions": [], 
   "created_at": "Mon Dec 16 02:30:53 +0000 2013", 
   "retweet_count": 733, 
   "favorite_count": 475
  }, 
  {
   "text": "Scrivens to the bench. #CHIvsLAK", 
   "label": "O", 
   "id": 412409249101119489, 
   "hashtags": [
    "CHIvsLAK"
   ], 
   "user_mentions": [], 
   "created_at": "Mon Dec 16 02:30:01 +0000 2013", 
   "retweet_count": 21, 
   "favorite_count": 43
  }, 
  {
   "text": "Smith with a breakaway shortie attempt, but Scrivens is there. 1:30 to go. #CHIvsLAK", 
   "label": "O", 
   "id": 412409078569119744, 
   "hashtags": [
    "CHIvsLAK"
   ], 
   "user_mentions": [], 
   "created_at": "Mon Dec 16 02:29:21 +0000 2013", 
   "retweet_count": 20, 
   "favorite_count": 39
  }, 
  {
   "text": "Shaw draws a minor for unsportsmanlike conduct, 3:35 to go. #CHIvsLAK", 
   "label": "O", 
   "id": 412408417274187776, 
   "hashtags": [
    "CHIvsLAK"
   ], 
   "user_mentions": [], 
   "created_at": "Mon Dec 16 02:26:43 +0000 2013", 
   "retweet_count": 20, 
   "favorite_count": 45
  }, 
  {
   "text": "Martinez ends Raanta's shutout bid, as the Kings score with 3:54 to go in the 3rd. 3-1 #Blackhawks #CHIvsLAK", 
   "label": "O", 
   "id": 412408141603557376, 
   "hashtags": [
    "Blackhawks", 
    "CHIvsLAK"
   ], 
   "user_mentions": [], 
   "created_at": "Mon Dec 16 02:25:37 +0000 2013", 
   "retweet_count": 30, 
   "favorite_count": 44
  }, 
  {
   "text": "Brandon Saad with a very nice move to the Kings' net - no goal, but wasn't for lack of effort. 5:18 to play. #CHIvsLAK", 
   "label": "O", 
   "id": 412407122626768896, 
   "hashtags": [
    "CHIvsLAK"
   ], 
   "user_mentions": [], 
   "created_at": "Mon Dec 16 02:21:34 +0000 2013", 
   "retweet_count": 30, 
   "favorite_count": 69
  }, 
  {
   "text": "Great play at the crease by Duncs, saving a prime scoring opportunity as the PK expired. 8:30 to go in the 3rd. #CHIvsLAK", 
   "label": "O", 
   "id": 412405283495739392, 
   "hashtags": [
    "CHIvsLAK"
   ], 
   "user_mentions": [], 
   "created_at": "Mon Dec 16 02:14:16 +0000 2013", 
   "retweet_count": 29, 
   "favorite_count": 53
  }, 
  {
   "text": "RT @ckamka: #Blackhawks: 9 games is their longest streak with at least one power play goal since 11/27-12/19/1991 (10 games)", 
   "label": "O", 
   "id": 412404504177278978, 
   "hashtags": [
    "Blackhawks"
   ], 
   "user_mentions": [
    "ckamka"
   ], 
   "created_at": "Mon Dec 16 02:11:10 +0000 2013", 
   "retweet_count": 37, 
   "favorite_count": 0
  }, 
  {
   "text": "Kruger gets two for tripping, #Blackhawks on for the PK. 11:10 to play. #CHIvsLAK", 
   "label": "O", 
   "id": 412404394060025856, 
   "hashtags": [
    "Blackhawks", 
    "CHIvsLAK"
   ], 
   "user_mentions": [], 
   "created_at": "Mon Dec 16 02:10:44 +0000 2013", 
   "retweet_count": 19, 
   "favorite_count": 34
  }, 
  {
   "text": "@kmac111 Welcome!", 
   "label": "O", 
   "id": 412401498182537217, 
   "hashtags": [], 
   "user_mentions": [
    "kmac111"
   ], 
   "created_at": "Mon Dec 16 01:59:13 +0000 2013", 
   "retweet_count": 1, 
   "favorite_count": 1
  }, 
  {
   "text": "We're about to get the third period underway, up 3-0 on the Kings. Here we go! #CHIvsLAK", 
   "label": "O", 
   "id": 412401058644635648, 
   "hashtags": [
    "CHIvsLAK"
   ], 
   "user_mentions": [], 
   "created_at": "Mon Dec 16 01:57:29 +0000 2013", 
   "retweet_count": 86, 
   "favorite_count": 100
  }, 
  {
   "text": "Toews' four takeaways tonight is as many as the entire Kings lineup through two periods. #OCaptain #CHIvsLAK", 
   "label": "O", 
   "id": 412397284156928000, 
   "hashtags": [
    "OCaptain", 
    "CHIvsLAK"
   ], 
   "user_mentions": [], 
   "created_at": "Mon Dec 16 01:42:29 +0000 2013", 
   "retweet_count": 125, 
   "favorite_count": 171
  }, 
  {
   "text": "On top of his two-assist night, The Captain is also winning 77% of his faceoffs tonight (10-3), and has four takeaways. #OCaptain #CHIvsLAK", 
   "label": "O", 
   "id": 412397174136119296, 
   "hashtags": [
    "OCaptain", 
    "CHIvsLAK"
   ], 
   "user_mentions": [], 
   "created_at": "Mon Dec 16 01:42:02 +0000 2013", 
   "retweet_count": 104, 
   "favorite_count": 131
  }, 
  {
   "text": "Not much in the way of scoring this period, but chances galore. #Blackhawks up 3-0 through two, 25-16 in SOG. #CHIvsLAK", 
   "label": "O", 
   "id": 412396509783523328, 
   "hashtags": [
    "Blackhawks", 
    "CHIvsLAK"
   ], 
   "user_mentions": [], 
   "created_at": "Mon Dec 16 01:39:24 +0000 2013", 
   "retweet_count": 67, 
   "favorite_count": 61
  }, 
  {
   "text": "Martinez called for delay of game, #Blackhawks back out for another PP chance! 2:45 to go in the frame. #CHIvsLAK", 
   "label": "O", 
   "id": 412395560855818240, 
   "hashtags": [
    "Blackhawks", 
    "CHIvsLAK"
   ], 
   "user_mentions": [], 
   "created_at": "Mon Dec 16 01:35:38 +0000 2013", 
   "retweet_count": 21, 
   "favorite_count": 39
  }, 
  {
   "text": "4 minutes to go in the 2nd, #Blackhawks outshooting Kings, 22-14. Hawks with a couple of scoring chances in the last few minutes. #CHIvsLAK", 
   "label": "O", 
   "id": 412394506701373440, 
   "hashtags": [
    "Blackhawks", 
    "CHIvsLAK"
   ], 
   "user_mentions": [], 
   "created_at": "Mon Dec 16 01:31:26 +0000 2013", 
   "retweet_count": 39, 
   "favorite_count": 57
  }, 
  {
   "text": "Kaner with a slick wrister, but credit Scrivens with an equally-impressive glove save. 16 left in the 2nd. #CHIvsLAK", 
   "label": "O", 
   "id": 412389082245783552, 
   "hashtags": [
    "CHIvsLAK"
   ], 
   "user_mentions": [], 
   "created_at": "Mon Dec 16 01:09:53 +0000 2013", 
   "retweet_count": 32, 
   "favorite_count": 112
  }, 
  {
   "text": "Period 2 begins. Riiiiiiight..... now. #CHIvsLAK", 
   "label": "O", 
   "id": 412387773320945665, 
   "hashtags": [
    "CHIvsLAK"
   ], 
   "user_mentions": [], 
   "created_at": "Mon Dec 16 01:04:41 +0000 2013", 
   "retweet_count": 44, 
   "favorite_count": 121
  }, 
  {
   "text": "Handsome man, beautiful goal! #Blackhawks http://t.co/U7XWQvSbgJ", 
   "label": "O", 
   "id": 412384057159610368, 
   "hashtags": [
    "Blackhawks"
   ], 
   "user_mentions": [], 
   "created_at": "Mon Dec 16 00:49:55 +0000 2013", 
   "retweet_count": 162, 
   "favorite_count": 167
  }, 
  {
   "text": "We're through one here in Chicago, 3-0 #Blackhawks as the teams head to the rooms. Shots are 10-6 Chicago. #CHIvsLAK", 
   "label": "O", 
   "id": 412383296601870336, 
   "hashtags": [
    "Blackhawks", 
    "CHIvsLAK"
   ], 
   "user_mentions": [], 
   "created_at": "Mon Dec 16 00:46:54 +0000 2013", 
   "retweet_count": 158, 
   "favorite_count": 156
  }, 
  {
   "text": "Another great pass from The Captain, and Sharpie buries it! 3-0 #Blackhawks, :28.2 left in the 1st! #CHIvsLAK", 
   "label": "O", 
   "id": 412383042208952321, 
   "hashtags": [
    "Blackhawks", 
    "CHIvsLAK"
   ], 
   "user_mentions": [], 
   "created_at": "Mon Dec 16 00:45:53 +0000 2013", 
   "retweet_count": 167, 
   "favorite_count": 167
  }, 
  {
   "text": "Stoll checks into the sin bin, two minutes for cross checking. #Blackhawks PP time, 41 seconds left in the 1st! AND GOAL! #CHIvsLAK", 
   "label": "O", 
   "id": 412382870536065024, 
   "hashtags": [
    "Blackhawks", 
    "CHIvsLAK"
   ], 
   "user_mentions": [], 
   "created_at": "Mon Dec 16 00:45:12 +0000 2013", 
   "retweet_count": 39, 
   "favorite_count": 67
  }, 
  {
   "text": "RT @TramyersCSN: Patrick Kane now has at least a point in 21 of his last 22 games. Currently on a nine-game point streak. #Blackhawks", 
   "label": "O", 
   "id": 412380760570867712, 
   "hashtags": [
    "Blackhawks"
   ], 
   "user_mentions": [
    "TramyersCSN"
   ], 
   "created_at": "Mon Dec 16 00:36:49 +0000 2013", 
   "retweet_count": 230, 
   "favorite_count": 0
  }, 
  {
   "text": "#Vercelly http://t.co/tZyiFm9Sy8", 
   "label": "O", 
   "id": 412379954459197440, 
   "hashtags": [
    "Vercelly"
   ], 
   "user_mentions": [], 
   "created_at": "Mon Dec 16 00:33:37 +0000 2013", 
   "retweet_count": 47, 
   "favorite_count": 77
  }, 
  {
   "text": "#Verbeauty! 2-on-1 chance with Handzus, and Steeger beats Scrivens up high! 2-0 #Blackhawks, 10 to go in the 1st! #CHIvsLAK", 
   "label": "O", 
   "id": 412378159233781760, 
   "hashtags": [
    "Verbeauty", 
    "Blackhawks", 
    "CHIvsLAK"
   ], 
   "user_mentions": [], 
   "created_at": "Mon Dec 16 00:26:29 +0000 2013", 
   "retweet_count": 192, 
   "favorite_count": 187
  }, 
  {
   "text": "#HappyHossa... Happier fans! http://t.co/o8QaqtfKsA", 
   "label": "O", 
   "id": 412377309438832640, 
   "hashtags": [
    "HappyHossa"
   ], 
   "user_mentions": [], 
   "created_at": "Mon Dec 16 00:23:06 +0000 2013", 
   "retweet_count": 83, 
   "favorite_count": 116
  }, 
  {
   "text": "Penalty... killed! #CHIvsLAK", 
   "label": "O", 
   "id": 412376910409109505, 
   "hashtags": [
    "CHIvsLAK"
   ], 
   "user_mentions": [], 
   "created_at": "Mon Dec 16 00:21:31 +0000 2013", 
   "retweet_count": 26, 
   "favorite_count": 75
  }, 
  {
   "text": "Gold star to Toews - won the board battle and made that play. That's LA's first time since Nov. 2 surrendering a 1st period goal. #CHIvsLAK", 
   "label": "O", 
   "id": 412376850652860416, 
   "hashtags": [
    "CHIvsLAK"
   ], 
   "user_mentions": [], 
   "created_at": "Mon Dec 16 00:21:17 +0000 2013", 
   "retweet_count": 86, 
   "favorite_count": 122
  }, 
  {
   "text": "SHORTIE! Toews finds Hossa in front of the net, and #81 does what he does best! 1-0 #Blackhawks, 1:20 left on the PK! #CHIvsLAK", 
   "label": "O", 
   "id": 412376352352768000, 
   "hashtags": [
    "Blackhawks", 
    "CHIvsLAK"
   ], 
   "user_mentions": [], 
   "created_at": "Mon Dec 16 00:19:18 +0000 2013", 
   "retweet_count": 212, 
   "favorite_count": 224
  }, 
  {
   "text": "Oduya sent off for tripping, #Blackhawks get their first PK assignment of the affair. 15 to play in the 1st. #CHIvsLAK", 
   "label": "O", 
   "id": 412376027969490944, 
   "hashtags": [
    "Blackhawks", 
    "CHIvsLAK"
   ], 
   "user_mentions": [], 
   "created_at": "Mon Dec 16 00:18:01 +0000 2013", 
   "retweet_count": 15, 
   "favorite_count": 23
  }, 
  {
   "text": "Clifford sent off for tripping, 1:09 into the action here. #Blackhawks PP time! #CHIvsLAK", 
   "label": "O", 
   "id": 412374463619948544, 
   "hashtags": [
    "Blackhawks", 
    "CHIvsLAK"
   ], 
   "user_mentions": [], 
   "created_at": "Mon Dec 16 00:11:48 +0000 2013", 
   "retweet_count": 15, 
   "favorite_count": 33
  }, 
  {
   "text": "Game on! #CHIvsLAK", 
   "label": "O", 
   "id": 412373457645486080, 
   "hashtags": [
    "CHIvsLAK"
   ], 
   "user_mentions": [], 
   "created_at": "Mon Dec 16 00:07:48 +0000 2013", 
   "retweet_count": 150, 
   "favorite_count": 165
  }, 
  {
   "text": "RT @NHL: PLAYER TO WATCH: @NHLBlackhawks Duncan Keith leads all d-men with 27 assists. Will he add more against the @LAKings? http://t.co/y\u2026", 
   "label": "O", 
   "id": 412372483006668800, 
   "hashtags": [], 
   "user_mentions": [
    "NHL", 
    "NHLBlackhawks", 
    "LAKings"
   ], 
   "created_at": "Mon Dec 16 00:03:56 +0000 2013", 
   "retweet_count": 178, 
   "favorite_count": 0
  }, 
  {
   "text": "Tonight's #Blackhawks starters: Keith, Seabs, Steeger, Zus, Kaner and Antti. Morin and Kostka are healthy scratches. #CHIvsLAK", 
   "label": "O", 
   "id": 412370767511166976, 
   "hashtags": [
    "Blackhawks", 
    "CHIvsLAK"
   ], 
   "user_mentions": [], 
   "created_at": "Sun Dec 15 23:57:07 +0000 2013", 
   "retweet_count": 79, 
   "favorite_count": 113
  }, 
  {
   "text": "Happy Sunday, #Blackhawks fans! The Kings are in town for a 2013 Western Conference Final rematch. Stay tuned! #CHIvsLAK", 
   "label": "O", 
   "id": 412366217060442112, 
   "hashtags": [
    "Blackhawks", 
    "CHIvsLAK"
   ], 
   "user_mentions": [], 
   "created_at": "Sun Dec 15 23:39:02 +0000 2013", 
   "retweet_count": 73, 
   "favorite_count": 129
  }, 
  {
   "text": "Rooms for the 2014 #Blackhawks Convention will go on sale this Wednesday. http://t.co/GnPp2JnFTm", 
   "label": "O", 
   "id": 412363502313955328, 
   "hashtags": [
    "Blackhawks"
   ], 
   "user_mentions": [], 
   "created_at": "Sun Dec 15 23:28:14 +0000 2013", 
   "retweet_count": 20, 
   "favorite_count": 48
  }, 
  {
   "text": "The first 10,000 fans at the UC will receive a @bbicks29 Bobblehead, courtesy of @Lemonhead! (Actual size may vary). http://t.co/q7BFYYq0pU", 
   "label": "O", 
   "id": 412345729110126592, 
   "hashtags": [], 
   "user_mentions": [
    "bbicks29", 
    "Lemonhead"
   ], 
   "created_at": "Sun Dec 15 22:17:37 +0000 2013", 
   "retweet_count": 105, 
   "favorite_count": 197
  }, 
  {
   "text": "10 years after his passing, Keith Magnuson's heart and spirit are still present in Chicago, writes Bob Verdi. http://t.co/9OBOzpRHj9", 
   "label": "O", 
   "id": 412278791466004480, 
   "hashtags": [], 
   "user_mentions": [], 
   "created_at": "Sun Dec 15 17:51:38 +0000 2013", 
   "retweet_count": 65, 
   "favorite_count": 85
  }
 ]
}