{
 "num_road_team_goals": "2", 
 "home_team": "Colorado Avalanche", 
 "num_home_team_goals": "3", 
 "summary_url": "http://www.flyershistory.com/cgi-bin/poboxscore.cgi?H20130987", 
 "result": "L", 
 "road_team": "Chicago Blackhawks", 
 "date": "2014-03-12", 
 "goals": [
  {
   "season_index": "1", 
   "strength": "(EV)", 
   "time": "18:24", 
   "period": "1", 
   "player": "B.Malone", 
   "assists": "(T.Barrie, S.Varlamov)", 
   "game_index": "1", 
   "team": "COL"
  }, 
  {
   "season_index": "22", 
   "strength": "(EV)", 
   "time": "0:19", 
   "period": "2", 
   "player": "M.Duchene", 
   "assists": "(J.McGinn, R.O'reilly)", 
   "game_index": "2", 
   "team": "COL"
  }, 
  {
   "season_index": "29", 
   "strength": "(EV)", 
   "time": "8:23", 
   "period": "2", 
   "player": "P.Kane", 
   "assists": "(P.Sharp, N.Hjalmarsson)", 
   "game_index": "3", 
   "team": "CHI"
  }, 
  {
   "season_index": "25", 
   "strength": "(PP)", 
   "time": "10:53", 
   "period": "3", 
   "player": "R.O'reilly", 
   "assists": "(M.Duchene, E.Johnson)", 
   "game_index": "4", 
   "team": "COL"
  }, 
  {
   "season_index": "19", 
   "strength": "(EV)", 
   "time": "17:43", 
   "period": "3", 
   "player": "B.Saad", 
   "assists": "(A.Shaw, D.Keith)", 
   "game_index": "5", 
   "team": "CHI"
  }
 ], 
 "tweets": [
  {
   "text": "5 to go in the game, Blackhawks still trail the Avalanche 3-1. #CHIvsCOL", 
   "label": "O", 
   "id": 443957780697718785, 
   "hashtags": [
    "CHIvsCOL"
   ], 
   "user_mentions": [], 
   "created_at": "Thu Mar 13 03:52:37 +0000 2014", 
   "retweet_count": 32, 
   "favorite_count": 41
  }, 
  {
   "text": "O'Reilly capitalizes on the 5-on-3, putting the Avalanche up 3-1. 9 minutes left in the game. #CHIvsCOL", 
   "label": "O", 
   "id": 443955682434228224, 
   "hashtags": [
    "CHIvsCOL"
   ], 
   "user_mentions": [], 
   "created_at": "Thu Mar 13 03:44:17 +0000 2014", 
   "retweet_count": 25, 
   "favorite_count": 34
  }, 
  {
   "text": "Kruger will join Shaw in the box as his cleared puck goes over the glass in the #Blackhawks zone. Avs with a 5-on-3 for 1:30. #CHIvsCOL", 
   "label": "O", 
   "id": 443955025530740736, 
   "hashtags": [
    "Blackhawks", 
    "CHIvsCOL"
   ], 
   "user_mentions": [], 
   "created_at": "Thu Mar 13 03:41:41 +0000 2014", 
   "retweet_count": 24, 
   "favorite_count": 46
  }, 
  {
   "text": "Andrew Shaw will sit for two minutes with 11 to go in the final frame. #Blackhawks to the PK. #CHIvsCOL", 
   "label": "O", 
   "id": 443954610588229632, 
   "hashtags": [
    "Blackhawks", 
    "CHIvsCOL"
   ], 
   "user_mentions": [], 
   "created_at": "Thu Mar 13 03:40:02 +0000 2014", 
   "retweet_count": 21, 
   "favorite_count": 51
  }, 
  {
   "text": "We're five minutes into the final frame and the #Blackhawks still trail Colorado 2-1. #CHIvsCOL", 
   "label": "O", 
   "id": 443952853715914753, 
   "hashtags": [
    "Blackhawks", 
    "CHIvsCOL"
   ], 
   "user_mentions": [], 
   "created_at": "Thu Mar 13 03:33:03 +0000 2014", 
   "retweet_count": 28, 
   "favorite_count": 49
  }, 
  {
   "text": "Here we go, Period 3 is underway in Colorado. #CHIvsCOL", 
   "label": "O", 
   "id": 443951315639496705, 
   "hashtags": [
    "CHIvsCOL"
   ], 
   "user_mentions": [], 
   "created_at": "Thu Mar 13 03:26:56 +0000 2014", 
   "retweet_count": 56, 
   "favorite_count": 105
  }, 
  {
   "text": "That's it for Period 2. Colorado leads Chicago 2-1. #Blackhawks with the edge in SOG, 25-18. #CHIvsCOL", 
   "label": "O", 
   "id": 443947083855192066, 
   "hashtags": [
    "Blackhawks", 
    "CHIvsCOL"
   ], 
   "user_mentions": [], 
   "created_at": "Thu Mar 13 03:10:07 +0000 2014", 
   "retweet_count": 37, 
   "favorite_count": 63
  }, 
  {
   "text": "The #Blackhawks get some solid opportunities on the power play but come up empty. Still 2-1 with under a minute to go in Period 2. #CHIvsCOL", 
   "label": "O", 
   "id": 443946364129386496, 
   "hashtags": [
    "Blackhawks", 
    "CHIvsCOL"
   ], 
   "user_mentions": [], 
   "created_at": "Thu Mar 13 03:07:15 +0000 2014", 
   "retweet_count": 33, 
   "favorite_count": 63
  }, 
  {
   "text": "The #Blackhawks kill off that penalty and will now head to the power play! John Mitchell is sent to the sin bin with 4 to go in Period 2.", 
   "label": "O", 
   "id": 443945186909908995, 
   "hashtags": [
    "Blackhawks"
   ], 
   "user_mentions": [], 
   "created_at": "Thu Mar 13 03:02:35 +0000 2014", 
   "retweet_count": 35, 
   "favorite_count": 89
  }, 
  {
   "text": "Patrick Kane will sit for two minutes for goaltender interference. #Blackhawks to the PK with 7 to go in Period 2. #CHIvsCOL", 
   "label": "O", 
   "id": 443944132793212928, 
   "hashtags": [
    "Blackhawks", 
    "CHIvsCOL"
   ], 
   "user_mentions": [], 
   "created_at": "Thu Mar 13 02:58:24 +0000 2014", 
   "retweet_count": 52, 
   "favorite_count": 112
  }, 
  {
   "text": "Patrick Kane with an absolute beauty gets the #Blackhawks on the board. Chicago trails Colorado 2-1. #CHIvsCOL", 
   "label": "O", 
   "id": 443942037650296832, 
   "hashtags": [
    "Blackhawks", 
    "CHIvsCOL"
   ], 
   "user_mentions": [], 
   "created_at": "Thu Mar 13 02:50:04 +0000 2014", 
   "retweet_count": 348, 
   "favorite_count": 542
  }, 
  {
   "text": "PATRICK KANE. #ThereAreNoOtherWords #CHIvsCOL", 
   "label": "O", 
   "id": 443941712897904640, 
   "hashtags": [
    "ThereAreNoOtherWords", 
    "CHIvsCOL"
   ], 
   "user_mentions": [], 
   "created_at": "Thu Mar 13 02:48:47 +0000 2014", 
   "retweet_count": 922, 
   "favorite_count": 963
  }, 
  {
   "text": "Nate Guenin is sent off for interference and the Blackhawks will head to the power play. #CHIvsCOL", 
   "label": "O", 
   "id": 443939996118949888, 
   "hashtags": [
    "CHIvsCOL"
   ], 
   "user_mentions": [], 
   "created_at": "Thu Mar 13 02:41:57 +0000 2014", 
   "retweet_count": 26, 
   "favorite_count": 50
  }, 
  {
   "text": "The #Blackhawks putting on some pressure but, so far, Varlamov has been up to the challenge. 2-0 with 15:50 to go in Period 2. #CHIvsCOL", 
   "label": "O", 
   "id": 443939746545295361, 
   "hashtags": [
    "Blackhawks", 
    "CHIvsCOL"
   ], 
   "user_mentions": [], 
   "created_at": "Thu Mar 13 02:40:58 +0000 2014", 
   "retweet_count": 26, 
   "favorite_count": 38
  }, 
  {
   "text": "Seconds into the second period Matt Duchene makes it 2-0. #CHIvsCOL", 
   "label": "O", 
   "id": 443938330309165056, 
   "hashtags": [
    "CHIvsCOL"
   ], 
   "user_mentions": [], 
   "created_at": "Thu Mar 13 02:35:20 +0000 2014", 
   "retweet_count": 44, 
   "favorite_count": 59
  }, 
  {
   "text": "Aaaand we're back for Period 2! #CHIvsCOL", 
   "label": "O", 
   "id": 443938114596134912, 
   "hashtags": [
    "CHIvsCOL"
   ], 
   "user_mentions": [], 
   "created_at": "Thu Mar 13 02:34:29 +0000 2014", 
   "retweet_count": 28, 
   "favorite_count": 95
  }, 
  {
   "text": "That's it for Period 1, Colorado is up 1-0. #Blackhawks have the slight edge in SOG: 11-10. #CHIvsCOL", 
   "label": "O", 
   "id": 443933692713390080, 
   "hashtags": [
    "Blackhawks", 
    "CHIvsCOL"
   ], 
   "user_mentions": [], 
   "created_at": "Thu Mar 13 02:16:54 +0000 2014", 
   "retweet_count": 42, 
   "favorite_count": 52
  }, 
  {
   "text": "Malone gets the Avalanche on the board with 1:36 to go in the first period. 1-0 Colorado. #CHIvsCOL", 
   "label": "O", 
   "id": 443933173362077696, 
   "hashtags": [
    "CHIvsCOL"
   ], 
   "user_mentions": [], 
   "created_at": "Thu Mar 13 02:14:51 +0000 2014", 
   "retweet_count": 24, 
   "favorite_count": 40
  }, 
  {
   "text": "4:30 to go in the first period and we're still knotted at 0-0. #Blackhawks up in SOG 10-7. #CHIvsCOL", 
   "label": "O", 
   "id": 443931442674810880, 
   "hashtags": [
    "Blackhawks", 
    "CHIvsCOL"
   ], 
   "user_mentions": [], 
   "created_at": "Thu Mar 13 02:07:58 +0000 2014", 
   "retweet_count": 42, 
   "favorite_count": 70
  }, 
  {
   "text": "McLeod and Brookbank drop the gloves and head to the box. #Blackhawks go to the PP with McLeod collecting an additional interference.", 
   "label": "O", 
   "id": 443928989606764546, 
   "hashtags": [
    "Blackhawks"
   ], 
   "user_mentions": [], 
   "created_at": "Thu Mar 13 01:58:13 +0000 2014", 
   "retweet_count": 64, 
   "favorite_count": 96
  }, 
  {
   "text": "RAANTA! That is all. #CHIvsCOL", 
   "label": "O", 
   "id": 443926227070373888, 
   "hashtags": [
    "CHIvsCOL"
   ], 
   "user_mentions": [], 
   "created_at": "Thu Mar 13 01:47:14 +0000 2014", 
   "retweet_count": 267, 
   "favorite_count": 376
  }, 
  {
   "text": "The replay on the epically large video board here shows the puck striking iron early on the Avs power play. #CHIvsCOL", 
   "label": "O", 
   "id": 443925666120335361, 
   "hashtags": [
    "CHIvsCOL"
   ], 
   "user_mentions": [], 
   "created_at": "Thu Mar 13 01:45:01 +0000 2014", 
   "retweet_count": 26, 
   "favorite_count": 70
  }, 
  {
   "text": "Penalty killed! #CHIvsCOL", 
   "label": "O", 
   "id": 443925288469004288, 
   "hashtags": [
    "CHIvsCOL"
   ], 
   "user_mentions": [], 
   "created_at": "Thu Mar 13 01:43:31 +0000 2014", 
   "retweet_count": 62, 
   "favorite_count": 114
  }, 
  {
   "text": "Duncan Keith is subsequently sent off for roughing. Just under a minute into the game here in Denver. #CHIvsCOL", 
   "label": "O", 
   "id": 443924879402745856, 
   "hashtags": [
    "CHIvsCOL"
   ], 
   "user_mentions": [], 
   "created_at": "Thu Mar 13 01:41:53 +0000 2014", 
   "retweet_count": 30, 
   "favorite_count": 82
  }, 
  {
   "text": "Raanta is challenged with a point-blank look from MacKinnon but holds onto it. #CHIvsCOL", 
   "label": "O", 
   "id": 443924711328579585, 
   "hashtags": [
    "CHIvsCOL"
   ], 
   "user_mentions": [], 
   "created_at": "Thu Mar 13 01:41:13 +0000 2014", 
   "retweet_count": 34, 
   "favorite_count": 91
  }, 
  {
   "text": "Game on! #CHIvsCOL", 
   "label": "O", 
   "id": 443924054399918080, 
   "hashtags": [
    "CHIvsCOL"
   ], 
   "user_mentions": [], 
   "created_at": "Thu Mar 13 01:38:36 +0000 2014", 
   "retweet_count": 187, 
   "favorite_count": 221
  }, 
  {
   "text": "Follow along with tonight\u2019s #CHIvsCOL game with @BMOHarrisBank\u2019s #BMOIceTracker! Stay connected with the action here: http://t.co/zKP0MQG525", 
   "label": "O", 
   "id": 443923159960813568, 
   "hashtags": [
    "CHIvsCOL", 
    "BMOIceTracker"
   ], 
   "user_mentions": [
    "BMOHarrisBank"
   ], 
   "created_at": "Thu Mar 13 01:35:03 +0000 2014", 
   "retweet_count": 16, 
   "favorite_count": 50
  }, 
  {
   "text": "#Blackhawks starters: Raanta; Hjalmarsson, Oduya; Saad, Toews, Shaw. Scratches: Rundblad, Regin, Hossa (upper body). #CHIvsCOL", 
   "label": "O", 
   "id": 443920536075120640, 
   "hashtags": [
    "Blackhawks", 
    "CHIvsCOL"
   ], 
   "user_mentions": [], 
   "created_at": "Thu Mar 13 01:24:38 +0000 2014", 
   "retweet_count": 111, 
   "favorite_count": 157
  }, 
  {
   "text": "Warmups are underway in Colorado. That can only mean one thing: #Blackhawks hockey soon! #CHIvsCOL", 
   "label": "O", 
   "id": 443916052259282944, 
   "hashtags": [
    "Blackhawks", 
    "CHIvsCOL"
   ], 
   "user_mentions": [], 
   "created_at": "Thu Mar 13 01:06:49 +0000 2014", 
   "retweet_count": 112, 
   "favorite_count": 214
  }, 
  {
   "text": "What did @AnttiRaanta have to say after today's morning skate in Denver? Find out now on #Blackhawks TV! http://t.co/Umyy0o5J7L", 
   "label": "O", 
   "id": 443839927722065921, 
   "hashtags": [
    "Blackhawks"
   ], 
   "user_mentions": [
    "AnttiRaanta"
   ], 
   "created_at": "Wed Mar 12 20:04:19 +0000 2014", 
   "retweet_count": 34, 
   "favorite_count": 75
  }, 
  {
   "text": "The #Blackhawks are on the ice for morning skate in Colorado. #CHIvsCOL", 
   "label": "O", 
   "id": 443800853321752576, 
   "hashtags": [
    "Blackhawks", 
    "CHIvsCOL"
   ], 
   "user_mentions": [], 
   "created_at": "Wed Mar 12 17:29:03 +0000 2014", 
   "retweet_count": 100, 
   "favorite_count": 261
  }, 
  {
   "text": "Iiiiiiit's GAMEDAY! Need a preview of tonight's big #CHIvsCOL matchup? Here you go: http://t.co/58VkN3bdbV http://t.co/r0UuhxAqwv", 
   "label": "O", 
   "id": 443795716167589888, 
   "hashtags": [
    "CHIvsCOL"
   ], 
   "user_mentions": [], 
   "created_at": "Wed Mar 12 17:08:38 +0000 2014", 
   "retweet_count": 139, 
   "favorite_count": 265
  }, 
  {
   "text": "ICYMI: 2011 #Blackhawks draft pick and @goicehogs defenseman Klas Dahlbeck is finding his shot in the AHL: http://t.co/SbuQfsj6tQ", 
   "label": "O", 
   "id": 443774813853601793, 
   "hashtags": [
    "Blackhawks"
   ], 
   "user_mentions": [
    "goicehogs"
   ], 
   "created_at": "Wed Mar 12 15:45:35 +0000 2014", 
   "retweet_count": 28, 
   "favorite_count": 57
  }, 
  {
   "text": ".@WGNRadio's \"The Eddie O Show\" returns to Pequod's Pizza in Chicago tomorrow at 7 p.m.! Presented by @BCBSIL: http://t.co/xvqspPVwAn", 
   "label": "O", 
   "id": 443748275775348736, 
   "hashtags": [], 
   "user_mentions": [
    "WGNRadio", 
    "BCBSIL"
   ], 
   "created_at": "Wed Mar 12 14:00:08 +0000 2014", 
   "retweet_count": 21, 
   "favorite_count": 44
  }
 ]
}