{
 "num_road_team_goals": "2", 
 "home_team": "Philadelphia Flyers", 
 "num_home_team_goals": "3", 
 "summary_url": "http://www.flyershistory.com/cgi-bin/poboxscore.cgi?H20131033", 
 "result": "L", 
 "road_team": "Chicago Blackhawks", 
 "date": "2014-03-18", 
 "goals": [
  {
   "season_index": "17", 
   "strength": "(EV)", 
   "time": "2:29", 
   "period": "1", 
   "player": "A.Shaw", 
   "assists": "(M.Handzus, P.Sharp)", 
   "game_index": "1", 
   "team": "CHI"
  }, 
  {
   "season_index": "4", 
   "strength": "(EV)", 
   "time": "3:51", 
   "period": "1", 
   "player": "D.Keith", 
   "assists": "(J.Toews, M.Hossa)", 
   "game_index": "2", 
   "team": "CHI"
  }, 
  {
   "season_index": "17", 
   "strength": "(EV)", 
   "time": "5:48", 
   "period": "1", 
   "player": "Scott Hartnell", 
   "assists": "(Braydon Coburn)", 
   "game_index": "3", 
   "team": "PHI"
  }, 
  {
   "season_index": "18", 
   "strength": "(EV)", 
   "time": "16:27", 
   "period": "1", 
   "player": "Scott Hartnell", 
   "assists": "(Claude Giroux, Matt Read)", 
   "game_index": "4", 
   "team": "PHI"
  }, 
  {
   "season_index": "24", 
   "strength": "(EV)", 
   "time": "4:55", 
   "period": "OT", 
   "player": "Claude Giroux", 
   "assists": "(Mark Streit)", 
   "game_index": "5", 
   "team": "PHI"
  }
 ], 
 "tweets": [
  {
   "text": "Giroux fires off a shot past Raanta with 4.2 seconds left and that's the game. #Blackhawks fall 3-2 to the Flyers. #CHIvsPHI", 
   "label": "O", 
   "id": 446109851505422336, 
   "hashtags": [
    "Blackhawks", 
    "CHIvsPHI"
   ], 
   "user_mentions": [], 
   "created_at": "Wed Mar 19 02:24:11 +0000 2014", 
   "retweet_count": 143, 
   "favorite_count": 117
  }, 
  {
   "text": "Overtime starts... NOW! #CHIvsPHI", 
   "label": "O", 
   "id": 446108259976744961, 
   "hashtags": [
    "CHIvsPHI"
   ], 
   "user_mentions": [], 
   "created_at": "Wed Mar 19 02:17:52 +0000 2014", 
   "retweet_count": 116, 
   "favorite_count": 178
  }, 
  {
   "text": "Sixty minutes is not enough for this one, we'll head to overtime in Philly. #CHIvsPHI", 
   "label": "O", 
   "id": 446107868111323136, 
   "hashtags": [
    "CHIvsPHI"
   ], 
   "user_mentions": [], 
   "created_at": "Wed Mar 19 02:16:18 +0000 2014", 
   "retweet_count": 95, 
   "favorite_count": 117
  }, 
  {
   "text": "Last minute of regulation in Philly... #CHIvsPHI", 
   "label": "O", 
   "id": 446107142169587712, 
   "hashtags": [
    "CHIvsPHI"
   ], 
   "user_mentions": [], 
   "created_at": "Wed Mar 19 02:13:25 +0000 2014", 
   "retweet_count": 36, 
   "favorite_count": 83
  }, 
  {
   "text": "Down to three minutes left in regulation. #CHIvsPHI", 
   "label": "O", 
   "id": 446106590530510849, 
   "hashtags": [
    "CHIvsPHI"
   ], 
   "user_mentions": [], 
   "created_at": "Wed Mar 19 02:11:14 +0000 2014", 
   "retweet_count": 41, 
   "favorite_count": 71
  }, 
  {
   "text": "Bickell and Simmonds drop the gloves with 6:08 remaining in the game. #CHIvsPHI", 
   "label": "O", 
   "id": 446104144588570624, 
   "hashtags": [
    "CHIvsPHI"
   ], 
   "user_mentions": [], 
   "created_at": "Wed Mar 19 02:01:30 +0000 2014", 
   "retweet_count": 197, 
   "favorite_count": 250
  }, 
  {
   "text": "Referees confirm the call on the ice, no goal. Still 2-2 with 6 minutes to go. #CHIvsPHI", 
   "label": "O", 
   "id": 446103917576073216, 
   "hashtags": [
    "CHIvsPHI"
   ], 
   "user_mentions": [], 
   "created_at": "Wed Mar 19 02:00:36 +0000 2014", 
   "retweet_count": 50, 
   "favorite_count": 100
  }, 
  {
   "text": "Schenn thinks he's gotten the go-ahead goal for the Flyers but the refs are waiving it off. Still 2-2 with 6 minutes left in the game.", 
   "label": "O", 
   "id": 446103762416201728, 
   "hashtags": [], 
   "user_mentions": [], 
   "created_at": "Wed Mar 19 01:59:59 +0000 2014", 
   "retweet_count": 39, 
   "favorite_count": 54
  }, 
  {
   "text": "Raanta! There he is again! #Raantastic! #CHIvsPHI", 
   "label": "O", 
   "id": 446103432105975808, 
   "hashtags": [
    "Raantastic", 
    "CHIvsPHI"
   ], 
   "user_mentions": [], 
   "created_at": "Wed Mar 19 01:58:41 +0000 2014", 
   "retweet_count": 76, 
   "favorite_count": 155
  }, 
  {
   "text": "Raanta. Raanta. Raanta. This kid is working tonight! #CHIvsPHI", 
   "label": "O", 
   "id": 446103103553564672, 
   "hashtags": [
    "CHIvsPHI"
   ], 
   "user_mentions": [], 
   "created_at": "Wed Mar 19 01:57:22 +0000 2014", 
   "retweet_count": 157, 
   "favorite_count": 249
  }, 
  {
   "text": "We're midway through the final frame, Blackhawks and Flyers are still knotted at 2-2. #CHIvsPHI", 
   "label": "O", 
   "id": 446101818100441088, 
   "hashtags": [
    "CHIvsPHI"
   ], 
   "user_mentions": [], 
   "created_at": "Wed Mar 19 01:52:16 +0000 2014", 
   "retweet_count": 46, 
   "favorite_count": 57
  }, 
  {
   "text": "MacDonald is sent off for a high stick and the #Blackhawks are on the power play! #CHIvsPHI", 
   "label": "O", 
   "id": 446100636804059136, 
   "hashtags": [
    "Blackhawks", 
    "CHIvsPHI"
   ], 
   "user_mentions": [], 
   "created_at": "Wed Mar 19 01:47:34 +0000 2014", 
   "retweet_count": 28, 
   "favorite_count": 64
  }, 
  {
   "text": "That penalty is over! 13 minutes left in the game and we're still tied 2-2. #CHIvsPHI", 
   "label": "O", 
   "id": 446099578669256706, 
   "hashtags": [
    "CHIvsPHI"
   ], 
   "user_mentions": [], 
   "created_at": "Wed Mar 19 01:43:22 +0000 2014", 
   "retweet_count": 44, 
   "favorite_count": 66
  }, 
  {
   "text": "After finishing off the too many men call, the Blackhawks are back to the PK as Shaw is sent off. 15:46 left in Period 3. #CHIvsPHI", 
   "label": "O", 
   "id": 446098546404892672, 
   "hashtags": [
    "CHIvsPHI"
   ], 
   "user_mentions": [], 
   "created_at": "Wed Mar 19 01:39:16 +0000 2014", 
   "retweet_count": 23, 
   "favorite_count": 44
  }, 
  {
   "text": "#Blackhawks get called for too many men on the ice, and they'll head to the penalty kill. #CHIvsPHI", 
   "label": "O", 
   "id": 446097405940080641, 
   "hashtags": [
    "Blackhawks", 
    "CHIvsPHI"
   ], 
   "user_mentions": [], 
   "created_at": "Wed Mar 19 01:34:44 +0000 2014", 
   "retweet_count": 15, 
   "favorite_count": 55
  }, 
  {
   "text": "And we're back for the final frame here in Philly! #CHIvsPHI", 
   "label": "O", 
   "id": 446097004394209280, 
   "hashtags": [
    "CHIvsPHI"
   ], 
   "user_mentions": [], 
   "created_at": "Wed Mar 19 01:33:08 +0000 2014", 
   "retweet_count": 46, 
   "favorite_count": 84
  }, 
  {
   "text": "That's it for Period 2. Blackhawks and Flyers are locked at 2-2. SOG have Philly up 20-18. #CHIvsPHI", 
   "label": "O", 
   "id": 446092358967648256, 
   "hashtags": [
    "CHIvsPHI"
   ], 
   "user_mentions": [], 
   "created_at": "Wed Mar 19 01:14:41 +0000 2014", 
   "retweet_count": 55, 
   "favorite_count": 59
  }, 
  {
   "text": "Grossmann is sent off for holding, so the #Blackhawks will take their turn on the power play! #CHIvsPHI", 
   "label": "O", 
   "id": 446090679648026624, 
   "hashtags": [
    "Blackhawks", 
    "CHIvsPHI"
   ], 
   "user_mentions": [], 
   "created_at": "Wed Mar 19 01:08:00 +0000 2014", 
   "retweet_count": 22, 
   "favorite_count": 49
  }, 
  {
   "text": "Penalty killed! #CHIvsPHI", 
   "label": "O", 
   "id": 446090350734897152, 
   "hashtags": [
    "CHIvsPHI"
   ], 
   "user_mentions": [], 
   "created_at": "Wed Mar 19 01:06:42 +0000 2014", 
   "retweet_count": 35, 
   "favorite_count": 90
  }, 
  {
   "text": "Hossa is sent off for holding so the #Blackhawks are back to the penalty kill. #CHIvsPHI", 
   "label": "O", 
   "id": 446089893887090689, 
   "hashtags": [
    "Blackhawks", 
    "CHIvsPHI"
   ], 
   "user_mentions": [], 
   "created_at": "Wed Mar 19 01:04:53 +0000 2014", 
   "retweet_count": 22, 
   "favorite_count": 41
  }, 
  {
   "text": "Raanta strrrrrretches and keeps the puck out of the net! #CHIvsPHI", 
   "label": "O", 
   "id": 446089760327872512, 
   "hashtags": [
    "CHIvsPHI"
   ], 
   "user_mentions": [], 
   "created_at": "Wed Mar 19 01:04:21 +0000 2014", 
   "retweet_count": 59, 
   "favorite_count": 140
  }, 
  {
   "text": "We're halfway through the second frame and the #Blackhawks and Flyers are still locked at 2-2. #CHIvsPHI", 
   "label": "O", 
   "id": 446088116454293504, 
   "hashtags": [
    "Blackhawks", 
    "CHIvsPHI"
   ], 
   "user_mentions": [], 
   "created_at": "Wed Mar 19 00:57:49 +0000 2014", 
   "retweet_count": 37, 
   "favorite_count": 58
  }, 
  {
   "text": "Bickell with a nifty wrap-around attempt but Emery's pad clears it away. #CHIvsPHI", 
   "label": "O", 
   "id": 446085050657144832, 
   "hashtags": [
    "CHIvsPHI"
   ], 
   "user_mentions": [], 
   "created_at": "Wed Mar 19 00:45:38 +0000 2014", 
   "retweet_count": 25, 
   "favorite_count": 51
  }, 
  {
   "text": "Brookbank and Rinaldo drop the gloves. Both collect 5 minutes for fighting. 16:42 to go in Period 2. #CHIvsPHI", 
   "label": "O", 
   "id": 446084352536248321, 
   "hashtags": [
    "CHIvsPHI"
   ], 
   "user_mentions": [], 
   "created_at": "Wed Mar 19 00:42:52 +0000 2014", 
   "retweet_count": 68, 
   "favorite_count": 99
  }, 
  {
   "text": "#Blackhawks have some sustained pressure in the offensive zone but only get one shot off. 2:34 into Period 2. #CHIvsPHI", 
   "label": "O", 
   "id": 446083632927891457, 
   "hashtags": [
    "Blackhawks", 
    "CHIvsPHI"
   ], 
   "user_mentions": [], 
   "created_at": "Wed Mar 19 00:40:00 +0000 2014", 
   "retweet_count": 22, 
   "favorite_count": 36
  }, 
  {
   "text": "And we're back! Period 2 is underway, both teams knotted at 2. #CHIvsPHI", 
   "label": "O", 
   "id": 446082735409745920, 
   "hashtags": [
    "CHIvsPHI"
   ], 
   "user_mentions": [], 
   "created_at": "Wed Mar 19 00:36:26 +0000 2014", 
   "retweet_count": 45, 
   "favorite_count": 60
  }, 
  {
   "text": "After 20 minutes of play, it's 2-2 in Philly. Flyers with the edge in SOG, 14-7. #CHIvsPHI", 
   "label": "O", 
   "id": 446078125823504384, 
   "hashtags": [
    "CHIvsPHI"
   ], 
   "user_mentions": [], 
   "created_at": "Wed Mar 19 00:18:07 +0000 2014", 
   "retweet_count": 47, 
   "favorite_count": 62
  }, 
  {
   "text": "Scott Hartnell strikes again for the Flyers and it's a tie game. 2-2 with 3 minutes left in the first period. #CHIvsPHI", 
   "label": "O", 
   "id": 446076574031695873, 
   "hashtags": [
    "CHIvsPHI"
   ], 
   "user_mentions": [], 
   "created_at": "Wed Mar 19 00:11:57 +0000 2014", 
   "retweet_count": 35, 
   "favorite_count": 40
  }, 
  {
   "text": "Penalties... killed! 4 minutes left in the first period. #CHIvsPHI", 
   "label": "O", 
   "id": 446076191582466048, 
   "hashtags": [
    "CHIvsPHI"
   ], 
   "user_mentions": [], 
   "created_at": "Wed Mar 19 00:10:26 +0000 2014", 
   "retweet_count": 29, 
   "favorite_count": 73
  }, 
  {
   "text": "Bollig leaves the box and the Flyers are back to the one-man advantage. #CHIvsPHI", 
   "label": "O", 
   "id": 446075833363742720, 
   "hashtags": [
    "CHIvsPHI"
   ], 
   "user_mentions": [], 
   "created_at": "Wed Mar 19 00:09:01 +0000 2014", 
   "retweet_count": 16, 
   "favorite_count": 34
  }, 
  {
   "text": "The Flyers strike iron, and now Kruger is sent off for holding. Philly will have a 5-on-3 advantage for 10 seconds. #CHIvsPHI", 
   "label": "O", 
   "id": 446075584830263296, 
   "hashtags": [
    "CHIvsPHI"
   ], 
   "user_mentions": [], 
   "created_at": "Wed Mar 19 00:08:01 +0000 2014", 
   "retweet_count": 21, 
   "favorite_count": 35
  }, 
  {
   "text": "The #Blackhawks will head to the PK with Bollig in the box for tripping. 8 minutes to go in Period 1. #CHIvsPHI", 
   "label": "O", 
   "id": 446074864102043648, 
   "hashtags": [
    "Blackhawks", 
    "CHIvsPHI"
   ], 
   "user_mentions": [], 
   "created_at": "Wed Mar 19 00:05:09 +0000 2014", 
   "retweet_count": 20, 
   "favorite_count": 34
  }, 
  {
   "text": "It's time for a #Blackhawks power play! Raffl will sit for slashing, and Chicago heads to the man advantage with 12:45 left in Period 1.", 
   "label": "O", 
   "id": 446072766056628224, 
   "hashtags": [
    "Blackhawks"
   ], 
   "user_mentions": [], 
   "created_at": "Tue Mar 18 23:56:49 +0000 2014", 
   "retweet_count": 34, 
   "favorite_count": 70
  }, 
  {
   "text": "Scott Hartnell knocks one in off of Kruger to get the Flyers on the board. 2-1 #Blackhawks with 14 to go in the first period. #CHIvsPHI", 
   "label": "O", 
   "id": 446071546185277440, 
   "hashtags": [
    "Blackhawks", 
    "CHIvsPHI"
   ], 
   "user_mentions": [], 
   "created_at": "Tue Mar 18 23:51:58 +0000 2014", 
   "retweet_count": 39, 
   "favorite_count": 41
  }, 
  {
   "text": "It's 2-0 #Blackhawks after No. 2 blasts one pasts Ray Emery. 15 minutes to go in Period 1! #CHIvsPHI", 
   "label": "O", 
   "id": 446070622196862977, 
   "hashtags": [
    "Blackhawks", 
    "CHIvsPHI"
   ], 
   "user_mentions": [], 
   "created_at": "Tue Mar 18 23:48:18 +0000 2014", 
   "retweet_count": 225, 
   "favorite_count": 265
  }, 
  {
   "text": "DUNCS!", 
   "label": "O", 
   "id": 446070350166888448, 
   "hashtags": [], 
   "user_mentions": [], 
   "created_at": "Tue Mar 18 23:47:13 +0000 2014", 
   "retweet_count": 172, 
   "favorite_count": 267
  }, 
  {
   "text": "Sharpie and Zus pick up the assists on Shaw's goal. #CHIvsPHI", 
   "label": "O", 
   "id": 446069985728036865, 
   "hashtags": [
    "CHIvsPHI"
   ], 
   "user_mentions": [], 
   "created_at": "Tue Mar 18 23:45:46 +0000 2014", 
   "retweet_count": 69, 
   "favorite_count": 140
  }, 
  {
   "text": "SHAWZER! The Mutt makes it happen! It's 1-0 #Blackhawks!", 
   "label": "O", 
   "id": 446069701308071936, 
   "hashtags": [
    "Blackhawks"
   ], 
   "user_mentions": [], 
   "created_at": "Tue Mar 18 23:44:39 +0000 2014", 
   "retweet_count": 283, 
   "favorite_count": 350
  }, 
  {
   "text": "Here we go! #Blackhawks hockey is ON! #CHIvsPHI", 
   "label": "O", 
   "id": 446068975164985344, 
   "hashtags": [
    "Blackhawks", 
    "CHIvsPHI"
   ], 
   "user_mentions": [], 
   "created_at": "Tue Mar 18 23:41:45 +0000 2014", 
   "retweet_count": 152, 
   "favorite_count": 200
  }, 
  {
   "text": "Follow along with tonight\u2019s #CHIvsPHI game with @BMOHarrisBank\u2019s #BMOIceTracker! Stay connected with the action here: http://t.co/XkradwMEYB", 
   "label": "O", 
   "id": 446067297913151488, 
   "hashtags": [
    "CHIvsPHI", 
    "BMOIceTracker"
   ], 
   "user_mentions": [
    "BMOHarrisBank"
   ], 
   "created_at": "Tue Mar 18 23:35:06 +0000 2014", 
   "retweet_count": 17, 
   "favorite_count": 37
  }, 
  {
   "text": "#Blackhawks starters against the Flyers: Raanta; Keith, Seabrook; Versteeg, Toews, Hossa. Scratches: Rundblad, Saad, and Rozsival. #CHIvsPHI", 
   "label": "O", 
   "id": 446065525320581120, 
   "hashtags": [
    "Blackhawks", 
    "CHIvsPHI"
   ], 
   "user_mentions": [], 
   "created_at": "Tue Mar 18 23:28:03 +0000 2014", 
   "retweet_count": 90, 
   "favorite_count": 140
  }, 
  {
   "text": "Pregame warmups are underway in Philly! Who is your Blackhawk to watch tonight? #CHIvsPHI", 
   "label": "O", 
   "id": 446058546611093505, 
   "hashtags": [
    "CHIvsPHI"
   ], 
   "user_mentions": [], 
   "created_at": "Tue Mar 18 23:00:19 +0000 2014", 
   "retweet_count": 57, 
   "favorite_count": 101
  }, 
  {
   "text": "Need a place to watch tonight's #CHIvsPHI game? Come to our official Roadwatch at Champps Americana in Schaumburg: http://t.co/OL6BwYdap0", 
   "label": "O", 
   "id": 446008928699052032, 
   "hashtags": [
    "CHIvsPHI"
   ], 
   "user_mentions": [], 
   "created_at": "Tue Mar 18 19:43:09 +0000 2014", 
   "retweet_count": 28, 
   "favorite_count": 58
  }, 
  {
   "text": "Now on #Blackhawks TV: @88PKane, @bbicks29 and Coach Q talk about tonight's #CHIvsPHI matchup: http://t.co/4kJOQgZn1P", 
   "label": "O", 
   "id": 446003862780911616, 
   "hashtags": [
    "Blackhawks", 
    "CHIvsPHI"
   ], 
   "user_mentions": [
    "88PKane", 
    "bbicks29"
   ], 
   "created_at": "Tue Mar 18 19:23:01 +0000 2014", 
   "retweet_count": 36, 
   "favorite_count": 85
  }, 
  {
   "text": "@lmark3 There is a montage of stuff on our main page.", 
   "label": "O", 
   "id": 445962679010594816, 
   "hashtags": [], 
   "user_mentions": [
    "lmark3"
   ], 
   "created_at": "Tue Mar 18 16:39:22 +0000 2014", 
   "retweet_count": 0, 
   "favorite_count": 2
  }, 
  {
   "text": "More from Coach Q: It's \"possible\" Brandon Saad could play tomorrow against St. Louis. #Blackhawks", 
   "label": "O", 
   "id": 445959820588236800, 
   "hashtags": [
    "Blackhawks"
   ], 
   "user_mentions": [], 
   "created_at": "Tue Mar 18 16:28:01 +0000 2014", 
   "retweet_count": 80, 
   "favorite_count": 163
  }, 
  {
   "text": "Michal Rozsival (lower body) did not make the trip. Coach Q said it's not serious but he may miss a few games. #Blackhawks", 
   "label": "O", 
   "id": 445959333944496128, 
   "hashtags": [
    "Blackhawks"
   ], 
   "user_mentions": [], 
   "created_at": "Tue Mar 18 16:26:05 +0000 2014", 
   "retweet_count": 36, 
   "favorite_count": 62
  }, 
  {
   "text": "Antti Raanta gets the start in net tonight against the Flyers. #CHIvsPHI", 
   "label": "O", 
   "id": 445958953152020481, 
   "hashtags": [
    "CHIvsPHI"
   ], 
   "user_mentions": [], 
   "created_at": "Tue Mar 18 16:24:34 +0000 2014", 
   "retweet_count": 162, 
   "favorite_count": 302
  }, 
  {
   "text": "Morning skate is a go at Wells Fargo Center! #Blackhawks #CHIvsPHI http://t.co/aRpAstbviN", 
   "label": "O", 
   "id": 445946779423354880, 
   "hashtags": [
    "Blackhawks", 
    "CHIvsPHI"
   ], 
   "user_mentions": [], 
   "created_at": "Tue Mar 18 15:36:12 +0000 2014", 
   "retweet_count": 87, 
   "favorite_count": 318
  }, 
  {
   "text": "It's GAMEDAY! The #Blackhawks are in Philly tonight to take on the Flyers!\n\nGame Preview: http://t.co/QDLM9fbhNM http://t.co/M7hQWyGhAH", 
   "label": "O", 
   "id": 445942957577744385, 
   "hashtags": [
    "Blackhawks"
   ], 
   "user_mentions": [], 
   "created_at": "Tue Mar 18 15:21:01 +0000 2014", 
   "retweet_count": 294, 
   "favorite_count": 471
  }, 
  {
   "text": "@robynsaurus To be announced at the morning skate", 
   "label": "O", 
   "id": 445942651439702016, 
   "hashtags": [], 
   "user_mentions": [
    "robynsaurus"
   ], 
   "created_at": "Tue Mar 18 15:19:47 +0000 2014", 
   "retweet_count": 0, 
   "favorite_count": 3
  }, 
  {
   "text": "It's back! #Blackhawks #MorningSkateLive returns this Friday, starting at 10:30 a.m.! http://t.co/pryMLjrkdc", 
   "label": "O", 
   "id": 445927998282153984, 
   "hashtags": [
    "Blackhawks", 
    "MorningSkateLive"
   ], 
   "user_mentions": [], 
   "created_at": "Tue Mar 18 14:21:34 +0000 2014", 
   "retweet_count": 52, 
   "favorite_count": 108
  }
 ]
}