{
 "num_road_team_goals": "0", 
 "home_team": "Phoenix Coyotes", 
 "num_home_team_goals": "2", 
 "summary_url": "http://www.flyershistory.com/cgi-bin/poboxscore.cgi?H20130870", 
 "result": "L", 
 "road_team": "Chicago Blackhawks", 
 "date": "2014-02-07", 
 "goals": [
  {
   "season_index": "7", 
   "strength": "(PP)", 
   "time": "1:09", 
   "period": "1", 
   "player": "K.Yandle", 
   "assists": "(M.Boedker, A.Vermette)", 
   "game_index": "1", 
   "team": "PHX"
  }, 
  {
   "season_index": "14", 
   "strength": "(PP)", 
   "time": "18:29", 
   "period": "2", 
   "player": "R.Vrbata", 
   "assists": "(M.Ribeiro, K.Yandle)", 
   "game_index": "2", 
   "team": "PHX"
  }
 ], 
 "tweets": [
  {
   "text": "That's all for this one. The Blackhawks fall 2-0 to the Coyotes. #CHIvsPHX", 
   "label": "O", 
   "id": 432011205599698944, 
   "hashtags": [
    "CHIvsPHX"
   ], 
   "user_mentions": [], 
   "created_at": "Sat Feb 08 04:41:12 +0000 2014", 
   "retweet_count": 83, 
   "favorite_count": 65
  }, 
  {
   "text": "Michalek and Toews are each sent off for separate penalties with 5 seconds remaining. #CHIvsPHX", 
   "label": "O", 
   "id": 432011112716853248, 
   "hashtags": [
    "CHIvsPHX"
   ], 
   "user_mentions": [], 
   "created_at": "Sat Feb 08 04:40:50 +0000 2014", 
   "retweet_count": 19, 
   "favorite_count": 44
  }, 
  {
   "text": "Now the Blackhawks will take their 30 second timeout. 1:26 left in this one. #CHIvsPHX", 
   "label": "O", 
   "id": 432009920821460992, 
   "hashtags": [
    "CHIvsPHX"
   ], 
   "user_mentions": [], 
   "created_at": "Sat Feb 08 04:36:06 +0000 2014", 
   "retweet_count": 21, 
   "favorite_count": 44
  }, 
  {
   "text": "Crawford is on the bench, empty net for the Blackhawks. #CHIvsPHX", 
   "label": "O", 
   "id": 432009613601284096, 
   "hashtags": [
    "CHIvsPHX"
   ], 
   "user_mentions": [], 
   "created_at": "Sat Feb 08 04:34:52 +0000 2014", 
   "retweet_count": 26, 
   "favorite_count": 47
  }, 
  {
   "text": "The Coyotes have taken their 30 second timeout. #CHIvsPHX", 
   "label": "O", 
   "id": 432009397854687232, 
   "hashtags": [
    "CHIvsPHX"
   ], 
   "user_mentions": [], 
   "created_at": "Sat Feb 08 04:34:01 +0000 2014", 
   "retweet_count": 15, 
   "favorite_count": 32
  }, 
  {
   "text": "Hawks can't convert on the power play, still trail 2-0 with 2:30 to go. #CHIvsPHX", 
   "label": "O", 
   "id": 432009161048473600, 
   "hashtags": [
    "CHIvsPHX"
   ], 
   "user_mentions": [], 
   "created_at": "Sat Feb 08 04:33:04 +0000 2014", 
   "retweet_count": 17, 
   "favorite_count": 38
  }, 
  {
   "text": "Blackhawks will get an important power play opportunity as Doan is sent off for interference! 4:53 left in regulation. #CHIvsPHX", 
   "label": "O", 
   "id": 432008365963620352, 
   "hashtags": [
    "CHIvsPHX"
   ], 
   "user_mentions": [], 
   "created_at": "Sat Feb 08 04:29:55 +0000 2014", 
   "retweet_count": 25, 
   "favorite_count": 52
  }, 
  {
   "text": "Blackhawks kill off that penalty, we've got about 7 minutes left in regulation. #CHIvsPHX", 
   "label": "O", 
   "id": 432007604831649792, 
   "hashtags": [
    "CHIvsPHX"
   ], 
   "user_mentions": [], 
   "created_at": "Sat Feb 08 04:26:53 +0000 2014", 
   "retweet_count": 21, 
   "favorite_count": 45
  }, 
  {
   "text": "Versteeg is sent off for two with 9:15 left in regulation. #CHIvsPHX", 
   "label": "O", 
   "id": 432006638296248320, 
   "hashtags": [
    "CHIvsPHX"
   ], 
   "user_mentions": [], 
   "created_at": "Sat Feb 08 04:23:03 +0000 2014", 
   "retweet_count": 23, 
   "favorite_count": 37
  }, 
  {
   "text": "Five minutes into the last frame, Bickell shoots one that Smith stops and holds. 2-0 Coyotes. #CHIvsPHX", 
   "label": "O", 
   "id": 432004479366340608, 
   "hashtags": [
    "CHIvsPHX"
   ], 
   "user_mentions": [], 
   "created_at": "Sat Feb 08 04:14:28 +0000 2014", 
   "retweet_count": 22, 
   "favorite_count": 40
  }, 
  {
   "text": "Here we go, Period 3 is on! #CHIvsPHX", 
   "label": "O", 
   "id": 432002818631671808, 
   "hashtags": [
    "CHIvsPHX"
   ], 
   "user_mentions": [], 
   "created_at": "Sat Feb 08 04:07:52 +0000 2014", 
   "retweet_count": 45, 
   "favorite_count": 96
  }, 
  {
   "text": "The Blackhawks finish off the remaining PK and that'll close out the second period. Coyotes lead 2-0 after forty minutes of play. #CHIvsPHX", 
   "label": "O", 
   "id": 431998162950049792, 
   "hashtags": [
    "CHIvsPHX"
   ], 
   "user_mentions": [], 
   "created_at": "Sat Feb 08 03:49:22 +0000 2014", 
   "retweet_count": 26, 
   "favorite_count": 35
  }, 
  {
   "text": "Vrbata strikes from the point 42 seconds into the 5-on-3. 2-0 Coyotes with 1:31 left in Period 2. #CHIvsPHX", 
   "label": "O", 
   "id": 431997405257412608, 
   "hashtags": [
    "CHIvsPHX"
   ], 
   "user_mentions": [], 
   "created_at": "Sat Feb 08 03:46:22 +0000 2014", 
   "retweet_count": 22, 
   "favorite_count": 34
  }, 
  {
   "text": "Saad is sent off for goaltender interference and Rozsival gets two for unsportsmanlike conduct. 5-on-3 kill coming up for Hawks. #CHIvsPHX", 
   "label": "O", 
   "id": 431996918449725441, 
   "hashtags": [
    "CHIvsPHX"
   ], 
   "user_mentions": [], 
   "created_at": "Sat Feb 08 03:44:26 +0000 2014", 
   "retweet_count": 29, 
   "favorite_count": 37
  }, 
  {
   "text": "We've got a bit of a tussle behind the net after Saad's drive to the goal sends Smith into the net.", 
   "label": "O", 
   "id": 431996616812138497, 
   "hashtags": [], 
   "user_mentions": [], 
   "created_at": "Sat Feb 08 03:43:14 +0000 2014", 
   "retweet_count": 35, 
   "favorite_count": 55
  }, 
  {
   "text": "3:15 left in the second frame and the #Blackhawks still trail 1-0 to the Coyotes. #CHIvsPHX", 
   "label": "O", 
   "id": 431996168604635136, 
   "hashtags": [
    "Blackhawks", 
    "CHIvsPHX"
   ], 
   "user_mentions": [], 
   "created_at": "Sat Feb 08 03:41:27 +0000 2014", 
   "retweet_count": 26, 
   "favorite_count": 34
  }, 
  {
   "text": "Make that *two* solid stops from Crow before that play was finished. #CHIvsPHX", 
   "label": "O", 
   "id": 431993797807853568, 
   "hashtags": [
    "CHIvsPHX"
   ], 
   "user_mentions": [], 
   "created_at": "Sat Feb 08 03:32:02 +0000 2014", 
   "retweet_count": 36, 
   "favorite_count": 78
  }, 
  {
   "text": "#CRAWYEAH", 
   "label": "O", 
   "id": 431993423046782976, 
   "hashtags": [
    "CRAWYEAH"
   ], 
   "user_mentions": [], 
   "created_at": "Sat Feb 08 03:30:32 +0000 2014", 
   "retweet_count": 127, 
   "favorite_count": 226
  }, 
  {
   "text": "Seven minutes into Period 2, the Blackhawks have taken a slight edge in total SOG: 14-12. #CHIvsPHX", 
   "label": "O", 
   "id": 431991674336595969, 
   "hashtags": [
    "CHIvsPHX"
   ], 
   "user_mentions": [], 
   "created_at": "Sat Feb 08 03:23:35 +0000 2014", 
   "retweet_count": 31, 
   "favorite_count": 51
  }, 
  {
   "text": "Halpern is sent to the sin bin and the #Blackhawks are on the power play! #CHIvsPHX", 
   "label": "O", 
   "id": 431990067381297153, 
   "hashtags": [
    "Blackhawks", 
    "CHIvsPHX"
   ], 
   "user_mentions": [], 
   "created_at": "Sat Feb 08 03:17:12 +0000 2014", 
   "retweet_count": 29, 
   "favorite_count": 57
  }, 
  {
   "text": "Bicks is on the doorstep but can't knock it in. #CHIvsPHX", 
   "label": "O", 
   "id": 431989875961634817, 
   "hashtags": [
    "CHIvsPHX"
   ], 
   "user_mentions": [], 
   "created_at": "Sat Feb 08 03:16:27 +0000 2014", 
   "retweet_count": 23, 
   "favorite_count": 50
  }, 
  {
   "text": "And we're back for more. Period 2 is underway! #CHIvsPHX", 
   "label": "O", 
   "id": 431988569016516609, 
   "hashtags": [
    "CHIvsPHX"
   ], 
   "user_mentions": [], 
   "created_at": "Sat Feb 08 03:11:15 +0000 2014", 
   "retweet_count": 35, 
   "favorite_count": 72
  }, 
  {
   "text": "At the end of the first period, the Blackhawks trail the Coyotes 1-0. SOG have evened up a bit: 10-7 Phoenix. #CHIvsPHX", 
   "label": "O", 
   "id": 431984094646239232, 
   "hashtags": [
    "CHIvsPHX"
   ], 
   "user_mentions": [], 
   "created_at": "Sat Feb 08 02:53:28 +0000 2014", 
   "retweet_count": 35, 
   "favorite_count": 43
  }, 
  {
   "text": "Hjalmarsson throws one on net from the point but Smith holds on. 2:42 left in Period 1. #CHIvsPHX", 
   "label": "O", 
   "id": 431983006207594496, 
   "hashtags": [
    "CHIvsPHX"
   ], 
   "user_mentions": [], 
   "created_at": "Sat Feb 08 02:49:09 +0000 2014", 
   "retweet_count": 36, 
   "favorite_count": 58
  }, 
  {
   "text": "Steeger gets a solid shot on net but Mike Smith stops that one. 1-0 Coyotes with 5:30 to go in Period 1. #CHIvsPHX", 
   "label": "O", 
   "id": 431981525999951873, 
   "hashtags": [
    "CHIvsPHX"
   ], 
   "user_mentions": [], 
   "created_at": "Sat Feb 08 02:43:16 +0000 2014", 
   "retweet_count": 30, 
   "favorite_count": 44
  }, 
  {
   "text": "We're halfway through the first period and Phoenix leads Chicago 8-1 in shots on goal. #CHIvsPHX", 
   "label": "O", 
   "id": 431979509877702656, 
   "hashtags": [
    "CHIvsPHX"
   ], 
   "user_mentions": [], 
   "created_at": "Sat Feb 08 02:35:15 +0000 2014", 
   "retweet_count": 30, 
   "favorite_count": 34
  }, 
  {
   "text": "Penalty... killed! #CHIvsPHX", 
   "label": "O", 
   "id": 431977177542696960, 
   "hashtags": [
    "CHIvsPHX"
   ], 
   "user_mentions": [], 
   "created_at": "Sat Feb 08 02:25:59 +0000 2014", 
   "retweet_count": 40, 
   "favorite_count": 94
  }, 
  {
   "text": "Bickell is off for playing with an illegal stick, so the Coyotes head back to the power play with 17:35 to go in Period 1. #CHIvsPHX", 
   "label": "O", 
   "id": 431976448870453248, 
   "hashtags": [
    "CHIvsPHX"
   ], 
   "user_mentions": [], 
   "created_at": "Sat Feb 08 02:23:05 +0000 2014", 
   "retweet_count": 28, 
   "favorite_count": 47
  }, 
  {
   "text": "Yandle scores the first goal of the night at 1:09 into Period 1. #CHIvsPHX", 
   "label": "O", 
   "id": 431975980769353728, 
   "hashtags": [
    "CHIvsPHX"
   ], 
   "user_mentions": [], 
   "created_at": "Sat Feb 08 02:21:14 +0000 2014", 
   "retweet_count": 23, 
   "favorite_count": 42
  }, 
  {
   "text": "Bollig is off to the box for a trip and the Coyotes are first to get on the board with a PPG. 1-0 Phoenix about a minute in. #CHIvsPHX", 
   "label": "O", 
   "id": 431975706281521152, 
   "hashtags": [
    "CHIvsPHX"
   ], 
   "user_mentions": [], 
   "created_at": "Sat Feb 08 02:20:08 +0000 2014", 
   "retweet_count": 31, 
   "favorite_count": 36
  }, 
  {
   "text": "Alright, it's time for some #Blackhawks hockey! Game on! #CHIvsPHX", 
   "label": "O", 
   "id": 431975048056823808, 
   "hashtags": [
    "Blackhawks", 
    "CHIvsPHX"
   ], 
   "user_mentions": [], 
   "created_at": "Sat Feb 08 02:17:31 +0000 2014", 
   "retweet_count": 117, 
   "favorite_count": 184
  }, 
  {
   "text": "Before the game gets underway, we're treated with an on-ice ceremony honoring the 1980 U.S. Olympic hockey team. #MiracleOnIce", 
   "label": "O", 
   "id": 431972597572452352, 
   "hashtags": [
    "MiracleOnIce"
   ], 
   "user_mentions": [], 
   "created_at": "Sat Feb 08 02:07:47 +0000 2014", 
   "retweet_count": 165, 
   "favorite_count": 291
  }, 
  {
   "text": "#Blackhawks starters vs. Phoenix: Crawford; Seabrook, Keith; Sharp, Toews, Hossa. Scratches: Kostka and Oduya (lower body). #CHIvsPHX", 
   "label": "O", 
   "id": 431970899269398528, 
   "hashtags": [
    "Blackhawks", 
    "CHIvsPHX"
   ], 
   "user_mentions": [], 
   "created_at": "Sat Feb 08 02:01:02 +0000 2014", 
   "retweet_count": 82, 
   "favorite_count": 121
  }, 
  {
   "text": "Center Peter Regin talks to the media ahead of his first game with the #Blackhawks in Phoenix. http://t.co/wMEyJQSb0t http://t.co/YLOMS12jQ1", 
   "label": "O", 
   "id": 431963016234426368, 
   "hashtags": [
    "Blackhawks"
   ], 
   "user_mentions": [], 
   "created_at": "Sat Feb 08 01:29:43 +0000 2014", 
   "retweet_count": 84, 
   "favorite_count": 197
  }, 
  {
   "text": "Coach Q: Newly acquired forward Peter Regin will play center alongside Brandon Saad and Kris Versteeg. #Blackhawks", 
   "label": "O", 
   "id": 431940955424317440, 
   "hashtags": [
    "Blackhawks"
   ], 
   "user_mentions": [], 
   "created_at": "Sat Feb 08 00:02:03 +0000 2014", 
   "retweet_count": 99, 
   "favorite_count": 115
  }, 
  {
   "text": "Newly-acquired forward Peter Regin is available on Athletico Fantasy Faceoff! Register now and win great prizes! http://t.co/cBScH6KbgW", 
   "label": "O", 
   "id": 431937651864649728, 
   "hashtags": [], 
   "user_mentions": [], 
   "created_at": "Fri Feb 07 23:48:55 +0000 2014", 
   "retweet_count": 23, 
   "favorite_count": 47
  }, 
  {
   "text": "Need a place to watch the game tonight? Come to our official #Blackhawks Roadwatch at Red Ivy in Chicago: http://t.co/5r2D40TorB #CHIvsPHX", 
   "label": "O", 
   "id": 431931066962563072, 
   "hashtags": [
    "Blackhawks", 
    "CHIvsPHX"
   ], 
   "user_mentions": [], 
   "created_at": "Fri Feb 07 23:22:45 +0000 2014", 
   "retweet_count": 26, 
   "favorite_count": 70
  }, 
  {
   "text": "@schnexmix51 Just a little tech glitch. He'll be back in there soon.", 
   "label": "O", 
   "id": 431868872317087745, 
   "hashtags": [], 
   "user_mentions": [
    "schnexmix51"
   ], 
   "created_at": "Fri Feb 07 19:15:37 +0000 2014", 
   "retweet_count": 0, 
   "favorite_count": 2
  }, 
  {
   "text": "@Amanda___SSA Give it a few minutes. Literally just found out. :)", 
   "label": "O", 
   "id": 431862511374061569, 
   "hashtags": [], 
   "user_mentions": [
    "Amanda___SSA"
   ], 
   "created_at": "Fri Feb 07 18:50:20 +0000 2014", 
   "retweet_count": 0, 
   "favorite_count": 0
  }, 
  {
   "text": "New Blackhawks center Peter Regin will wear #12.", 
   "label": "O", 
   "id": 431861525553221632, 
   "hashtags": [], 
   "user_mentions": [], 
   "created_at": "Fri Feb 07 18:46:25 +0000 2014", 
   "retweet_count": 184, 
   "favorite_count": 281
  }, 
  {
   "text": "ICYMI: The #Blackhawks acquired Peter Regin and Pierre-Marc Bouchard from NYI last night. http://t.co/pgQtyJrU1o http://t.co/jRtAHAP5qV", 
   "label": "O", 
   "id": 431851928666902531, 
   "hashtags": [
    "Blackhawks"
   ], 
   "user_mentions": [], 
   "created_at": "Fri Feb 07 18:08:17 +0000 2014", 
   "retweet_count": 132, 
   "favorite_count": 159
  }, 
  {
   "text": "It's the last game before the Olympic break, and the #Blackhawks Buzz has #CHIvsPHX covered: http://t.co/YaTTuFGCBE http://t.co/IS8YuYEvHY", 
   "label": "O", 
   "id": 431823566237990912, 
   "hashtags": [
    "Blackhawks", 
    "CHIvsPHX"
   ], 
   "user_mentions": [], 
   "created_at": "Fri Feb 07 16:15:35 +0000 2014", 
   "retweet_count": 200, 
   "favorite_count": 342
  }
 ]
}