{
 "num_road_team_goals": "2", 
 "home_team": "Winnipeg Jets", 
 "num_home_team_goals": "3", 
 "summary_url": "http://www.flyershistory.com/cgi-bin/poboxscore.cgi?H20130894", 
 "result": "W (SO)", 
 "road_team": "Phoenix Coyotes", 
 "date": "2014-02-27", 
 "goals": [
  {
   "season_index": "9", 
   "strength": "(EV)", 
   "time": "12:17", 
   "period": "1", 
   "player": "O.Ekman-Larsson", 
   "assists": "(R.Vrbata, R.Klinkhammer)", 
   "game_index": "1", 
   "team": "PHX"
  }, 
  {
   "season_index": "23", 
   "strength": "(EV)", 
   "time": "14:55", 
   "period": "1", 
   "player": "B.Wheeler", 
   "assists": "(D.Byfuglien)", 
   "game_index": "2", 
   "team": "WPG"
  }, 
  {
   "season_index": "19", 
   "strength": "(PP)", 
   "time": "18:01", 
   "period": "2", 
   "player": "B.Little", 
   "assists": null, 
   "game_index": "3", 
   "team": "WPG"
  }, 
  {
   "season_index": "15", 
   "strength": "(PP)", 
   "time": "6:40", 
   "period": "3", 
   "player": "M.Hanzal", 
   "assists": "(D.Schlemko, M.Ribeiro)", 
   "game_index": "4", 
   "team": "PHX"
  }
 ], 
 "tweets": [
  {
   "text": "See the entire shoot-out and other highlights from the 3-2 win over Phoenix. WATCH &gt;&gt; http://t.co/l30esZK3yK", 
   "label": "O", 
   "id": 439256596535713792, 
   "hashtags": [], 
   "user_mentions": [], 
   "created_at": "Fri Feb 28 04:31:48 +0000 2014", 
   "retweet_count": 17, 
   "favorite_count": 19
  }, 
  {
   "text": "\"This isn't the maximum from him. He's going to play bigger minutes.\" -Maurice on Trouba's ice time tonight and going forward in his career.", 
   "label": "O", 
   "id": 439252659887824896, 
   "hashtags": [], 
   "user_mentions": [], 
   "created_at": "Fri Feb 28 04:16:09 +0000 2014", 
   "retweet_count": 14, 
   "favorite_count": 35
  }, 
  {
   "text": "\"Believe it or not, it was better than what I thought I was going to see.\" -Maurice's thoughts on how the game looked to him after the break", 
   "label": "O", 
   "id": 439252148161740800, 
   "hashtags": [], 
   "user_mentions": [], 
   "created_at": "Fri Feb 28 04:14:07 +0000 2014", 
   "retweet_count": 8, 
   "favorite_count": 25
  }, 
  {
   "text": "\"That one was a slug fest for the puck the whole night.\" -Maurice", 
   "label": "O", 
   "id": 439251552520249344, 
   "hashtags": [], 
   "user_mentions": [], 
   "created_at": "Fri Feb 28 04:11:45 +0000 2014", 
   "retweet_count": 3, 
   "favorite_count": 18
  }, 
  {
   "text": "He's stopped by Pavelec! Jets win in their first game back from the break, 3-2 in a shoot-out over Phoenix.", 
   "label": "O", 
   "id": 439247148799246336, 
   "hashtags": [], 
   "user_mentions": [], 
   "created_at": "Fri Feb 28 03:54:15 +0000 2014", 
   "retweet_count": 162, 
   "favorite_count": 195
  }, 
  {
   "text": "Ribeiro up for Phoenix.", 
   "label": "O", 
   "id": 439247035196133377, 
   "hashtags": [], 
   "user_mentions": [], 
   "created_at": "Fri Feb 28 03:53:48 +0000 2014", 
   "retweet_count": 0, 
   "favorite_count": 6
  }, 
  {
   "text": "Jokinen scores!", 
   "label": "O", 
   "id": 439246972340293633, 
   "hashtags": [], 
   "user_mentions": [], 
   "created_at": "Fri Feb 28 03:53:33 +0000 2014", 
   "retweet_count": 17, 
   "favorite_count": 53
  }, 
  {
   "text": "Vermette up for Phoenix...and he scores. 1-1. Jokinen up for the Jets.", 
   "label": "O", 
   "id": 439246898549907457, 
   "hashtags": [], 
   "user_mentions": [], 
   "created_at": "Fri Feb 28 03:53:16 +0000 2014", 
   "retweet_count": 4, 
   "favorite_count": 9
  }, 
  {
   "text": "Setoguchi scores!", 
   "label": "O", 
   "id": 439246758841827329, 
   "hashtags": [], 
   "user_mentions": [], 
   "created_at": "Fri Feb 28 03:52:42 +0000 2014", 
   "retweet_count": 26, 
   "favorite_count": 64
  }, 
  {
   "text": "Glove save by Pavelec! Setoguchi now up for the Jets", 
   "label": "O", 
   "id": 439246694102749184, 
   "hashtags": [], 
   "user_mentions": [], 
   "created_at": "Fri Feb 28 03:52:27 +0000 2014", 
   "retweet_count": 4, 
   "favorite_count": 17
  }, 
  {
   "text": "Ladd is stopped as well. Vrbata up for Phoenix.", 
   "label": "O", 
   "id": 439246607528128513, 
   "hashtags": [], 
   "user_mentions": [], 
   "created_at": "Fri Feb 28 03:52:06 +0000 2014", 
   "retweet_count": 2, 
   "favorite_count": 8
  }, 
  {
   "text": "He's stopped by Pavelec! Up for the Jets is Ladd.", 
   "label": "O", 
   "id": 439246487579410432, 
   "hashtags": [], 
   "user_mentions": [], 
   "created_at": "Fri Feb 28 03:51:38 +0000 2014", 
   "retweet_count": 3, 
   "favorite_count": 21
  }, 
  {
   "text": "Boedker up for Phoenix.", 
   "label": "O", 
   "id": 439246423893483520, 
   "hashtags": [], 
   "user_mentions": [], 
   "created_at": "Fri Feb 28 03:51:22 +0000 2014", 
   "retweet_count": 1, 
   "favorite_count": 7
  }, 
  {
   "text": "Little is stopped by Smith.", 
   "label": "O", 
   "id": 439246374811738112, 
   "hashtags": [], 
   "user_mentions": [], 
   "created_at": "Fri Feb 28 03:51:11 +0000 2014", 
   "retweet_count": 2, 
   "favorite_count": 9
  }, 
  {
   "text": "Little up first for the Jets in the shoot-out.", 
   "label": "O", 
   "id": 439246249586610176, 
   "hashtags": [], 
   "user_mentions": [], 
   "created_at": "Fri Feb 28 03:50:41 +0000 2014", 
   "retweet_count": 5, 
   "favorite_count": 8
  }, 
  {
   "text": "Overtime solves nothing. We're going to a shoot-out against Phoenix. #JetsvsCoyotes", 
   "label": "O", 
   "id": 439245449992884224, 
   "hashtags": [
    "JetsvsCoyotes"
   ], 
   "user_mentions": [], 
   "created_at": "Fri Feb 28 03:47:30 +0000 2014", 
   "retweet_count": 15, 
   "favorite_count": 18
  }, 
  {
   "text": "After 60 minutes, the Jets and Coyotes are tied 2-2. Off to overtime! #JetsvsCoyotes", 
   "label": "O", 
   "id": 439243327171330049, 
   "hashtags": [
    "JetsvsCoyotes"
   ], 
   "user_mentions": [], 
   "created_at": "Fri Feb 28 03:39:04 +0000 2014", 
   "retweet_count": 7, 
   "favorite_count": 13
  }, 
  {
   "text": "2:07 left in regulation here at MTS Centre. Jets and Coyotes tied 2-2.", 
   "label": "O", 
   "id": 439242467846549504, 
   "hashtags": [], 
   "user_mentions": [], 
   "created_at": "Fri Feb 28 03:35:39 +0000 2014", 
   "retweet_count": 1, 
   "favorite_count": 10
  }, 
  {
   "text": "Thorburn gets called for boarding after a hit on Ekman-Larsson. 9:12 to go in the 3rd, and Jets on the PK. #JetsvsCoyotes", 
   "label": "O", 
   "id": 439238936720703489, 
   "hashtags": [
    "JetsvsCoyotes"
   ], 
   "user_mentions": [], 
   "created_at": "Fri Feb 28 03:21:37 +0000 2014", 
   "retweet_count": 1, 
   "favorite_count": 5
  }, 
  {
   "text": "Coyotes tie it up as Hanzal puts away a rebound in front of Pavelec. 2-2 with 13:20 left in the 3rd. #JetsvsCoyotes", 
   "label": "O", 
   "id": 439236858476646400, 
   "hashtags": [
    "JetsvsCoyotes"
   ], 
   "user_mentions": [], 
   "created_at": "Fri Feb 28 03:13:22 +0000 2014", 
   "retweet_count": 4, 
   "favorite_count": 10
  }, 
  {
   "text": "The crowd doesn't agree, but Slater is going off for hooking. Jets on the PK with 14:52 left in regulation. #JetsvsCoyotes", 
   "label": "O", 
   "id": 439236276273676289, 
   "hashtags": [
    "JetsvsCoyotes"
   ], 
   "user_mentions": [], 
   "created_at": "Fri Feb 28 03:11:03 +0000 2014", 
   "retweet_count": 7, 
   "favorite_count": 10
  }, 
  {
   "text": "Here's the full video of today's pre-game ceremony featuring Jocelyne Larocque! WATCH &gt;&gt; http://t.co/ATgrgkNm6Y", 
   "label": "O", 
   "id": 439234765636399105, 
   "hashtags": [], 
   "user_mentions": [], 
   "created_at": "Fri Feb 28 03:05:03 +0000 2014", 
   "retweet_count": 7, 
   "favorite_count": 11
  }, 
  {
   "text": "The 3rd period is underway! Reminder, the Jets start the period on a power play with Ekman-Larsson in the box for slashing. #JetsvsCoyotes", 
   "label": "O", 
   "id": 439234506302554112, 
   "hashtags": [
    "JetsvsCoyotes"
   ], 
   "user_mentions": [], 
   "created_at": "Fri Feb 28 03:04:01 +0000 2014", 
   "retweet_count": 2, 
   "favorite_count": 6
  }, 
  {
   "text": "Byfuglien leads the Jets in shots after two periods with three. Trouba leads in ice time with 16:39. #JetsvsCoyotes", 
   "label": "O", 
   "id": 439231991909584897, 
   "hashtags": [
    "JetsvsCoyotes"
   ], 
   "user_mentions": [], 
   "created_at": "Fri Feb 28 02:54:02 +0000 2014", 
   "retweet_count": 4, 
   "favorite_count": 11
  }, 
  {
   "text": "The Jets will start the 3rd on the PP as Ekman-Larsson is called for slashing at the end of the 2nd. 2-1 Jets after 40 minutes.SOG 19-18 WPG", 
   "label": "O", 
   "id": 439230228439642114, 
   "hashtags": [], 
   "user_mentions": [], 
   "created_at": "Fri Feb 28 02:47:01 +0000 2014", 
   "retweet_count": 7, 
   "favorite_count": 10
  }, 
  {
   "text": "Maurice calls time-out with 44.8 seconds left in the 2nd.", 
   "label": "O", 
   "id": 439229491974402049, 
   "hashtags": [], 
   "user_mentions": [], 
   "created_at": "Fri Feb 28 02:44:06 +0000 2014", 
   "retweet_count": 1, 
   "favorite_count": 2
  }, 
  {
   "text": "Little's 19th of the season comes on the power play unassisted. #JetsvsCoyotes", 
   "label": "O", 
   "id": 439228797267632128, 
   "hashtags": [
    "JetsvsCoyotes"
   ], 
   "user_mentions": [], 
   "created_at": "Fri Feb 28 02:41:20 +0000 2014", 
   "retweet_count": 14, 
   "favorite_count": 27
  }, 
  {
   "text": "#NHLJets GOAL! Bryan Little benefits from a turnover in front of Smith and he goes upstairs to give the Jets a 2-1 lead!", 
   "label": "O", 
   "id": 439228720566374400, 
   "hashtags": [
    "NHLJets"
   ], 
   "user_mentions": [], 
   "created_at": "Fri Feb 28 02:41:02 +0000 2014", 
   "retweet_count": 33, 
   "favorite_count": 44
  }, 
  {
   "text": "Another PP coming up for the Jets. Ekman-Larsson going off for interference. 2:36 to go in the 2nd. #JetsvsCoyotes", 
   "label": "O", 
   "id": 439227986479288320, 
   "hashtags": [
    "JetsvsCoyotes"
   ], 
   "user_mentions": [], 
   "created_at": "Fri Feb 28 02:38:07 +0000 2014", 
   "retweet_count": 2, 
   "favorite_count": 4
  }, 
  {
   "text": "Kane and Yandle both off for slashing. 4-on-4 hockey coming up.", 
   "label": "O", 
   "id": 439226806663524352, 
   "hashtags": [], 
   "user_mentions": [], 
   "created_at": "Fri Feb 28 02:33:25 +0000 2014", 
   "retweet_count": 1, 
   "favorite_count": 3
  }, 
  {
   "text": "The ceremonial puck drop tonight featuring Jocelyne Larocque of the gold medal winning @HC_Women! http://t.co/wclOE0ivK0", 
   "label": "O", 
   "id": 439226592909213696, 
   "hashtags": [], 
   "user_mentions": [
    "HC_Women"
   ], 
   "created_at": "Fri Feb 28 02:32:35 +0000 2014", 
   "retweet_count": 100, 
   "favorite_count": 193
  }, 
  {
   "text": "The Jets get one past Smith and over the goal line, but the whistle had gone. Still 1-1 with 12:31 to go in the 2nd. #JetsvsCoyotes", 
   "label": "O", 
   "id": 439223568602132480, 
   "hashtags": [
    "JetsvsCoyotes"
   ], 
   "user_mentions": [], 
   "created_at": "Fri Feb 28 02:20:33 +0000 2014", 
   "retweet_count": 6, 
   "favorite_count": 11
  }, 
  {
   "text": "Jets heading to the power play as Doan goes off for two minutes after high sticking Scheifele. #JetsvsCoyotes", 
   "label": "O", 
   "id": 439222432591667200, 
   "hashtags": [
    "JetsvsCoyotes"
   ], 
   "user_mentions": [], 
   "created_at": "Fri Feb 28 02:16:02 +0000 2014", 
   "retweet_count": 4, 
   "favorite_count": 7
  }, 
  {
   "text": "The 2nd period is underway! The Jets start the period on the PK for 46 seconds. #JetsvsCoyotes", 
   "label": "O", 
   "id": 439220686268026881, 
   "hashtags": [
    "JetsvsCoyotes"
   ], 
   "user_mentions": [], 
   "created_at": "Fri Feb 28 02:09:06 +0000 2014", 
   "retweet_count": 5, 
   "favorite_count": 6
  }, 
  {
   "text": "The first period comes to an end. The Jets will start the 2nd with a 46 second PK. Score is tied 1-1. SOG 11-9 Phoenix. #JetsvsCoyotes", 
   "label": "O", 
   "id": 439216016371904512, 
   "hashtags": [
    "JetsvsCoyotes"
   ], 
   "user_mentions": [], 
   "created_at": "Fri Feb 28 01:50:33 +0000 2014", 
   "retweet_count": 5, 
   "favorite_count": 9
  }, 
  {
   "text": "An assist added to Wheeler's goal. Byfuglien gets the assist on what was initially an unassisted goal by Wheeler.", 
   "label": "O", 
   "id": 439215857760079872, 
   "hashtags": [], 
   "user_mentions": [], 
   "created_at": "Fri Feb 28 01:49:55 +0000 2014", 
   "retweet_count": 8, 
   "favorite_count": 17
  }, 
  {
   "text": "Scheifele now heading off for playing with an illegal stick (tossed to him from Byfuglien).", 
   "label": "O", 
   "id": 439215645004017664, 
   "hashtags": [], 
   "user_mentions": [], 
   "created_at": "Fri Feb 28 01:49:04 +0000 2014", 
   "retweet_count": 6, 
   "favorite_count": 12
  }, 
  {
   "text": "Wright and Morris go off after the pushing and shoving in front of the Phoenix net. They'll sit two minutes each and it's 4-on-4.", 
   "label": "O", 
   "id": 439214959310827520, 
   "hashtags": [], 
   "user_mentions": [], 
   "created_at": "Fri Feb 28 01:46:21 +0000 2014", 
   "retweet_count": 1, 
   "favorite_count": 4
  }, 
  {
   "text": "#NHLJets GOAL! With everyone looking for the puck, Wheeler puts it on net from the corner and it beats Smith. 1-1 with 5:05 left in the 1st.", 
   "label": "O", 
   "id": 439213408617893888, 
   "hashtags": [
    "NHLJets"
   ], 
   "user_mentions": [], 
   "created_at": "Fri Feb 28 01:40:11 +0000 2014", 
   "retweet_count": 38, 
   "favorite_count": 64
  }, 
  {
   "text": "Phoenix gets on the board first on a snap shot from Ekman-Larsson. 1-0 with 7:43 to go in the 1st. #JetsvsCoyotes", 
   "label": "O", 
   "id": 439212465558011904, 
   "hashtags": [
    "JetsvsCoyotes"
   ], 
   "user_mentions": [], 
   "created_at": "Fri Feb 28 01:36:26 +0000 2014", 
   "retweet_count": 2, 
   "favorite_count": 0
  }, 
  {
   "text": "9:22 left in the opening period at MTS Centre. Jets and Coyotes tied 0-0. SOG 5-3 Phoenix.", 
   "label": "O", 
   "id": 439211582791241729, 
   "hashtags": [], 
   "user_mentions": [], 
   "created_at": "Fri Feb 28 01:32:56 +0000 2014", 
   "retweet_count": 2, 
   "favorite_count": 2
  }, 
  {
   "text": "Just the Ladd penalty is called. 4-on-4 for 55 seconds. #JetsvsCoyotes", 
   "label": "O", 
   "id": 439210330422407168, 
   "hashtags": [
    "JetsvsCoyotes"
   ], 
   "user_mentions": [], 
   "created_at": "Fri Feb 28 01:27:57 +0000 2014", 
   "retweet_count": 5, 
   "favorite_count": 5
  }, 
  {
   "text": "Ladd going off for tripping. There may be more as a scrum breaks out in front of the Phoenix bench. #JetsvsCoyotes", 
   "label": "O", 
   "id": 439210101870559232, 
   "hashtags": [
    "JetsvsCoyotes"
   ], 
   "user_mentions": [], 
   "created_at": "Fri Feb 28 01:27:03 +0000 2014", 
   "retweet_count": 2, 
   "favorite_count": 2
  }, 
  {
   "text": "Interference called on Michalek. Jets going on their first PP of the game with 12:33 left in the 1st. #JetsvsCoyotes", 
   "label": "O", 
   "id": 439209678862417920, 
   "hashtags": [
    "JetsvsCoyotes"
   ], 
   "user_mentions": [], 
   "created_at": "Fri Feb 28 01:25:22 +0000 2014", 
   "retweet_count": 0, 
   "favorite_count": 4
  }, 
  {
   "text": "Bogosian gets an extra minor for roughing. Jets on the PK. #JetsvsCoyotes", 
   "label": "O", 
   "id": 439207105350729728, 
   "hashtags": [
    "JetsvsCoyotes"
   ], 
   "user_mentions": [], 
   "created_at": "Fri Feb 28 01:15:08 +0000 2014", 
   "retweet_count": 4, 
   "favorite_count": 3
  }, 
  {
   "text": "Bogosian takes exception to a Klinkhammer hit in the Jets zone. The two drop the gloves and will sit five minutes each. #JetsvsCoyotes", 
   "label": "O", 
   "id": 439206829193584640, 
   "hashtags": [
    "JetsvsCoyotes"
   ], 
   "user_mentions": [], 
   "created_at": "Fri Feb 28 01:14:02 +0000 2014", 
   "retweet_count": 3, 
   "favorite_count": 10
  }, 
  {
   "text": "We're underway against Phoenix!  Catch the game on TSN Jets or TSN 1290 radio. #JetsvsCoyotes", 
   "label": "O", 
   "id": 439206056162365440, 
   "hashtags": [
    "JetsvsCoyotes"
   ], 
   "user_mentions": [], 
   "created_at": "Fri Feb 28 01:10:58 +0000 2014", 
   "retweet_count": 8, 
   "favorite_count": 9
  }, 
  {
   "text": "Jocelyne Larocque performing the ceremonial puck drop before the anthems tonight! #JetsvsCoyotes", 
   "label": "O", 
   "id": 439205086212792321, 
   "hashtags": [
    "JetsvsCoyotes"
   ], 
   "user_mentions": [], 
   "created_at": "Fri Feb 28 01:07:07 +0000 2014", 
   "retweet_count": 17, 
   "favorite_count": 46
  }, 
  {
   "text": "#NHLJets starters: Pavelec in goal, Trouba/Stuart on the blue line, Ladd/Little/Frolik up front. #JetsvsCoyotes", 
   "label": "O", 
   "id": 439203637995118592, 
   "hashtags": [
    "NHLJets", 
    "JetsvsCoyotes"
   ], 
   "user_mentions": [], 
   "created_at": "Fri Feb 28 01:01:21 +0000 2014", 
   "retweet_count": 11, 
   "favorite_count": 15
  }, 
  {
   "text": "TSN Pre-Game Report: Jets vs Coyotes. WATCH &gt;&gt; http://t.co/77Z24iVtSH", 
   "label": "O", 
   "id": 439144648054153216, 
   "hashtags": [], 
   "user_mentions": [], 
   "created_at": "Thu Feb 27 21:06:57 +0000 2014", 
   "retweet_count": 7, 
   "favorite_count": 7
  }, 
  {
   "text": "Hockey is back! Great seats just released for tonight\u2019s #NHLJets vs. #Coyotes game. Get them here before they go &gt;&gt; http://t.co/CDM8DSYTDa", 
   "label": "O", 
   "id": 439128223512002560, 
   "hashtags": [
    "NHLJets", 
    "Coyotes"
   ], 
   "user_mentions": [], 
   "created_at": "Thu Feb 27 20:01:41 +0000 2014", 
   "retweet_count": 13, 
   "favorite_count": 15
  }, 
  {
   "text": "JOB POSTING: #NHLJets are looking to add a dynamic individual for the position of Host, Game Entertainment. Details &gt; http://t.co/ivyKQGJSg9", 
   "label": "O", 
   "id": 439123297578807296, 
   "hashtags": [
    "NHLJets"
   ], 
   "user_mentions": [], 
   "created_at": "Thu Feb 27 19:42:07 +0000 2014", 
   "retweet_count": 27, 
   "favorite_count": 25
  }, 
  {
   "text": "Maurice on the return of Slater, and the coming playoff push. WATCH &gt;&gt; http://t.co/JcEZ0Q27Su", 
   "label": "O", 
   "id": 439104774743793664, 
   "hashtags": [], 
   "user_mentions": [], 
   "created_at": "Thu Feb 27 18:28:31 +0000 2014", 
   "retweet_count": 3, 
   "favorite_count": 6
  }, 
  {
   "text": "Ladd and Little on the team's confidence level coming out of the break. WATCH &gt;&gt; http://t.co/42xKE2DyH6", 
   "label": "O", 
   "id": 439104641092317184, 
   "hashtags": [], 
   "user_mentions": [], 
   "created_at": "Thu Feb 27 18:27:59 +0000 2014", 
   "retweet_count": 3, 
   "favorite_count": 5
  }, 
  {
   "text": "Slater on drawing back in to the line-up tonight against Phoenix. WATCH &gt;&gt; http://t.co/Kx5GJmcVfx", 
   "label": "O", 
   "id": 439104512113274880, 
   "hashtags": [], 
   "user_mentions": [], 
   "created_at": "Thu Feb 27 18:27:28 +0000 2014", 
   "retweet_count": 3, 
   "favorite_count": 8
  }, 
  {
   "text": "#NHLJets Evander Kane &amp; Jim Slater have been activated and removed from IR.", 
   "label": "O", 
   "id": 439102319913738240, 
   "hashtags": [
    "NHLJets"
   ], 
   "user_mentions": [], 
   "created_at": "Thu Feb 27 18:18:45 +0000 2014", 
   "retweet_count": 18, 
   "favorite_count": 37
  }, 
  {
   "text": "\"We want to have that pressure in the room... That's how you learn to deal with it.\" -Maurice on the playoff race.", 
   "label": "O", 
   "id": 439090771820417024, 
   "hashtags": [], 
   "user_mentions": [], 
   "created_at": "Thu Feb 27 17:32:52 +0000 2014", 
   "retweet_count": 6, 
   "favorite_count": 18
  }, 
  {
   "text": "\"Every day we get a little bit closer to understanding how our game is supposed to be played.\" -Maurice", 
   "label": "O", 
   "id": 439089987317809153, 
   "hashtags": [], 
   "user_mentions": [], 
   "created_at": "Thu Feb 27 17:29:45 +0000 2014", 
   "retweet_count": 5, 
   "favorite_count": 17
  }, 
  {
   "text": "\"I've seen him play enough from the other bench that I have a strong appreciation for what he can do.\"-Maurice on Slater.", 
   "label": "O", 
   "id": 439089311523155969, 
   "hashtags": [], 
   "user_mentions": [], 
   "created_at": "Thu Feb 27 17:27:04 +0000 2014", 
   "retweet_count": 2, 
   "favorite_count": 13
  }, 
  {
   "text": "We are equally excited to announce that Gold Medalists and Winnipeg\u2019s own @TeamJJonesCurl will drop the puck at Tuesday\u2019s #NHLJets game.", 
   "label": "O", 
   "id": 439080135614943232, 
   "hashtags": [
    "NHLJets"
   ], 
   "user_mentions": [
    "TeamJJonesCurl"
   ], 
   "created_at": "Thu Feb 27 16:50:36 +0000 2014", 
   "retweet_count": 79, 
   "favorite_count": 96
  }, 
  {
   "text": "The #NHLJets are proud to announce that @HC_Women member, Gold Medalist &amp; Manitoban Jocelyne Larocque will drop the puck at tonight\u2019s game.", 
   "label": "O", 
   "id": 439079953116983296, 
   "hashtags": [
    "NHLJets"
   ], 
   "user_mentions": [
    "HC_Women"
   ], 
   "created_at": "Thu Feb 27 16:49:53 +0000 2014", 
   "retweet_count": 71, 
   "favorite_count": 78
  }, 
  {
   "text": "Wheeler and the Jets have their game faces on. First game back from the break tonight against Phoenix! http://t.co/aBhHUqK7h2", 
   "label": "O", 
   "id": 439077634756984832, 
   "hashtags": [], 
   "user_mentions": [], 
   "created_at": "Thu Feb 27 16:40:40 +0000 2014", 
   "retweet_count": 27, 
   "favorite_count": 43
  }, 
  {
   "text": "Play #lastfanstanding today and enter your secret code \u201cSHOOTOUT\u201d for a chance to instantly win! #mbna Play here &gt;&gt; http://t.co/C7PSMu4tLk", 
   "label": "O", 
   "id": 439060316874616832, 
   "hashtags": [
    "lastfanstanding", 
    "mbna"
   ], 
   "user_mentions": [], 
   "created_at": "Thu Feb 27 15:31:51 +0000 2014", 
   "retweet_count": 4, 
   "favorite_count": 5
  }, 
  {
   "text": "It's finally game day! The Jets take on the Coyotes for the first post-break action tonight at 7 p.m. PREVIEW &gt;&gt; http://t.co/ATgmIBVEtN", 
   "label": "O", 
   "id": 439022245613027328, 
   "hashtags": [], 
   "user_mentions": [], 
   "created_at": "Thu Feb 27 13:00:34 +0000 2014", 
   "retweet_count": 35, 
   "favorite_count": 48
  }
 ]
}