{
 "num_road_team_goals": "2", 
 "home_team": "Winnipeg Jets", 
 "num_home_team_goals": "3", 
 "summary_url": "http://www.flyershistory.com/cgi-bin/poboxscore.cgi?H20130292", 
 "result": "W (SO)", 
 "road_team": "Philadelphia Flyers", 
 "date": "2013-11-15", 
 "goals": [
  {
   "season_index": "2", 
   "strength": "(PP)", 
   "time": "5:36", 
   "period": "1", 
   "player": "D.Byfuglien", 
   "assists": "(D.Setoguchi, O.Jokinen)", 
   "game_index": "1", 
   "team": "WPG"
  }, 
  {
   "season_index": "3", 
   "strength": "(EV)", 
   "time": "6:25", 
   "period": "1", 
   "player": "Scott Hartnell", 
   "assists": "(Jakub Voracek, Claude Giroux)", 
   "game_index": "2", 
   "team": "PHI"
  }, 
  {
   "season_index": "2", 
   "strength": "(PP)", 
   "time": "11:45", 
   "period": "1", 
   "player": "Wayne Simmonds", 
   "assists": "(Scott Hartnell, Kimmo Timonen)", 
   "game_index": "3", 
   "team": "PHI"
  }, 
  {
   "season_index": "3", 
   "strength": "(PP)", 
   "time": "14:23", 
   "period": "3", 
   "player": "D.Byfuglien", 
   "assists": "(O.Jokinen, E.Kane)", 
   "game_index": "4", 
   "team": "WPG"
  }
 ], 
 "tweets": [
  {
   "text": "\"It's the whole thing. It's the working, the adjustment you can make &amp; the way you manage the game... It helps you at the end of the night.\"", 
   "label": "O", 
   "id": 401566484666662912, 
   "hashtags": [], 
   "user_mentions": [], 
   "created_at": "Sat Nov 16 04:24:45 +0000 2013", 
   "retweet_count": 1, 
   "favorite_count": 3
  }, 
  {
   "text": "\"Buff's Buff. He enjoys playing the game &amp; plays it with passion... It brings levity to our team. But you wouldn't want 20 guys doing that.\"", 
   "label": "O", 
   "id": 401566065395638272, 
   "hashtags": [], 
   "user_mentions": [], 
   "created_at": "Sat Nov 16 04:23:05 +0000 2013", 
   "retweet_count": 11, 
   "favorite_count": 16
  }, 
  {
   "text": "\"Pavelec's play has been superb. You look and the balance and mental toughness he has at key times... He's been really solid for us.\" - Noel", 
   "label": "O", 
   "id": 401565740123189248, 
   "hashtags": [], 
   "user_mentions": [], 
   "created_at": "Sat Nov 16 04:21:47 +0000 2013", 
   "retweet_count": 15, 
   "favorite_count": 17
  }, 
  {
   "text": "\"We have to make an assessment on it tomorrow... I can't say for sure what his status will be for the game on Sunday.\" - Noel on Bogosian", 
   "label": "O", 
   "id": 401565385436434432, 
   "hashtags": [], 
   "user_mentions": [], 
   "created_at": "Sat Nov 16 04:20:23 +0000 2013", 
   "retweet_count": 1, 
   "favorite_count": 3
  }, 
  {
   "text": "\"I like the fact that our team is patient and confident.\" - Noel", 
   "label": "O", 
   "id": 401565204993298432, 
   "hashtags": [], 
   "user_mentions": [], 
   "created_at": "Sat Nov 16 04:19:40 +0000 2013", 
   "retweet_count": 9, 
   "favorite_count": 15
  }, 
  {
   "text": "\"I think we felt confident enough that we'd be able to score and get it to overtime.\" - Noel", 
   "label": "O", 
   "id": 401565000201814016, 
   "hashtags": [], 
   "user_mentions": [], 
   "created_at": "Sat Nov 16 04:18:51 +0000 2013", 
   "retweet_count": 4, 
   "favorite_count": 9
  }, 
  {
   "text": "Stopped by Pavelec! #NHLJets win 3-2 in a shootout.", 
   "label": "O", 
   "id": 401559040389423104, 
   "hashtags": [
    "NHLJets"
   ], 
   "user_mentions": [], 
   "created_at": "Sat Nov 16 03:55:10 +0000 2013", 
   "retweet_count": 147, 
   "favorite_count": 105
  }, 
  {
   "text": "Timonen up for Flyers", 
   "label": "O", 
   "id": 401558969614733312, 
   "hashtags": [], 
   "user_mentions": [], 
   "created_at": "Sat Nov 16 03:54:53 +0000 2013", 
   "retweet_count": 1, 
   "favorite_count": 1
  }, 
  {
   "text": "Little scores!", 
   "label": "O", 
   "id": 401558906826006528, 
   "hashtags": [], 
   "user_mentions": [], 
   "created_at": "Sat Nov 16 03:54:38 +0000 2013", 
   "retweet_count": 9, 
   "favorite_count": 21
  }, 
  {
   "text": "Schenn misses the net. Up next for #NHLJets is Little.", 
   "label": "O", 
   "id": 401558847979941888, 
   "hashtags": [
    "NHLJets"
   ], 
   "user_mentions": [], 
   "created_at": "Sat Nov 16 03:54:24 +0000 2013", 
   "retweet_count": 0, 
   "favorite_count": 3
  }, 
  {
   "text": "Brayden Schenn for Flyers", 
   "label": "O", 
   "id": 401558783110819840, 
   "hashtags": [], 
   "user_mentions": [], 
   "created_at": "Sat Nov 16 03:54:09 +0000 2013", 
   "retweet_count": 0, 
   "favorite_count": 3
  }, 
  {
   "text": "Wheeler stopped by Mason.", 
   "label": "O", 
   "id": 401558742941974528, 
   "hashtags": [], 
   "user_mentions": [], 
   "created_at": "Sat Nov 16 03:53:59 +0000 2013", 
   "retweet_count": 2, 
   "favorite_count": 2
  }, 
  {
   "text": "Read stopped by Pavelec! Up next for #NHLJets is Wheeler.", 
   "label": "O", 
   "id": 401558673031311360, 
   "hashtags": [
    "NHLJets"
   ], 
   "user_mentions": [], 
   "created_at": "Sat Nov 16 03:53:42 +0000 2013", 
   "retweet_count": 2, 
   "favorite_count": 6
  }, 
  {
   "text": "Jokinen stopped by Mason. Read up for Flyers.", 
   "label": "O", 
   "id": 401558593511501824, 
   "hashtags": [], 
   "user_mentions": [], 
   "created_at": "Sat Nov 16 03:53:23 +0000 2013", 
   "retweet_count": 1, 
   "favorite_count": 3
  }, 
  {
   "text": "Giroux's shot squeaks through Pavelec and we're tied at 1 in the shootout. Jokinen up for #NHLJets", 
   "label": "O", 
   "id": 401558496581132289, 
   "hashtags": [
    "NHLJets"
   ], 
   "user_mentions": [], 
   "created_at": "Sat Nov 16 03:53:00 +0000 2013", 
   "retweet_count": 1, 
   "favorite_count": 3
  }, 
  {
   "text": "Ladd is stopped by Mason. His first miss this year. Giroux up for Flyers", 
   "label": "O", 
   "id": 401558392369455104, 
   "hashtags": [], 
   "user_mentions": [], 
   "created_at": "Sat Nov 16 03:52:35 +0000 2013", 
   "retweet_count": 3, 
   "favorite_count": 3
  }, 
  {
   "text": "Pavelec makes the save! Ladd up next for #NHLJets", 
   "label": "O", 
   "id": 401558267689566209, 
   "hashtags": [
    "NHLJets"
   ], 
   "user_mentions": [], 
   "created_at": "Sat Nov 16 03:52:06 +0000 2013", 
   "retweet_count": 1, 
   "favorite_count": 9
  }, 
  {
   "text": "Lecavalier up for Flyers.", 
   "label": "O", 
   "id": 401558186978603009, 
   "hashtags": [], 
   "user_mentions": [], 
   "created_at": "Sat Nov 16 03:51:47 +0000 2013", 
   "retweet_count": 1, 
   "favorite_count": 1
  }, 
  {
   "text": "Setoguchi scores!", 
   "label": "O", 
   "id": 401558128530948096, 
   "hashtags": [], 
   "user_mentions": [], 
   "created_at": "Sat Nov 16 03:51:33 +0000 2013", 
   "retweet_count": 7, 
   "favorite_count": 14
  }, 
  {
   "text": "The first shooter for the #NHLJets is Setoguchi.", 
   "label": "O", 
   "id": 401557987992416256, 
   "hashtags": [
    "NHLJets"
   ], 
   "user_mentions": [], 
   "created_at": "Sat Nov 16 03:50:59 +0000 2013", 
   "retweet_count": 2, 
   "favorite_count": 5
  }, 
  {
   "text": "65 minutes won't be enough. Off to a shootout tonight against the Flyers.", 
   "label": "O", 
   "id": 401557349812281344, 
   "hashtags": [], 
   "user_mentions": [], 
   "created_at": "Sat Nov 16 03:48:27 +0000 2013", 
   "retweet_count": 5, 
   "favorite_count": 9
  }, 
  {
   "text": "60 minutes won't be enough tonight. The #NHLJets and Flyers will go to overtime tied at two. #JetsvsFlyers", 
   "label": "O", 
   "id": 401554403456344064, 
   "hashtags": [
    "NHLJets", 
    "JetsvsFlyers"
   ], 
   "user_mentions": [], 
   "created_at": "Sat Nov 16 03:36:44 +0000 2013", 
   "retweet_count": 7, 
   "favorite_count": 8
  }, 
  {
   "text": "The Flyers call their 30 second time-out. Game tied at two with under a minute to go. #JetsvsFlyers", 
   "label": "O", 
   "id": 401553547692486656, 
   "hashtags": [
    "JetsvsFlyers"
   ], 
   "user_mentions": [], 
   "created_at": "Sat Nov 16 03:33:20 +0000 2013", 
   "retweet_count": 5, 
   "favorite_count": 3
  }, 
  {
   "text": "#NHLJets GOAL! All tied at two on the second power play marker of the night from Byfuglien. A big shot from the point. #JetsvsFlyers", 
   "label": "O", 
   "id": 401551555746217984, 
   "hashtags": [
    "NHLJets", 
    "JetsvsFlyers"
   ], 
   "user_mentions": [], 
   "created_at": "Sat Nov 16 03:25:26 +0000 2013", 
   "retweet_count": 23, 
   "favorite_count": 36
  }, 
  {
   "text": "The #NHLJets head to the power play with 5:54 to go. Downie off for hooking. #JetsvsFlyers", 
   "label": "O", 
   "id": 401550856576696320, 
   "hashtags": [
    "NHLJets", 
    "JetsvsFlyers"
   ], 
   "user_mentions": [], 
   "created_at": "Sat Nov 16 03:22:39 +0000 2013", 
   "retweet_count": 2, 
   "favorite_count": 3
  }, 
  {
   "text": "Pardy going off for slashing at 8:23 of the 3rd. #NHLJets on the penalty kill. #JetsvsFlyers", 
   "label": "O", 
   "id": 401548112382017536, 
   "hashtags": [
    "NHLJets", 
    "JetsvsFlyers"
   ], 
   "user_mentions": [], 
   "created_at": "Sat Nov 16 03:11:45 +0000 2013", 
   "retweet_count": 1, 
   "favorite_count": 1
  }, 
  {
   "text": "#NHLJets defenceman Zach Bogosian left the game with a lower body injury and will not return. #JetsvsFlyers", 
   "label": "O", 
   "id": 401547772467240960, 
   "hashtags": [
    "NHLJets", 
    "JetsvsFlyers"
   ], 
   "user_mentions": [], 
   "created_at": "Sat Nov 16 03:10:24 +0000 2013", 
   "retweet_count": 6, 
   "favorite_count": 5
  }, 
  {
   "text": "Almost seven minutes into the 3rd and Bogosian is still not on the #NHLJets bench. Score remains 2-1 Flyers.", 
   "label": "O", 
   "id": 401546868800253952, 
   "hashtags": [
    "NHLJets"
   ], 
   "user_mentions": [], 
   "created_at": "Sat Nov 16 03:06:48 +0000 2013", 
   "retweet_count": 5, 
   "favorite_count": 4
  }, 
  {
   "text": "Time for the 3rd period. #NHLJets trail the Flyers 2-1.", 
   "label": "O", 
   "id": 401544772394831872, 
   "hashtags": [
    "NHLJets"
   ], 
   "user_mentions": [], 
   "created_at": "Sat Nov 16 02:58:28 +0000 2013", 
   "retweet_count": 3, 
   "favorite_count": 1
  }, 
  {
   "text": "With his assist tonight, Setoguchi now has four points in four career games against the Flyers (2G, 2A). #NHLJets", 
   "label": "O", 
   "id": 401542977756987392, 
   "hashtags": [
    "NHLJets"
   ], 
   "user_mentions": [], 
   "created_at": "Sat Nov 16 02:51:20 +0000 2013", 
   "retweet_count": 4, 
   "favorite_count": 5
  }, 
  {
   "text": "After the 2nd, Wheeler leads the #NHLJets in hits with six. Byfuglien leads in ice time with 18:21. #JetsvsFlyers", 
   "label": "O", 
   "id": 401542615037771776, 
   "hashtags": [
    "NHLJets", 
    "JetsvsFlyers"
   ], 
   "user_mentions": [], 
   "created_at": "Sat Nov 16 02:49:54 +0000 2013", 
   "retweet_count": 3, 
   "favorite_count": 2
  }, 
  {
   "text": "The score remains 2-1 Flyers after 40 minutes at MTS Centre. SOG are tied 22-22. #JetsvsFlyers", 
   "label": "O", 
   "id": 401540188112838656, 
   "hashtags": [
    "JetsvsFlyers"
   ], 
   "user_mentions": [], 
   "created_at": "Sat Nov 16 02:40:15 +0000 2013", 
   "retweet_count": 4, 
   "favorite_count": 4
  }, 
  {
   "text": "Meanwhile, #NHLJets 2013 1st round pick Josh Morrissey is now second all-time in Prince Albert Raiders goals by a defenceman with 34.", 
   "label": "O", 
   "id": 401539304037433344, 
   "hashtags": [
    "NHLJets"
   ], 
   "user_mentions": [], 
   "created_at": "Sat Nov 16 02:36:44 +0000 2013", 
   "retweet_count": 8, 
   "favorite_count": 11
  }, 
  {
   "text": "Coburn going off for tripping. The #NHLJets will go to the power play with 9:21 left in the 2nd. #JetsvsFlyers", 
   "label": "O", 
   "id": 401536166895165440, 
   "hashtags": [
    "NHLJets", 
    "JetsvsFlyers"
   ], 
   "user_mentions": [], 
   "created_at": "Sat Nov 16 02:24:17 +0000 2013", 
   "retweet_count": 2, 
   "favorite_count": 1
  }, 
  {
   "text": "With 10:03 left in the 2nd period, the score remains 2-1 Flyers over the #NHLJets", 
   "label": "O", 
   "id": 401535818998611968, 
   "hashtags": [
    "NHLJets"
   ], 
   "user_mentions": [], 
   "created_at": "Sat Nov 16 02:22:54 +0000 2013", 
   "retweet_count": 2, 
   "favorite_count": 0
  }, 
  {
   "text": "The second period is underway. The #NHLJets trail the Flyers 2-1. #JetsvsFlyers", 
   "label": "O", 
   "id": 401531679333814272, 
   "hashtags": [
    "NHLJets", 
    "JetsvsFlyers"
   ], 
   "user_mentions": [], 
   "created_at": "Sat Nov 16 02:06:27 +0000 2013", 
   "retweet_count": 6, 
   "favorite_count": 1
  }, 
  {
   "text": "Shots on goal after the 1st: #NHLJets 13, Flyers 13 #JetsvsFlyers", 
   "label": "O", 
   "id": 401527838672568321, 
   "hashtags": [
    "NHLJets", 
    "JetsvsFlyers"
   ], 
   "user_mentions": [], 
   "created_at": "Sat Nov 16 01:51:11 +0000 2013", 
   "retweet_count": 4, 
   "favorite_count": 4
  }, 
  {
   "text": "After 20 minutes at MTS Centre, the Flyers lead the #NHLJets 2-1. Byfuglien with the goal for WPG. #JetsvsFlyers", 
   "label": "O", 
   "id": 401527109085970432, 
   "hashtags": [
    "NHLJets", 
    "JetsvsFlyers"
   ], 
   "user_mentions": [], 
   "created_at": "Sat Nov 16 01:48:17 +0000 2013", 
   "retweet_count": 3, 
   "favorite_count": 7
  }, 
  {
   "text": "Blake Wheeler tries to go wide but is tripped up by Couturier. The #NHLJets go back on the power play with 1:21 left in the 1st.", 
   "label": "O", 
   "id": 401526386017329152, 
   "hashtags": [
    "NHLJets"
   ], 
   "user_mentions": [], 
   "created_at": "Sat Nov 16 01:45:25 +0000 2013", 
   "retweet_count": 2, 
   "favorite_count": 3
  }, 
  {
   "text": "Back to the penalty kill for the #NHLJets. Enstrom off for interference with 6:07 to go in the 1st. #JetsvsFlyers", 
   "label": "O", 
   "id": 401524297216180224, 
   "hashtags": [
    "NHLJets", 
    "JetsvsFlyers"
   ], 
   "user_mentions": [], 
   "created_at": "Sat Nov 16 01:37:07 +0000 2013", 
   "retweet_count": 2, 
   "favorite_count": 1
  }, 
  {
   "text": "The Flyers make it 2-1 on a power play marker from Wayne Simmonds after a scramble in front of Pavelec. #JetsvsFlyers", 
   "label": "O", 
   "id": 401523596960337920, 
   "hashtags": [
    "JetsvsFlyers"
   ], 
   "user_mentions": [], 
   "created_at": "Sat Nov 16 01:34:20 +0000 2013", 
   "retweet_count": 2, 
   "favorite_count": 1
  }, 
  {
   "text": "Pardy goes off for hooking at 11:32 of the 1st. #NHLJets will go to the penalty kill. #JetsvsFlyers", 
   "label": "O", 
   "id": 401523325286899712, 
   "hashtags": [
    "NHLJets", 
    "JetsvsFlyers"
   ], 
   "user_mentions": [], 
   "created_at": "Sat Nov 16 01:33:15 +0000 2013", 
   "retweet_count": 1, 
   "favorite_count": 1
  }, 
  {
   "text": "Hartnell's wrap around goal will count. It's 1-1 with 13:35 left in the 1st. #JetsvsFlyers", 
   "label": "O", 
   "id": 401520827591446529, 
   "hashtags": [
    "JetsvsFlyers"
   ], 
   "user_mentions": [], 
   "created_at": "Sat Nov 16 01:23:19 +0000 2013", 
   "retweet_count": 5, 
   "favorite_count": 3
  }
 ]
}