{
 "num_road_team_goals": "1", 
 "home_team": "Vancouver Canucks", 
 "num_home_team_goals": "2", 
 "summary_url": "http://www.flyershistory.com/cgi-bin/poboxscore.cgi?H20130552", 
 "result": "L", 
 "road_team": "Winnipeg Jets", 
 "date": "2013-12-22", 
 "goals": [
  {
   "season_index": "7", 
   "strength": "(PP)", 
   "time": "10:09", 
   "period": "1", 
   "player": "B.Richardson", 
   "assists": "(D.Hamhuis)", 
   "game_index": "1", 
   "team": "VAN"
  }, 
  {
   "season_index": "10", 
   "strength": "(PP)", 
   "time": "11:22", 
   "period": "2", 
   "player": "E.Kane", 
   "assists": "(B.Wheeler, M.Scheifele)", 
   "game_index": "2", 
   "team": "WPG"
  }, 
  {
   "season_index": "4", 
   "strength": "(EV)", 
   "time": "10:23", 
   "period": "3", 
   "player": "C.Tanev", 
   "assists": "(Z.Kassian, D.Booth)", 
   "game_index": "3", 
   "team": "VAN"
  }
 ], 
 "tweets": [
  {
   "text": "Bogosian and Pavelec describe the disappointment in the #NHLJets dressing room after the loss to Vancouver. WATCH &gt;&gt;  http://t.co/JqA1shEEug", 
   "label": "O", 
   "id": 414979704064471040, 
   "hashtags": [
    "NHLJets"
   ], 
   "user_mentions": [], 
   "created_at": "Mon Dec 23 04:44:06 +0000 2013", 
   "retweet_count": 3, 
   "favorite_count": 5
  }, 
  {
   "text": "Noel gives his thoughts on the 2-1 loss to the Canucks. WATCH &gt;&gt; http://t.co/fK0GvJ5LlI", 
   "label": "O", 
   "id": 414979446953631744, 
   "hashtags": [], 
   "user_mentions": [], 
   "created_at": "Mon Dec 23 04:43:04 +0000 2013", 
   "retweet_count": 3, 
   "favorite_count": 3
  }, 
  {
   "text": "A few highlights from tonight's game, starting with Kane's goal in his hometown. WATCH &gt;&gt; http://t.co/opPf1zlwJ3", 
   "label": "O", 
   "id": 414972174739312640, 
   "hashtags": [], 
   "user_mentions": [], 
   "created_at": "Mon Dec 23 04:14:10 +0000 2013", 
   "retweet_count": 8, 
   "favorite_count": 7
  }, 
  {
   "text": "Final: #NHLJets lose 2-1 to the Canucks. Next up is Edmonton tomorrow night. #JetsvsCanucks", 
   "label": "O", 
   "id": 414962472596934656, 
   "hashtags": [
    "NHLJets", 
    "JetsvsCanucks"
   ], 
   "user_mentions": [], 
   "created_at": "Mon Dec 23 03:35:37 +0000 2013", 
   "retweet_count": 13, 
   "favorite_count": 8
  }, 
  {
   "text": "4:07 left to play in the 3rd at Rogers Arena. #NHLJets down 2-1 to Canucks.", 
   "label": "O", 
   "id": 414960529287831552, 
   "hashtags": [
    "NHLJets"
   ], 
   "user_mentions": [], 
   "created_at": "Mon Dec 23 03:27:54 +0000 2013", 
   "retweet_count": 4, 
   "favorite_count": 3
  }, 
  {
   "text": "The Canucks call a time-out. #JetsvsCanucks", 
   "label": "O", 
   "id": 414960414632329216, 
   "hashtags": [
    "JetsvsCanucks"
   ], 
   "user_mentions": [], 
   "created_at": "Mon Dec 23 03:27:27 +0000 2013", 
   "retweet_count": 2, 
   "favorite_count": 3
  }, 
  {
   "text": "Tanev receives a pass from behind the #NHLJets net and beats Pavelec stick side. 2-1 Vancouver with 9:37 to play. #JetsvsCanucks", 
   "label": "O", 
   "id": 414957838356602880, 
   "hashtags": [
    "NHLJets", 
    "JetsvsCanucks"
   ], 
   "user_mentions": [], 
   "created_at": "Mon Dec 23 03:17:12 +0000 2013", 
   "retweet_count": 5, 
   "favorite_count": 10
  }, 
  {
   "text": "The 3rd period is underway. #NHLJets and Canucks are tied 1-1.#JetsvsCanucks", 
   "label": "O", 
   "id": 414953171027382272, 
   "hashtags": [
    "NHLJets", 
    "JetsvsCanucks"
   ], 
   "user_mentions": [], 
   "created_at": "Mon Dec 23 02:58:40 +0000 2013", 
   "retweet_count": 7, 
   "favorite_count": 8
  }, 
  {
   "text": "#NHLJets Dustin Byfuglien leads all skaters in ice time with 16:49 after two periods. #JetsvsCanucks", 
   "label": "O", 
   "id": 414951190980337665, 
   "hashtags": [
    "NHLJets", 
    "JetsvsCanucks"
   ], 
   "user_mentions": [], 
   "created_at": "Mon Dec 23 02:50:48 +0000 2013", 
   "retweet_count": 5, 
   "favorite_count": 9
  }, 
  {
   "text": "Assists on Kane's power play goal in the 2nd period went to Wheeler and Scheifele. SOG 16-15 Vancouver through 40 minutes. #JetsvsCanucks", 
   "label": "O", 
   "id": 414949283033382913, 
   "hashtags": [
    "JetsvsCanucks"
   ], 
   "user_mentions": [], 
   "created_at": "Mon Dec 23 02:43:13 +0000 2013", 
   "retweet_count": 5, 
   "favorite_count": 9
  }, 
  {
   "text": "Two periods in the books at Rogers Arena. Kane's 10th goal of the season has this game tied, 1-1. #JetsvsCanucks", 
   "label": "O", 
   "id": 414948884268335104, 
   "hashtags": [
    "JetsvsCanucks"
   ], 
   "user_mentions": [], 
   "created_at": "Mon Dec 23 02:41:38 +0000 2013", 
   "retweet_count": 10, 
   "favorite_count": 11
  }, 
  {
   "text": "#NHLJets GOAL! Kane ties the game up in his home town with a one-timer from the slot on the power play. 1-1. #JetsvsCanucks", 
   "label": "O", 
   "id": 414944755391283200, 
   "hashtags": [
    "NHLJets", 
    "JetsvsCanucks"
   ], 
   "user_mentions": [], 
   "created_at": "Mon Dec 23 02:25:13 +0000 2013", 
   "retweet_count": 41, 
   "favorite_count": 49
  }, 
  {
   "text": "#NHLJets going to their first power play. Daniel Sedin called for holding with 10:22 left in the 2nd. #JetsvsCanucks", 
   "label": "O", 
   "id": 414943931063750656, 
   "hashtags": [
    "NHLJets", 
    "JetsvsCanucks"
   ], 
   "user_mentions": [], 
   "created_at": "Mon Dec 23 02:21:57 +0000 2013", 
   "retweet_count": 3, 
   "favorite_count": 3
  }, 
  {
   "text": "O'Dell called for holding the stick. Time of the penalty is 5:22. #JetsvsCanucks", 
   "label": "O", 
   "id": 414942098811408384, 
   "hashtags": [
    "JetsvsCanucks"
   ], 
   "user_mentions": [], 
   "created_at": "Mon Dec 23 02:14:40 +0000 2013", 
   "retweet_count": 4, 
   "favorite_count": 4
  }, 
  {
   "text": "The 2nd period is underway at Rogers Arena. The Canucks lead the #NHLJets 1-0. #JetsvsCanucks", 
   "label": "O", 
   "id": 414939067562745856, 
   "hashtags": [
    "NHLJets", 
    "JetsvsCanucks"
   ], 
   "user_mentions": [], 
   "created_at": "Mon Dec 23 02:02:37 +0000 2013", 
   "retweet_count": 10, 
   "favorite_count": 7
  }, 
  {
   "text": "After one period the #NHLJets trail the Canucks 1-0. SOG 8-7 for Vancouver. #JetsvsCanucks", 
   "label": "O", 
   "id": 414934487105929216, 
   "hashtags": [
    "NHLJets", 
    "JetsvsCanucks"
   ], 
   "user_mentions": [], 
   "created_at": "Mon Dec 23 01:44:25 +0000 2013", 
   "retweet_count": 7, 
   "favorite_count": 6
  }, 
  {
   "text": "Peluso and Sestito drop the gloves with 3:30 left in the 1st period. #JetsvsCanucks", 
   "label": "O", 
   "id": 414932902552403968, 
   "hashtags": [
    "JetsvsCanucks"
   ], 
   "user_mentions": [], 
   "created_at": "Mon Dec 23 01:38:07 +0000 2013", 
   "retweet_count": 3, 
   "favorite_count": 8
  }, 
  {
   "text": "RT @NHL: #HockeyOps explains video review of Brad Richardson's goal at 10:09 of the 1st period in @NHLJets / @VanCanucks game. http://t.co/\u2026", 
   "label": "O", 
   "id": 414931568117813248, 
   "hashtags": [
    "HockeyOps"
   ], 
   "user_mentions": [
    "NHL", 
    "NHLJets", 
    "VanCanucks"
   ], 
   "created_at": "Mon Dec 23 01:32:49 +0000 2013", 
   "retweet_count": 21, 
   "favorite_count": 0
  }, 
  {
   "text": "Just before Kane's penalty expires, a Hamhuis point shot is deflected past Pavelec by Richardson. Canucks lead 1-0. #JetsvsCanucks", 
   "label": "O", 
   "id": 414929649542496257, 
   "hashtags": [
    "JetsvsCanucks"
   ], 
   "user_mentions": [], 
   "created_at": "Mon Dec 23 01:25:12 +0000 2013", 
   "retweet_count": 5, 
   "favorite_count": 6
  }, 
  {
   "text": "The #NHLJets are back on the PK. Kane is called for holding with 11:50 left in the 1st. #JetsvsCanucks", 
   "label": "O", 
   "id": 414928608113606656, 
   "hashtags": [
    "NHLJets", 
    "JetsvsCanucks"
   ], 
   "user_mentions": [], 
   "created_at": "Mon Dec 23 01:21:03 +0000 2013", 
   "retweet_count": 4, 
   "favorite_count": 3
  }, 
  {
   "text": "Hooking is the first penalty of the game. Scheifele heads to the box 3:16 into the 1st and the #NHLJets are on the penalty kill.", 
   "label": "O", 
   "id": 414926519115321344, 
   "hashtags": [
    "NHLJets"
   ], 
   "user_mentions": [], 
   "created_at": "Mon Dec 23 01:12:45 +0000 2013", 
   "retweet_count": 2, 
   "favorite_count": 3
  }, 
  {
   "text": "We're underway in Rogers Arena! Catch the game on TSN Jets or TSN 1290 radio. #JetsvsCanucks", 
   "label": "O", 
   "id": 414925557147512833, 
   "hashtags": [
    "JetsvsCanucks"
   ], 
   "user_mentions": [], 
   "created_at": "Mon Dec 23 01:08:56 +0000 2013", 
   "retweet_count": 10, 
   "favorite_count": 10
  }, 
  {
   "text": "#NHLJets starters: Pavelec in goal, Pardy/Byfuglien, Kane/Scheifele/Frolik up front.", 
   "label": "O", 
   "id": 414923339627372544, 
   "hashtags": [
    "NHLJets"
   ], 
   "user_mentions": [], 
   "created_at": "Mon Dec 23 01:00:07 +0000 2013", 
   "retweet_count": 8, 
   "favorite_count": 15
  }, 
  {
   "text": "Game time in Vancouver! The Jets are on the ice for an early 5 p.m. puck drop on the West Coast (7\u2026 http://t.co/OOLupFJLN1", 
   "label": "O", 
   "id": 414918171892916224, 
   "hashtags": [], 
   "user_mentions": [], 
   "created_at": "Mon Dec 23 00:39:35 +0000 2013", 
   "retweet_count": 14, 
   "favorite_count": 11
  }, 
  {
   "text": "Congrats also goes out to #NHLJets prospect @Copp94 for being named an alternate captain for Team USA in this year's WJHC.", 
   "label": "O", 
   "id": 414889829638627328, 
   "hashtags": [
    "NHLJets"
   ], 
   "user_mentions": [
    "Copp94"
   ], 
   "created_at": "Sun Dec 22 22:46:58 +0000 2013", 
   "retweet_count": 23, 
   "favorite_count": 18
  }, 
  {
   "text": "Congrats to #NHLJets prospects @Morrissey_10 and @petan19 on making the Team Canada roster for the WJHC!", 
   "label": "O", 
   "id": 414885659657003008, 
   "hashtags": [
    "NHLJets"
   ], 
   "user_mentions": [
    "Morrissey_10", 
    "petan19"
   ], 
   "created_at": "Sun Dec 22 22:30:24 +0000 2013", 
   "retweet_count": 55, 
   "favorite_count": 62
  }, 
  {
   "text": "After beating Florida Friday night, the #NHLJets look to make it two in a row in Vancouver tonight. PREVIEW &gt;&gt; http://t.co/lJVQzgdCV9", 
   "label": "O", 
   "id": 414805345605652480, 
   "hashtags": [
    "NHLJets"
   ], 
   "user_mentions": [], 
   "created_at": "Sun Dec 22 17:11:15 +0000 2013", 
   "retweet_count": 13, 
   "favorite_count": 12
  }
 ]
}