{
 "num_road_team_goals": "4", 
 "home_team": "Winnipeg Jets", 
 "num_home_team_goals": "5", 
 "summary_url": "http://www.flyershistory.com/cgi-bin/poboxscore.cgi?H20130780", 
 "result": "W", 
 "road_team": "Toronto Maple Leafs", 
 "date": "2014-01-25", 
 "goals": [
  {
   "season_index": "10", 
   "strength": "(EV)", 
   "time": "3:10", 
   "period": "1", 
   "player": "M.Scheifele", 
   "assists": "(E.Kane, B.Wheeler)", 
   "game_index": "1", 
   "team": "WPG"
  }, 
  {
   "season_index": "19", 
   "strength": "(PP)", 
   "time": "6:34", 
   "period": "1", 
   "player": "B.Wheeler", 
   "assists": "(J.Trouba, O.Pavelec)", 
   "game_index": "2", 
   "team": "WPG"
  }, 
  {
   "season_index": "5", 
   "strength": "(PP)", 
   "time": "6:13", 
   "period": "2", 
   "player": "D.Phaneuf", 
   "assists": "(P.Kessel)", 
   "game_index": "3", 
   "team": "TOR"
  }, 
  {
   "season_index": "17", 
   "strength": "(PP)", 
   "time": "7:36", 
   "period": "2", 
   "player": "B.Little", 
   "assists": "(T.Enstrom, D.Byfuglien)", 
   "game_index": "4", 
   "team": "WPG"
  }, 
  {
   "season_index": "2", 
   "strength": "(EV)", 
   "time": "8:13", 
   "period": "2", 
   "player": "Z.Bogosian", 
   "assists": "(B.Little, A.Ladd)", 
   "game_index": "5", 
   "team": "WPG"
  }, 
  {
   "season_index": "2", 
   "strength": "(EV)", 
   "time": "9:14", 
   "period": "2", 
   "player": "T.Bodie", 
   "assists": "(N.Kadri, M.Rielly)", 
   "game_index": "6", 
   "team": "TOR"
  }, 
  {
   "season_index": "1", 
   "strength": "(EV)", 
   "time": "16:44", 
   "period": "2", 
   "player": "T.Gleason", 
   "assists": "(C.Ashton, C.Franson)", 
   "game_index": "7", 
   "team": "TOR"
  }, 
  {
   "season_index": "27", 
   "strength": "(EV)", 
   "time": "18:27", 
   "period": "3", 
   "player": "P.Kessel", 
   "assists": "(J.van)", 
   "game_index": "8", 
   "team": "TOR"
  }, 
  {
   "season_index": "12", 
   "strength": "(EV)", 
   "time": "2:44", 
   "period": "OT", 
   "player": "D.Byfuglien", 
   "assists": "(A.Ladd, M.Frolik)", 
   "game_index": "9", 
   "team": "WPG"
  }
 ], 
 "tweets": [
  {
   "text": "HIGHLIGHT: Here's Byfuglien's overtime winner from the win over Toronto. &gt;&gt; http://t.co/qyW5iExFpl", 
   "label": "O", 
   "id": 427285950499000321, 
   "hashtags": [], 
   "user_mentions": [], 
   "created_at": "Sun Jan 26 03:44:43 +0000 2014", 
   "retweet_count": 24, 
   "favorite_count": 40
  }, 
  {
   "text": "HIGHLIGHT: Check out Wheeler's goal from tonight's win. &gt;&gt; http://t.co/ySO0GezNX9", 
   "label": "O", 
   "id": 427285541554364416, 
   "hashtags": [], 
   "user_mentions": [], 
   "created_at": "Sun Jan 26 03:43:06 +0000 2014", 
   "retweet_count": 8, 
   "favorite_count": 9
  }, 
  {
   "text": "\"He's played quietly really well... He's really excelled. He's a character guy.\"-Maurice on Stuart.", 
   "label": "O", 
   "id": 427276699420483585, 
   "hashtags": [], 
   "user_mentions": [], 
   "created_at": "Sun Jan 26 03:07:58 +0000 2014", 
   "retweet_count": 12, 
   "favorite_count": 26
  }, 
  {
   "text": "\"I like our bench. It's calm, and they're saying the right things to each other.\"-Maurice on how the team handled the Leafs come back.", 
   "label": "O", 
   "id": 427276282154344449, 
   "hashtags": [], 
   "user_mentions": [], 
   "created_at": "Sun Jan 26 03:06:18 +0000 2014", 
   "retweet_count": 18, 
   "favorite_count": 25
  }, 
  {
   "text": "\"He needs to know if he gives up one that he wants back.. The bench is going to try and get it back for him.\"-Maurice on Pavelec.", 
   "label": "O", 
   "id": 427276039685820416, 
   "hashtags": [], 
   "user_mentions": [], 
   "created_at": "Sun Jan 26 03:05:20 +0000 2014", 
   "retweet_count": 10, 
   "favorite_count": 34
  }, 
  {
   "text": "#NHLJets GOAL! Byfuglien takes out Van Riemsdyk 1 on 1 in the Jets end, then gets the winner at the other end. Jets win 5-4!", 
   "label": "O", 
   "id": 427270983276171265, 
   "hashtags": [
    "NHLJets"
   ], 
   "user_mentions": [], 
   "created_at": "Sun Jan 26 02:45:15 +0000 2014", 
   "retweet_count": 161, 
   "favorite_count": 153
  }, 
  {
   "text": "Overtime is underway. Jets start with Little/Ladd, Bogosian/Enstrom", 
   "label": "O", 
   "id": 427270163382013952, 
   "hashtags": [], 
   "user_mentions": [], 
   "created_at": "Sun Jan 26 02:41:59 +0000 2014", 
   "retweet_count": 12, 
   "favorite_count": 11
  }, 
  {
   "text": "We're heading to overtime. #NHLJets and Leafs tied 4-4 after 60 minutes. SOG 31-27 WPG. #JetsvsLeafs", 
   "label": "O", 
   "id": 427269783097049088, 
   "hashtags": [
    "NHLJets", 
    "JetsvsLeafs"
   ], 
   "user_mentions": [], 
   "created_at": "Sun Jan 26 02:40:29 +0000 2014", 
   "retweet_count": 7, 
   "favorite_count": 10
  }, 
  {
   "text": "Kessel ties the game with 1:33 left. 4-4. #JetsvsLeafs", 
   "label": "O", 
   "id": 427268972308733952, 
   "hashtags": [
    "JetsvsLeafs"
   ], 
   "user_mentions": [], 
   "created_at": "Sun Jan 26 02:37:15 +0000 2014", 
   "retweet_count": 20, 
   "favorite_count": 14
  }, 
  {
   "text": "Setoguchi called for delay of game after his clearing attempt goes over the glass. #NHLJets on the PK. #JetsvsLeafs", 
   "label": "O", 
   "id": 427265122470334464, 
   "hashtags": [
    "NHLJets", 
    "JetsvsLeafs"
   ], 
   "user_mentions": [], 
   "created_at": "Sun Jan 26 02:21:58 +0000 2014", 
   "retweet_count": 3, 
   "favorite_count": 5
  }, 
  {
   "text": "10:07 left in regulation. Jets still lead Toronto 4-3. SOG 27-24 WPG. #JetsvsLeafs", 
   "label": "O", 
   "id": 427264922196529152, 
   "hashtags": [
    "JetsvsLeafs"
   ], 
   "user_mentions": [], 
   "created_at": "Sun Jan 26 02:21:10 +0000 2014", 
   "retweet_count": 6, 
   "favorite_count": 9
  }, 
  {
   "text": "The third period is underway at MTS Centre. The Jets hold a 4-3 lead over Toronto. #JetsvsLeafs", 
   "label": "O", 
   "id": 427260936286502912, 
   "hashtags": [
    "JetsvsLeafs"
   ], 
   "user_mentions": [], 
   "created_at": "Sun Jan 26 02:05:19 +0000 2014", 
   "retweet_count": 12, 
   "favorite_count": 14
  }, 
  {
   "text": "Little leads the Jets in shots through two periods with four. Trouba leads in ice time at 17:00. #JetsvsLeafs", 
   "label": "O", 
   "id": 427258903869390848, 
   "hashtags": [
    "JetsvsLeafs"
   ], 
   "user_mentions": [], 
   "created_at": "Sun Jan 26 01:57:15 +0000 2014", 
   "retweet_count": 4, 
   "favorite_count": 12
  }, 
  {
   "text": "After 40 minutes, the Jets lead Toronto 4-3. Little (17th) and Bogosian (2nd) are the goal scorers in the 2nd. SOG 23-20 in favour of WPG.", 
   "label": "O", 
   "id": 427256678799511552, 
   "hashtags": [], 
   "user_mentions": [], 
   "created_at": "Sun Jan 26 01:48:24 +0000 2014", 
   "retweet_count": 10, 
   "favorite_count": 12
  }, 
  {
   "text": "The Jets lead is cut to one. Gleason's shot goes off a skate and gets by Pavelec. 4-3 WPG. #JetsvsLeafs", 
   "label": "O", 
   "id": 427255157202501632, 
   "hashtags": [
    "JetsvsLeafs"
   ], 
   "user_mentions": [], 
   "created_at": "Sun Jan 26 01:42:22 +0000 2014", 
   "retweet_count": 10, 
   "favorite_count": 7
  }, 
  {
   "text": "The Jets kill off the 5-on-3. 5:01 left in the second period. 4-2 WPG. #JetsvsLeafs", 
   "label": "O", 
   "id": 427253732087054336, 
   "hashtags": [
    "JetsvsLeafs"
   ], 
   "user_mentions": [], 
   "created_at": "Sun Jan 26 01:36:42 +0000 2014", 
   "retweet_count": 13, 
   "favorite_count": 25
  }, 
  {
   "text": "Leafs will have a 5-on-3 for 48 seconds with Wheeler now going off for hooking. #JetsvsLeafs", 
   "label": "O", 
   "id": 427253024457633792, 
   "hashtags": [
    "JetsvsLeafs"
   ], 
   "user_mentions": [], 
   "created_at": "Sun Jan 26 01:33:53 +0000 2014", 
   "retweet_count": 5, 
   "favorite_count": 5
  }, 
  {
   "text": "Kane heading to the box for boarding. Jets on the PK with 8:28 left in the second. #JetsvsLeafs", 
   "label": "O", 
   "id": 427252325921484800, 
   "hashtags": [
    "JetsvsLeafs"
   ], 
   "user_mentions": [], 
   "created_at": "Sun Jan 26 01:31:07 +0000 2014", 
   "retweet_count": 3, 
   "favorite_count": 5
  }, 
  {
   "text": "The Leafs get one back. Bodie makes it 4-2. 10:46 left in the second. #JetsvsLeafs", 
   "label": "O", 
   "id": 427251002622763009, 
   "hashtags": [
    "JetsvsLeafs"
   ], 
   "user_mentions": [], 
   "created_at": "Sun Jan 26 01:25:51 +0000 2014", 
   "retweet_count": 8, 
   "favorite_count": 4
  }, 
  {
   "text": "#NHLJets GOAL! After the Jets kept the Leafs in their own end, Bogosian's snap shot gets through a crowd and it's 4-1. Bernier now in goal.", 
   "label": "O", 
   "id": 427250516788129793, 
   "hashtags": [
    "NHLJets"
   ], 
   "user_mentions": [], 
   "created_at": "Sun Jan 26 01:23:55 +0000 2014", 
   "retweet_count": 33, 
   "favorite_count": 37
  }, 
  {
   "text": "#NHLJets GOAL! Little redirects a slap pass from Enstrom and the Jets restore the two-goal lead on the power play. 3-1. #JetsvsLeafs", 
   "label": "O", 
   "id": 427250148519845888, 
   "hashtags": [
    "NHLJets", 
    "JetsvsLeafs"
   ], 
   "user_mentions": [], 
   "created_at": "Sun Jan 26 01:22:27 +0000 2014", 
   "retweet_count": 27, 
   "favorite_count": 30
  }, 
  {
   "text": "Gunnarsson called for boarding. Stuart and Gleason assessed roughing penalties after the whistle. Jets on the PP. #JetsvsLeafs", 
   "label": "O", 
   "id": 427249608893272064, 
   "hashtags": [
    "JetsvsLeafs"
   ], 
   "user_mentions": [], 
   "created_at": "Sun Jan 26 01:20:19 +0000 2014", 
   "retweet_count": 5, 
   "favorite_count": 4
  }, 
  {
   "text": "The Leafs cut into the Jets lead on the power play. Phaneuf with the goal. 2-1 WPG. #JetsvsLeafs", 
   "label": "O", 
   "id": 427248727145721856, 
   "hashtags": [
    "JetsvsLeafs"
   ], 
   "user_mentions": [], 
   "created_at": "Sun Jan 26 01:16:49 +0000 2014", 
   "retweet_count": 6, 
   "favorite_count": 6
  }, 
  {
   "text": "Back to the PK for the Jets. Ellerby called for boarding at 5:18 of the second. #JetsvsLeafs", 
   "label": "O", 
   "id": 427248240702930944, 
   "hashtags": [
    "JetsvsLeafs"
   ], 
   "user_mentions": [], 
   "created_at": "Sun Jan 26 01:14:53 +0000 2014", 
   "retweet_count": 2, 
   "favorite_count": 1
  }, 
  {
   "text": "Pavelec makes a big save on a Kulemin breakaway less than three minutes into the second to keep the 2-0 lead. #JetsvsLeafs", 
   "label": "O", 
   "id": 427246929978744832, 
   "hashtags": [
    "JetsvsLeafs"
   ], 
   "user_mentions": [], 
   "created_at": "Sun Jan 26 01:09:40 +0000 2014", 
   "retweet_count": 8, 
   "favorite_count": 12
  }, 
  {
   "text": "The puck is dropped and the second period is underway! The Jets lead Toronto 2-0. #JetsvsLeafs", 
   "label": "O", 
   "id": 427245864814252032, 
   "hashtags": [
    "JetsvsLeafs"
   ], 
   "user_mentions": [], 
   "created_at": "Sun Jan 26 01:05:26 +0000 2014", 
   "retweet_count": 10, 
   "favorite_count": 13
  }, 
  {
   "text": "Scheifele (10th) and Wheeler (19th) each scored for the Jets in the first. SOG 12-11 Toronto.", 
   "label": "O", 
   "id": 427242694952226816, 
   "hashtags": [], 
   "user_mentions": [], 
   "created_at": "Sun Jan 26 00:52:50 +0000 2014", 
   "retweet_count": 10, 
   "favorite_count": 25
  }, 
  {
   "text": "A flurry of activity around Reimer at the end of the first, but nothing goes in. #NHLJets take a 2-0 lead into the intermission.", 
   "label": "O", 
   "id": 427241385423433728, 
   "hashtags": [
    "NHLJets"
   ], 
   "user_mentions": [], 
   "created_at": "Sun Jan 26 00:47:38 +0000 2014", 
   "retweet_count": 15, 
   "favorite_count": 18
  }, 
  {
   "text": "Bogosian takes the first Jets penalty tonight. Holding is the call with 5:47 left in the first period. #JetsvsLeafs", 
   "label": "O", 
   "id": 427238201837641728, 
   "hashtags": [
    "JetsvsLeafs"
   ], 
   "user_mentions": [], 
   "created_at": "Sun Jan 26 00:34:59 +0000 2014", 
   "retweet_count": 3, 
   "favorite_count": 7
  }, 
  {
   "text": "Scheifele draws a hooking penalty on Franson. Jets on their second power play of the game. #JetsvsLeafs", 
   "label": "O", 
   "id": 427237196232278016, 
   "hashtags": [
    "JetsvsLeafs"
   ], 
   "user_mentions": [], 
   "created_at": "Sun Jan 26 00:30:59 +0000 2014", 
   "retweet_count": 4, 
   "favorite_count": 7
  }, 
  {
   "text": "#NHLJets GOAL! Wheeler uses his speed and beats a Leafs defenceman wide then goes five hole on Reimer. That PP goal makes it 2-0 WPG.", 
   "label": "O", 
   "id": 427234569251594241, 
   "hashtags": [
    "NHLJets"
   ], 
   "user_mentions": [], 
   "created_at": "Sun Jan 26 00:20:33 +0000 2014", 
   "retweet_count": 42, 
   "favorite_count": 52
  }, 
  {
   "text": "The Jets will have the game's first power play as Rielly goes off for holding. #JetsvsLeafs", 
   "label": "O", 
   "id": 427233727119228928, 
   "hashtags": [
    "JetsvsLeafs"
   ], 
   "user_mentions": [], 
   "created_at": "Sun Jan 26 00:17:12 +0000 2014", 
   "retweet_count": 4, 
   "favorite_count": 10
  }, 
  {
   "text": "#NHLJets GOAL! Scheifele takes a pass from the corner and rips it from the hash marks to put the Jets up 1-0. #JetsvsLeafs", 
   "label": "O", 
   "id": 427233112712413184, 
   "hashtags": [
    "NHLJets", 
    "JetsvsLeafs"
   ], 
   "user_mentions": [], 
   "created_at": "Sun Jan 26 00:14:46 +0000 2014", 
   "retweet_count": 56, 
   "favorite_count": 64
  }, 
  {
   "text": "Here we go! #NHLJets vs Maple Leafs is underway at MTS Centre. Catch the game on CBC or TSN 1290 radio! #JetsvsLeafs", 
   "label": "O", 
   "id": 427231995395964928, 
   "hashtags": [
    "NHLJets", 
    "JetsvsLeafs"
   ], 
   "user_mentions": [], 
   "created_at": "Sun Jan 26 00:10:19 +0000 2014", 
   "retweet_count": 7, 
   "favorite_count": 11
  }, 
  {
   "text": "Warm up is over! The Jets and Maple Leafs face off in minutes. http://t.co/3nSHt9xsd7", 
   "label": "O", 
   "id": 427230094206042112, 
   "hashtags": [], 
   "user_mentions": [], 
   "created_at": "Sun Jan 26 00:02:46 +0000 2014", 
   "retweet_count": 23, 
   "favorite_count": 42
  }, 
  {
   "text": "#NHLJets starters: Pavelec in goal, Trouba/Stuart, Kane/Scheifele/Wheeler up front. #JetsvsLeafs", 
   "label": "O", 
   "id": 427229117361057792, 
   "hashtags": [
    "NHLJets", 
    "JetsvsLeafs"
   ], 
   "user_mentions": [], 
   "created_at": "Sat Jan 25 23:58:53 +0000 2014", 
   "retweet_count": 13, 
   "favorite_count": 17
  }, 
  {
   "text": "Play #lastfanstanding today and enter your secret code \u201cSHUTOUT\u201d for a chance to instantly win! Play at http://t.co/C7PSMtMkxc #mbna", 
   "label": "O", 
   "id": 427169697143209984, 
   "hashtags": [
    "lastfanstanding", 
    "mbna"
   ], 
   "user_mentions": [], 
   "created_at": "Sat Jan 25 20:02:46 +0000 2014", 
   "retweet_count": 2, 
   "favorite_count": 3
  }, 
  {
   "text": "TSN pre-game report: Jets vs Maple Leafs. WATCH &gt;&gt; http://t.co/9ljqgy5cwH", 
   "label": "O", 
   "id": 427157397522493440, 
   "hashtags": [], 
   "user_mentions": [], 
   "created_at": "Sat Jan 25 19:13:54 +0000 2014", 
   "retweet_count": 6, 
   "favorite_count": 4
  }, 
  {
   "text": "Congrats to Derek King, TNSE Ice Ops Manager, who's at Dodger Stadium assisting the NHL with ice install &amp; maintenance for #StadiumSeries!", 
   "label": "O", 
   "id": 427147509853466624, 
   "hashtags": [
    "StadiumSeries"
   ], 
   "user_mentions": [], 
   "created_at": "Sat Jan 25 18:34:37 +0000 2014", 
   "retweet_count": 14, 
   "favorite_count": 17
  }, 
  {
   "text": "@dmankewich the orange jerseys are the \"no-contact\" jerseys.", 
   "label": "O", 
   "id": 427137429066113024, 
   "hashtags": [], 
   "user_mentions": [
    "dmankewich"
   ], 
   "created_at": "Sat Jan 25 17:54:33 +0000 2014", 
   "retweet_count": 0, 
   "favorite_count": 0
  }, 
  {
   "text": "Maurice on the development of Scheifele and Trouba, and the preparations for the Maple Leafs tonight. WATCH &gt;&gt; http://t.co/qNU0Wx4l1L", 
   "label": "O", 
   "id": 427134581955768320, 
   "hashtags": [], 
   "user_mentions": [], 
   "created_at": "Sat Jan 25 17:43:14 +0000 2014", 
   "retweet_count": 7, 
   "favorite_count": 8
  }, 
  {
   "text": "Trouba, Wheeler, and Kane talk about adjusting to Maurice's system and facing the Maple Leafs tonight. WATCH &gt;&gt; http://t.co/r8lyw4BGHw", 
   "label": "O", 
   "id": 427134417941692416, 
   "hashtags": [], 
   "user_mentions": [], 
   "created_at": "Sat Jan 25 17:42:35 +0000 2014", 
   "retweet_count": 4, 
   "favorite_count": 8
  }, 
  {
   "text": "\"They learned that if they compete hard enough, they can win.\"-Maurice on the team's two tough games against Anaheim and San Jose.", 
   "label": "O", 
   "id": 427119773172764672, 
   "hashtags": [], 
   "user_mentions": [], 
   "created_at": "Sat Jan 25 16:44:24 +0000 2014", 
   "retweet_count": 7, 
   "favorite_count": 11
  }, 
  {
   "text": "\"He's a gamer... He watches hockey at night. He can tell you who is playing centre against him each night.\"-Maurice on Scheifele.", 
   "label": "O", 
   "id": 427119367029923840, 
   "hashtags": [], 
   "user_mentions": [], 
   "created_at": "Sat Jan 25 16:42:47 +0000 2014", 
   "retweet_count": 11, 
   "favorite_count": 27
  }, 
  {
   "text": "\"Mark has played really well... He'll do anything to make a play.\"-Maurice on Stuart's play and how he's helped Trouba develop.", 
   "label": "O", 
   "id": 427119054814339072, 
   "hashtags": [], 
   "user_mentions": [], 
   "created_at": "Sat Jan 25 16:41:32 +0000 2014", 
   "retweet_count": 9, 
   "favorite_count": 24
  }, 
  {
   "text": "\"In every opportunity he's been given, he's responded... His instincts are very good.\"-Maurice on Trouba.", 
   "label": "O", 
   "id": 427118475509633024, 
   "hashtags": [], 
   "user_mentions": [], 
   "created_at": "Sat Jan 25 16:39:14 +0000 2014", 
   "retweet_count": 11, 
   "favorite_count": 29
  }, 
  {
   "text": "Pre-game preparations are underway this morning. Jets vs Maple Leafs tonight at 6 pm! http://t.co/9ek5ytm2d9", 
   "label": "O", 
   "id": 427105790030139393, 
   "hashtags": [], 
   "user_mentions": [], 
   "created_at": "Sat Jan 25 15:48:50 +0000 2014", 
   "retweet_count": 22, 
   "favorite_count": 49
  }, 
  {
   "text": "The Jets take on the Leafs tonight for the first of two back-to-back games. PREVIEW &gt;&gt; http://t.co/akCLls0Zee", 
   "label": "O", 
   "id": 427085155723780097, 
   "hashtags": [], 
   "user_mentions": [], 
   "created_at": "Sat Jan 25 14:26:50 +0000 2014", 
   "retweet_count": 12, 
   "favorite_count": 10
  }
 ]
}