{
 "num_road_team_goals": "4", 
 "home_team": "Philadelphia Flyers", 
 "num_home_team_goals": "6", 
 "summary_url": "http://www.flyershistory.com/cgi-bin/poboxscore.cgi?H20130729", 
 "result": "W", 
 "road_team": "New York Islanders", 
 "date": "2014-01-18", 
 "goals": [
  {
   "season_index": "22", 
   "strength": "(EV)", 
   "time": "7:43", 
   "period": "1", 
   "player": "J.Tavares", 
   "assists": "(T.VanEk, K.Okposo)", 
   "game_index": "1", 
   "team": "NYI"
  }, 
  {
   "season_index": "7", 
   "strength": "(SH)", 
   "time": "11:54", 
   "period": "1", 
   "player": "C.Clutterbuck", 
   "assists": "(F.Nielsen, B.Strait)", 
   "game_index": "2", 
   "team": "NYI"
  }, 
  {
   "season_index": "3", 
   "strength": "(EV)", 
   "time": "14:43", 
   "period": "1", 
   "player": "Andrej Meszaros", 
   "assists": null, 
   "game_index": "3", 
   "team": "PHI"
  }, 
  {
   "season_index": "4", 
   "strength": "(EV)", 
   "time": "18:38", 
   "period": "1", 
   "player": "Andrej Meszaros", 
   "assists": "(Scott Hartnell, Wayne Simmonds)", 
   "game_index": "4", 
   "team": "PHI"
  }, 
  {
   "season_index": "2", 
   "strength": "(EV)", 
   "time": "3:45", 
   "period": "2", 
   "player": "Adam Hall", 
   "assists": "(Mark Streit)", 
   "game_index": "5", 
   "team": "PHI"
  }, 
  {
   "season_index": "7", 
   "strength": "(EV)", 
   "time": "11:05", 
   "period": "2", 
   "player": "B.Nelson", 
   "assists": "(C.de, J.Bailey)", 
   "game_index": "6", 
   "team": "NYI"
  }, 
  {
   "season_index": "3", 
   "strength": "(EV)", 
   "time": "14:00", 
   "period": "2", 
   "player": "B.Strait", 
   "assists": "(M.Grabner, B.Nelson)", 
   "game_index": "7", 
   "team": "NYI"
  }, 
  {
   "season_index": "14", 
   "strength": "(EV)", 
   "time": "7:14", 
   "period": "3", 
   "player": "Jakub Voracek", 
   "assists": "(Claude Giroux, Kimmo Timonen)", 
   "game_index": "8", 
   "team": "PHI"
  }, 
  {
   "season_index": "4", 
   "strength": "(EV)", 
   "time": "15:45", 
   "period": "3", 
   "player": "Michael Raffl", 
   "assists": "(Claude Giroux, Jakub Voracek)", 
   "game_index": "9", 
   "team": "PHI"
  }, 
  {
   "season_index": "11", 
   "strength": "(EV-EN)", 
   "time": "19:04", 
   "period": "3", 
   "player": "Matt Read", 
   "assists": "(Sean Couturier, Mark Streit)", 
   "game_index": "10", 
   "team": "PHI"
  }
 ], 
 "tweets": [
  {
   "text": "WATCH: Michael Raffl's game-winner to give #Flyers another comeback win! http://t.co/wfuHQTLyCy", 
   "label": "O", 
   "id": 424748003635638273, 
   "hashtags": [
    "Flyers"
   ], 
   "user_mentions": [], 
   "created_at": "Sun Jan 19 03:39:50 +0000 2014", 
   "retweet_count": 46, 
   "favorite_count": 59
  }, 
  {
   "text": "That about sums it up. Next game Monday @ Islanders, 1pm. http://t.co/4r0iaVORa3", 
   "label": "O", 
   "id": 424739861665710080, 
   "hashtags": [], 
   "user_mentions": [], 
   "created_at": "Sun Jan 19 03:07:28 +0000 2014", 
   "retweet_count": 46, 
   "favorite_count": 42
  }, 
  {
   "text": "Here's a look at tonight's win, by the numbers... http://t.co/N8wQy81Hed", 
   "label": "O", 
   "id": 424734762490544129, 
   "hashtags": [], 
   "user_mentions": [], 
   "created_at": "Sun Jan 19 02:47:13 +0000 2014", 
   "retweet_count": 157, 
   "favorite_count": 171
  }, 
  {
   "text": "Good night and good hockey!", 
   "label": "O", 
   "id": 424732788395237376, 
   "hashtags": [], 
   "user_mentions": [], 
   "created_at": "Sun Jan 19 02:39:22 +0000 2014", 
   "retweet_count": 296, 
   "favorite_count": 284
  }, 
  {
   "text": "#FLYERS WIN 6-4! #TheOrangeAndTheBlack", 
   "label": "O", 
   "id": 424732692647657472, 
   "hashtags": [
    "FLYERS", 
    "TheOrangeAndTheBlack"
   ], 
   "user_mentions": [], 
   "created_at": "Sun Jan 19 02:38:59 +0000 2014", 
   "retweet_count": 821, 
   "favorite_count": 449
  }, 
  {
   "text": "6-4 #Flyers and 55.4 seconds on the clock", 
   "label": "O", 
   "id": 424732389441409025, 
   "hashtags": [
    "Flyers"
   ], 
   "user_mentions": [], 
   "created_at": "Sun Jan 19 02:37:47 +0000 2014", 
   "retweet_count": 131, 
   "favorite_count": 134
  }, 
  {
   "text": "READ WITH THE EMPTY NETTER!", 
   "label": "O", 
   "id": 424732323435671554, 
   "hashtags": [], 
   "user_mentions": [], 
   "created_at": "Sun Jan 19 02:37:31 +0000 2014", 
   "retweet_count": 119, 
   "favorite_count": 163
  }, 
  {
   "text": "Giroux and Voracek with the assists on Raffl's 4th goal of the season", 
   "label": "O", 
   "id": 424731609946808320, 
   "hashtags": [], 
   "user_mentions": [], 
   "created_at": "Sun Jan 19 02:34:41 +0000 2014", 
   "retweet_count": 51, 
   "favorite_count": 80
  }, 
  {
   "text": "GOAL!!!!!! Raffl!!! 5-4 #Flyers", 
   "label": "O", 
   "id": 424731289824940032, 
   "hashtags": [
    "Flyers"
   ], 
   "user_mentions": [], 
   "created_at": "Sun Jan 19 02:33:25 +0000 2014", 
   "retweet_count": 215, 
   "favorite_count": 221
  }, 
  {
   "text": "With 5:24 on the clock, we're still even at 4. Islanders hold the slight edge in shots, 29-27.", 
   "label": "O", 
   "id": 424730603779416064, 
   "hashtags": [], 
   "user_mentions": [], 
   "created_at": "Sun Jan 19 02:30:41 +0000 2014", 
   "retweet_count": 15, 
   "favorite_count": 26
  }, 
  {
   "text": "Giroux and Timonen nab the assists", 
   "label": "O", 
   "id": 424727871408467969, 
   "hashtags": [], 
   "user_mentions": [], 
   "created_at": "Sun Jan 19 02:19:50 +0000 2014", 
   "retweet_count": 27, 
   "favorite_count": 75
  }, 
  {
   "text": "GOAL!!!! Voracek ties it up with 12:46 to go in the 3rd! #SCORACEK", 
   "label": "O", 
   "id": 424727659625459714, 
   "hashtags": [
    "SCORACEK"
   ], 
   "user_mentions": [], 
   "created_at": "Sun Jan 19 02:18:59 +0000 2014", 
   "retweet_count": 190, 
   "favorite_count": 193
  }, 
  {
   "text": "#Flyers looking for the equalizer as the 3rd period gets underway. 4-3 NYI", 
   "label": "O", 
   "id": 424724252391010304, 
   "hashtags": [
    "Flyers"
   ], 
   "user_mentions": [], 
   "created_at": "Sun Jan 19 02:05:27 +0000 2014", 
   "retweet_count": 14, 
   "favorite_count": 21
  }, 
  {
   "text": "40 minutes down, 20 minutes to go... http://t.co/ndl7IeV4e9", 
   "label": "O", 
   "id": 424720303000793088, 
   "hashtags": [], 
   "user_mentions": [], 
   "created_at": "Sun Jan 19 01:49:45 +0000 2014", 
   "retweet_count": 43, 
   "favorite_count": 70
  }, 
  {
   "text": "END OF 2: #Flyers trail Islanders 4-3. NYI also leads shots 27-18.", 
   "label": "O", 
   "id": 424719730046296064, 
   "hashtags": [
    "Flyers"
   ], 
   "user_mentions": [], 
   "created_at": "Sun Jan 19 01:47:29 +0000 2014", 
   "retweet_count": 15, 
   "favorite_count": 18
  }, 
  {
   "text": "Ray Emery will now backstop the #Flyers", 
   "label": "O", 
   "id": 424716994173087746, 
   "hashtags": [
    "Flyers"
   ], 
   "user_mentions": [], 
   "created_at": "Sun Jan 19 01:36:36 +0000 2014", 
   "retweet_count": 34, 
   "favorite_count": 33
  }, 
  {
   "text": "Strait makes it 4-3 for the Islanders. 6:00 to play in the 2nd.", 
   "label": "O", 
   "id": 424716799221841920, 
   "hashtags": [], 
   "user_mentions": [], 
   "created_at": "Sun Jan 19 01:35:50 +0000 2014", 
   "retweet_count": 26, 
   "favorite_count": 17
  }, 
  {
   "text": "Nelson credited with that goal. De Haan with the assist", 
   "label": "O", 
   "id": 424715701127884801, 
   "hashtags": [], 
   "user_mentions": [], 
   "created_at": "Sun Jan 19 01:31:28 +0000 2014", 
   "retweet_count": 15, 
   "favorite_count": 7
  }, 
  {
   "text": "Islanders tie it up with a goal de Haan. 3-3 with 8:55 to play in the 2nd.", 
   "label": "O", 
   "id": 424715396839522305, 
   "hashtags": [], 
   "user_mentions": [], 
   "created_at": "Sun Jan 19 01:30:16 +0000 2014", 
   "retweet_count": 12, 
   "favorite_count": 11
  }, 
  {
   "text": "Tonight's @VirtuaHealth Community Teammate is United States Marine Corporal Shane Shubert of Cinnaminson, NJ, in his 4th year of service!", 
   "label": "O", 
   "id": 424714520963997696, 
   "hashtags": [], 
   "user_mentions": [
    "VirtuaHealth"
   ], 
   "created_at": "Sun Jan 19 01:26:47 +0000 2014", 
   "retweet_count": 11, 
   "favorite_count": 17
  }, 
  {
   "text": "Relive Meszaros' top-shelf game-tying beauty from the 1st period: http://t.co/HiqmYv414s", 
   "label": "O", 
   "id": 424714324616028160, 
   "hashtags": [], 
   "user_mentions": [], 
   "created_at": "Sun Jan 19 01:26:00 +0000 2014", 
   "retweet_count": 18, 
   "favorite_count": 23
  }, 
  {
   "text": "Incidental contact for that play, so no penalty called", 
   "label": "O", 
   "id": 424713869685051392, 
   "hashtags": [], 
   "user_mentions": [], 
   "created_at": "Sun Jan 19 01:24:11 +0000 2014", 
   "retweet_count": 5, 
   "favorite_count": 11
  }, 
  {
   "text": "Tavares gets one past Mason, but goal is waved off due to goaltender interference. Still 3-2 #Flyers", 
   "label": "O", 
   "id": 424713620941840385, 
   "hashtags": [
    "Flyers"
   ], 
   "user_mentions": [], 
   "created_at": "Sun Jan 19 01:23:12 +0000 2014", 
   "retweet_count": 28, 
   "favorite_count": 39
  }, 
  {
   "text": "#InMasonWeTrust", 
   "label": "O", 
   "id": 424713099841531904, 
   "hashtags": [
    "InMasonWeTrust"
   ], 
   "user_mentions": [], 
   "created_at": "Sun Jan 19 01:21:08 +0000 2014", 
   "retweet_count": 264, 
   "favorite_count": 205
  }, 
  {
   "text": "Downie, Rosehill, &amp; Martin head to the box following a scrum by the Islanders bench. Roughing minors for everyone.", 
   "label": "O", 
   "id": 424711993396715520, 
   "hashtags": [], 
   "user_mentions": [], 
   "created_at": "Sun Jan 19 01:16:44 +0000 2014", 
   "retweet_count": 20, 
   "favorite_count": 18
  }, 
  {
   "text": "Goal stands! 3-2 #Flyers", 
   "label": "O", 
   "id": 424711405472714752, 
   "hashtags": [
    "Flyers"
   ], 
   "user_mentions": [], 
   "created_at": "Sun Jan 19 01:14:24 +0000 2014", 
   "retweet_count": 109, 
   "favorite_count": 105
  }, 
  {
   "text": "Play is under review", 
   "label": "O", 
   "id": 424711216137646080, 
   "hashtags": [], 
   "user_mentions": [], 
   "created_at": "Sun Jan 19 01:13:39 +0000 2014", 
   "retweet_count": 9, 
   "favorite_count": 12
  }, 
  {
   "text": "GOAL!!! Hall puts the #Flyers up 3-2 with 16:15 remaining in the 2nd", 
   "label": "O", 
   "id": 424711180045660161, 
   "hashtags": [
    "Flyers"
   ], 
   "user_mentions": [], 
   "created_at": "Sun Jan 19 01:13:30 +0000 2014", 
   "retweet_count": 80, 
   "favorite_count": 95
  }, 
  {
   "text": "Puck is dropped and the 2nd period is underway", 
   "label": "O", 
   "id": 424709538176978944, 
   "hashtags": [], 
   "user_mentions": [], 
   "created_at": "Sun Jan 19 01:06:59 +0000 2014", 
   "retweet_count": 20, 
   "favorite_count": 20
  }, 
  {
   "text": "#Flyers are back out &amp; ready to go for the second frame...", 
   "label": "O", 
   "id": 424709097259155456, 
   "hashtags": [
    "Flyers"
   ], 
   "user_mentions": [], 
   "created_at": "Sun Jan 19 01:05:14 +0000 2014", 
   "retweet_count": 23, 
   "favorite_count": 25
  }, 
  {
   "text": "#AndrejTheGiant http://t.co/xARNonn1pd", 
   "label": "O", 
   "id": 424705289137299457, 
   "hashtags": [
    "AndrejTheGiant"
   ], 
   "user_mentions": [], 
   "created_at": "Sun Jan 19 00:50:06 +0000 2014", 
   "retweet_count": 195, 
   "favorite_count": 195
  }, 
  {
   "text": "END OF 1: 2-2, thanks to TWO goals from Meszaros. NYI leads shots, 12-8", 
   "label": "O", 
   "id": 424704845447053313, 
   "hashtags": [], 
   "user_mentions": [], 
   "created_at": "Sun Jan 19 00:48:20 +0000 2014", 
   "retweet_count": 55, 
   "favorite_count": 54
  }, 
  {
   "text": "Hartnell and Simmonds grab the assists", 
   "label": "O", 
   "id": 424704488042033152, 
   "hashtags": [], 
   "user_mentions": [], 
   "created_at": "Sun Jan 19 00:46:55 +0000 2014", 
   "retweet_count": 28, 
   "favorite_count": 58
  }, 
  {
   "text": "GOAL!!!! Meszaros with his 2nd! 2-2 with 1:22 left in the 1st. #AndrejTheGiant", 
   "label": "O", 
   "id": 424704313256972288, 
   "hashtags": [
    "AndrejTheGiant"
   ], 
   "user_mentions": [], 
   "created_at": "Sun Jan 19 00:46:13 +0000 2014", 
   "retweet_count": 157, 
   "favorite_count": 141
  }, 
  {
   "text": "Rosehill with the takedown and a standing O from the WFC crowd", 
   "label": "O", 
   "id": 424702910325198848, 
   "hashtags": [], 
   "user_mentions": [], 
   "created_at": "Sun Jan 19 00:40:39 +0000 2014", 
   "retweet_count": 85, 
   "favorite_count": 95
  }, 
  {
   "text": "Rosehill and Boulton drop the gloves", 
   "label": "O", 
   "id": 424702716388986880, 
   "hashtags": [], 
   "user_mentions": [], 
   "created_at": "Sun Jan 19 00:39:52 +0000 2014", 
   "retweet_count": 46, 
   "favorite_count": 51
  }, 
  {
   "text": "GOAL!!! #Flyers get on the board thanks to Meszaros!  2-1 with 5:17 left in the 1st.", 
   "label": "O", 
   "id": 424701890207563776, 
   "hashtags": [
    "Flyers"
   ], 
   "user_mentions": [], 
   "created_at": "Sun Jan 19 00:36:35 +0000 2014", 
   "retweet_count": 101, 
   "favorite_count": 108
  }, 
  {
   "text": "Islanders with the shorthanded goal to put them up 2-0. 8:06 remaining in the 1st.", 
   "label": "O", 
   "id": 424700614967181312, 
   "hashtags": [], 
   "user_mentions": [], 
   "created_at": "Sun Jan 19 00:31:31 +0000 2014", 
   "retweet_count": 13, 
   "favorite_count": 6
  }, 
  {
   "text": "Islanders open scoring with a goal from Tavares. 1-0, with 12:17 remaining in the 1st.", 
   "label": "O", 
   "id": 424698261568368642, 
   "hashtags": [], 
   "user_mentions": [], 
   "created_at": "Sun Jan 19 00:22:10 +0000 2014", 
   "retweet_count": 13, 
   "favorite_count": 6
  }, 
  {
   "text": "Puck is dropped and we're underway! #GameOn", 
   "label": "O", 
   "id": 424694877255790592, 
   "hashtags": [
    "GameOn"
   ], 
   "user_mentions": [], 
   "created_at": "Sun Jan 19 00:08:43 +0000 2014", 
   "retweet_count": 61, 
   "favorite_count": 62
  }, 
  {
   "text": "@six_pack_GABs #Priorities", 
   "label": "O", 
   "id": 424694726420217856, 
   "hashtags": [
    "Priorities"
   ], 
   "user_mentions": [
    "six_pack_GABs"
   ], 
   "created_at": "Sun Jan 19 00:08:07 +0000 2014", 
   "retweet_count": 1, 
   "favorite_count": 5
  }, 
  {
   "text": "Tonight anthemist Lauren Hart is being escorted to the ice by US Army Command Sergeant Major Martin Wolfe from New London, PA. #ThankYou", 
   "label": "O", 
   "id": 424694189075361792, 
   "hashtags": [
    "ThankYou"
   ], 
   "user_mentions": [], 
   "created_at": "Sun Jan 19 00:05:59 +0000 2014", 
   "retweet_count": 23, 
   "favorite_count": 34
  }, 
  {
   "text": "Your #Flyers starters: Grossmann, Raffl, Giroux, Streit, Voracek, and Mason.", 
   "label": "O", 
   "id": 424692011904421888, 
   "hashtags": [
    "Flyers"
   ], 
   "user_mentions": [], 
   "created_at": "Sat Jan 18 23:57:20 +0000 2014", 
   "retweet_count": 61, 
   "favorite_count": 76
  }, 
  {
   "text": "\"Allow me to reintroduce myself...\"\n\nWarm-ups are underway at @WellsFargoCtr. 30 minutes to go!", 
   "label": "O", 
   "id": 424685070981419009, 
   "hashtags": [], 
   "user_mentions": [
    "WellsFargoCtr"
   ], 
   "created_at": "Sat Jan 18 23:29:45 +0000 2014", 
   "retweet_count": 35, 
   "favorite_count": 59
  }, 
  {
   "text": "#Flyers GM Paul Holmgren addressed the media today regarding Steve Mason's contract extension. WATCH: http://t.co/AQ3TANCfGm", 
   "label": "O", 
   "id": 424684070568595456, 
   "hashtags": [
    "Flyers"
   ], 
   "user_mentions": [], 
   "created_at": "Sat Jan 18 23:25:47 +0000 2014", 
   "retweet_count": 17, 
   "favorite_count": 9
  }, 
  {
   "text": "Less than an hour to go until puck drop here at @WellsFargoCtr! Catch the game on TCN or @933WMMR http://t.co/4BDtnoqM6J", 
   "label": "O", 
   "id": 424680068929953792, 
   "hashtags": [], 
   "user_mentions": [
    "WellsFargoCtr", 
    "933WMMR"
   ], 
   "created_at": "Sat Jan 18 23:09:53 +0000 2014", 
   "retweet_count": 36, 
   "favorite_count": 65
  }, 
  {
   "text": "In honor of his contract extension, here's a look at tonight's starting goaltender by the numbers... http://t.co/1Qnl3pF157", 
   "label": "O", 
   "id": 424671459080818689, 
   "hashtags": [], 
   "user_mentions": [], 
   "created_at": "Sat Jan 18 22:35:40 +0000 2014", 
   "retweet_count": 178, 
   "favorite_count": 154
  }, 
  {
   "text": "@dhuber08 Happy birthday to the smartest kid we know!", 
   "label": "O", 
   "id": 424637870251315200, 
   "hashtags": [], 
   "user_mentions": [
    "dhuber08"
   ], 
   "created_at": "Sat Jan 18 20:22:12 +0000 2014", 
   "retweet_count": 0, 
   "favorite_count": 1
  }, 
  {
   "text": "Tim Saunders &amp; @InsideTheFlyers talk tonight's Flyers-Islanders game in the PowerBack Rehabilitation Preview. WATCH: http://t.co/pIjl61IIWP", 
   "label": "O", 
   "id": 424625063875211264, 
   "hashtags": [], 
   "user_mentions": [
    "InsideTheFlyers"
   ], 
   "created_at": "Sat Jan 18 19:31:19 +0000 2014", 
   "retweet_count": 10, 
   "favorite_count": 7
  }, 
  {
   "text": "Tonight's starting goaltender is... http://t.co/T7cG6iBmuR", 
   "label": "O", 
   "id": 424614620452892672, 
   "hashtags": [], 
   "user_mentions": [], 
   "created_at": "Sat Jan 18 18:49:49 +0000 2014", 
   "retweet_count": 45, 
   "favorite_count": 51
  }, 
  {
   "text": "BREAKING NEWS: The #Flyers have signed goaltender Steve Mason to a multi-year contract extension. MORE: http://t.co/K0xB0rXQ3g", 
   "label": "O", 
   "id": 424596089606385666, 
   "hashtags": [
    "Flyers"
   ], 
   "user_mentions": [], 
   "created_at": "Sat Jan 18 17:36:11 +0000 2014", 
   "retweet_count": 498, 
   "favorite_count": 316
  }, 
  {
   "text": "As the #Flyers prepare to open a home-and-home series vs. the Islanders tonight, get ready with today's 5 things: http://t.co/CNxc1qKi6e", 
   "label": "O", 
   "id": 424589440955465728, 
   "hashtags": [
    "Flyers"
   ], 
   "user_mentions": [], 
   "created_at": "Sat Jan 18 17:09:45 +0000 2014", 
   "retweet_count": 24, 
   "favorite_count": 26
  }
 ]
}