{
 "num_road_team_goals": "4", 
 "home_team": "Pittsburgh Penguins", 
 "num_home_team_goals": "3", 
 "summary_url": "http://www.flyershistory.com/cgi-bin/poboxscore.cgi?H20131019", 
 "result": "W", 
 "road_team": "Philadelphia Flyers", 
 "date": "2014-03-16", 
 "goals": [
  {
   "season_index": "17", 
   "strength": "(EV)", 
   "time": "2:06", 
   "period": "1", 
   "player": "Brayden Schenn", 
   "assists": "(Wayne Simmonds, Vincent Lecavalier)", 
   "game_index": "1", 
   "team": "PHI"
  }, 
  {
   "season_index": "20", 
   "strength": "(PP)", 
   "time": "6:47", 
   "period": "1", 
   "player": "Wayne Simmonds", 
   "assists": "(Kimmo Timonen, Claude Giroux)", 
   "game_index": "2", 
   "team": "PHI"
  }, 
  {
   "season_index": "21", 
   "strength": "(PP)", 
   "time": "13:41", 
   "period": "1", 
   "player": "Wayne Simmonds", 
   "assists": "(Claude Giroux, Jakub Voracek)", 
   "game_index": "3", 
   "team": "PHI"
  }, 
  {
   "season_index": "2", 
   "strength": "(EV)", 
   "time": "17:33", 
   "period": "1", 
   "player": "B.Orpik", 
   "assists": "(R.Bortuzzo, J.Vitale)", 
   "game_index": "4", 
   "team": "PIT"
  }, 
  {
   "season_index": "10", 
   "strength": "(EV)", 
   "time": "5:50", 
   "period": "2", 
   "player": "M.Niskanen", 
   "assists": "(R.Scuderi, J.Jokinen)", 
   "game_index": "5", 
   "team": "PIT"
  }, 
  {
   "season_index": "19", 
   "strength": "(SH)", 
   "time": "12:11", 
   "period": "2", 
   "player": "Matt Read", 
   "assists": "(Luke Schenn)", 
   "game_index": "6", 
   "team": "PHI"
  }, 
  {
   "season_index": "5", 
   "strength": "(EV)", 
   "time": "16:19", 
   "period": "2", 
   "player": "J.Megna", 
   "assists": "(B.Gibbons)", 
   "game_index": "7", 
   "team": "PIT"
  }
 ], 
 "tweets": [
  {
   "text": "Sean Couturier talks about shutting down the Pens offense to win the weekend series. WATCH HERE\u2026 http://t.co/7aLaaATE7n #Flyers", 
   "label": "O", 
   "id": 445307731797606400, 
   "hashtags": [
    "Flyers"
   ], 
   "user_mentions": [], 
   "created_at": "Sun Mar 16 21:16:51 +0000 2014", 
   "retweet_count": 37, 
   "favorite_count": 63
  }, 
  {
   "text": "Break out the brooms: #Flyers complete the weekend sweep of the Pens with today's 4-3 win. http://t.co/sFfZJnejlP http://t.co/1tXYw3O5mg", 
   "label": "O", 
   "id": 445285837300064256, 
   "hashtags": [
    "Flyers"
   ], 
   "user_mentions": [], 
   "created_at": "Sun Mar 16 19:49:51 +0000 2014", 
   "retweet_count": 346, 
   "favorite_count": 313
  }, 
  {
   "text": "Flyers WIN! 4-3 over the Penguins #ClutchTime http://t.co/9Z4oitHYA3", 
   "label": "O", 
   "id": 445272647237001216, 
   "hashtags": [
    "ClutchTime"
   ], 
   "user_mentions": [], 
   "created_at": "Sun Mar 16 18:57:26 +0000 2014", 
   "retweet_count": 1018, 
   "favorite_count": 703
  }, 
  {
   "text": "empty net for Pens... under 1 minute to go. #Flyers", 
   "label": "O", 
   "id": 445270880663650305, 
   "hashtags": [
    "Flyers"
   ], 
   "user_mentions": [], 
   "created_at": "Sun Mar 16 18:50:25 +0000 2014", 
   "retweet_count": 38, 
   "favorite_count": 69
  }, 
  {
   "text": "HIGHLIGHT: #Flyers @Simmonds17 scores a pair of goals in the 1st period vs. Pens. Watch both here\u2026 http://t.co/ou2l2iXSwL", 
   "label": "O", 
   "id": 445263381180985344, 
   "hashtags": [
    "Flyers"
   ], 
   "user_mentions": [
    "Simmonds17"
   ], 
   "created_at": "Sun Mar 16 18:20:37 +0000 2014", 
   "retweet_count": 29, 
   "favorite_count": 42
  }, 
  {
   "text": "2nd Intermission Update: #Flyers 4 - #Penguins 3.  Watch on @NBC or live stream: http://t.co/o6WZT5Req3 #ClutchTime http://t.co/6mXwLWc2cK", 
   "label": "O", 
   "id": 445260378599989248, 
   "hashtags": [
    "Flyers", 
    "Penguins", 
    "ClutchTime"
   ], 
   "user_mentions": [
    "nbc"
   ], 
   "created_at": "Sun Mar 16 18:08:41 +0000 2014", 
   "retweet_count": 68, 
   "favorite_count": 84
  }, 
  {
   "text": "End of 2: #Flyers lead #Pens, 4-3, and in shots, 24-12", 
   "label": "O", 
   "id": 445259147911905280, 
   "hashtags": [
    "Flyers", 
    "Pens"
   ], 
   "user_mentions": [], 
   "created_at": "Sun Mar 16 18:03:48 +0000 2014", 
   "retweet_count": 71, 
   "favorite_count": 62
  }, 
  {
   "text": "Pens score on a 2 on 1 to get within 1. 4-3 #Flyers lead with 3:41 left in the 2nd", 
   "label": "O", 
   "id": 445257803775873024, 
   "hashtags": [
    "Flyers"
   ], 
   "user_mentions": [], 
   "created_at": "Sun Mar 16 17:58:27 +0000 2014", 
   "retweet_count": 19, 
   "favorite_count": 20
  }, 
  {
   "text": "GOAL!! Matt Read with a shorthanded goal to make it 4-2 #Flyers", 
   "label": "O", 
   "id": 445255806536413184, 
   "hashtags": [
    "Flyers"
   ], 
   "user_mentions": [], 
   "created_at": "Sun Mar 16 17:50:31 +0000 2014", 
   "retweet_count": 237, 
   "favorite_count": 297
  }, 
  {
   "text": "Pens get another one. 3-2 #Flyers lead with 14:10 left in the 2nd", 
   "label": "O", 
   "id": 445252191423848448, 
   "hashtags": [
    "Flyers"
   ], 
   "user_mentions": [], 
   "created_at": "Sun Mar 16 17:36:09 +0000 2014", 
   "retweet_count": 19, 
   "favorite_count": 36
  }, 
  {
   "text": "underway in the 2nd period. Pens on the power play #Flyers", 
   "label": "O", 
   "id": 445250393006940160, 
   "hashtags": [
    "Flyers"
   ], 
   "user_mentions": [], 
   "created_at": "Sun Mar 16 17:29:00 +0000 2014", 
   "retweet_count": 21, 
   "favorite_count": 27
  }, 
  {
   "text": "1st Intermission Update: #Flyers 3 - #Penguins 1. \nWatch on @NBC or live stream: http://t.co/o6WZT5Req3 http://t.co/uBfr6UN6Qa", 
   "label": "O", 
   "id": 445247757901512704, 
   "hashtags": [
    "Flyers", 
    "Penguins"
   ], 
   "user_mentions": [
    "nbc"
   ], 
   "created_at": "Sun Mar 16 17:18:32 +0000 2014", 
   "retweet_count": 88, 
   "favorite_count": 122
  }, 
  {
   "text": "Congratulations to @28CGiroux, who today is playing in his 400th @NHL game! http://t.co/1tiroBgKIC", 
   "label": "O", 
   "id": 445247188445462528, 
   "hashtags": [], 
   "user_mentions": [
    "28CGiroux", 
    "NHL"
   ], 
   "created_at": "Sun Mar 16 17:16:16 +0000 2014", 
   "retweet_count": 171, 
   "favorite_count": 192
  }, 
  {
   "text": "End of 1: #Flyers lead #Pens, 3-1, and in shots, 15-7", 
   "label": "O", 
   "id": 445245794506252288, 
   "hashtags": [
    "Flyers", 
    "Pens"
   ], 
   "user_mentions": [], 
   "created_at": "Sun Mar 16 17:10:44 +0000 2014", 
   "retweet_count": 102, 
   "favorite_count": 84
  }, 
  {
   "text": "Pens score to get one back. 2:27 left in the 1st #Flyers lead 3-1", 
   "label": "O", 
   "id": 445244862116659200, 
   "hashtags": [
    "Flyers"
   ], 
   "user_mentions": [], 
   "created_at": "Sun Mar 16 17:07:02 +0000 2014", 
   "retweet_count": 33, 
   "favorite_count": 40
  }, 
  {
   "text": "Giroux &amp; Voracek with the assists. Fleury out, Zatkoff in net for Pens now #Flyers", 
   "label": "O", 
   "id": 445243618576850944, 
   "hashtags": [
    "Flyers"
   ], 
   "user_mentions": [], 
   "created_at": "Sun Mar 16 17:02:05 +0000 2014", 
   "retweet_count": 79, 
   "favorite_count": 118
  }, 
  {
   "text": "GOAL!!! Wayne Simmonds with his 2nd of the game and it's 3-0 #Flyers #ClutchTime", 
   "label": "O", 
   "id": 445242822753800192, 
   "hashtags": [
    "Flyers", 
    "ClutchTime"
   ], 
   "user_mentions": [], 
   "created_at": "Sun Mar 16 16:58:55 +0000 2014", 
   "retweet_count": 386, 
   "favorite_count": 341
  }, 
  {
   "text": "Simmonds gets his 20th goal of the season. Timonen &amp; Giroux with the assists #Flyers", 
   "label": "O", 
   "id": 445239606515367936, 
   "hashtags": [
    "Flyers"
   ], 
   "user_mentions": [], 
   "created_at": "Sun Mar 16 16:46:09 +0000 2014", 
   "retweet_count": 123, 
   "favorite_count": 185
  }, 
  {
   "text": "GOAL!!!! #Flyers score on the power play to take a 2-0 lead!", 
   "label": "O", 
   "id": 445238878304481280, 
   "hashtags": [
    "Flyers"
   ], 
   "user_mentions": [], 
   "created_at": "Sun Mar 16 16:43:15 +0000 2014", 
   "retweet_count": 401, 
   "favorite_count": 329
  }, 
  {
   "text": "Brayden Schenn with the tally. Simmonds &amp; Lecavalier with the helpers #Flyers", 
   "label": "O", 
   "id": 445237338898444288, 
   "hashtags": [
    "Flyers"
   ], 
   "user_mentions": [], 
   "created_at": "Sun Mar 16 16:37:08 +0000 2014", 
   "retweet_count": 123, 
   "favorite_count": 146
  }, 
  {
   "text": "GOAL!! #Flyers open up the scoring to take a 1-0 lead!", 
   "label": "O", 
   "id": 445237042306625536, 
   "hashtags": [
    "Flyers"
   ], 
   "user_mentions": [], 
   "created_at": "Sun Mar 16 16:35:57 +0000 2014", 
   "retweet_count": 322, 
   "favorite_count": 312
  }, 
  {
   "text": "puck drop and we're underway #Flyers #Pens #ClutchTime", 
   "label": "O", 
   "id": 445236491724521472, 
   "hashtags": [
    "Flyers", 
    "Pens", 
    "ClutchTime"
   ], 
   "user_mentions": [], 
   "created_at": "Sun Mar 16 16:33:46 +0000 2014", 
   "retweet_count": 66, 
   "favorite_count": 88
  }, 
  {
   "text": "#Flyers starters in Pittsburgh: Coburn-Timonen on D with Voracek-Giroux-Hartnell up front &amp; Mason in net!", 
   "label": "O", 
   "id": 445233902886854657, 
   "hashtags": [
    "Flyers"
   ], 
   "user_mentions": [], 
   "created_at": "Sun Mar 16 16:23:29 +0000 2014", 
   "retweet_count": 73, 
   "favorite_count": 87
  }, 
  {
   "text": "#Flyers vs #Penguins at 12:30pm. \nWatch Live on NBC &amp; Online: http://t.co/o6WZT5Req3 \nListen Live: @975TheFanatic http://t.co/qQ8kxnDS5H", 
   "label": "O", 
   "id": 445229187008176128, 
   "hashtags": [
    "Flyers", 
    "Penguins"
   ], 
   "user_mentions": [
    "975TheFanatic"
   ], 
   "created_at": "Sun Mar 16 16:04:44 +0000 2014", 
   "retweet_count": 73, 
   "favorite_count": 83
  }, 
  {
   "text": "A win yesterday = 50% off http://t.co/9kXhbIa39Z  today! Promo code FLYERS *Participating PA/NJ/DE stores @PapaJohns http://t.co/UDRUAWnk4W", 
   "label": "O", 
   "id": 445215605113643008, 
   "hashtags": [], 
   "user_mentions": [
    "PapaJohns"
   ], 
   "created_at": "Sun Mar 16 15:10:46 +0000 2014", 
   "retweet_count": 27, 
   "favorite_count": 82
  }, 
  {
   "text": "The series shifts to Pittsburgh as the #Flyers look to sweep the Penguins. Get ready: http://t.co/v8WZQulTK0 http://t.co/lGjnmuRlw8", 
   "label": "O", 
   "id": 445193266359595009, 
   "hashtags": [
    "Flyers"
   ], 
   "user_mentions": [], 
   "created_at": "Sun Mar 16 13:42:00 +0000 2014", 
   "retweet_count": 100, 
   "favorite_count": 121
  }
 ]
}