{
 "num_road_team_goals": "1", 
 "home_team": "Philadelphia Flyers", 
 "num_home_team_goals": "4", 
 "summary_url": "http://www.flyershistory.com/cgi-bin/poboxscore.cgi?H20130560", 
 "result": "W", 
 "road_team": "Minnesota Wild", 
 "date": "2013-12-23", 
 "goals": [
  {
   "season_index": "3", 
   "strength": "(EV)", 
   "time": "1:52", 
   "period": "1", 
   "player": "Luke Schenn", 
   "assists": "(Scott Hartnell, Wayne Simmonds)", 
   "game_index": "1", 
   "team": "PHI"
  }, 
  {
   "season_index": "9", 
   "strength": "(PP)", 
   "time": "10:51", 
   "period": "1", 
   "player": "Wayne Simmonds", 
   "assists": "(Jakub Voracek, Claude Giroux)", 
   "game_index": "2", 
   "team": "PHI"
  }, 
  {
   "season_index": "3", 
   "strength": "(PP)", 
   "time": "16:43", 
   "period": "1", 
   "player": "M.Granlund", 
   "assists": "(J.Pominville, R.Suter)", 
   "game_index": "3", 
   "team": "MIN"
  }, 
  {
   "season_index": "10", 
   "strength": "(EV)", 
   "time": "7:46", 
   "period": "2", 
   "player": "Claude Giroux", 
   "assists": "(Braydon Coburn, Jakub Voracek)", 
   "game_index": "4", 
   "team": "PHI"
  }, 
  {
   "season_index": "10", 
   "strength": "(EV-EN)", 
   "time": "19:03", 
   "period": "3", 
   "player": "Wayne Simmonds", 
   "assists": "(Brayden Schenn, Nicklas Grossmann)", 
   "game_index": "5", 
   "team": "PHI"
  }
 ], 
 "tweets": [
  {
   "text": "Congratulations to @Hartsy19 on his 500th career point! http://t.co/8BHCqBrNhQ", 
   "label": "O", 
   "id": 415339744294608897, 
   "hashtags": [], 
   "user_mentions": [
    "Hartsy19"
   ], 
   "created_at": "Tue Dec 24 04:34:46 +0000 2013", 
   "retweet_count": 107, 
   "favorite_count": 122
  }, 
  {
   "text": "The next #Flyers practice is scheduled for Friday at 9am at Voorhees, NJ.", 
   "label": "O", 
   "id": 415336398691237888, 
   "hashtags": [
    "Flyers"
   ], 
   "user_mentions": [], 
   "created_at": "Tue Dec 24 04:21:28 +0000 2013", 
   "retweet_count": 26, 
   "favorite_count": 55
  }, 
  {
   "text": "#Flyers win 4-1! Good night and good hockey!", 
   "label": "O", 
   "id": 415315835326976000, 
   "hashtags": [
    "Flyers"
   ], 
   "user_mentions": [], 
   "created_at": "Tue Dec 24 02:59:45 +0000 2013", 
   "retweet_count": 612, 
   "favorite_count": 298
  }, 
  {
   "text": "GOAL!!!!! Simmonds with the empty-net exclamation point! #MrTrain", 
   "label": "O", 
   "id": 415315530136817664, 
   "hashtags": [
    "MrTrain"
   ], 
   "user_mentions": [], 
   "created_at": "Tue Dec 24 02:58:33 +0000 2013", 
   "retweet_count": 132, 
   "favorite_count": 142
  }, 
  {
   "text": "Wild pull Backstrom. Empty net...", 
   "label": "O", 
   "id": 415315364835102720, 
   "hashtags": [], 
   "user_mentions": [], 
   "created_at": "Tue Dec 24 02:57:53 +0000 2013", 
   "retweet_count": 8, 
   "favorite_count": 20
  }, 
  {
   "text": "B. Schenn goes head over heels into the Minnesota bench, but comes up unscathed. 3:03 to play", 
   "label": "O", 
   "id": 415314790316142594, 
   "hashtags": [], 
   "user_mentions": [], 
   "created_at": "Tue Dec 24 02:55:36 +0000 2013", 
   "retweet_count": 39, 
   "favorite_count": 69
  }, 
  {
   "text": "With 5 minutes to play, #Flyers maintain their 3-1 lead over the Wild. Also lead shots 28-27.", 
   "label": "O", 
   "id": 415313568347615232, 
   "hashtags": [
    "Flyers"
   ], 
   "user_mentions": [], 
   "created_at": "Tue Dec 24 02:50:45 +0000 2013", 
   "retweet_count": 30, 
   "favorite_count": 25
  }, 
  {
   "text": "#Flyers kill the penalty and are now on the power play", 
   "label": "O", 
   "id": 415310005097598976, 
   "hashtags": [
    "Flyers"
   ], 
   "user_mentions": [], 
   "created_at": "Tue Dec 24 02:36:35 +0000 2013", 
   "retweet_count": 13, 
   "favorite_count": 14
  }, 
  {
   "text": "2-min minor on Scandella for hooking with 14:28 to play. 4-on-4 for 18 seconds", 
   "label": "O", 
   "id": 415309878559637504, 
   "hashtags": [], 
   "user_mentions": [], 
   "created_at": "Tue Dec 24 02:36:05 +0000 2013", 
   "retweet_count": 6, 
   "favorite_count": 8
  }, 
  {
   "text": "Interference call on Hall with 16:10 to play. Wild PP coming up", 
   "label": "O", 
   "id": 415309228748726272, 
   "hashtags": [], 
   "user_mentions": [], 
   "created_at": "Tue Dec 24 02:33:30 +0000 2013", 
   "retweet_count": 4, 
   "favorite_count": 3
  }, 
  {
   "text": "#Flyers back out on the ice for the final 20 minutes, leading Minnesota 3-1...", 
   "label": "O", 
   "id": 415307787061587970, 
   "hashtags": [
    "Flyers"
   ], 
   "user_mentions": [], 
   "created_at": "Tue Dec 24 02:27:47 +0000 2013", 
   "retweet_count": 21, 
   "favorite_count": 16
  }, 
  {
   "text": "END OF 2: #Flyers lead #Wild 3-1 thanks to a goal from Giroux. Shots even at 19 apiece.", 
   "label": "O", 
   "id": 415303221356142592, 
   "hashtags": [
    "Flyers", 
    "Wild"
   ], 
   "user_mentions": [], 
   "created_at": "Tue Dec 24 02:09:38 +0000 2013", 
   "retweet_count": 45, 
   "favorite_count": 46
  }, 
  {
   "text": "Voracek gets called for hooking with 27.8 left on the clock in the 2nd.", 
   "label": "O", 
   "id": 415303080012300288, 
   "hashtags": [], 
   "user_mentions": [], 
   "created_at": "Tue Dec 24 02:09:04 +0000 2013", 
   "retweet_count": 11, 
   "favorite_count": 8
  }, 
  {
   "text": "Heatley gets called for holding. #Flyers back on the power play with 10:23 to go in the 2nd!", 
   "label": "O", 
   "id": 415298549769719808, 
   "hashtags": [
    "Flyers"
   ], 
   "user_mentions": [], 
   "created_at": "Tue Dec 24 01:51:04 +0000 2013", 
   "retweet_count": 13, 
   "favorite_count": 12
  }, 
  {
   "text": "Coburn and Voracek with the assists", 
   "label": "O", 
   "id": 415298027515936768, 
   "hashtags": [], 
   "user_mentions": [], 
   "created_at": "Tue Dec 24 01:49:00 +0000 2013", 
   "retweet_count": 23, 
   "favorite_count": 34
  }, 
  {
   "text": "Giroux with the goal!!!! #ROOOOOOOOO", 
   "label": "O", 
   "id": 415297981349257216, 
   "hashtags": [
    "ROOOOOOOOO"
   ], 
   "user_mentions": [], 
   "created_at": "Tue Dec 24 01:48:49 +0000 2013", 
   "retweet_count": 198, 
   "favorite_count": 157
  }, 
  {
   "text": "Looks like it might have been tipped in by Giroux...", 
   "label": "O", 
   "id": 415297903779786752, 
   "hashtags": [], 
   "user_mentions": [], 
   "created_at": "Tue Dec 24 01:48:30 +0000 2013", 
   "retweet_count": 24, 
   "favorite_count": 35
  }, 
  {
   "text": "GOAL!!!! Coburn makes it 3-1 #Flyers with 12:14 to play in the 2nd!", 
   "label": "O", 
   "id": 415297746602844160, 
   "hashtags": [
    "Flyers"
   ], 
   "user_mentions": [], 
   "created_at": "Tue Dec 24 01:47:53 +0000 2013", 
   "retweet_count": 82, 
   "favorite_count": 74
  }, 
  {
   "text": "Tonight's @VirtuaHealth Community Teammate is Army Ranger Nick Wheeler, who just returned home from a year-long tour of duty in Afghanistan!", 
   "label": "O", 
   "id": 415297416565256192, 
   "hashtags": [], 
   "user_mentions": [
    "VirtuaHealth"
   ], 
   "created_at": "Tue Dec 24 01:46:34 +0000 2013", 
   "retweet_count": 11, 
   "favorite_count": 18
  }, 
  {
   "text": "RT @NHL: With an assist on @NHLFlyers second goal, @28CGiroux has extended his point streak to a career-high 7 games. Watch MIN vs PHI on N\u2026", 
   "label": "O", 
   "id": 415296726711296000, 
   "hashtags": [], 
   "user_mentions": [
    "NHL", 
    "NHLFlyers", 
    "28CGiroux"
   ], 
   "created_at": "Tue Dec 24 01:43:50 +0000 2013", 
   "retweet_count": 51, 
   "favorite_count": 0
  }, 
  {
   "text": "Prosser heads to the box for delay of game. 15:15 lef tin the 2nd as the #Flyers go on the powerplay", 
   "label": "O", 
   "id": 415296341703536640, 
   "hashtags": [
    "Flyers"
   ], 
   "user_mentions": [], 
   "created_at": "Tue Dec 24 01:42:18 +0000 2013", 
   "retweet_count": 3, 
   "favorite_count": 9
  }, 
  {
   "text": "#Flyers begin the period on the penalty kill as Simmonds took a 2-min minor for roughing at the end of the 1st.", 
   "label": "O", 
   "id": 415294867938353152, 
   "hashtags": [
    "Flyers"
   ], 
   "user_mentions": [], 
   "created_at": "Tue Dec 24 01:36:26 +0000 2013", 
   "retweet_count": 2, 
   "favorite_count": 20
  }, 
  {
   "text": "#Flyers back out on the ice for the second frame...", 
   "label": "O", 
   "id": 415294509333770241, 
   "hashtags": [
    "Flyers"
   ], 
   "user_mentions": [], 
   "created_at": "Tue Dec 24 01:35:01 +0000 2013", 
   "retweet_count": 12, 
   "favorite_count": 17
  }, 
  {
   "text": "RT @InsideTheFlyers: Simmonds will get a roughing minor and that's it. #Flyers will be shorthanded to start the second period.", 
   "label": "O", 
   "id": 415291034600357888, 
   "hashtags": [
    "Flyers"
   ], 
   "user_mentions": [
    "InsideTheFlyers"
   ], 
   "created_at": "Tue Dec 24 01:21:13 +0000 2013", 
   "retweet_count": 11, 
   "favorite_count": 0
  }, 
  {
   "text": "Captains talk it over with the officials before heading down the tunnel. Stay tuned for penalties to start the 2nd.", 
   "label": "O", 
   "id": 415290561105387520, 
   "hashtags": [], 
   "user_mentions": [], 
   "created_at": "Tue Dec 24 01:19:20 +0000 2013", 
   "retweet_count": 11, 
   "favorite_count": 13
  }, 
  {
   "text": "Hartnell and Scandella wrap up the period with a scrum on the near side. B. Schenn and Pominville also involved.", 
   "label": "O", 
   "id": 415290387092107264, 
   "hashtags": [], 
   "user_mentions": [], 
   "created_at": "Tue Dec 24 01:18:38 +0000 2013", 
   "retweet_count": 19, 
   "favorite_count": 25
  }, 
  {
   "text": "END OF 1: #Flyers lead 2-1, with the Wild leading shots on goal 11-5. Philly goals from Luke Schenn and Wayne Simmonds.", 
   "label": "O", 
   "id": 415290104618307584, 
   "hashtags": [
    "Flyers"
   ], 
   "user_mentions": [], 
   "created_at": "Tue Dec 24 01:17:31 +0000 2013", 
   "retweet_count": 36, 
   "favorite_count": 27
  }, 
  {
   "text": "Back to even strength", 
   "label": "O", 
   "id": 415289279040876544, 
   "hashtags": [], 
   "user_mentions": [], 
   "created_at": "Tue Dec 24 01:14:14 +0000 2013", 
   "retweet_count": 7, 
   "favorite_count": 5
  }, 
  {
   "text": "Wild cut the #Flyers lead to 1 on the 5-on-3 man advantage. 3:17 remaining in the 1st. 2-1 PHI", 
   "label": "O", 
   "id": 415289157376696320, 
   "hashtags": [
    "Flyers"
   ], 
   "user_mentions": [], 
   "created_at": "Tue Dec 24 01:13:45 +0000 2013", 
   "retweet_count": 12, 
   "favorite_count": 6
  }, 
  {
   "text": "Now Coburn called for crosschecking with 4:48 to play. 5-on-3 hockey for 1:40...", 
   "label": "O", 
   "id": 415288550016294912, 
   "hashtags": [], 
   "user_mentions": [], 
   "created_at": "Tue Dec 24 01:11:20 +0000 2013", 
   "retweet_count": 5, 
   "favorite_count": 3
  }, 
  {
   "text": "B. Schenn gets called for slashing with 5:08 to play in the 1st.", 
   "label": "O", 
   "id": 415288259724312576, 
   "hashtags": [], 
   "user_mentions": [], 
   "created_at": "Tue Dec 24 01:10:11 +0000 2013", 
   "retweet_count": 10, 
   "favorite_count": 14
  }, 
  {
   "text": "#Flyers welcome home USMC Sgt. Matthew Fields; US Army Capt. Andrew EcElravy; &amp; US Naval Air 2nd Class Petty Officer Alyssa McCullough!", 
   "label": "O", 
   "id": 415288118435393537, 
   "hashtags": [
    "Flyers"
   ], 
   "user_mentions": [], 
   "created_at": "Tue Dec 24 01:09:37 +0000 2013", 
   "retweet_count": 14, 
   "favorite_count": 19
  }, 
  {
   "text": "@KylieMcGoldrick Congrats! Sounds like a keeper", 
   "label": "O", 
   "id": 415286478294380544, 
   "hashtags": [], 
   "user_mentions": [
    "KylieMcGoldrick"
   ], 
   "created_at": "Tue Dec 24 01:03:06 +0000 2013", 
   "retweet_count": 7, 
   "favorite_count": 13
  }, 
  {
   "text": "@InsideTheFlyers Tic-tac-toe also happens to be a hockey term. #TheMoreYouKnow", 
   "label": "O", 
   "id": 415286127394713600, 
   "hashtags": [
    "TheMoreYouKnow"
   ], 
   "user_mentions": [
    "InsideTheFlyers"
   ], 
   "created_at": "Tue Dec 24 01:01:43 +0000 2013", 
   "retweet_count": 9, 
   "favorite_count": 6
  }, 
  {
   "text": "Textbook tic-tac-toe as Voracek and Giroux nab the assists.", 
   "label": "O", 
   "id": 415285708207575040, 
   "hashtags": [], 
   "user_mentions": [], 
   "created_at": "Tue Dec 24 01:00:03 +0000 2013", 
   "retweet_count": 44, 
   "favorite_count": 56
  }, 
  {
   "text": "GOAL!!!! Simmonds extends the #Flyers lead to 2-0 on the power play!", 
   "label": "O", 
   "id": 415285488455405568, 
   "hashtags": [
    "Flyers"
   ], 
   "user_mentions": [], 
   "created_at": "Tue Dec 24 00:59:10 +0000 2013", 
   "retweet_count": 176, 
   "favorite_count": 166
  }, 
  {
   "text": "Scandella takes a seat for intereference. 9:19 remains in the 1st as the #Flyers go on their first PP of the night.", 
   "label": "O", 
   "id": 415284990218219520, 
   "hashtags": [
    "Flyers"
   ], 
   "user_mentions": [], 
   "created_at": "Tue Dec 24 00:57:11 +0000 2013", 
   "retweet_count": 7, 
   "favorite_count": 11
  }, 
  {
   "text": "Midway through the 1st period, #Flyers lead the #Wild 1-0. MIN leads shots 6-3.", 
   "label": "O", 
   "id": 415284649850437632, 
   "hashtags": [
    "Flyers", 
    "Wild"
   ], 
   "user_mentions": [], 
   "created_at": "Tue Dec 24 00:55:50 +0000 2013", 
   "retweet_count": 8, 
   "favorite_count": 28
  }, 
  {
   "text": "Congrats to @Hartsy19, who tallied his 500th career point with that assist!", 
   "label": "O", 
   "id": 415282080096866304, 
   "hashtags": [], 
   "user_mentions": [
    "Hartsy19"
   ], 
   "created_at": "Tue Dec 24 00:45:38 +0000 2013", 
   "retweet_count": 198, 
   "favorite_count": 192
  }, 
  {
   "text": "Beauty of a one-timer from the elder Schenn. 18:08 to play in the first. Assists from Hartnell and Simmonds.", 
   "label": "O", 
   "id": 415281626927493120, 
   "hashtags": [], 
   "user_mentions": [], 
   "created_at": "Tue Dec 24 00:43:50 +0000 2013", 
   "retweet_count": 45, 
   "favorite_count": 46
  }, 
  {
   "text": "GOAL!!!!! Luke Schenn opens scoring to make it 1-0 #Flyers", 
   "label": "O", 
   "id": 415281350136971264, 
   "hashtags": [
    "Flyers"
   ], 
   "user_mentions": [], 
   "created_at": "Tue Dec 24 00:42:44 +0000 2013", 
   "retweet_count": 204, 
   "favorite_count": 209
  }, 
  {
   "text": "And we're underway here at @WellsFargoCtr! #GameOn", 
   "label": "O", 
   "id": 415280806727127040, 
   "hashtags": [
    "GameOn"
   ], 
   "user_mentions": [
    "WellsFargoCtr"
   ], 
   "created_at": "Tue Dec 24 00:40:34 +0000 2013", 
   "retweet_count": 25, 
   "favorite_count": 24
  }, 
  {
   "text": "Your #Flyers starters: Grossmann, Couturier, Read, Streit, Lecavalier, and Mason.", 
   "label": "O", 
   "id": 415279068787916800, 
   "hashtags": [
    "Flyers"
   ], 
   "user_mentions": [], 
   "created_at": "Tue Dec 24 00:33:40 +0000 2013", 
   "retweet_count": 50, 
   "favorite_count": 47
  }, 
  {
   "text": "Out of market? Follow along with @NBCSN on your TV or on the brand-new @LiveExtra online stream! Get it here: http://t.co/SBG5RblaNg", 
   "label": "O", 
   "id": 415263338663120896, 
   "hashtags": [], 
   "user_mentions": [
    "NBCSN", 
    "LiveExtra"
   ], 
   "created_at": "Mon Dec 23 23:31:09 +0000 2013", 
   "retweet_count": 6, 
   "favorite_count": 8
  }, 
  {
   "text": "Only an hour to go until puck drop! Catch the game live on @CSNPhilly or @975TheFanatic at 7:30pm. http://t.co/rmf2hsY65t", 
   "label": "O", 
   "id": 415263272447647745, 
   "hashtags": [], 
   "user_mentions": [
    "CSNPhilly", 
    "975TheFanatic"
   ], 
   "created_at": "Mon Dec 23 23:30:54 +0000 2013", 
   "retweet_count": 30, 
   "favorite_count": 42
  }, 
  {
   "text": "@right_wingflyer Unfortunately this does not include online merchandise, since that is through http://t.co/QDomwsTRm4.", 
   "label": "O", 
   "id": 415259690201669632, 
   "hashtags": [], 
   "user_mentions": [
    "right_wingflyer"
   ], 
   "created_at": "Mon Dec 23 23:16:39 +0000 2013", 
   "retweet_count": 0, 
   "favorite_count": 0
  }, 
  {
   "text": "@EddWright_ @WellsFargoCtr Yes!", 
   "label": "O", 
   "id": 415259507179020288, 
   "hashtags": [], 
   "user_mentions": [
    "EddWright_", 
    "WellsFargoCtr"
   ], 
   "created_at": "Mon Dec 23 23:15:56 +0000 2013", 
   "retweet_count": 0, 
   "favorite_count": 0
  }, 
  {
   "text": "If you're headed to tonight's game, don't forget: 30% off on all merchandise at @WellsFargoCtr! Last chance to shop before Christmas!", 
   "label": "O", 
   "id": 415238181043191808, 
   "hashtags": [], 
   "user_mentions": [
    "WellsFargoCtr"
   ], 
   "created_at": "Mon Dec 23 21:51:11 +0000 2013", 
   "retweet_count": 16, 
   "favorite_count": 24
  }, 
  {
   "text": "RT @InsideTheFlyers: Why a little less Giroux could mean a lot more for both him and the #Flyers: http://t.co/Fx3pcA5XB8 #NHL", 
   "label": "O", 
   "id": 415230154752151552, 
   "hashtags": [
    "Flyers", 
    "NHL"
   ], 
   "user_mentions": [
    "InsideTheFlyers"
   ], 
   "created_at": "Mon Dec 23 21:19:18 +0000 2013", 
   "retweet_count": 17, 
   "favorite_count": 0
  }, 
  {
   "text": "Tim Saunders &amp; @InsideTheFlyers talk tonight's Flyers-Wild game in the PowerBack Rehabilitation Preview. WATCH: http://t.co/9ErrfEJqg8", 
   "label": "O", 
   "id": 415209381949476864, 
   "hashtags": [], 
   "user_mentions": [
    "InsideTheFlyers"
   ], 
   "created_at": "Mon Dec 23 19:56:45 +0000 2013", 
   "retweet_count": 10, 
   "favorite_count": 5
  }, 
  {
   "text": "Andrej Meszaros spoke with reporters about his return to the lineup tonight. WATCH: http://t.co/n1teRNENf4 http://t.co/i0Biz9cQl5", 
   "label": "O", 
   "id": 415195927226220544, 
   "hashtags": [], 
   "user_mentions": [], 
   "created_at": "Mon Dec 23 19:03:17 +0000 2013", 
   "retweet_count": 17, 
   "favorite_count": 29
  }, 
  {
   "text": "RT @FlyersPublicist: Today is the FINAL day to shop at Fan Zone @WellsFargoCtr for Christmas! Fan Zone is open from 10am-6pm. Happy #Flyers\u2026", 
   "label": "O", 
   "id": 415167896852389888, 
   "hashtags": [
    "Flyers"
   ], 
   "user_mentions": [
    "FlyersPublicist", 
    "WellsFargoCtr"
   ], 
   "created_at": "Mon Dec 23 17:11:54 +0000 2013", 
   "retweet_count": 4, 
   "favorite_count": 0
  }, 
  {
   "text": "Tonight's starting goaltender is... http://t.co/zjYLbJ5d0X", 
   "label": "O", 
   "id": 415160660830351360, 
   "hashtags": [], 
   "user_mentions": [], 
   "created_at": "Mon Dec 23 16:43:09 +0000 2013", 
   "retweet_count": 50, 
   "favorite_count": 54
  }, 
  {
   "text": "Happy Festivus! We're celebrating with feats of strength tonight vs. the @mnwild. Get ready with today's 5 things: http://t.co/NLorl0utWQ", 
   "label": "O", 
   "id": 415133081939361792, 
   "hashtags": [], 
   "user_mentions": [
    "mnwild"
   ], 
   "created_at": "Mon Dec 23 14:53:34 +0000 2013", 
   "retweet_count": 76, 
   "favorite_count": 57
  }
 ]
}