{
 "num_road_team_goals": "2", 
 "home_team": "Philadelphia Flyers", 
 "num_home_team_goals": "1", 
 "summary_url": "http://www.flyershistory.com/cgi-bin/poboxscore.cgi?H20130977", 
 "result": "L", 
 "road_team": "New Jersey Devils", 
 "date": "2014-03-11", 
 "goals": [
  {
   "season_index": "12", 
   "strength": "(EV)", 
   "time": "7:56", 
   "period": "1", 
   "player": "T.Zajac", 
   "assists": "(J.Jagr, T.Ruutu)", 
   "game_index": "1", 
   "team": "N.J"
  }, 
  {
   "season_index": "1", 
   "strength": "(EV)", 
   "time": "0:47", 
   "period": "2", 
   "player": "Nicklas Grossmann", 
   "assists": "(Jakub Voracek, Claude Giroux)", 
   "game_index": "2", 
   "team": "PHI"
  }, 
  {
   "season_index": "21", 
   "strength": "(EV)", 
   "time": "7:42", 
   "period": "3", 
   "player": "J.Jagr", 
   "assists": "(M.Zidlicky, T.Ruutu)", 
   "game_index": "3", 
   "team": "N.J"
  }
 ], 
 "tweets": [
  {
   "text": "Devil in the Details: @InsideTheFlyers breaks down tonight's game vs. New Jersey. READ: http://t.co/PMaE5o6B9U http://t.co/yc1UwhEfBU", 
   "label": "O", 
   "id": 443584159877853185, 
   "hashtags": [], 
   "user_mentions": [
    "InsideTheFlyers"
   ], 
   "created_at": "Wed Mar 12 03:07:59 +0000 2014", 
   "retweet_count": 20, 
   "favorite_count": 28
  }, 
  {
   "text": ".@Hartsy19 reacts to the 'no goal' call after the Flyers 2-1 loss vs. New Jersey. WATCH: http://t.co/Pf6uyeDpl3 http://t.co/FQatvOHWPh", 
   "label": "O", 
   "id": 443582947006771200, 
   "hashtags": [], 
   "user_mentions": [
    "Hartsy19"
   ], 
   "created_at": "Wed Mar 12 03:03:10 +0000 2014", 
   "retweet_count": 47, 
   "favorite_count": 59
  }, 
  {
   "text": "FINAL: #Flyers fall to the Devils, 2-1. Next game Saturday, 3/15, vs. the Penguins.", 
   "label": "O", 
   "id": 443561534519017473, 
   "hashtags": [
    "Flyers"
   ], 
   "user_mentions": [], 
   "created_at": "Wed Mar 12 01:38:05 +0000 2014", 
   "retweet_count": 38, 
   "favorite_count": 33
  }, 
  {
   "text": "No goal call stands. Crowd politely disagrees. 40.1 left in the 3rd", 
   "label": "O", 
   "id": 443560940181934080, 
   "hashtags": [], 
   "user_mentions": [], 
   "created_at": "Wed Mar 12 01:35:43 +0000 2014", 
   "retweet_count": 117, 
   "favorite_count": 108
  }, 
  {
   "text": "Officials will take a closer look at the play. Stay tuned...", 
   "label": "O", 
   "id": 443560710736715776, 
   "hashtags": [], 
   "user_mentions": [], 
   "created_at": "Wed Mar 12 01:34:49 +0000 2014", 
   "retweet_count": 45, 
   "favorite_count": 47
  }, 
  {
   "text": "40.1 seconds remaining...", 
   "label": "O", 
   "id": 443560545757978624, 
   "hashtags": [], 
   "user_mentions": [], 
   "created_at": "Wed Mar 12 01:34:09 +0000 2014", 
   "retweet_count": 14, 
   "favorite_count": 29
  }, 
  {
   "text": "An extremelyyy close call for a tying goal, but waved off by officials.", 
   "label": "O", 
   "id": 443560313469014016, 
   "hashtags": [], 
   "user_mentions": [], 
   "created_at": "Wed Mar 12 01:33:14 +0000 2014", 
   "retweet_count": 40, 
   "favorite_count": 47
  }, 
  {
   "text": "4:20 on the clock as the #Flyers head to the powerplay. 1 to tie it, 2 to win. This is #ClutchTime", 
   "label": "O", 
   "id": 443558194674429953, 
   "hashtags": [
    "Flyers", 
    "ClutchTime"
   ], 
   "user_mentions": [], 
   "created_at": "Wed Mar 12 01:24:49 +0000 2014", 
   "retweet_count": 37, 
   "favorite_count": 43
  }, 
  {
   "text": "Good luck this weekend! cc: @PhilaUnion MT @ZacMacMath Thank you to the @nhlflyers for the new hat! http://t.co/aDjGnmuAyX", 
   "label": "O", 
   "id": 443556526650032128, 
   "hashtags": [], 
   "user_mentions": [
    "PhilaUnion", 
    "ZacMacMath", 
    "NHLFlyers"
   ], 
   "created_at": "Wed Mar 12 01:18:11 +0000 2014", 
   "retweet_count": 5, 
   "favorite_count": 24
  }, 
  {
   "text": "Devils take the 2-1 lead with a goal from Jagr. 12:18 to play in the 3rd.", 
   "label": "O", 
   "id": 443553791246618624, 
   "hashtags": [], 
   "user_mentions": [], 
   "created_at": "Wed Mar 12 01:07:19 +0000 2014", 
   "retweet_count": 13, 
   "favorite_count": 24
  }, 
  {
   "text": "Back in action for the 3rd period as both teams start on even footing, 1-1. #ClutchTime", 
   "label": "O", 
   "id": 443551219702042624, 
   "hashtags": [
    "ClutchTime"
   ], 
   "user_mentions": [], 
   "created_at": "Wed Mar 12 00:57:06 +0000 2014", 
   "retweet_count": 26, 
   "favorite_count": 29
  }, 
  {
   "text": "@Stasia_M @WWENetwork YES! YES! YES!", 
   "label": "O", 
   "id": 443549699447193600, 
   "hashtags": [], 
   "user_mentions": [
    "Stasia_M", 
    "WWENetwork"
   ], 
   "created_at": "Wed Mar 12 00:51:03 +0000 2014", 
   "retweet_count": 1, 
   "favorite_count": 2
  }, 
  {
   "text": "At the end of 2, we're even at 1. #ClutchTime \n\nWatch Live: @CSNPhilly \nListen Live: @975TheFanatic http://t.co/AyrtvwIrTT", 
   "label": "O", 
   "id": 443547684339605504, 
   "hashtags": [
    "ClutchTime"
   ], 
   "user_mentions": [
    "CSNPhilly", 
    "975TheFanatic"
   ], 
   "created_at": "Wed Mar 12 00:43:03 +0000 2014", 
   "retweet_count": 25, 
   "favorite_count": 45
  }, 
  {
   "text": "END OF 2: #Flyers and Devils all tied up at 1, thanks to a goal from Grossmann. NJD leads shots 20-18.", 
   "label": "O", 
   "id": 443546633415184384, 
   "hashtags": [
    "Flyers"
   ], 
   "user_mentions": [], 
   "created_at": "Wed Mar 12 00:38:52 +0000 2014", 
   "retweet_count": 23, 
   "favorite_count": 35
  }, 
  {
   "text": "Still even at 1 apiece with 5 minutes remaining in the 2nd period. NJD holds the slight edge in shots, 19-17.", 
   "label": "O", 
   "id": 443544429350359040, 
   "hashtags": [], 
   "user_mentions": [], 
   "created_at": "Wed Mar 12 00:30:07 +0000 2014", 
   "retweet_count": 7, 
   "favorite_count": 10
  }, 
  {
   "text": "Welcome home to US Army National Guard Staff Sgt. Andrew Parsons, who just returned home from a yearlong tour in Afghanistan! #ThankYou", 
   "label": "O", 
   "id": 443540878909796352, 
   "hashtags": [
    "ThankYou"
   ], 
   "user_mentions": [], 
   "created_at": "Wed Mar 12 00:16:00 +0000 2014", 
   "retweet_count": 59, 
   "favorite_count": 112
  }, 
  {
   "text": "Congratulations to @Hartsy19, who tonight is playing his 500th game with the #Flyers! http://t.co/7XzpP77nsh", 
   "label": "O", 
   "id": 443540320425623552, 
   "hashtags": [
    "Flyers"
   ], 
   "user_mentions": [
    "Hartsy19"
   ], 
   "created_at": "Wed Mar 12 00:13:47 +0000 2014", 
   "retweet_count": 133, 
   "favorite_count": 133
  }, 
  {
   "text": "RT @ZacMacMath: What a day. So much philly love. At the @nhlflyers game to top off a great day #flyordie http://t.co/zMj9s0pYYw", 
   "label": "O", 
   "id": 443538231330889728, 
   "hashtags": [
    "flyordie"
   ], 
   "user_mentions": [
    "ZacMacMath", 
    "NHLFlyers"
   ], 
   "created_at": "Wed Mar 12 00:05:29 +0000 2014", 
   "retweet_count": 5, 
   "favorite_count": 0
  }, 
  {
   "text": "GOAL!!!!! Grossmann gets one by Brodeur to tie it up, 1-1!", 
   "label": "O", 
   "id": 443537783731552257, 
   "hashtags": [], 
   "user_mentions": [], 
   "created_at": "Wed Mar 12 00:03:42 +0000 2014", 
   "retweet_count": 162, 
   "favorite_count": 212
  }, 
  {
   "text": "The second period is underway as the #Flyers look to erase the Devils' 1-0 lead.", 
   "label": "O", 
   "id": 443537416755089408, 
   "hashtags": [
    "Flyers"
   ], 
   "user_mentions": [], 
   "created_at": "Wed Mar 12 00:02:15 +0000 2014", 
   "retweet_count": 12, 
   "favorite_count": 17
  }, 
  {
   "text": "http://t.co/wy3yzjvons", 
   "label": "O", 
   "id": 443533314029146112, 
   "hashtags": [], 
   "user_mentions": [], 
   "created_at": "Tue Mar 11 23:45:57 +0000 2014", 
   "retweet_count": 18, 
   "favorite_count": 41
  }, 
  {
   "text": "END OF 1: Devils head down the tunnel with the 1-0 edge. Also lead shots 13-6.", 
   "label": "O", 
   "id": 443532649328832512, 
   "hashtags": [], 
   "user_mentions": [], 
   "created_at": "Tue Mar 11 23:43:18 +0000 2014", 
   "retweet_count": 14, 
   "favorite_count": 14
  }, 
  {
   "text": "Devils open scoring with a goal from Zajac. NJD leads 1-0 with 12:04 to go in the 1st.", 
   "label": "O", 
   "id": 443526718260019201, 
   "hashtags": [], 
   "user_mentions": [], 
   "created_at": "Tue Mar 11 23:19:44 +0000 2014", 
   "retweet_count": 8, 
   "favorite_count": 13
  }, 
  {
   "text": "Puck is dropped and we're underway! #ClutchTime", 
   "label": "O", 
   "id": 443523939399372800, 
   "hashtags": [
    "ClutchTime"
   ], 
   "user_mentions": [], 
   "created_at": "Tue Mar 11 23:08:42 +0000 2014", 
   "retweet_count": 51, 
   "favorite_count": 70
  }, 
  {
   "text": "Tonight's anthem escort is US Army Specialist Andre Rodriguez serving with the 462nd Transportation Battalion out of Trenton, NJ #ThankYou", 
   "label": "O", 
   "id": 443523262031478784, 
   "hashtags": [
    "ThankYou"
   ], 
   "user_mentions": [], 
   "created_at": "Tue Mar 11 23:06:00 +0000 2014", 
   "retweet_count": 18, 
   "favorite_count": 32
  }, 
  {
   "text": "RT @NHL: PLAYER TO WATCH: @NHLFlyers veteran Kimmo Timonen has registered seven points (2-5--7) in his last 4 games. http://t.co/bfcz7Zmw0Z", 
   "label": "O", 
   "id": 443520764575490048, 
   "hashtags": [], 
   "user_mentions": [
    "NHL", 
    "NHLFlyers"
   ], 
   "created_at": "Tue Mar 11 22:56:05 +0000 2014", 
   "retweet_count": 111, 
   "favorite_count": 0
  }, 
  {
   "text": "Your #Flyers starters: Coburn, Hartnell, Giroux, Timonen, Voracek, and Mason.", 
   "label": "O", 
   "id": 443519991825317888, 
   "hashtags": [
    "Flyers"
   ], 
   "user_mentions": [], 
   "created_at": "Tue Mar 11 22:53:00 +0000 2014", 
   "retweet_count": 83, 
   "favorite_count": 109
  }, 
  {
   "text": "Vinny's ready for the game... Are you? http://t.co/L5GebiMnO5", 
   "label": "O", 
   "id": 443516943069630464, 
   "hashtags": [], 
   "user_mentions": [], 
   "created_at": "Tue Mar 11 22:40:54 +0000 2014", 
   "retweet_count": 29, 
   "favorite_count": 67
  }, 
  {
   "text": "@ifyouseekaylaa @PhilaUnion Ditto. \u2764\ufe0f", 
   "label": "O", 
   "id": 443516566731497472, 
   "hashtags": [], 
   "user_mentions": [
    "ifyouseekaylaa", 
    "PhilaUnion"
   ], 
   "created_at": "Tue Mar 11 22:39:24 +0000 2014", 
   "retweet_count": 3, 
   "favorite_count": 18
  }, 
  {
   "text": "@ZacMacMath @XFINITYLive @JackMcInerney9 @AntoineHoppenot See you soon! #BrotherlyLove", 
   "label": "O", 
   "id": 443514817383772160, 
   "hashtags": [
    "BrotherlyLove"
   ], 
   "user_mentions": [
    "ZacMacMath", 
    "XFINITYLive", 
    "JackMcInerney9", 
    "AntoineHoppenot"
   ], 
   "created_at": "Tue Mar 11 22:32:27 +0000 2014", 
   "retweet_count": 5, 
   "favorite_count": 10
  }, 
  {
   "text": "Warm-ups are underway as the #Flyers look to close out the season series vs. NJD with a W!\n\nWATCH: @CSNPhilly \n\nLISTEN: @975TheFanatic", 
   "label": "O", 
   "id": 443514662609747968, 
   "hashtags": [
    "Flyers"
   ], 
   "user_mentions": [
    "CSNPhilly", 
    "975TheFanatic"
   ], 
   "created_at": "Tue Mar 11 22:31:50 +0000 2014", 
   "retweet_count": 16, 
   "favorite_count": 27
  }, 
  {
   "text": "1 hour until puck drop! Catch the game live on @CSNPhilly or @975TheFanatic http://t.co/j5Pd2PRHNn", 
   "label": "O", 
   "id": 443507440936423424, 
   "hashtags": [], 
   "user_mentions": [
    "CSNPhilly", 
    "975TheFanatic"
   ], 
   "created_at": "Tue Mar 11 22:03:08 +0000 2014", 
   "retweet_count": 70, 
   "favorite_count": 95
  }, 
  {
   "text": "@courtbx3 @nuclearuterus See ya there!", 
   "label": "O", 
   "id": 443505100687155200, 
   "hashtags": [], 
   "user_mentions": [
    "courtbx3", 
    "nuclearuterus"
   ], 
   "created_at": "Tue Mar 11 21:53:50 +0000 2014", 
   "retweet_count": 2, 
   "favorite_count": 2
  }, 
  {
   "text": "INJURY UPDATE: Zac Rinaldo will not be in the lineup tonight vs. New Jersey. He is day-to-day with an upper-body injury.", 
   "label": "O", 
   "id": 443494632530669568, 
   "hashtags": [], 
   "user_mentions": [], 
   "created_at": "Tue Mar 11 21:12:14 +0000 2014", 
   "retweet_count": 52, 
   "favorite_count": 61
  }, 
  {
   "text": "Tim Saunders analyzes tonight's Flyers-Devils game in the PowerBack Rehabilitation Preview. WATCH: http://t.co/ISANyHZDs8", 
   "label": "O", 
   "id": 443459307389333504, 
   "hashtags": [], 
   "user_mentions": [], 
   "created_at": "Tue Mar 11 18:51:52 +0000 2014", 
   "retweet_count": 14, 
   "favorite_count": 13
  }, 
  {
   "text": "ROSTER UPDATE: #Flyers have recalled (F) Chris VandeVelde\u2026 MORE: http://t.co/M2dqp1Hdro", 
   "label": "O", 
   "id": 443446398126940160, 
   "hashtags": [
    "Flyers"
   ], 
   "user_mentions": [], 
   "created_at": "Tue Mar 11 18:00:34 +0000 2014", 
   "retweet_count": 29, 
   "favorite_count": 47
  }, 
  {
   "text": "RT @FlyersPublicist: .@FlyersCharities Stick Auction: Celebrity sticks also availble including: Kayne West, Elton John &amp; Pearl Jam &amp; more! \u2026", 
   "label": "O", 
   "id": 443417993201319936, 
   "hashtags": [], 
   "user_mentions": [
    "FlyersPublicist", 
    "FlyersCharities"
   ], 
   "created_at": "Tue Mar 11 16:07:42 +0000 2014", 
   "retweet_count": 20, 
   "favorite_count": 0
  }, 
  {
   "text": "RT @FlyersCharities: Check out our Stick Auction now! Bid on game-used, signed @NHLFlyers sticks &amp; celebrity signed one-of-a-kind sticks. h\u2026", 
   "label": "O", 
   "id": 443414274170695680, 
   "hashtags": [], 
   "user_mentions": [
    "FlyersCharities", 
    "NHLFlyers"
   ], 
   "created_at": "Tue Mar 11 15:52:55 +0000 2014", 
   "retweet_count": 7, 
   "favorite_count": 0
  }, 
  {
   "text": ".@28CGiroux chats with the media following morning skate. His #Flyers have gone 7-1-1 in their last 9 games. PHOTO: http://t.co/JdeZa36Zjc", 
   "label": "O", 
   "id": 443401122687246336, 
   "hashtags": [
    "Flyers"
   ], 
   "user_mentions": [
    "28CGiroux"
   ], 
   "created_at": "Tue Mar 11 15:00:40 +0000 2014", 
   "retweet_count": 24, 
   "favorite_count": 33
  }, 
  {
   "text": "The guys take a breather between drills as morning skate wears on. Puck drops tonight at 7pm! PHOTO: http://t.co/K9kaMMTmmR", 
   "label": "O", 
   "id": 443396263351189504, 
   "hashtags": [], 
   "user_mentions": [], 
   "created_at": "Tue Mar 11 14:41:21 +0000 2014", 
   "retweet_count": 16, 
   "favorite_count": 18
  }, 
  {
   "text": "As the #Flyers look to close out the season series vs. NJD with a win, get ready w/ 5 things: http://t.co/pGd1YrSeSN http://t.co/Z7IXh1gULW", 
   "label": "O", 
   "id": 443392201058291712, 
   "hashtags": [
    "Flyers"
   ], 
   "user_mentions": [], 
   "created_at": "Tue Mar 11 14:25:13 +0000 2014", 
   "retweet_count": 57, 
   "favorite_count": 72
  }
 ]
}