{
 "num_road_team_goals": "6", 
 "home_team": "Philadelphia Flyers", 
 "num_home_team_goals": "1", 
 "summary_url": "http://www.flyershistory.com/cgi-bin/poboxscore.cgi?H20130776", 
 "result": "L", 
 "road_team": "Boston Bruins", 
 "date": "2014-01-25", 
 "goals": [
  {
   "season_index": "10", 
   "strength": "(PP)", 
   "time": "6:30", 
   "period": "1", 
   "player": "Z.Chara", 
   "assists": "(J.Iginla, D.Krejci)", 
   "game_index": "1", 
   "team": "BOS"
  }, 
  {
   "season_index": "14", 
   "strength": "(EV)", 
   "time": "19:42", 
   "period": "1", 
   "player": "J.Iginla", 
   "assists": "(M.Lucic, T.Krug)", 
   "game_index": "2", 
   "team": "BOS"
  }, 
  {
   "season_index": "16", 
   "strength": "(EV)", 
   "time": "6:59", 
   "period": "2", 
   "player": "R.Smith", 
   "assists": null, 
   "game_index": "3", 
   "team": "BOS"
  }, 
  {
   "season_index": "13", 
   "strength": "(EV)", 
   "time": "13:10", 
   "period": "2", 
   "player": "P.Bergeron", 
   "assists": "(B.Marchand)", 
   "game_index": "4", 
   "team": "BOS"
  }, 
  {
   "season_index": "15", 
   "strength": "(PP)", 
   "time": "7:55", 
   "period": "3", 
   "player": "Claude Giroux", 
   "assists": "(Jakub Voracek, Kimmo Timonen)", 
   "game_index": "5", 
   "team": "PHI"
  }, 
  {
   "season_index": "15", 
   "strength": "(PP)", 
   "time": "8:21", 
   "period": "3", 
   "player": "J.Iginla", 
   "assists": "(T.Krug, D.Krejci)", 
   "game_index": "6", 
   "team": "BOS"
  }, 
  {
   "season_index": "11", 
   "strength": "(PP)", 
   "time": "9:16", 
   "period": "3", 
   "player": "Z.Chara", 
   "assists": "(J.Iginla, D.Krejci)", 
   "game_index": "7", 
   "team": "BOS"
  }
 ], 
 "tweets": [
  {
   "text": "#Flyers will practice at 10am tomorrow in Voorhees.", 
   "label": "O", 
   "id": 427185961102225408, 
   "hashtags": [
    "Flyers"
   ], 
   "user_mentions": [], 
   "created_at": "Sat Jan 25 21:07:24 +0000 2014", 
   "retweet_count": 28, 
   "favorite_count": 48
  }, 
  {
   "text": "FINAL SCORE: Bruins win 6-1. Next game Tuesday vs. Detroit at 7pm.", 
   "label": "O", 
   "id": 427178881490378752, 
   "hashtags": [], 
   "user_mentions": [], 
   "created_at": "Sat Jan 25 20:39:16 +0000 2014", 
   "retweet_count": 43, 
   "favorite_count": 21
  }, 
  {
   "text": "Boston again. 6-1.", 
   "label": "O", 
   "id": 427174283652399105, 
   "hashtags": [], 
   "user_mentions": [], 
   "created_at": "Sat Jan 25 20:21:00 +0000 2014", 
   "retweet_count": 71, 
   "favorite_count": 64
  }, 
  {
   "text": "Iginla makes quick work of that, 5-1 Boston.", 
   "label": "O", 
   "id": 427173822786457600, 
   "hashtags": [], 
   "user_mentions": [], 
   "created_at": "Sat Jan 25 20:19:10 +0000 2014", 
   "retweet_count": 6, 
   "favorite_count": 14
  }, 
  {
   "text": "Grossmann now takes a double minor high-sticking penalty. 4-min Bruins power play", 
   "label": "O", 
   "id": 427173704192512001, 
   "hashtags": [], 
   "user_mentions": [], 
   "created_at": "Sat Jan 25 20:18:42 +0000 2014", 
   "retweet_count": 3, 
   "favorite_count": 5
  }, 
  {
   "text": "GOAL! Giroux puts the #Flyers on the board with a PPG. 4-1 Boston, 12:05 left in the 3rd.", 
   "label": "O", 
   "id": 427173396196384768, 
   "hashtags": [
    "Flyers"
   ], 
   "user_mentions": [], 
   "created_at": "Sat Jan 25 20:17:28 +0000 2014", 
   "retweet_count": 67, 
   "favorite_count": 88
  }, 
  {
   "text": "Chara gets called for holding. #Flyers on the PP with 13:10 to play.", 
   "label": "O", 
   "id": 427172976144822273, 
   "hashtags": [
    "Flyers"
   ], 
   "user_mentions": [], 
   "created_at": "Sat Jan 25 20:15:48 +0000 2014", 
   "retweet_count": 6, 
   "favorite_count": 7
  }, 
  {
   "text": "40 minutes down, 20 to go. #Flyers back out for the final period, trailing Boston 4-0.", 
   "label": "O", 
   "id": 427169708870475776, 
   "hashtags": [
    "Flyers"
   ], 
   "user_mentions": [], 
   "created_at": "Sat Jan 25 20:02:49 +0000 2014", 
   "retweet_count": 8, 
   "favorite_count": 8
  }, 
  {
   "text": "END OF 2: #Flyers trail Bruins 4-0. SOG 22-21 Boston", 
   "label": "O", 
   "id": 427165479095263233, 
   "hashtags": [
    "Flyers"
   ], 
   "user_mentions": [], 
   "created_at": "Sat Jan 25 19:46:01 +0000 2014", 
   "retweet_count": 18, 
   "favorite_count": 8
  }, 
  {
   "text": "Hamilton takes a seat for tripping. #Flyers about to go on the powerplay with 5:01 to play in the 2nd.", 
   "label": "O", 
   "id": 427163483931947008, 
   "hashtags": [
    "Flyers"
   ], 
   "user_mentions": [], 
   "created_at": "Sat Jan 25 19:38:05 +0000 2014", 
   "retweet_count": 9, 
   "favorite_count": 9
  }, 
  {
   "text": "Quick bout, and each take their 5-minute fighting majors. 6:39 left in the 2nd.", 
   "label": "O", 
   "id": 427162837535174656, 
   "hashtags": [], 
   "user_mentions": [], 
   "created_at": "Sat Jan 25 19:35:31 +0000 2014", 
   "retweet_count": 7, 
   "favorite_count": 7
  }, 
  {
   "text": "L. Schenn and Campbell drop the gloves and shake things up. Schenn leaving nothing behind.", 
   "label": "O", 
   "id": 427162724381253633, 
   "hashtags": [], 
   "user_mentions": [], 
   "created_at": "Sat Jan 25 19:35:04 +0000 2014", 
   "retweet_count": 64, 
   "favorite_count": 83
  }, 
  {
   "text": "Bergeron makes it 4-0 Bruins as Emery prepares to enter the game. 6:50 to go in the 2nd.", 
   "label": "O", 
   "id": 427162287779364864, 
   "hashtags": [], 
   "user_mentions": [], 
   "created_at": "Sat Jan 25 19:33:20 +0000 2014", 
   "retweet_count": 15, 
   "favorite_count": 9
  }, 
  {
   "text": "Back to even strength", 
   "label": "O", 
   "id": 427161079211626496, 
   "hashtags": [], 
   "user_mentions": [], 
   "created_at": "Sat Jan 25 19:28:32 +0000 2014", 
   "retweet_count": 8, 
   "favorite_count": 5
  }, 
  {
   "text": "Jay Rosehill gets 2 minutes for unsportsmanlike conduct. 10:18 remaining in the 2nd as the #Flyers go on the PK", 
   "label": "O", 
   "id": 427160609013370880, 
   "hashtags": [
    "Flyers"
   ], 
   "user_mentions": [], 
   "created_at": "Sat Jan 25 19:26:40 +0000 2014", 
   "retweet_count": 5, 
   "favorite_count": 10
  }, 
  {
   "text": "Refs break it up and send both to the box with matching fighting majors.", 
   "label": "O", 
   "id": 427159384800894976, 
   "hashtags": [], 
   "user_mentions": [], 
   "created_at": "Sat Jan 25 19:21:48 +0000 2014", 
   "retweet_count": 9, 
   "favorite_count": 16
  }, 
  {
   "text": "Hartnell and Boychuk drop the gloves", 
   "label": "O", 
   "id": 427159233311027200, 
   "hashtags": [], 
   "user_mentions": [], 
   "created_at": "Sat Jan 25 19:21:12 +0000 2014", 
   "retweet_count": 49, 
   "favorite_count": 47
  }, 
  {
   "text": "Reilly Smith extends the Bruins lead to 3-0. 13:01 to play in the 2nd.", 
   "label": "O", 
   "id": 427158904091717632, 
   "hashtags": [], 
   "user_mentions": [], 
   "created_at": "Sat Jan 25 19:19:53 +0000 2014", 
   "retweet_count": 9, 
   "favorite_count": 9
  }, 
  {
   "text": "Today's Giroux's Crew includes members of The Big Brothers Big Sisters of Southeastern PA. Welcome!", 
   "label": "O", 
   "id": 427158305912664064, 
   "hashtags": [], 
   "user_mentions": [], 
   "created_at": "Sat Jan 25 19:17:31 +0000 2014", 
   "retweet_count": 4, 
   "favorite_count": 16
  }, 
  {
   "text": "#Flyers back out for the second frame, looking to erase the Bruins' 2-0 lead.", 
   "label": "O", 
   "id": 427155089087033344, 
   "hashtags": [
    "Flyers"
   ], 
   "user_mentions": [], 
   "created_at": "Sat Jan 25 19:04:44 +0000 2014", 
   "retweet_count": 21, 
   "favorite_count": 19
  }, 
  {
   "text": "http://t.co/mrpg2stWl3", 
   "label": "O", 
   "id": 427151297192542208, 
   "hashtags": [], 
   "user_mentions": [], 
   "created_at": "Sat Jan 25 18:49:39 +0000 2014", 
   "retweet_count": 33, 
   "favorite_count": 38
  }, 
  {
   "text": "END OF 1: #Flyers trail Bruins 2-0, but lead shots 12-9.", 
   "label": "O", 
   "id": 427150732463443969, 
   "hashtags": [
    "Flyers"
   ], 
   "user_mentions": [], 
   "created_at": "Sat Jan 25 18:47:25 +0000 2014", 
   "retweet_count": 18, 
   "favorite_count": 6
  }, 
  {
   "text": "Ignila gets a late goal past Mason to put the Bruins up 2-0 with 17.1 seconds remaining in the 1st.", 
   "label": "O", 
   "id": 427150502363926529, 
   "hashtags": [], 
   "user_mentions": [], 
   "created_at": "Sat Jan 25 18:46:30 +0000 2014", 
   "retweet_count": 11, 
   "favorite_count": 5
  }, 
  {
   "text": "@hockeygrl28 Well you've won our love! :) Thanks for being a fan", 
   "label": "O", 
   "id": 427149980315701248, 
   "hashtags": [], 
   "user_mentions": [
    "hockeygrl28"
   ], 
   "created_at": "Sat Jan 25 18:44:26 +0000 2014", 
   "retweet_count": 0, 
   "favorite_count": 1
  }, 
  {
   "text": "Don't forget to wave! RT @NAKEDdmblauren: . @Tin_Man41 is ready for his ride on the @NHLFlyers zamboni! http://t.co/LG2ReTFE3H", 
   "label": "O", 
   "id": 427149177903386624, 
   "hashtags": [], 
   "user_mentions": [
    "NAKEDdmblauren", 
    "Tin_Man41", 
    "NHLFlyers"
   ], 
   "created_at": "Sat Jan 25 18:41:14 +0000 2014", 
   "retweet_count": 2, 
   "favorite_count": 11
  }, 
  {
   "text": "Close call for Giroux as Rask leaves the net open. Just wide though, still 1-0 Boston with 3:12 to play in the 1st.", 
   "label": "O", 
   "id": 427148833072893952, 
   "hashtags": [], 
   "user_mentions": [], 
   "created_at": "Sat Jan 25 18:39:52 +0000 2014", 
   "retweet_count": 6, 
   "favorite_count": 14
  }, 
  {
   "text": "@hockeygrl28 How can we help, Laurie?", 
   "label": "O", 
   "id": 427147539167858688, 
   "hashtags": [], 
   "user_mentions": [
    "hockeygrl28"
   ], 
   "created_at": "Sat Jan 25 18:34:44 +0000 2014", 
   "retweet_count": 0, 
   "favorite_count": 0
  }, 
  {
   "text": "We'd like to welcome US Army Lieutenant Colonel Charles Schretzman originally from Northeast Philadelphia. Thanks for your service!", 
   "label": "O", 
   "id": 427146565418250240, 
   "hashtags": [], 
   "user_mentions": [], 
   "created_at": "Sat Jan 25 18:30:51 +0000 2014", 
   "retweet_count": 25, 
   "favorite_count": 51
  }, 
  {
   "text": "RT @FlyersPublicist: Carnival doors open 24 hours from now! Tickets are still available at http://t.co/derdx2N2DP, 800-298-4200 &amp; @WellsFar\u2026", 
   "label": "O", 
   "id": 427144969246507008, 
   "hashtags": [], 
   "user_mentions": [
    "FlyersPublicist", 
    "WellsFargoCtr"
   ], 
   "created_at": "Sat Jan 25 18:24:31 +0000 2014", 
   "retweet_count": 13, 
   "favorite_count": 0
  }, 
  {
   "text": "Bruins open scoring with a powerplay goal from Chara. 1-0 Boston", 
   "label": "O", 
   "id": 427143748456562688, 
   "hashtags": [], 
   "user_mentions": [], 
   "created_at": "Sat Jan 25 18:19:40 +0000 2014", 
   "retweet_count": 25, 
   "favorite_count": 10
  }, 
  {
   "text": "Are you ready for some hockeyyy??! Puck is dropped and we're underway. #GameOn", 
   "label": "O", 
   "id": 427141073056837632, 
   "hashtags": [
    "GameOn"
   ], 
   "user_mentions": [], 
   "created_at": "Sat Jan 25 18:09:02 +0000 2014", 
   "retweet_count": 71, 
   "favorite_count": 80
  }, 
  {
   "text": "God Bless America today at @WellsFargoCtr!", 
   "label": "O", 
   "id": 427140512962072577, 
   "hashtags": [], 
   "user_mentions": [
    "WellsFargoCtr"
   ], 
   "created_at": "Sat Jan 25 18:06:48 +0000 2014", 
   "retweet_count": 54, 
   "favorite_count": 68
  }, 
  {
   "text": "Anthemist Lauren Hart is being escorted to the ice by US Army Staff Sgt Calvin Watson based out of Trenton, NJ. #ThankYou", 
   "label": "O", 
   "id": 427140309303435264, 
   "hashtags": [
    "ThankYou"
   ], 
   "user_mentions": [], 
   "created_at": "Sat Jan 25 18:06:00 +0000 2014", 
   "retweet_count": 27, 
   "favorite_count": 39
  }, 
  {
   "text": "Your #Flyers starters: Coburn, Raffl, Couturier, Read, Timonen, and Mason.", 
   "label": "O", 
   "id": 427137994269921280, 
   "hashtags": [
    "Flyers"
   ], 
   "user_mentions": [], 
   "created_at": "Sat Jan 25 17:56:48 +0000 2014", 
   "retweet_count": 77, 
   "favorite_count": 61
  }, 
  {
   "text": "Check out the view from the bench as warm-ups wrap up. What are your predictions for today's matinee? http://t.co/ZUsWJwQqS0", 
   "label": "O", 
   "id": 427133715253559296, 
   "hashtags": [], 
   "user_mentions": [], 
   "created_at": "Sat Jan 25 17:39:48 +0000 2014", 
   "retweet_count": 17, 
   "favorite_count": 17
  }, 
  {
   "text": "\"Allow me to reintroduce myself...\" \n\nWarm-ups are underway here at @WellsFargoCtr! Consider this your half hour warning.", 
   "label": "O", 
   "id": 427131295999995905, 
   "hashtags": [], 
   "user_mentions": [
    "WellsFargoCtr"
   ], 
   "created_at": "Sat Jan 25 17:30:11 +0000 2014", 
   "retweet_count": 43, 
   "favorite_count": 44
  }, 
  {
   "text": "Less than an hour to go until puck drop! Catch the game live at 1 on @CSNPhilly or @975TheFanatic!", 
   "label": "O", 
   "id": 427125815672049664, 
   "hashtags": [], 
   "user_mentions": [
    "CSNPhilly", 
    "975TheFanatic"
   ], 
   "created_at": "Sat Jan 25 17:08:24 +0000 2014", 
   "retweet_count": 39, 
   "favorite_count": 38
  }, 
  {
   "text": "@chi_townpuck Hi Kyle.", 
   "label": "O", 
   "id": 427095412424863744, 
   "hashtags": [], 
   "user_mentions": [
    "chi_townpuck"
   ], 
   "created_at": "Sat Jan 25 15:07:36 +0000 2014", 
   "retweet_count": 1, 
   "favorite_count": 4
  }, 
  {
   "text": "Today's starting goaltender is... http://t.co/pJqg8LjAk6", 
   "label": "O", 
   "id": 427093815498137601, 
   "hashtags": [], 
   "user_mentions": [], 
   "created_at": "Sat Jan 25 15:01:15 +0000 2014", 
   "retweet_count": 57, 
   "favorite_count": 54
  }, 
  {
   "text": "Good morning, it's gameday! Before the #Flyers take on the Bruins, get ready with 5 things: http://t.co/wubhlhnRLm http://t.co/01lcIFWx4r", 
   "label": "O", 
   "id": 427090057502015488, 
   "hashtags": [
    "Flyers"
   ], 
   "user_mentions": [], 
   "created_at": "Sat Jan 25 14:46:19 +0000 2014", 
   "retweet_count": 92, 
   "favorite_count": 120
  }
 ]
}