{
 "num_road_team_goals": "4", 
 "home_team": "Philadelphia Flyers", 
 "num_home_team_goals": "3", 
 "summary_url": "http://www.flyershistory.com/cgi-bin/poboxscore.cgi?H20130711", 
 "result": "L (SO)", 
 "road_team": "Nashville Predators", 
 "date": "2014-01-16", 
 "goals": [
  {
   "season_index": "13", 
   "strength": "(EV)", 
   "time": "1:26", 
   "period": "1", 
   "player": "Brayden Schenn", 
   "assists": "(Wayne Simmonds, Andrej Meszaros)", 
   "game_index": "1", 
   "team": "PHI"
  }, 
  {
   "season_index": "7", 
   "strength": "(EV)", 
   "time": "10:57", 
   "period": "1", 
   "player": "E.Nystrom", 
   "assists": "(G.Bourque, S.Weber)", 
   "game_index": "2", 
   "team": "NSH"
  }, 
  {
   "season_index": "8", 
   "strength": "(PP)", 
   "time": "16:35", 
   "period": "1", 
   "player": "D.Legwand", 
   "assists": "(M.Fisher, S.Weber)", 
   "game_index": "3", 
   "team": "NSH"
  }, 
  {
   "season_index": "2", 
   "strength": "(EV)", 
   "time": "19:55", 
   "period": "2", 
   "player": "Andrej Meszaros", 
   "assists": "(Wayne Simmonds, Mark Streit)", 
   "game_index": "4", 
   "team": "PHI"
  }, 
  {
   "season_index": "12", 
   "strength": "(PP)", 
   "time": "5:10", 
   "period": "3", 
   "player": "S.Weber", 
   "assists": "(D.Legwand, R.Josi)", 
   "game_index": "5", 
   "team": "NSH"
  }, 
  {
   "season_index": "16", 
   "strength": "(PP)", 
   "time": "18:36", 
   "period": "3", 
   "player": "Wayne Simmonds", 
   "assists": "(Scott Hartnell, Kimmo Timonen)", 
   "game_index": "6", 
   "team": "PHI"
  }
 ], 
 "tweets": [
  {
   "text": "Point Taken: Simmonds' late goal sends the game to OT, earning the #Flyers a point in tonight's shootout loss. http://t.co/Jx9bieNotp", 
   "label": "O", 
   "id": 424015943246053376, 
   "hashtags": [
    "Flyers"
   ], 
   "user_mentions": [], 
   "created_at": "Fri Jan 17 03:10:53 +0000 2014", 
   "retweet_count": 52, 
   "favorite_count": 51
  }, 
  {
   "text": "Josi for Nasville... goal. Predators win 4-3. Next game Saturday vs. Islanders, 7pm", 
   "label": "O", 
   "id": 424011196820230144, 
   "hashtags": [], 
   "user_mentions": [], 
   "created_at": "Fri Jan 17 02:52:01 +0000 2014", 
   "retweet_count": 40, 
   "favorite_count": 39
  }, 
  {
   "text": "7th round, with Simmonds... no goal", 
   "label": "O", 
   "id": 424010925977251841, 
   "hashtags": [], 
   "user_mentions": [], 
   "created_at": "Fri Jan 17 02:50:57 +0000 2014", 
   "retweet_count": 11, 
   "favorite_count": 19
  }, 
  {
   "text": "Ellis for Nashville... goal, tied at 2 now", 
   "label": "O", 
   "id": 424010844200902656, 
   "hashtags": [], 
   "user_mentions": [], 
   "created_at": "Fri Jan 17 02:50:37 +0000 2014", 
   "retweet_count": 16, 
   "favorite_count": 14
  }, 
  {
   "text": "6th round now, Couturier... GOALLL!!!", 
   "label": "O", 
   "id": 424010704400560128, 
   "hashtags": [], 
   "user_mentions": [], 
   "created_at": "Fri Jan 17 02:50:04 +0000 2014", 
   "retweet_count": 138, 
   "favorite_count": 145
  }, 
  {
   "text": "Cullen for Nashville... goal", 
   "label": "O", 
   "id": 424010580383387648, 
   "hashtags": [], 
   "user_mentions": [], 
   "created_at": "Fri Jan 17 02:49:34 +0000 2014", 
   "retweet_count": 16, 
   "favorite_count": 17
  }, 
  {
   "text": "5th round (!) now, with B. Schenn... GOAL!!!!!", 
   "label": "O", 
   "id": 424010451446296576, 
   "hashtags": [], 
   "user_mentions": [], 
   "created_at": "Fri Jan 17 02:49:04 +0000 2014", 
   "retweet_count": 195, 
   "favorite_count": 173
  }, 
  {
   "text": "Bourque for Preds... no goal", 
   "label": "O", 
   "id": 424010365194608640, 
   "hashtags": [], 
   "user_mentions": [], 
   "created_at": "Fri Jan 17 02:48:43 +0000 2014", 
   "retweet_count": 10, 
   "favorite_count": 14
  }, 
  {
   "text": "4th round shooter for #Flyers, Matt Read... no goal", 
   "label": "O", 
   "id": 424010285305716736, 
   "hashtags": [
    "Flyers"
   ], 
   "user_mentions": [], 
   "created_at": "Fri Jan 17 02:48:24 +0000 2014", 
   "retweet_count": 11, 
   "favorite_count": 16
  }, 
  {
   "text": "Jones for Nashville... no goal!", 
   "label": "O", 
   "id": 424010168737595392, 
   "hashtags": [], 
   "user_mentions": [], 
   "created_at": "Fri Jan 17 02:47:56 +0000 2014", 
   "retweet_count": 11, 
   "favorite_count": 21
  }, 
  {
   "text": "Raffl up for the #Flyers... no goal", 
   "label": "O", 
   "id": 424010071635288065, 
   "hashtags": [
    "Flyers"
   ], 
   "user_mentions": [], 
   "created_at": "Fri Jan 17 02:47:33 +0000 2014", 
   "retweet_count": 14, 
   "favorite_count": 11
  }, 
  {
   "text": "Legwand up... no goal", 
   "label": "O", 
   "id": 424009979352211457, 
   "hashtags": [], 
   "user_mentions": [], 
   "created_at": "Fri Jan 17 02:47:11 +0000 2014", 
   "retweet_count": 15, 
   "favorite_count": 16
  }, 
  {
   "text": "Giroux's turn now... no goal", 
   "label": "O", 
   "id": 424009895491272704, 
   "hashtags": [], 
   "user_mentions": [], 
   "created_at": "Fri Jan 17 02:46:51 +0000 2014", 
   "retweet_count": 15, 
   "favorite_count": 22
  }, 
  {
   "text": "Smith up for Nashville... no goal!", 
   "label": "O", 
   "id": 424009783012622336, 
   "hashtags": [], 
   "user_mentions": [], 
   "created_at": "Fri Jan 17 02:46:24 +0000 2014", 
   "retweet_count": 15, 
   "favorite_count": 27
  }, 
  {
   "text": "Lecavalier shoots first... no goal", 
   "label": "O", 
   "id": 424009670622081025, 
   "hashtags": [], 
   "user_mentions": [], 
   "created_at": "Fri Jan 17 02:45:57 +0000 2014", 
   "retweet_count": 12, 
   "favorite_count": 15
  }, 
  {
   "text": "Shootout coming up! Who do you think will decide this one?", 
   "label": "O", 
   "id": 424008831765467136, 
   "hashtags": [], 
   "user_mentions": [], 
   "created_at": "Fri Jan 17 02:42:37 +0000 2014", 
   "retweet_count": 75, 
   "favorite_count": 65
  }, 
  {
   "text": "Read's shot off the post! 1:30 left in OT", 
   "label": "O", 
   "id": 424007982137892864, 
   "hashtags": [], 
   "user_mentions": [], 
   "created_at": "Fri Jan 17 02:39:15 +0000 2014", 
   "retweet_count": 32, 
   "favorite_count": 43
  }, 
  {
   "text": "Puck is dropped and OT is on. If you changed the channel, best to come back now.", 
   "label": "O", 
   "id": 424006908354105344, 
   "hashtags": [], 
   "user_mentions": [], 
   "created_at": "Fri Jan 17 02:34:59 +0000 2014", 
   "retweet_count": 49, 
   "favorite_count": 55
  }, 
  {
   "text": "60 minutes isn't enough for this one! We're headed to OT...", 
   "label": "O", 
   "id": 424006312301563904, 
   "hashtags": [], 
   "user_mentions": [], 
   "created_at": "Fri Jan 17 02:32:37 +0000 2014", 
   "retweet_count": 95, 
   "favorite_count": 85
  }, 
  {
   "text": "GOAL!!!! Simmonds ties it with 1:24 left in the 3rd! #MrTrain", 
   "label": "O", 
   "id": 424005783563423744, 
   "hashtags": [
    "MrTrain"
   ], 
   "user_mentions": [], 
   "created_at": "Fri Jan 17 02:30:31 +0000 2014", 
   "retweet_count": 316, 
   "favorite_count": 282
  }, 
  {
   "text": "Just over 3 minutes remain as the #Flyers go on the powerplay. Nashville leads 3-2.", 
   "label": "O", 
   "id": 424004631585230848, 
   "hashtags": [
    "Flyers"
   ], 
   "user_mentions": [], 
   "created_at": "Fri Jan 17 02:25:56 +0000 2014", 
   "retweet_count": 12, 
   "favorite_count": 21
  }, 
  {
   "text": "Nashville takes the 3-2 lead with 14:50 to play in the 3rd.", 
   "label": "O", 
   "id": 423999191157719040, 
   "hashtags": [], 
   "user_mentions": [], 
   "created_at": "Fri Jan 17 02:04:19 +0000 2014", 
   "retweet_count": 11, 
   "favorite_count": 6
  }, 
  {
   "text": "40 minutes in the books, 20 to go. #Flyers / #Preds the 3rd tied at 2 apiece. #LetsGo", 
   "label": "O", 
   "id": 423996985809453056, 
   "hashtags": [
    "Flyers", 
    "Preds", 
    "LetsGo"
   ], 
   "user_mentions": [], 
   "created_at": "Fri Jan 17 01:55:33 +0000 2014", 
   "retweet_count": 20, 
   "favorite_count": 18
  }, 
  {
   "text": "END OF 2: Even at 2, thanks to a late goal from Meszaros. NSH leads shots 24-20", 
   "label": "O", 
   "id": 423992675839127552, 
   "hashtags": [], 
   "user_mentions": [], 
   "created_at": "Fri Jan 17 01:38:25 +0000 2014", 
   "retweet_count": 41, 
   "favorite_count": 41
  }, 
  {
   "text": "GOAL!!! Meszaros ties it up with 3.6 sec remaining in the 2nd!", 
   "label": "O", 
   "id": 423992427200778240, 
   "hashtags": [], 
   "user_mentions": [], 
   "created_at": "Fri Jan 17 01:37:26 +0000 2014", 
   "retweet_count": 171, 
   "favorite_count": 179
  }, 
  {
   "text": "Hutton completely ROBS Raffl. Wow. Still 2-1 NSH, amazingly.", 
   "label": "O", 
   "id": 423986787157942272, 
   "hashtags": [], 
   "user_mentions": [], 
   "created_at": "Fri Jan 17 01:15:02 +0000 2014", 
   "retweet_count": 33, 
   "favorite_count": 26
  }, 
  {
   "text": "Tonight's @VirtuaHealth Community Teammate is USAF Technical Sergeant Jill Fitzgerald from Kutztown, in her 14th year of service! #ThankYou", 
   "label": "O", 
   "id": 423985960070565888, 
   "hashtags": [
    "ThankYou"
   ], 
   "user_mentions": [
    "VirtuaHealth"
   ], 
   "created_at": "Fri Jan 17 01:11:44 +0000 2014", 
   "retweet_count": 9, 
   "favorite_count": 10
  }, 
  {
   "text": "Tonight's Giroux's Crew includes families from the Lutheran Settlement House of Philadelphia. Welcome!", 
   "label": "O", 
   "id": 423985671712174080, 
   "hashtags": [], 
   "user_mentions": [], 
   "created_at": "Fri Jan 17 01:10:36 +0000 2014", 
   "retweet_count": 4, 
   "favorite_count": 18
  }, 
  {
   "text": "#Flyers are back out for the second frame, looking to wipe out Nashville's 2-1 lead", 
   "label": "O", 
   "id": 423983060221050880, 
   "hashtags": [
    "Flyers"
   ], 
   "user_mentions": [], 
   "created_at": "Fri Jan 17 01:00:13 +0000 2014", 
   "retweet_count": 18, 
   "favorite_count": 18
  }, 
  {
   "text": "END OF 1: Nashville leads 2-1, with B. Schenn scoring the lone Philly goal. #Flyers lead shots 12-10.", 
   "label": "O", 
   "id": 423978609401806848, 
   "hashtags": [
    "Flyers"
   ], 
   "user_mentions": [], 
   "created_at": "Fri Jan 17 00:42:32 +0000 2014", 
   "retweet_count": 16, 
   "favorite_count": 16
  }, 
  {
   "text": "Nashville capitalizes on the PP and makes it 2-1 with 3:25 to go in the 1st.", 
   "label": "O", 
   "id": 423977630237327360, 
   "hashtags": [], 
   "user_mentions": [], 
   "created_at": "Fri Jan 17 00:38:38 +0000 2014", 
   "retweet_count": 10, 
   "favorite_count": 7
  }, 
  {
   "text": "Timonen joins Giroux in the box for boarding at 15:12", 
   "label": "O", 
   "id": 423977200409264128, 
   "hashtags": [], 
   "user_mentions": [], 
   "created_at": "Fri Jan 17 00:36:56 +0000 2014", 
   "retweet_count": 7, 
   "favorite_count": 9
  }, 
  {
   "text": "GIroux heads to the box for tripping with 5:30 to play in the 2nd.", 
   "label": "O", 
   "id": 423976422089035777, 
   "hashtags": [], 
   "user_mentions": [], 
   "created_at": "Fri Jan 17 00:33:50 +0000 2014", 
   "retweet_count": 12, 
   "favorite_count": 18
  }, 
  {
   "text": "Preds tie it up with 9:03 remaining in the 1st. 1-1", 
   "label": "O", 
   "id": 423974182548811776, 
   "hashtags": [], 
   "user_mentions": [], 
   "created_at": "Fri Jan 17 00:24:56 +0000 2014", 
   "retweet_count": 13, 
   "favorite_count": 11
  }, 
  {
   "text": "Don't forget: Tonight is SUPERPRETZEL $1 Pretzel Night! So if you're at the game, grab one... or 20.", 
   "label": "O", 
   "id": 423972778862059520, 
   "hashtags": [], 
   "user_mentions": [], 
   "created_at": "Fri Jan 17 00:19:22 +0000 2014", 
   "retweet_count": 23, 
   "favorite_count": 41
  }, 
  {
   "text": "Simmonds and Meszaros credited with the assists", 
   "label": "O", 
   "id": 423970926984560640, 
   "hashtags": [], 
   "user_mentions": [], 
   "created_at": "Fri Jan 17 00:12:00 +0000 2014", 
   "retweet_count": 27, 
   "favorite_count": 40
  }, 
  {
   "text": "GOAL!!!! B. Schenn lights it up as #Flyers take the early 1-0 lead.", 
   "label": "O", 
   "id": 423970709577019392, 
   "hashtags": [
    "Flyers"
   ], 
   "user_mentions": [], 
   "created_at": "Fri Jan 17 00:11:08 +0000 2014", 
   "retweet_count": 246, 
   "favorite_count": 226
  }, 
  {
   "text": "Puck is dropped and we're underway! #GameOn", 
   "label": "O", 
   "id": 423970125893472256, 
   "hashtags": [
    "GameOn"
   ], 
   "user_mentions": [], 
   "created_at": "Fri Jan 17 00:08:49 +0000 2014", 
   "retweet_count": 53, 
   "favorite_count": 54
  }, 
  {
   "text": "Tonight anthemist Lauren Hart is being escorted to the ice by North Penn High School Jr. ROTC.", 
   "label": "O", 
   "id": 423969390346768385, 
   "hashtags": [], 
   "user_mentions": [], 
   "created_at": "Fri Jan 17 00:05:54 +0000 2014", 
   "retweet_count": 19, 
   "favorite_count": 20
  }, 
  {
   "text": "Your #Flyers starters: Coburn, Couturier, Read, Lecavalier, Timonen, and Mason", 
   "label": "O", 
   "id": 423967856875667456, 
   "hashtags": [
    "Flyers"
   ], 
   "user_mentions": [], 
   "created_at": "Thu Jan 16 23:59:48 +0000 2014", 
   "retweet_count": 62, 
   "favorite_count": 60
  }, 
  {
   "text": "The view from the bench as last game's hero &amp; the rest of the squad warms up. Where are you watching from tonight? http://t.co/ZP7IC69S3q", 
   "label": "O", 
   "id": 423962180724064256, 
   "hashtags": [], 
   "user_mentions": [], 
   "created_at": "Thu Jan 16 23:37:15 +0000 2014", 
   "retweet_count": 16, 
   "favorite_count": 17
  }, 
  {
   "text": "@AlexAckley7 Nice view! Enjoy!", 
   "label": "O", 
   "id": 423961103916208128, 
   "hashtags": [], 
   "user_mentions": [
    "AlexAckley7"
   ], 
   "created_at": "Thu Jan 16 23:32:58 +0000 2014", 
   "retweet_count": 4, 
   "favorite_count": 4
  }, 
  {
   "text": "\"Allow me to reintroduce myself...\"\n\nWarm-ups are on and we're a half hour from puck drop vs. @PredsNHL!", 
   "label": "O", 
   "id": 423960316410474497, 
   "hashtags": [], 
   "user_mentions": [
    "PredsNHL"
   ], 
   "created_at": "Thu Jan 16 23:29:50 +0000 2014", 
   "retweet_count": 41, 
   "favorite_count": 48
  }, 
  {
   "text": "Only an hour to go until puck drop here at @WellsFargoCtr!\nCatch the game live on  @CSNPhilly or @975TheFanatic @ 7pm http://t.co/BTktiuskBl", 
   "label": "O", 
   "id": 423952326412361728, 
   "hashtags": [], 
   "user_mentions": [
    "WellsFargoCtr", 
    "CSNPhilly", 
    "975TheFanatic"
   ], 
   "created_at": "Thu Jan 16 22:58:05 +0000 2014", 
   "retweet_count": 68, 
   "favorite_count": 94
  }, 
  {
   "text": "ROSTER UPDATE: Steve Downie will return to the lineup tonight.", 
   "label": "O", 
   "id": 423936498820734977, 
   "hashtags": [], 
   "user_mentions": [], 
   "created_at": "Thu Jan 16 21:55:12 +0000 2014", 
   "retweet_count": 65, 
   "favorite_count": 84
  }, 
  {
   "text": "Tim Saunders &amp; @InsideTheFlyers talk tonight's Flyers-Predators game in the PowerBack Rehabilitation Preview. WATCH: http://t.co/2HfeUGqDjB", 
   "label": "O", 
   "id": 423909971772710912, 
   "hashtags": [], 
   "user_mentions": [
    "InsideTheFlyers"
   ], 
   "created_at": "Thu Jan 16 20:09:47 +0000 2014", 
   "retweet_count": 10, 
   "favorite_count": 9
  }, 
  {
   "text": "RT @InsideTheFlyers: Scott Hartnell will play tonight for the #Flyers and he says it's time to protect his feet: http://t.co/EEDzR3yAtz #NHL", 
   "label": "O", 
   "id": 423895261719453696, 
   "hashtags": [
    "Flyers", 
    "NHL"
   ], 
   "user_mentions": [
    "InsideTheFlyers"
   ], 
   "created_at": "Thu Jan 16 19:11:20 +0000 2014", 
   "retweet_count": 26, 
   "favorite_count": 0
  }, 
  {
   "text": ".@Hartsy19 spoke to the media about his injury &amp; playing tonight. See what he had to say: http://t.co/ruizQXVisv http://t.co/xNHpXBhIUP", 
   "label": "O", 
   "id": 423875044167528448, 
   "hashtags": [], 
   "user_mentions": [
    "Hartsy19"
   ], 
   "created_at": "Thu Jan 16 17:51:00 +0000 2014", 
   "retweet_count": 23, 
   "favorite_count": 43
  }, 
  {
   "text": "Tonight's starting goaltender is... http://t.co/jHiXMo8GBL", 
   "label": "O", 
   "id": 423847937614282754, 
   "hashtags": [], 
   "user_mentions": [], 
   "created_at": "Thu Jan 16 16:03:17 +0000 2014", 
   "retweet_count": 43, 
   "favorite_count": 51
  }, 
  {
   "text": "Happy game day! As the #Flyers prepare to host the @PredsNHL @ 7pm, get ready too with today's 5 things: http://t.co/aLldBQ8nJw", 
   "label": "O", 
   "id": 423839901486837760, 
   "hashtags": [
    "Flyers"
   ], 
   "user_mentions": [
    "PredsNHL"
   ], 
   "created_at": "Thu Jan 16 15:31:21 +0000 2014", 
   "retweet_count": 37, 
   "favorite_count": 36
  }
 ]
}