{
 "num_road_team_goals": "1", 
 "home_team": "Philadelphia Flyers", 
 "num_home_team_goals": "3", 
 "summary_url": "http://www.flyershistory.com/cgi-bin/poboxscore.cgi?H20130657", 
 "result": "W", 
 "road_team": "Montreal Canadiens", 
 "date": "2014-01-08", 
 "goals": [
  {
   "season_index": "8", 
   "strength": "(EV)", 
   "time": "6:27", 
   "period": "1", 
   "player": "Sean Couturier", 
   "assists": "(Vincent Lecavalier, Andrej Meszaros)", 
   "game_index": "1", 
   "team": "PHI"
  }, 
  {
   "season_index": "1", 
   "strength": "(EV)", 
   "time": "14:39", 
   "period": "1", 
   "player": "Zac Rinaldo", 
   "assists": "(Luke Schenn, Andrej Meszaros)", 
   "game_index": "2", 
   "team": "PHI"
  }, 
  {
   "season_index": "3", 
   "strength": "(EV)", 
   "time": "8:24", 
   "period": "2", 
   "player": "Michael Raffl", 
   "assists": "(Andrej Meszaros, Brayden Schenn)", 
   "game_index": "3", 
   "team": "PHI"
  }, 
  {
   "season_index": "14", 
   "strength": "(SH)", 
   "time": "17:37", 
   "period": "2", 
   "player": "T.Plekanec", 
   "assists": "(B.Gionta)", 
   "game_index": "4", 
   "team": "MTL"
  }
 ], 
 "tweets": [
  {
   "text": "#Flyers win their 10th straight at home! 3-1, with goals from Couturier, Rinaldo, and Raffl. #TheOrangeAndTheBlack http://t.co/AWVl1QPMxR", 
   "label": "O", 
   "id": 421114589917347840, 
   "hashtags": [
    "Flyers", 
    "TheOrangeAndTheBlack"
   ], 
   "user_mentions": [], 
   "created_at": "Thu Jan 09 03:01:57 +0000 2014", 
   "retweet_count": 1113, 
   "favorite_count": 653
  }, 
  {
   "text": "7 minutes remain in the 3rd as the #Flyers maintain their 3-1 lead. Also lead shots 25-17.", 
   "label": "O", 
   "id": 421111506869030912, 
   "hashtags": [
    "Flyers"
   ], 
   "user_mentions": [], 
   "created_at": "Thu Jan 09 02:49:41 +0000 2014", 
   "retweet_count": 43, 
   "favorite_count": 42
  }, 
  {
   "text": ".@RinaldoZac scored a beauty tonight for his first goal of the year. Watch it again: http://t.co/g8R3BrVE8A", 
   "label": "O", 
   "id": 421107640161153024, 
   "hashtags": [], 
   "user_mentions": [
    "RinaldoZac"
   ], 
   "created_at": "Thu Jan 09 02:34:19 +0000 2014", 
   "retweet_count": 83, 
   "favorite_count": 79
  }, 
  {
   "text": "40 minutes in the books, 20 minutes to go. #Flyers lead 3-1 as the 3rd period gets underway!", 
   "label": "O", 
   "id": 421106649130999808, 
   "hashtags": [
    "Flyers"
   ], 
   "user_mentions": [], 
   "created_at": "Thu Jan 09 02:30:23 +0000 2014", 
   "retweet_count": 32, 
   "favorite_count": 44
  }, 
  {
   "text": "@RobDollface Love you too, boo.", 
   "label": "O", 
   "id": 421105379968180224, 
   "hashtags": [], 
   "user_mentions": [
    "RobDollface"
   ], 
   "created_at": "Thu Jan 09 02:25:21 +0000 2014", 
   "retweet_count": 2, 
   "favorite_count": 13
  }, 
  {
   "text": "Subban takes a minor roughing penalty to wrap up the period after a scrum. Flyers will start the 3rd on a powerplay.", 
   "label": "O", 
   "id": 421102535730933760, 
   "hashtags": [], 
   "user_mentions": [], 
   "created_at": "Thu Jan 09 02:14:02 +0000 2014", 
   "retweet_count": 42, 
   "favorite_count": 60
  }, 
  {
   "text": "END OF 2: #Flyers lead Montreal 3-1, thanks to a 2nd period goal from Raffl. Also lead shots 21-15.", 
   "label": "O", 
   "id": 421101836666286080, 
   "hashtags": [
    "Flyers"
   ], 
   "user_mentions": [], 
   "created_at": "Thu Jan 09 02:11:16 +0000 2014", 
   "retweet_count": 46, 
   "favorite_count": 46
  }, 
  {
   "text": "Montreal makes it 3-1 with a shorthanded goal from Plekanec. 2:23 remains in the 2nd.", 
   "label": "O", 
   "id": 421100940427399169, 
   "hashtags": [], 
   "user_mentions": [], 
   "created_at": "Thu Jan 09 02:07:42 +0000 2014", 
   "retweet_count": 21, 
   "favorite_count": 10
  }, 
  {
   "text": "Both head to the box with matching fighting majors at 13:43.", 
   "label": "O", 
   "id": 421098997550305280, 
   "hashtags": [], 
   "user_mentions": [], 
   "created_at": "Thu Jan 09 01:59:59 +0000 2014", 
   "retweet_count": 21, 
   "favorite_count": 30
  }, 
  {
   "text": "Rinaldo and Prust drop the gloves", 
   "label": "O", 
   "id": 421098587921977344, 
   "hashtags": [], 
   "user_mentions": [], 
   "created_at": "Thu Jan 09 01:58:21 +0000 2014", 
   "retweet_count": 92, 
   "favorite_count": 128
  }, 
  {
   "text": "RT @V_Ros2848: Boom!! #3-0 #placeisrockin @WellsFargoCtr @NHLFlyers http://t.co/D8BCGFIFPz", 
   "label": "O", 
   "id": 421096623423254528, 
   "hashtags": [
    "placeisrockin"
   ], 
   "user_mentions": [
    "V_Ros2848", 
    "WellsFargoCtr", 
    "NHLFlyers"
   ], 
   "created_at": "Thu Jan 09 01:50:33 +0000 2014", 
   "retweet_count": 33, 
   "favorite_count": 0
  }, 
  {
   "text": "Meszaros and B. Schenn with the assists. (That's Meszaros' 3rd for the night!)", 
   "label": "O", 
   "id": 421096111273549824, 
   "hashtags": [], 
   "user_mentions": [], 
   "created_at": "Thu Jan 09 01:48:31 +0000 2014", 
   "retweet_count": 46, 
   "favorite_count": 59
  }, 
  {
   "text": "GOAL!!! Raffl makes it 3-0 with 11:36 to play in the 2nd.", 
   "label": "O", 
   "id": 421095900568502272, 
   "hashtags": [], 
   "user_mentions": [], 
   "created_at": "Thu Jan 09 01:47:40 +0000 2014", 
   "retweet_count": 205, 
   "favorite_count": 201
  }, 
  {
   "text": "Great cause! RT @KittyInATopHat: Props to the @NHLFlyers for supporting @MindingYourMind there's a reason I love this team.", 
   "label": "O", 
   "id": 421095693495705600, 
   "hashtags": [], 
   "user_mentions": [
    "KittyInATopHat", 
    "NHLFlyers", 
    "MindingYourMind"
   ], 
   "created_at": "Thu Jan 09 01:46:51 +0000 2014", 
   "retweet_count": 13, 
   "favorite_count": 18
  }, 
  {
   "text": "Tonight's Giroux's Crew includes families associated with the Minding Your Mind Foundation &amp; Youth Coalition of Lower Merion. Welcome!", 
   "label": "O", 
   "id": 421094847294894081, 
   "hashtags": [], 
   "user_mentions": [], 
   "created_at": "Thu Jan 09 01:43:29 +0000 2014", 
   "retweet_count": 18, 
   "favorite_count": 27
  }, 
  {
   "text": "@KimLeeds #dedication", 
   "label": "O", 
   "id": 421093944642908161, 
   "hashtags": [
    "dedication"
   ], 
   "user_mentions": [
    "KimLeeds"
   ], 
   "created_at": "Thu Jan 09 01:39:54 +0000 2014", 
   "retweet_count": 1, 
   "favorite_count": 1
  }, 
  {
   "text": "#Flyers back out on the ice for the second frame... #LetsGoFlyers", 
   "label": "O", 
   "id": 421092248332161024, 
   "hashtags": [
    "Flyers", 
    "LetsGoFlyers"
   ], 
   "user_mentions": [], 
   "created_at": "Thu Jan 09 01:33:10 +0000 2014", 
   "retweet_count": 42, 
   "favorite_count": 48
  }, 
  {
   "text": "Before tonight's game, GM Paul Holmgren updated media on Matt Read's condition and other injuries. WATCH: http://t.co/YY6755pqOj", 
   "label": "O", 
   "id": 421088087561605121, 
   "hashtags": [], 
   "user_mentions": [], 
   "created_at": "Thu Jan 09 01:16:38 +0000 2014", 
   "retweet_count": 9, 
   "favorite_count": 12
  }, 
  {
   "text": "END OF 1: #Flyers lead Montreal 2-0 thanks to goals from Couturier and Rinaldo. Shots even 9 apiece.", 
   "label": "O", 
   "id": 421087670979145728, 
   "hashtags": [
    "Flyers"
   ], 
   "user_mentions": [], 
   "created_at": "Thu Jan 09 01:14:58 +0000 2014", 
   "retweet_count": 97, 
   "favorite_count": 74
  }, 
  {
   "text": "L. Schenn and Meszaros credited with the assists", 
   "label": "O", 
   "id": 421085770779086848, 
   "hashtags": [], 
   "user_mentions": [], 
   "created_at": "Thu Jan 09 01:07:25 +0000 2014", 
   "retweet_count": 22, 
   "favorite_count": 76
  }, 
  {
   "text": "GOAL!!!! Rinaldo extends the #Flyers lead to 2-0 with 5:21 to play in the 1st!", 
   "label": "O", 
   "id": 421085529799540736, 
   "hashtags": [
    "Flyers"
   ], 
   "user_mentions": [], 
   "created_at": "Thu Jan 09 01:06:28 +0000 2014", 
   "retweet_count": 268, 
   "favorite_count": 245
  }, 
  {
   "text": "@paigeeyy_poo Welcome!", 
   "label": "O", 
   "id": 421085064722542592, 
   "hashtags": [], 
   "user_mentions": [
    "paigeeyy_poo"
   ], 
   "created_at": "Thu Jan 09 01:04:37 +0000 2014", 
   "retweet_count": 0, 
   "favorite_count": 0
  }, 
  {
   "text": "Past the midway point of the 1st, #Flyers lead Montreal 1-0. SOG 6-3 PHI", 
   "label": "O", 
   "id": 421084501859528704, 
   "hashtags": [
    "Flyers"
   ], 
   "user_mentions": [], 
   "created_at": "Thu Jan 09 01:02:23 +0000 2014", 
   "retweet_count": 24, 
   "favorite_count": 43
  }, 
  {
   "text": "Thanks, @napier03! MT @rjohnson021: My man @napier03 escorting Lauren Hart for national anthem at @NHLFlyers game http://t.co/S0zzrmJaHm", 
   "label": "O", 
   "id": 421084248515174400, 
   "hashtags": [], 
   "user_mentions": [
    "napier03", 
    "rjohnson021", 
    "napier03", 
    "NHLFlyers"
   ], 
   "created_at": "Thu Jan 09 01:01:22 +0000 2014", 
   "retweet_count": 14, 
   "favorite_count": 38
  }, 
  {
   "text": "@Haley_m_14 Young Gunz", 
   "label": "O", 
   "id": 421082028939833344, 
   "hashtags": [], 
   "user_mentions": [], 
   "created_at": "Thu Jan 09 00:52:33 +0000 2014", 
   "retweet_count": 2, 
   "favorite_count": 6
  }, 
  {
   "text": "Downie and Meszaros nab the assists.", 
   "label": "O", 
   "id": 421081809590304769, 
   "hashtags": [], 
   "user_mentions": [], 
   "created_at": "Thu Jan 09 00:51:41 +0000 2014", 
   "retweet_count": 15, 
   "favorite_count": 26
  }, 
  {
   "text": ".@insanesportsfan Can't stop, won't stop.", 
   "label": "O", 
   "id": 421081714971004929, 
   "hashtags": [], 
   "user_mentions": [], 
   "created_at": "Thu Jan 09 00:51:18 +0000 2014", 
   "retweet_count": 106, 
   "favorite_count": 201
  }, 
  {
   "text": "GOAL!!! Couturier opens scoring to give the #Flyers the 1-0 lead.", 
   "label": "O", 
   "id": 421081431729639424, 
   "hashtags": [
    "Flyers"
   ], 
   "user_mentions": [], 
   "created_at": "Thu Jan 09 00:50:11 +0000 2014", 
   "retweet_count": 261, 
   "favorite_count": 235
  }, 
  {
   "text": "Puck is dropped and we're underway! #GameOn", 
   "label": "O", 
   "id": 421079002405560320, 
   "hashtags": [
    "GameOn"
   ], 
   "user_mentions": [], 
   "created_at": "Thu Jan 09 00:40:32 +0000 2014", 
   "retweet_count": 69, 
   "favorite_count": 65
  }, 
  {
   "text": "Tonight anthemist Lauren Hart is being escorted to the ice by US Navy Lieutenant Chris Napierkowski from Glenside, Pa. #ThankYou", 
   "label": "O", 
   "id": 421077909067943936, 
   "hashtags": [
    "ThankYou"
   ], 
   "user_mentions": [], 
   "created_at": "Thu Jan 09 00:36:11 +0000 2014", 
   "retweet_count": 25, 
   "favorite_count": 56
  }, 
  {
   "text": "Welcome! RT @SU_lax9: First @NHLFlyers game @NHL http://t.co/Sczjjca1x0", 
   "label": "O", 
   "id": 421077151954128896, 
   "hashtags": [], 
   "user_mentions": [
    "SU_lax9", 
    "NHLFlyers", 
    "NHL"
   ], 
   "created_at": "Thu Jan 09 00:33:10 +0000 2014", 
   "retweet_count": 8, 
   "favorite_count": 9
  }, 
  {
   "text": "Your #Flyers starters: Grossmann, Downie, Couturier, Streit, Lecavalier, and Mason.", 
   "label": "O", 
   "id": 421075977788473344, 
   "hashtags": [
    "Flyers"
   ], 
   "user_mentions": [], 
   "created_at": "Thu Jan 09 00:28:30 +0000 2014", 
   "retweet_count": 66, 
   "favorite_count": 69
  }, 
  {
   "text": "RT @InsideTheFlyers: Everyone says #Flyers seeking 1st 10game home win streak since '03. True, but they can win 10 straight in regulation f\u2026", 
   "label": "O", 
   "id": 421072300037783552, 
   "hashtags": [
    "Flyers"
   ], 
   "user_mentions": [
    "InsideTheFlyers"
   ], 
   "created_at": "Thu Jan 09 00:13:54 +0000 2014", 
   "retweet_count": 53, 
   "favorite_count": 0
  }, 
  {
   "text": "For the first time in 16 days, the #Flyers are back on @WellsFargoCtr ice for warm-ups! Puck drops in 30 minutes.", 
   "label": "O", 
   "id": 421068957869568001, 
   "hashtags": [
    "Flyers"
   ], 
   "user_mentions": [
    "WellsFargoCtr"
   ], 
   "created_at": "Thu Jan 09 00:00:37 +0000 2014", 
   "retweet_count": 71, 
   "favorite_count": 86
  }, 
  {
   "text": "Only an hour to go until puck drop here at @WellsFargoCtr! Catch the game live on @CSNPhilly or @975TheFanatic! http://t.co/czy4eZUDUz", 
   "label": "O", 
   "id": 421061386689474560, 
   "hashtags": [], 
   "user_mentions": [
    "WellsFargoCtr", 
    "CSNPhilly", 
    "975TheFanatic"
   ], 
   "created_at": "Wed Jan 08 23:30:32 +0000 2014", 
   "retweet_count": 80, 
   "favorite_count": 80
  }, 
  {
   "text": ".@28CGiroux with his championship ring from the DEL's Eisb\u00e4ren Berlin. Congrats, Claude! PHOTO: http://t.co/AiPpyf6Ekh", 
   "label": "O", 
   "id": 421057999893831680, 
   "hashtags": [], 
   "user_mentions": [
    "28CGiroux"
   ], 
   "created_at": "Wed Jan 08 23:17:04 +0000 2014", 
   "retweet_count": 73, 
   "favorite_count": 89
  }, 
  {
   "text": ".@waybackburgers Head to your participating #JWB for a chance to win FREE Flyers tix &amp; more! #waybackflyers http://t.co/QpBNAOCBU4", 
   "label": "O", 
   "id": 421033334530002944, 
   "hashtags": [
    "JWB", 
    "waybackflyers"
   ], 
   "user_mentions": [
    "waybackburgers"
   ], 
   "created_at": "Wed Jan 08 21:39:04 +0000 2014", 
   "retweet_count": 10, 
   "favorite_count": 12
  }, 
  {
   "text": "#Flyers return home after a 6-game, 12-day road trip to face MTL tonight. Get ready for puck drop with 5 things: http://t.co/zu2CKACUOJ", 
   "label": "O", 
   "id": 420980274759876608, 
   "hashtags": [
    "Flyers"
   ], 
   "user_mentions": [], 
   "created_at": "Wed Jan 08 18:08:13 +0000 2014", 
   "retweet_count": 28, 
   "favorite_count": 37
  }, 
  {
   "text": "#Flyers win yesterday = 50% off at http://t.co/DzwiWUlDpT  today! Promo code FLYERS. *Valid at participating PA, NJ, DE stores. @PapaJohns", 
   "label": "O", 
   "id": 420949494255992833, 
   "hashtags": [
    "Flyers"
   ], 
   "user_mentions": [
    "PapaJohns"
   ], 
   "created_at": "Wed Jan 08 16:05:54 +0000 2014", 
   "retweet_count": 32, 
   "favorite_count": 19
  }
 ]
}