{
 "num_road_team_goals": "5", 
 "home_team": "Toronto Maple Leafs", 
 "num_home_team_goals": "4", 
 "summary_url": "http://www.flyershistory.com/cgi-bin/poboxscore.cgi?H20130542", 
 "result": "W (SO)", 
 "road_team": "Detroit Red Wings", 
 "date": "2013-12-21", 
 "goals": [
  {
   "season_index": "2", 
   "strength": "(EV)", 
   "time": "7:15", 
   "period": "1", 
   "player": "C.Franson", 
   "assists": null, 
   "game_index": "1", 
   "team": "TOR"
  }, 
  {
   "season_index": "14", 
   "strength": "(EV)", 
   "time": "8:57", 
   "period": "1", 
   "player": "P.Datsyuk", 
   "assists": "(R.Sheahan, D.Dekeyser)", 
   "game_index": "2", 
   "team": "DET"
  }, 
  {
   "season_index": "6", 
   "strength": "(EV)", 
   "time": "13:18", 
   "period": "1", 
   "player": "J.Andersson", 
   "assists": "(D.Alfredsson, B.Smith)", 
   "game_index": "3", 
   "team": "DET"
  }, 
  {
   "season_index": "2", 
   "strength": "(EV)", 
   "time": "18:08", 
   "period": "1", 
   "player": "T.Jurco", 
   "assists": "(R.Sheahan, J.Tootoo)", 
   "game_index": "4", 
   "team": "DET"
  }, 
  {
   "season_index": "3", 
   "strength": "(EV)", 
   "time": "11:45", 
   "period": "2", 
   "player": "D.Phaneuf", 
   "assists": "(J.Lupul)", 
   "game_index": "5", 
   "team": "TOR"
  }, 
  {
   "season_index": "11", 
   "strength": "(PP)", 
   "time": "18:24", 
   "period": "2", 
   "player": "J.Lupul", 
   "assists": "(P.Kessel, J.van)", 
   "game_index": "6", 
   "team": "TOR"
  }, 
  {
   "season_index": "3", 
   "strength": "(EV)", 
   "time": "8:32", 
   "period": "3", 
   "player": "D.Clarkson", 
   "assists": "(J.McClement, N.Kulemin)", 
   "game_index": "7", 
   "team": "TOR"
  }, 
  {
   "season_index": "7", 
   "strength": "(EV)", 
   "time": "13:44", 
   "period": "3", 
   "player": "T.Tatar", 
   "assists": "(T.Jurco, N.Kronwall)", 
   "game_index": "8", 
   "team": "DET"
  }
 ], 
 "tweets": [
  {
   "text": "Today's #DRW12Days contest is for an @ATT mug signed by Henrik Zetterberg! Just tell us your favorite Z memory with #DRW12Days to enter!", 
   "label": "O", 
   "id": 414613245513564160, 
   "hashtags": [
    "DRW12Days", 
    "DRW12Days"
   ], 
   "user_mentions": [
    "ATT"
   ], 
   "created_at": "Sun Dec 22 04:27:55 +0000 2013", 
   "retweet_count": 4, 
   "favorite_count": 17
  }, 
  {
   "text": "Congrats to today's winner of our #DRW12Days, @elizabeth4013; she's won a signed Nick Lidstrom cape!", 
   "label": "O", 
   "id": 414612896916570114, 
   "hashtags": [
    "DRW12Days"
   ], 
   "user_mentions": [
    "elizabeth4013"
   ], 
   "created_at": "Sun Dec 22 04:26:32 +0000 2013", 
   "retweet_count": 5, 
   "favorite_count": 27
  }, 
  {
   "text": "USPARK SOCIAL DEAL: Come see old-time hockey at Comerica! GLI, AHL, &amp; OHL tix start at just $18! \nLINK: http://t.co/it0yLN7McP\nPASS: uspark", 
   "label": "O", 
   "id": 414599455719956480, 
   "hashtags": [], 
   "user_mentions": [], 
   "created_at": "Sun Dec 22 03:33:07 +0000 2013", 
   "retweet_count": 7, 
   "favorite_count": 14
  }, 
  {
   "text": "Tonight's @AutoLab_USA Performance Play: Pavel Datsyuk roofs a beauty to put the #RedWings up early!\nhttp://t.co/6YlVFstFAJ", 
   "label": "O", 
   "id": 414598217536249856, 
   "hashtags": [
    "RedWings"
   ], 
   "user_mentions": [
    "AutoLab_USA"
   ], 
   "created_at": "Sun Dec 22 03:28:12 +0000 2013", 
   "retweet_count": 13, 
   "favorite_count": 25
  }, 
  {
   "text": "Tonight's Stars of the Game Powered by @RamTrucks are...\n1. Datsyuk (1 Goal, GW SO goal)\n2. Clarkson (1 Goal)\n3. Bernier (25 SV)", 
   "label": "O", 
   "id": 414596450656346112, 
   "hashtags": [], 
   "user_mentions": [
    "RamTrucks"
   ], 
   "created_at": "Sun Dec 22 03:21:11 +0000 2013", 
   "retweet_count": 64, 
   "favorite_count": 137
  }, 
  {
   "text": "#RedWings WIN, 5-4!!", 
   "label": "O", 
   "id": 414591554192285696, 
   "hashtags": [
    "RedWings"
   ], 
   "user_mentions": [], 
   "created_at": "Sun Dec 22 03:01:43 +0000 2013", 
   "retweet_count": 1240, 
   "favorite_count": 859
  }, 
  {
   "text": "Pav wins it in a shootout!!", 
   "label": "O", 
   "id": 414591507966865409, 
   "hashtags": [], 
   "user_mentions": [], 
   "created_at": "Sun Dec 22 03:01:32 +0000 2013", 
   "retweet_count": 830, 
   "favorite_count": 638
  }, 
  {
   "text": "Pav can win it here...", 
   "label": "O", 
   "id": 414591375036788736, 
   "hashtags": [], 
   "user_mentions": [], 
   "created_at": "Sun Dec 22 03:01:01 +0000 2013", 
   "retweet_count": 65, 
   "favorite_count": 171
  }, 
  {
   "text": "Raymond stopped!", 
   "label": "O", 
   "id": 414591331793530880, 
   "hashtags": [], 
   "user_mentions": [], 
   "created_at": "Sun Dec 22 03:00:50 +0000 2013", 
   "retweet_count": 20, 
   "favorite_count": 64
  }, 
  {
   "text": "Alfie scores!!", 
   "label": "O", 
   "id": 414591217310371840, 
   "hashtags": [], 
   "user_mentions": [], 
   "created_at": "Sun Dec 22 03:00:23 +0000 2013", 
   "retweet_count": 120, 
   "favorite_count": 212
  }, 
  {
   "text": "Toronto up first...JVR misses!", 
   "label": "O", 
   "id": 414591028402745344, 
   "hashtags": [], 
   "user_mentions": [], 
   "created_at": "Sun Dec 22 02:59:38 +0000 2013", 
   "retweet_count": 16, 
   "favorite_count": 47
  }, 
  {
   "text": "We're off to a shootout! #GoWings", 
   "label": "O", 
   "id": 414589981026295808, 
   "hashtags": [
    "GoWings"
   ], 
   "user_mentions": [], 
   "created_at": "Sun Dec 22 02:55:28 +0000 2013", 
   "retweet_count": 131, 
   "favorite_count": 121
  }, 
  {
   "text": "#RedWings earn at least a point...we're off to overtime! #GoWings", 
   "label": "O", 
   "id": 414588123251634176, 
   "hashtags": [
    "RedWings", 
    "GoWings"
   ], 
   "user_mentions": [], 
   "created_at": "Sun Dec 22 02:48:05 +0000 2013", 
   "retweet_count": 79, 
   "favorite_count": 99
  }, 
  {
   "text": "TATAR!!! Tats bangs home a rebound to tie it 4-4! #GoWings", 
   "label": "O", 
   "id": 414584915704168448, 
   "hashtags": [
    "GoWings"
   ], 
   "user_mentions": [], 
   "created_at": "Sun Dec 22 02:35:21 +0000 2013", 
   "retweet_count": 285, 
   "favorite_count": 269
  }, 
  {
   "text": "Wings kill off the penalty and go back at even strength with about 7 minutes to go #GoWings", 
   "label": "O", 
   "id": 414583843710963712, 
   "hashtags": [
    "GoWings"
   ], 
   "user_mentions": [], 
   "created_at": "Sun Dec 22 02:31:05 +0000 2013", 
   "retweet_count": 7, 
   "favorite_count": 35
  }, 
  {
   "text": "Lash goes to the box for slashing; 9:37 left in the third #TeamRehabPK #GoWings", 
   "label": "O", 
   "id": 414582473738440704, 
   "hashtags": [
    "TeamRehabPK", 
    "GoWings"
   ], 
   "user_mentions": [], 
   "created_at": "Sun Dec 22 02:25:38 +0000 2013", 
   "retweet_count": 7, 
   "favorite_count": 16
  }, 
  {
   "text": "Clarkson scores, Leafs go up 4-3 #GoWings", 
   "label": "O", 
   "id": 414581251010334720, 
   "hashtags": [
    "GoWings"
   ], 
   "user_mentions": [], 
   "created_at": "Sun Dec 22 02:20:47 +0000 2013", 
   "retweet_count": 17, 
   "favorite_count": 21
  }, 
  {
   "text": "#RedWings Power Play! Phaneuf goes off for interference at 5:25 #GoWings", 
   "label": "O", 
   "id": 414579413519310848, 
   "hashtags": [
    "RedWings", 
    "GoWings"
   ], 
   "user_mentions": [], 
   "created_at": "Sun Dec 22 02:13:29 +0000 2013", 
   "retweet_count": 17, 
   "favorite_count": 22
  }, 
  {
   "text": "Third period time! #GoWings", 
   "label": "O", 
   "id": 414577112926801920, 
   "hashtags": [
    "GoWings"
   ], 
   "user_mentions": [], 
   "created_at": "Sun Dec 22 02:04:20 +0000 2013", 
   "retweet_count": 48, 
   "favorite_count": 50
  }, 
  {
   "text": "After 2 in Toronto, we're even at 3 #GoWings", 
   "label": "O", 
   "id": 414572431588618240, 
   "hashtags": [
    "GoWings"
   ], 
   "user_mentions": [], 
   "created_at": "Sun Dec 22 01:45:44 +0000 2013", 
   "retweet_count": 35, 
   "favorite_count": 32
  }, 
  {
   "text": "Leafs score, tie it 3-3 #GoWings", 
   "label": "O", 
   "id": 414571512020992000, 
   "hashtags": [
    "GoWings"
   ], 
   "user_mentions": [], 
   "created_at": "Sun Dec 22 01:42:05 +0000 2013", 
   "retweet_count": 23, 
   "favorite_count": 25
  }, 
  {
   "text": "Kyle Quincey takes his first penalty of the night, going off for high sticking at 17:06 #TeamRehabPK #GoWings", 
   "label": "O", 
   "id": 414571110768721920, 
   "hashtags": [
    "TeamRehabPK", 
    "GoWings"
   ], 
   "user_mentions": [], 
   "created_at": "Sun Dec 22 01:40:29 +0000 2013", 
   "retweet_count": 5, 
   "favorite_count": 9
  }, 
  {
   "text": "That's why they call him the Monster; Gus makes maybe the greatest save this year to keep the #RedWings up 3-2 #GoWings", 
   "label": "O", 
   "id": 414570308767461376, 
   "hashtags": [
    "RedWings", 
    "GoWings"
   ], 
   "user_mentions": [], 
   "created_at": "Sun Dec 22 01:37:18 +0000 2013", 
   "retweet_count": 176, 
   "favorite_count": 161
  }, 
  {
   "text": "Phaneuf scores, #RedWings up 3-2 #GoWings", 
   "label": "O", 
   "id": 414568730094354432, 
   "hashtags": [
    "RedWings", 
    "GoWings"
   ], 
   "user_mentions": [], 
   "created_at": "Sun Dec 22 01:31:02 +0000 2013", 
   "retweet_count": 27, 
   "favorite_count": 27
  }, 
  {
   "text": "Just past the halfway point through 2, we're still up 3-1 #GoWings", 
   "label": "O", 
   "id": 414568366787919872, 
   "hashtags": [
    "GoWings"
   ], 
   "user_mentions": [], 
   "created_at": "Sun Dec 22 01:29:35 +0000 2013", 
   "retweet_count": 19, 
   "favorite_count": 32
  }, 
  {
   "text": "Smith heads off now for tripping, 15:46 to go in the second #TeamRehabPK #GoWings", 
   "label": "O", 
   "id": 414565394326630401, 
   "hashtags": [
    "TeamRehabPK", 
    "GoWings"
   ], 
   "user_mentions": [], 
   "created_at": "Sun Dec 22 01:17:46 +0000 2013", 
   "retweet_count": 6, 
   "favorite_count": 12
  }, 
  {
   "text": "Pav almost scored, but a Toronto player knocked the net off the moorings; #RedWings still up 3-1 #GoWings", 
   "label": "O", 
   "id": 414564782122213376, 
   "hashtags": [
    "RedWings", 
    "GoWings"
   ], 
   "user_mentions": [], 
   "created_at": "Sun Dec 22 01:15:21 +0000 2013", 
   "retweet_count": 38, 
   "favorite_count": 44
  }, 
  {
   "text": "We're back! The second period's underway #GoWings", 
   "label": "O", 
   "id": 414563722380599297, 
   "hashtags": [
    "GoWings"
   ], 
   "user_mentions": [], 
   "created_at": "Sun Dec 22 01:11:08 +0000 2013", 
   "retweet_count": 24, 
   "favorite_count": 43
  }, 
  {
   "text": "After 1 in Toronto, the #RedWings are up 3-1 thanks to goals by Pav, Andersson, and Jurco #GoWings", 
   "label": "O", 
   "id": 414559207942131713, 
   "hashtags": [
    "RedWings", 
    "GoWings"
   ], 
   "user_mentions": [], 
   "created_at": "Sun Dec 22 00:53:11 +0000 2013", 
   "retweet_count": 124, 
   "favorite_count": 104
  }, 
  {
   "text": "#RedWings take the first penalty of the game; Miller goes off for tripping with 1:04 to go in the first #TeamRehabPK #GoWings", 
   "label": "O", 
   "id": 414558832807776256, 
   "hashtags": [
    "RedWings", 
    "TeamRehabPK", 
    "GoWings"
   ], 
   "user_mentions": [], 
   "created_at": "Sun Dec 22 00:51:42 +0000 2013", 
   "retweet_count": 11, 
   "favorite_count": 18
  }, 
  {
   "text": "JURCO!!! Tomas Jurco puts the #RedWings up 3-1 with a beautiful move in front! #GoWings", 
   "label": "O", 
   "id": 414558191582580736, 
   "hashtags": [
    "RedWings", 
    "GoWings"
   ], 
   "user_mentions": [], 
   "created_at": "Sun Dec 22 00:49:09 +0000 2013", 
   "retweet_count": 227, 
   "favorite_count": 213
  }, 
  {
   "text": "ANDERSSON!!! Andy scores on a quick wraparound to put the #RedWings up 2-1! #GoWings", 
   "label": "O", 
   "id": 414555821884710912, 
   "hashtags": [
    "RedWings", 
    "GoWings"
   ], 
   "user_mentions": [], 
   "created_at": "Sun Dec 22 00:39:44 +0000 2013", 
   "retweet_count": 161, 
   "favorite_count": 176
  }, 
  {
   "text": "DATSYUK!!! Pav roofs one to tie it up at 1! #MagicMan #GoWings", 
   "label": "O", 
   "id": 414553028864114688, 
   "hashtags": [
    "MagicMan", 
    "GoWings"
   ], 
   "user_mentions": [], 
   "created_at": "Sun Dec 22 00:28:38 +0000 2013", 
   "retweet_count": 298, 
   "favorite_count": 274
  }, 
  {
   "text": "Leafs score first, go up 1-0 #GoWings", 
   "label": "O", 
   "id": 414552445818122240, 
   "hashtags": [
    "GoWings"
   ], 
   "user_mentions": [], 
   "created_at": "Sun Dec 22 00:26:19 +0000 2013", 
   "retweet_count": 22, 
   "favorite_count": 19
  }, 
  {
   "text": "It's game time, Hockeytown! #GoWings", 
   "label": "O", 
   "id": 414548039940861952, 
   "hashtags": [
    "GoWings"
   ], 
   "user_mentions": [], 
   "created_at": "Sun Dec 22 00:08:49 +0000 2013", 
   "retweet_count": 211, 
   "favorite_count": 170
  }, 
  {
   "text": "#DRWBlog Update: Here are tonight's projected lines by @flagstar - http://t.co/x77I9nvKJh", 
   "label": "O", 
   "id": 414531798438117377, 
   "hashtags": [
    "DRWBlog"
   ], 
   "user_mentions": [
    "flagstar"
   ], 
   "created_at": "Sat Dec 21 23:04:17 +0000 2013", 
   "retweet_count": 9, 
   "favorite_count": 6
  }, 
  {
   "text": "READ: DeKeyser's back, see who's in net tonight, &amp; Howie skates again in our @MichiganFirstCU Morning Skate Updates - http://t.co/4jnFibEB0P", 
   "label": "O", 
   "id": 414454172654653440, 
   "hashtags": [], 
   "user_mentions": [
    "MichiganFirstCU"
   ], 
   "created_at": "Sat Dec 21 17:55:49 +0000 2013", 
   "retweet_count": 48, 
   "favorite_count": 50
  }, 
  {
   "text": "#DRWBlog Update: Check out the @RamTrucks Keys to the game with @KenKalDRW http://t.co/ZZ5XtL1cO9", 
   "label": "O", 
   "id": 414445353677897728, 
   "hashtags": [
    "DRWBlog"
   ], 
   "user_mentions": [
    "RamTrucks", 
    "KenKalDRW"
   ], 
   "created_at": "Sat Dec 21 17:20:46 +0000 2013", 
   "retweet_count": 5, 
   "favorite_count": 6
  }, 
  {
   "text": "Join us in wishing Joe Kocur a Happy Birthday! @kocurfoundation http://t.co/cuhwilAHpf", 
   "label": "O", 
   "id": 414439415599992832, 
   "hashtags": [], 
   "user_mentions": [
    "kocurfoundation"
   ], 
   "created_at": "Sat Dec 21 16:57:11 +0000 2013", 
   "retweet_count": 173, 
   "favorite_count": 218
  }, 
  {
   "text": "US PARK SOCIAL DEAL: Come see old-time hockey at Comerica! GLI, AHL, &amp; OHL tix start at just $18! \nLINK: http://t.co/it0yLN7McP\nPASS: uspark", 
   "label": "O", 
   "id": 414419587606650881, 
   "hashtags": [], 
   "user_mentions": [], 
   "created_at": "Sat Dec 21 15:38:23 +0000 2013", 
   "retweet_count": 5, 
   "favorite_count": 6
  }, 
  {
   "text": "Congrats to the Shippeys who just got married in style! They're today's #RedWings Fans of the Day! http://t.co/aqRFSXIRD2", 
   "label": "O", 
   "id": 414393263680811010, 
   "hashtags": [
    "RedWings"
   ], 
   "user_mentions": [], 
   "created_at": "Sat Dec 21 13:53:47 +0000 2013", 
   "retweet_count": 76, 
   "favorite_count": 249
  }
 ]
}