{
 "num_road_team_goals": "1", 
 "home_team": "Columbus Blue Jackets", 
 "num_home_team_goals": "4", 
 "summary_url": "http://www.flyershistory.com/cgi-bin/poboxscore.cgi?H20130979", 
 "result": "L", 
 "road_team": "Detroit Red Wings", 
 "date": "2014-03-11", 
 "goals": [
  {
   "season_index": "4", 
   "strength": "(EV)", 
   "time": "10:24", 
   "period": "1", 
   "player": "D.Dekeyser", 
   "assists": "(D.Legwand)", 
   "game_index": "1", 
   "team": "DET"
  }, 
  {
   "season_index": "17", 
   "strength": "(EV)", 
   "time": "15:11", 
   "period": "1", 
   "player": "N.Foligno", 
   "assists": "(N.Schultz, N.Horton)", 
   "game_index": "2", 
   "team": "CBJ"
  }, 
  {
   "season_index": "12", 
   "strength": "(EV)", 
   "time": "10:08", 
   "period": "3", 
   "player": "B.Jenner", 
   "assists": null, 
   "game_index": "3", 
   "team": "CBJ"
  }, 
  {
   "season_index": "13", 
   "strength": "(EV)", 
   "time": "10:48", 
   "period": "3", 
   "player": "B.Dubinsky", 
   "assists": "(M.Calvert, N.Horton)", 
   "game_index": "4", 
   "team": "CBJ"
  }, 
  {
   "season_index": "7", 
   "strength": "(EV)", 
   "time": "15:48", 
   "period": "3", 
   "player": "D.MacKenzie", 
   "assists": "(M.Letestu, B.Comeau)", 
   "game_index": "5", 
   "team": "CBJ"
  }
 ], 
 "tweets": [
  {
   "text": "Congrats to Mule, February's @Allstate #DRWGoodHands Player of the Month &amp; to Caitlin Hayward, winner of a signed pair of Franzen's gloves!", 
   "label": "O", 
   "id": 443585332487811072, 
   "hashtags": [
    "DRWGoodHands"
   ], 
   "user_mentions": [
    "Allstate"
   ], 
   "created_at": "Wed Mar 12 03:12:39 +0000 2014", 
   "retweet_count": 18, 
   "favorite_count": 39
  }, 
  {
   "text": "Tonight's Stars of the Powered by  @RamTrucks are...\n1. Bobrovsky (39 SV)\n2. Foligno (1 Goal)\n3. Jenner (1 Goal)", 
   "label": "O", 
   "id": 443570208733949952, 
   "hashtags": [], 
   "user_mentions": [
    "RamTrucks"
   ], 
   "created_at": "Wed Mar 12 02:12:33 +0000 2014", 
   "retweet_count": 16, 
   "favorite_count": 26
  }, 
  {
   "text": "\"It's a disappointing loss...but we've got to regroup and get back at it. There's no time to feel sorry for ourselves.\" - Babcock #RedWings", 
   "label": "O", 
   "id": 443565688893214720, 
   "hashtags": [
    "RedWings"
   ], 
   "user_mentions": [], 
   "created_at": "Wed Mar 12 01:54:35 +0000 2014", 
   "retweet_count": 103, 
   "favorite_count": 100
  }, 
  {
   "text": "\"This was a big game...but the game is over now and we've got to move on. We still believe in what we have\" - Niklas Kronwall #RedWings", 
   "label": "O", 
   "id": 443562588417183744, 
   "hashtags": [
    "RedWings"
   ], 
   "user_mentions": [], 
   "created_at": "Wed Mar 12 01:42:16 +0000 2014", 
   "retweet_count": 62, 
   "favorite_count": 95
  }, 
  {
   "text": "\"I thought we had a lot of good chances, but we've got to score...and no matter what we have to play for 60 minutes\" - Kronwall #RedWings", 
   "label": "O", 
   "id": 443562435828387840, 
   "hashtags": [
    "RedWings"
   ], 
   "user_mentions": [], 
   "created_at": "Wed Mar 12 01:41:40 +0000 2014", 
   "retweet_count": 37, 
   "favorite_count": 70
  }, 
  {
   "text": "Final: Jackets 4, #RedWings 1", 
   "label": "O", 
   "id": 443559846420307968, 
   "hashtags": [
    "RedWings"
   ], 
   "user_mentions": [], 
   "created_at": "Wed Mar 12 01:31:22 +0000 2014", 
   "retweet_count": 24, 
   "favorite_count": 32
  }, 
  {
   "text": "Jackets score again. 4-1", 
   "label": "O", 
   "id": 443558537449328640, 
   "hashtags": [], 
   "user_mentions": [], 
   "created_at": "Wed Mar 12 01:26:10 +0000 2014", 
   "retweet_count": 32, 
   "favorite_count": 31
  }, 
  {
   "text": "Jackets score again, they're up 3-1 with 9:12 to go in the third #GoWings", 
   "label": "O", 
   "id": 443556387382374400, 
   "hashtags": [
    "GoWings"
   ], 
   "user_mentions": [], 
   "created_at": "Wed Mar 12 01:17:38 +0000 2014", 
   "retweet_count": 18, 
   "favorite_count": 13
  }, 
  {
   "text": "Jackets score, go up 2-1 with 9:52 left #GoWings", 
   "label": "O", 
   "id": 443555485544099840, 
   "hashtags": [
    "GoWings"
   ], 
   "user_mentions": [], 
   "created_at": "Wed Mar 12 01:14:03 +0000 2014", 
   "retweet_count": 11, 
   "favorite_count": 19
  }, 
  {
   "text": "Now it's our turn...the #RedWings go on the Power Play! Tropp gets 2 for hooking at 7:41 #GoWings", 
   "label": "O", 
   "id": 443554298492751873, 
   "hashtags": [
    "RedWings", 
    "GoWings"
   ], 
   "user_mentions": [], 
   "created_at": "Wed Mar 12 01:09:20 +0000 2014", 
   "retweet_count": 19, 
   "favorite_count": 37
  }, 
  {
   "text": "Tats is out of the box and the Wings with another huge PK #GoWings", 
   "label": "O", 
   "id": 443554155144048640, 
   "hashtags": [
    "GoWings"
   ], 
   "user_mentions": [], 
   "created_at": "Wed Mar 12 01:08:46 +0000 2014", 
   "retweet_count": 14, 
   "favorite_count": 31
  }, 
  {
   "text": "Tatar heads off now, he gets 2 for holding 4:52 into the third #TeamRehabPK #GoWings", 
   "label": "O", 
   "id": 443553275304898560, 
   "hashtags": [
    "TeamRehabPK", 
    "GoWings"
   ], 
   "user_mentions": [], 
   "created_at": "Wed Mar 12 01:05:16 +0000 2014", 
   "retweet_count": 9, 
   "favorite_count": 18
  }, 
  {
   "text": "UPDATE: Tomas Jurco will miss the rest of the game with an upper-body injury #RedWings", 
   "label": "O", 
   "id": 443552430655954944, 
   "hashtags": [
    "RedWings"
   ], 
   "user_mentions": [], 
   "created_at": "Wed Mar 12 01:01:54 +0000 2014", 
   "retweet_count": 63, 
   "favorite_count": 50
  }, 
  {
   "text": "Here we go, Hockeytown...third period! #GoWings", 
   "label": "O", 
   "id": 443550625763041280, 
   "hashtags": [
    "GoWings"
   ], 
   "user_mentions": [], 
   "created_at": "Wed Mar 12 00:54:44 +0000 2014", 
   "retweet_count": 69, 
   "favorite_count": 119
  }, 
  {
   "text": "Today's @MiLottery Lucky Number is 16...Gustav Nyquist is now tied with Z for the team lead with 16 goals. Tuesday's Mega Millions is $309M!", 
   "label": "O", 
   "id": 443548640313753600, 
   "hashtags": [], 
   "user_mentions": [
    "MILottery"
   ], 
   "created_at": "Wed Mar 12 00:46:51 +0000 2014", 
   "retweet_count": 18, 
   "favorite_count": 32
  }, 
  {
   "text": "The horn sounds and period 2 is in the books; we're still at 1-1 with shots 28-22 in favor of Detroit #GoWings", 
   "label": "O", 
   "id": 443546564200792064, 
   "hashtags": [
    "GoWings"
   ], 
   "user_mentions": [], 
   "created_at": "Wed Mar 12 00:38:36 +0000 2014", 
   "retweet_count": 29, 
   "favorite_count": 42
  }, 
  {
   "text": "#RedWings with a big kill, we're back at even strength with 10:42 left in the second #GoWings", 
   "label": "O", 
   "id": 443541348163923968, 
   "hashtags": [
    "RedWings", 
    "GoWings"
   ], 
   "user_mentions": [], 
   "created_at": "Wed Mar 12 00:17:52 +0000 2014", 
   "retweet_count": 15, 
   "favorite_count": 38
  }, 
  {
   "text": "Now Mule heads to the box for slashing; still even, 1-1, 6:12 into the second #TeamRehabPK #GoWings", 
   "label": "O", 
   "id": 443540043462750208, 
   "hashtags": [
    "TeamRehabPK", 
    "GoWings"
   ], 
   "user_mentions": [], 
   "created_at": "Wed Mar 12 00:12:41 +0000 2014", 
   "retweet_count": 15, 
   "favorite_count": 22
  }, 
  {
   "text": "Game on! The second period's underway in Columbus #GoWings", 
   "label": "O", 
   "id": 443537657109286913, 
   "hashtags": [
    "GoWings"
   ], 
   "user_mentions": [], 
   "created_at": "Wed Mar 12 00:03:12 +0000 2014", 
   "retweet_count": 35, 
   "favorite_count": 45
  }, 
  {
   "text": "Goal Summary: Danny DeKeyser (4) from David Legwand (33) #GoWings", 
   "label": "O", 
   "id": 443536282032295936, 
   "hashtags": [
    "GoWings"
   ], 
   "user_mentions": [], 
   "created_at": "Tue Mar 11 23:57:44 +0000 2014", 
   "retweet_count": 25, 
   "favorite_count": 67
  }, 
  {
   "text": "That'll do it for the first...after 1, we're tied at 1; shots are 18-8 in favor of Detroit #GoWings", 
   "label": "O", 
   "id": 443533048580435968, 
   "hashtags": [
    "GoWings"
   ], 
   "user_mentions": [], 
   "created_at": "Tue Mar 11 23:44:53 +0000 2014", 
   "retweet_count": 46, 
   "favorite_count": 45
  }, 
  {
   "text": "Quincey's gonna take the first penalty of the night for Detroit; 3:58 to go in the first #TeamRehabPK #GoWings", 
   "label": "O", 
   "id": 443531654959992832, 
   "hashtags": [
    "TeamRehabPK", 
    "GoWings"
   ], 
   "user_mentions": [], 
   "created_at": "Tue Mar 11 23:39:21 +0000 2014", 
   "retweet_count": 10, 
   "favorite_count": 23
  }, 
  {
   "text": "Jackets tie it, 1-1 #GoWings", 
   "label": "O", 
   "id": 443530825788030976, 
   "hashtags": [
    "GoWings"
   ], 
   "user_mentions": [], 
   "created_at": "Tue Mar 11 23:36:03 +0000 2014", 
   "retweet_count": 30, 
   "favorite_count": 33
  }, 
  {
   "text": "DEKEYSER!!! DK with a blast from the point finds its way through, 1-0! #GoWings", 
   "label": "O", 
   "id": 443528420967055360, 
   "hashtags": [
    "GoWings"
   ], 
   "user_mentions": [], 
   "created_at": "Tue Mar 11 23:26:30 +0000 2014", 
   "retweet_count": 285, 
   "favorite_count": 388
  }, 
  {
   "text": "Jackets with another kill; Wings have the first five shots through six minutes #GoWings", 
   "label": "O", 
   "id": 443526083460075520, 
   "hashtags": [
    "GoWings"
   ], 
   "user_mentions": [], 
   "created_at": "Tue Mar 11 23:17:13 +0000 2014", 
   "retweet_count": 9, 
   "favorite_count": 31
  }, 
  {
   "text": "#RedWings go back on the Power Play; Jackets get a Delay of Game penalty for knocking the net off at 3:44 #GoWings", 
   "label": "O", 
   "id": 443525479723978752, 
   "hashtags": [
    "RedWings", 
    "GoWings"
   ], 
   "user_mentions": [], 
   "created_at": "Tue Mar 11 23:14:49 +0000 2014", 
   "retweet_count": 14, 
   "favorite_count": 24
  }, 
  {
   "text": "#RedWings Power Play! Jack Johnson heads to the sin bin for tripping Jurco 1:17 in #GoWings", 
   "label": "O", 
   "id": 443524466329403392, 
   "hashtags": [
    "RedWings", 
    "GoWings"
   ], 
   "user_mentions": [], 
   "created_at": "Tue Mar 11 23:10:47 +0000 2014", 
   "retweet_count": 23, 
   "favorite_count": 33
  }, 
  {
   "text": "It's game time, Hockeytown! #GoWings", 
   "label": "O", 
   "id": 443523782431358977, 
   "hashtags": [
    "GoWings"
   ], 
   "user_mentions": [], 
   "created_at": "Tue Mar 11 23:08:04 +0000 2014", 
   "retweet_count": 191, 
   "favorite_count": 197
  }, 
  {
   "text": "Tonight's starters - Mule, Legwand, Nyquist, Kronwall, Ericsson and Mrazek #RedWings", 
   "label": "O", 
   "id": 443522376727543808, 
   "hashtags": [
    "RedWings"
   ], 
   "user_mentions": [], 
   "created_at": "Tue Mar 11 23:02:29 +0000 2014", 
   "retweet_count": 52, 
   "favorite_count": 98
  }, 
  {
   "text": "Just 10 minutes til puck drop! Here are tonight's projected lines by @Flagstar - http://t.co/HEBZ9rYRdj", 
   "label": "O", 
   "id": 443521245737652225, 
   "hashtags": [], 
   "user_mentions": [
    "flagstar"
   ], 
   "created_at": "Tue Mar 11 22:57:59 +0000 2014", 
   "retweet_count": 18, 
   "favorite_count": 28
  }, 
  {
   "text": "The #RedWings fans are ready here in Columbus! Trust us, there's a lot more here that couldn't fit it the picture. http://t.co/RnvYDym0Lj", 
   "label": "O", 
   "id": 443519610281660416, 
   "hashtags": [
    "RedWings"
   ], 
   "user_mentions": [], 
   "created_at": "Tue Mar 11 22:51:29 +0000 2014", 
   "retweet_count": 70, 
   "favorite_count": 133
  }, 
  {
   "text": "UPDATE: Petr Mrazek will be starting tonight; Jimmy Howard has the flu #RedWings", 
   "label": "O", 
   "id": 443515396235485185, 
   "hashtags": [
    "RedWings"
   ], 
   "user_mentions": [], 
   "created_at": "Tue Mar 11 22:34:45 +0000 2014", 
   "retweet_count": 183, 
   "favorite_count": 144
  }, 
  {
   "text": "It's @CokeZero Fan Day at The Joe and we still have some free tickets left! Tour the Wings locker room, skate at JLA, and more from 5-9 PM.", 
   "label": "O", 
   "id": 443485193983119360, 
   "hashtags": [], 
   "user_mentions": [
    "CokeZero"
   ], 
   "created_at": "Tue Mar 11 20:34:44 +0000 2014", 
   "retweet_count": 15, 
   "favorite_count": 27
  }, 
  {
   "text": "We play Columbus, Edmonton and Chicago this week; you can check out fan packages from @VividSeats HERE: http://t.co/xzg628XXN2", 
   "label": "O", 
   "id": 443475242199965697, 
   "hashtags": [], 
   "user_mentions": [
    "VividSeats"
   ], 
   "created_at": "Tue Mar 11 19:55:11 +0000 2014", 
   "retweet_count": 9, 
   "favorite_count": 35
  }, 
  {
   "text": "Think Nick's night ended after the banner was raised? Think again. Follow Nick through #LidstromNight   http://t.co/aZOjJmq7GV", 
   "label": "O", 
   "id": 443457263924441089, 
   "hashtags": [
    "LidstromNight"
   ], 
   "user_mentions": [], 
   "created_at": "Tue Mar 11 18:43:45 +0000 2014", 
   "retweet_count": 50, 
   "favorite_count": 84
  }, 
  {
   "text": "Here are today's @RamTrucks Keys to the Game with @KenKalDRW - http://t.co/BdERTGKUTw", 
   "label": "O", 
   "id": 443439154840346625, 
   "hashtags": [], 
   "user_mentions": [
    "RamTrucks", 
    "KenKalDRW"
   ], 
   "created_at": "Tue Mar 11 17:31:47 +0000 2014", 
   "retweet_count": 7, 
   "favorite_count": 14
  }, 
  {
   "text": "Join us tonight for a #RedWings Viewing Party! We're at @applebees in Lansing (6270 S Cedar St) with MSU alum @jason15woolley from 6-10 PM", 
   "label": "O", 
   "id": 443431488617332736, 
   "hashtags": [
    "RedWings"
   ], 
   "user_mentions": [
    "Applebees", 
    "jason15woolley"
   ], 
   "created_at": "Tue Mar 11 17:01:20 +0000 2014", 
   "retweet_count": 11, 
   "favorite_count": 16
  }, 
  {
   "text": "Per Mike Babcock, Jimmy Howard will get the start tonight #RedWings", 
   "label": "O", 
   "id": 443425756098473986, 
   "hashtags": [
    "RedWings"
   ], 
   "user_mentions": [], 
   "created_at": "Tue Mar 11 16:38:33 +0000 2014", 
   "retweet_count": 67, 
   "favorite_count": 124
  }, 
  {
   "text": "\"Bottom line is we both have a big game tonight...we both have 71 points... Isn't this why you play? To play in big games?\" - Babs #RedWings", 
   "label": "O", 
   "id": 443424565654323200, 
   "hashtags": [
    "RedWings"
   ], 
   "user_mentions": [], 
   "created_at": "Tue Mar 11 16:33:49 +0000 2014", 
   "retweet_count": 165, 
   "favorite_count": 191
  }, 
  {
   "text": "\"It's a day-to-day thing right now; (groin) doesn't feel too bad, so just take it day by day &amp; hopefully it feels better\" -Monster #RedWings", 
   "label": "O", 
   "id": 443422689676382208, 
   "hashtags": [
    "RedWings"
   ], 
   "user_mentions": [], 
   "created_at": "Tue Mar 11 16:26:22 +0000 2014", 
   "retweet_count": 13, 
   "favorite_count": 38
  }, 
  {
   "text": "Forward lines at morning skate: Mule-Legwand-Nyquist, Tatar-Sheahan-Jurco, Abby-Emmerton-Alfie, Miller-Glendening-Bert #RedWings", 
   "label": "O", 
   "id": 443412372573536256, 
   "hashtags": [
    "RedWings"
   ], 
   "user_mentions": [], 
   "created_at": "Tue Mar 11 15:45:22 +0000 2014", 
   "retweet_count": 58, 
   "favorite_count": 96
  }, 
  {
   "text": "It's game day, Hockeytown! The #RedWings just stepped on the ice here at Nationwide Arena for morning skate http://t.co/nPsoBHJfuM", 
   "label": "O", 
   "id": 443411288702861313, 
   "hashtags": [
    "RedWings"
   ], 
   "user_mentions": [], 
   "created_at": "Tue Mar 11 15:41:04 +0000 2014", 
   "retweet_count": 88, 
   "favorite_count": 211
  }, 
  {
   "text": "Rachel, Matthew, and Hailey throw their Wings up at The Coliseum. They're today's #RedWings Fans of the Day! http://t.co/M3qWrNw2QZ", 
   "label": "O", 
   "id": 443407543746830336, 
   "hashtags": [
    "RedWings"
   ], 
   "user_mentions": [], 
   "created_at": "Tue Mar 11 15:26:11 +0000 2014", 
   "retweet_count": 21, 
   "favorite_count": 69
  }
 ]
}