{
 "num_road_team_goals": "4", 
 "home_team": "Toronto Maple Leafs", 
 "num_home_team_goals": "2", 
 "summary_url": "http://www.flyershistory.com/cgi-bin/poboxscore.cgi?H20131111", 
 "result": "W", 
 "road_team": "Detroit Red Wings", 
 "date": "2014-03-29", 
 "goals": [
  {
   "season_index": "5", 
   "strength": "(EV)", 
   "time": "10:57", 
   "period": "1", 
   "player": "C.Franson", 
   "assists": "(J.Gardiner, J.McClement)", 
   "game_index": "1", 
   "team": "TOR"
  }, 
  {
   "season_index": "8", 
   "strength": "(SH)", 
   "time": "3:05", 
   "period": "2", 
   "player": "D.Helm", 
   "assists": "(J.Andersson)", 
   "game_index": "2", 
   "team": "DET"
  }, 
  {
   "season_index": "26", 
   "strength": "(EV)", 
   "time": "4:37", 
   "period": "2", 
   "player": "G.Nyquist", 
   "assists": "(J.Franzen, J.Kindl)", 
   "game_index": "3", 
   "team": "DET"
  }, 
  {
   "season_index": "9", 
   "strength": "(EV)", 
   "time": "7:57", 
   "period": "2", 
   "player": "D.Helm", 
   "assists": "(J.Kindl, D.Alfredsson)", 
   "game_index": "4", 
   "team": "DET"
  }, 
  {
   "season_index": "22", 
   "strength": "(EV)", 
   "time": "18:57", 
   "period": "2", 
   "player": "J.Lupul", 
   "assists": "(M.Rielly, J.Gardiner)", 
   "game_index": "5", 
   "team": "TOR"
  }, 
  {
   "season_index": "10", 
   "strength": "(EV)", 
   "time": "8:38", 
   "period": "3", 
   "player": "D.Helm", 
   "assists": "(D.Dekeyser)", 
   "game_index": "6", 
   "team": "DET"
  }
 ], 
 "tweets": [
  {
   "text": "Helmer? Howie? Tell us who you think was our @Allstate Good Hands Player of the Game. Just Tweet us his name with #DRWGoodHands", 
   "label": "O", 
   "id": 450107568829255680, 
   "hashtags": [
    "DRWGoodHands"
   ], 
   "user_mentions": [
    "Allstate"
   ], 
   "created_at": "Sun Mar 30 03:09:41 +0000 2014", 
   "retweet_count": 12, 
   "favorite_count": 64
  }, 
  {
   "text": "Tonight's @AutoLab_USA Performance Play: Darren Helm makes a dirty move to beat Bernier for the hat trick - http://t.co/b3lbCWYLLC", 
   "label": "O", 
   "id": 450103183222636544, 
   "hashtags": [], 
   "user_mentions": [
    "AutoLab_USA"
   ], 
   "created_at": "Sun Mar 30 02:52:16 +0000 2014", 
   "retweet_count": 51, 
   "favorite_count": 61
  }, 
  {
   "text": "Tonight's Stars of the Game Powered by @RamTrucks are...\n1. Helm (3 Goals)\n2. Rielly (1 Assist)\n3. Howard (25 SV)", 
   "label": "O", 
   "id": 450089993415823360, 
   "hashtags": [], 
   "user_mentions": [
    "RamTrucks"
   ], 
   "created_at": "Sun Mar 30 01:59:51 +0000 2014", 
   "retweet_count": 147, 
   "favorite_count": 262
  }, 
  {
   "text": "#RedWings WIN, 4-2!!!", 
   "label": "O", 
   "id": 450085799779135488, 
   "hashtags": [
    "RedWings"
   ], 
   "user_mentions": [], 
   "created_at": "Sun Mar 30 01:43:11 +0000 2014", 
   "retweet_count": 1341, 
   "favorite_count": 1042
  }, 
  {
   "text": "Helmer takes a penalty, just 96 seconds left #TeamRehabPK #GoWings", 
   "label": "O", 
   "id": 450084841397448705, 
   "hashtags": [
    "TeamRehabPK", 
    "GoWings"
   ], 
   "user_mentions": [], 
   "created_at": "Sun Mar 30 01:39:23 +0000 2014", 
   "retweet_count": 27, 
   "favorite_count": 52
  }, 
  {
   "text": "Just 4 minutes left, we're up 4-2 #GoWings", 
   "label": "O", 
   "id": 450083596121174016, 
   "hashtags": [
    "GoWings"
   ], 
   "user_mentions": [], 
   "created_at": "Sun Mar 30 01:34:26 +0000 2014", 
   "retweet_count": 119, 
   "favorite_count": 207
  }, 
  {
   "text": "RT @NHL: HAT TRICK ALERT: Darren Helm has three and the @DetroitRedWings lead the @MapleLeafs 4-2 mid-3rd period. http://t.co/MDaKoblxLf", 
   "label": "O", 
   "id": 450080864659972096, 
   "hashtags": [], 
   "user_mentions": [
    "NHL", 
    "DetroitRedWings", 
    "MapleLeafs"
   ], 
   "created_at": "Sun Mar 30 01:23:34 +0000 2014", 
   "retweet_count": 451, 
   "favorite_count": 0
  }, 
  {
   "text": "Wherever you are right now, throw your hat...it belongs to Darren Helm!! #HatTrick #GoWings \ud83c\udfa9\ud83d\udc51\ud83d\udc52", 
   "label": "O", 
   "id": 450080421959970816, 
   "hashtags": [
    "HatTrick", 
    "GoWings"
   ], 
   "user_mentions": [], 
   "created_at": "Sun Mar 30 01:21:49 +0000 2014", 
   "retweet_count": 1324, 
   "favorite_count": 1019
  }, 
  {
   "text": "HELM!!! \ud83d\udea8\ud83d\udea8\ud83d\udea8", 
   "label": "O", 
   "id": 450080276559839232, 
   "hashtags": [], 
   "user_mentions": [], 
   "created_at": "Sun Mar 30 01:21:14 +0000 2014", 
   "retweet_count": 501, 
   "favorite_count": 716
  }, 
  {
   "text": "Let's do this, Hockeytown... #GoWings", 
   "label": "O", 
   "id": 450076120260804608, 
   "hashtags": [
    "GoWings"
   ], 
   "user_mentions": [], 
   "created_at": "Sun Mar 30 01:04:43 +0000 2014", 
   "retweet_count": 220, 
   "favorite_count": 271
  }, 
  {
   "text": "That's it for the second; we're up 3-2 after Helm scored twice and Nyquist added one #GoWings", 
   "label": "O", 
   "id": 450071950363459585, 
   "hashtags": [
    "GoWings"
   ], 
   "user_mentions": [], 
   "created_at": "Sun Mar 30 00:48:09 +0000 2014", 
   "retweet_count": 87, 
   "favorite_count": 137
  }, 
  {
   "text": "Leafs score, 3-2 Detroit #GoWings", 
   "label": "O", 
   "id": 450070920947068928, 
   "hashtags": [
    "GoWings"
   ], 
   "user_mentions": [], 
   "created_at": "Sun Mar 30 00:44:04 +0000 2014", 
   "retweet_count": 34, 
   "favorite_count": 59
  }, 
  {
   "text": "#RedWings Power Play! Bolland goes off for roughing Darren Helm with 5:37 left #GoWings", 
   "label": "O", 
   "id": 450069300066275328, 
   "hashtags": [
    "RedWings", 
    "GoWings"
   ], 
   "user_mentions": [], 
   "created_at": "Sun Mar 30 00:37:37 +0000 2014", 
   "retweet_count": 28, 
   "favorite_count": 63
  }, 
  {
   "text": "Holy Howard #BrickWall #GoWings", 
   "label": "O", 
   "id": 450066333351165952, 
   "hashtags": [
    "BrickWall", 
    "GoWings"
   ], 
   "user_mentions": [], 
   "created_at": "Sun Mar 30 00:25:50 +0000 2014", 
   "retweet_count": 270, 
   "favorite_count": 366
  }, 
  {
   "text": "Darren Helm redirects one right in front of Bernier for his second tonight, 3-1!! #GoWings", 
   "label": "O", 
   "id": 450066034934833153, 
   "hashtags": [
    "GoWings"
   ], 
   "user_mentions": [], 
   "created_at": "Sun Mar 30 00:24:39 +0000 2014", 
   "retweet_count": 193, 
   "favorite_count": 241
  }, 
  {
   "text": "HELM AGAIN!!! \ud83d\udea8\ud83d\udea8\ud83d\udea8", 
   "label": "O", 
   "id": 450065843679158272, 
   "hashtags": [], 
   "user_mentions": [], 
   "created_at": "Sun Mar 30 00:23:53 +0000 2014", 
   "retweet_count": 395, 
   "favorite_count": 504
  }, 
  {
   "text": "With that goal, Gustav Nyquist extended his point streak to 8 games #RedWings #WhataStud", 
   "label": "O", 
   "id": 450065288495501312, 
   "hashtags": [
    "RedWings", 
    "WhataStud"
   ], 
   "user_mentions": [], 
   "created_at": "Sun Mar 30 00:21:41 +0000 2014", 
   "retweet_count": 184, 
   "favorite_count": 267
  }, 
  {
   "text": "Gustav Nyquist scores in the slot and gives us a 2-1 lead! #GooseIsLOOSE #GoWings", 
   "label": "O", 
   "id": 450063969533693952, 
   "hashtags": [
    "GooseIsLOOSE", 
    "GoWings"
   ], 
   "user_mentions": [], 
   "created_at": "Sun Mar 30 00:16:26 +0000 2014", 
   "retweet_count": 281, 
   "favorite_count": 303
  }, 
  {
   "text": "NYQUIST!!! \ud83d\udea8\ud83d\udea8\ud83d\udea8", 
   "label": "O", 
   "id": 450063769855488001, 
   "hashtags": [], 
   "user_mentions": [], 
   "created_at": "Sun Mar 30 00:15:39 +0000 2014", 
   "retweet_count": 451, 
   "favorite_count": 547
  }, 
  {
   "text": "Darren Helm evens it up at 1 with a shorty! #GoWings", 
   "label": "O", 
   "id": 450063360105512960, 
   "hashtags": [
    "GoWings"
   ], 
   "user_mentions": [], 
   "created_at": "Sun Mar 30 00:14:01 +0000 2014", 
   "retweet_count": 138, 
   "favorite_count": 205
  }, 
  {
   "text": "HELM!!! \ud83d\udea8\ud83d\udea8\ud83d\udea8", 
   "label": "O", 
   "id": 450063132371988480, 
   "hashtags": [], 
   "user_mentions": [], 
   "created_at": "Sun Mar 30 00:13:07 +0000 2014", 
   "retweet_count": 327, 
   "favorite_count": 483
  }, 
  {
   "text": "Riley Sheahan takes the first penalty of the night; holding at 2:09 #TeamRehabPK #GoWings", 
   "label": "O", 
   "id": 450062829123416064, 
   "hashtags": [
    "TeamRehabPK", 
    "GoWings"
   ], 
   "user_mentions": [], 
   "created_at": "Sun Mar 30 00:11:54 +0000 2014", 
   "retweet_count": 7, 
   "favorite_count": 35
  }, 
  {
   "text": "And we're baaaack! The second period's underway in Toronto #GoWings http://t.co/GnHaQgTMus", 
   "label": "O", 
   "id": 450062018213851136, 
   "hashtags": [
    "GoWings"
   ], 
   "user_mentions": [], 
   "created_at": "Sun Mar 30 00:08:41 +0000 2014", 
   "retweet_count": 61, 
   "favorite_count": 144
  }, 
  {
   "text": "That'll do it for the first; after 1, it's 1-0 Leafs #GoWings", 
   "label": "O", 
   "id": 450057452373815296, 
   "hashtags": [
    "GoWings"
   ], 
   "user_mentions": [], 
   "created_at": "Sat Mar 29 23:50:32 +0000 2014", 
   "retweet_count": 26, 
   "favorite_count": 41
  }, 
  {
   "text": "Leafs score first, 1-0 #GoWings", 
   "label": "O", 
   "id": 450053120068820992, 
   "hashtags": [
    "GoWings"
   ], 
   "user_mentions": [], 
   "created_at": "Sat Mar 29 23:33:20 +0000 2014", 
   "retweet_count": 28, 
   "favorite_count": 42
  }, 
  {
   "text": "It's game time, Hockeytown! #GoWings", 
   "label": "O", 
   "id": 450047306734116866, 
   "hashtags": [
    "GoWings"
   ], 
   "user_mentions": [], 
   "created_at": "Sat Mar 29 23:10:14 +0000 2014", 
   "retweet_count": 333, 
   "favorite_count": 302
  }, 
  {
   "text": "Get pumped up for tonight's game with some of the #RedWings @ConsumersEnergy Goals, Hits, &amp; Saves from this year - https://t.co/qx1cXKqdfV", 
   "label": "O", 
   "id": 450037464686538752, 
   "hashtags": [
    "RedWings"
   ], 
   "user_mentions": [
    "ConsumersEnergy"
   ], 
   "created_at": "Sat Mar 29 22:31:07 +0000 2014", 
   "retweet_count": 21, 
   "favorite_count": 42
  }, 
  {
   "text": "Less than 90 minutes til puck drop! Check out tonight's projected lines by @flagstar - http://t.co/BdERTGKUTw", 
   "label": "O", 
   "id": 450023745940234240, 
   "hashtags": [], 
   "user_mentions": [
    "flagstar"
   ], 
   "created_at": "Sat Mar 29 21:36:36 +0000 2014", 
   "retweet_count": 24, 
   "favorite_count": 55
  }, 
  {
   "text": "Join us tonight at @HARDROCK Detroit (45 Monroe) for another #RedWings Viewing Party, with special guest Eddie Mio! The fun starts at 6:30", 
   "label": "O", 
   "id": 449992199308996608, 
   "hashtags": [
    "RedWings"
   ], 
   "user_mentions": [
    "HARDROCK"
   ], 
   "created_at": "Sat Mar 29 19:31:15 +0000 2014", 
   "retweet_count": 11, 
   "favorite_count": 29
  }, 
  {
   "text": "OUT OF TOWN UPDATE: The Bruins just beat the Capitals, 4-2. Wings and Caps tied with 80 pts, but Wings have a game in hand now #RedWings", 
   "label": "O", 
   "id": 449986953895612416, 
   "hashtags": [
    "RedWings"
   ], 
   "user_mentions": [], 
   "created_at": "Sat Mar 29 19:10:24 +0000 2014", 
   "retweet_count": 167, 
   "favorite_count": 210
  }, 
  {
   "text": "WATCH: The #RedWings surprised some season ticket holders with an expenses-paid trip to a game in Columbus - http://t.co/C98rNLUUcZ", 
   "label": "O", 
   "id": 449953841157390336, 
   "hashtags": [
    "RedWings"
   ], 
   "user_mentions": [], 
   "created_at": "Sat Mar 29 16:58:50 +0000 2014", 
   "retweet_count": 13, 
   "favorite_count": 29
  }, 
  {
   "text": "WATCH: @BradGalli from @wxyzdetroit got a very important call Thursday to join us as in-arena host for a night - http://t.co/cmYFGkLIOr", 
   "label": "O", 
   "id": 449941190268309506, 
   "hashtags": [], 
   "user_mentions": [
    "BradGalli", 
    "wxyzdetroit"
   ], 
   "created_at": "Sat Mar 29 16:08:33 +0000 2014", 
   "retweet_count": 8, 
   "favorite_count": 24
  }, 
  {
   "text": "RT @HockeyHallFame: In town for the @MapleLeafs  @DetroitRedWings game? Come see the Steve Yzerman display @HockeyHallFame http://t.co/WXzv\u2026", 
   "label": "O", 
   "id": 449911506851745792, 
   "hashtags": [], 
   "user_mentions": [
    "HockeyHallFame", 
    "MapleLeafs", 
    "DetroitRedWings", 
    "HockeyHallFame"
   ], 
   "created_at": "Sat Mar 29 14:10:36 +0000 2014", 
   "retweet_count": 120, 
   "favorite_count": 0
  }, 
  {
   "text": "Sam Smith &amp; @bssmith7 pose for a selfie at yesterday's STH open practice. She's today's #RedWings Fan of the Day! http://t.co/CXL4AzMkC6", 
   "label": "O", 
   "id": 449900889545781248, 
   "hashtags": [
    "RedWings"
   ], 
   "user_mentions": [
    "bssmith7"
   ], 
   "created_at": "Sat Mar 29 13:28:25 +0000 2014", 
   "retweet_count": 45, 
   "favorite_count": 304
  }
 ]
}