{
 "num_road_team_goals": "4", 
 "home_team": "Detroit Red Wings", 
 "num_home_team_goals": "3", 
 "summary_url": "http://www.flyershistory.com/cgi-bin/poboxscore.cgi?H20131070", 
 "result": "L", 
 "road_team": "Minnesota Wild", 
 "date": "2014-03-23", 
 "goals": [
  {
   "season_index": "22", 
   "strength": "(PP)", 
   "time": "13:45", 
   "period": "1", 
   "player": "G.Nyquist", 
   "assists": "(N.Kronwall, D.Alfredsson)", 
   "game_index": "1", 
   "team": "DET"
  }, 
  {
   "season_index": "23", 
   "strength": "(EV)", 
   "time": "18:27", 
   "period": "1", 
   "player": "G.Nyquist", 
   "assists": "(T.Tatar)", 
   "game_index": "2", 
   "team": "DET"
  }, 
  {
   "season_index": "27", 
   "strength": "(PP)", 
   "time": "11:57", 
   "period": "2", 
   "player": "J.Pominville", 
   "assists": "(R.Suter, M.Koivu)", 
   "game_index": "3", 
   "team": "MIN"
  }, 
  {
   "season_index": "9", 
   "strength": "(EV)", 
   "time": "4:33", 
   "period": "3", 
   "player": "C.Coyle", 
   "assists": "(M.Moulson, M.Koivu)", 
   "game_index": "4", 
   "team": "MIN"
  }, 
  {
   "season_index": "24", 
   "strength": "(EV)", 
   "time": "6:18", 
   "period": "3", 
   "player": "Z.Parise", 
   "assists": "(M.Granlund, J.Spurgeon)", 
   "game_index": "5", 
   "team": "MIN"
  }, 
  {
   "season_index": "16", 
   "strength": "(EV)", 
   "time": "11:43", 
   "period": "3", 
   "player": "T.Tatar", 
   "assists": "(B.Smith)", 
   "game_index": "6", 
   "team": "DET"
  }, 
  {
   "season_index": "21", 
   "strength": "(EV)", 
   "time": "2:15", 
   "period": "OT", 
   "player": "M.Moulson", 
   "assists": "(J.Brodin, C.Coyle)", 
   "game_index": "7", 
   "team": "MIN"
  }
 ], 
 "tweets": [
  {
   "text": "Nyquist? Howie? Tats? Tell us who you think was our @Allstate Good Hands Player of the Game. Just Tweet us his name with #DRWGoodHands", 
   "label": "O", 
   "id": 447934334796701696, 
   "hashtags": [
    "DRWGoodHands"
   ], 
   "user_mentions": [
    "Allstate"
   ], 
   "created_at": "Mon Mar 24 03:14:02 +0000 2014", 
   "retweet_count": 8, 
   "favorite_count": 54
  }, 
  {
   "text": "Less than 90 minutes left! \n\nTickets to 3/27 vs. Montr\u00e9al Canadiens are just $30! \nLINK: http://t.co/Fxn0mtACJ3\nPASS: uspark", 
   "label": "O", 
   "id": 447927718655426560, 
   "hashtags": [], 
   "user_mentions": [], 
   "created_at": "Mon Mar 24 02:47:44 +0000 2014", 
   "retweet_count": 10, 
   "favorite_count": 14
  }, 
  {
   "text": "Tonight's @AutoLab_USA Performance Play: Nyquist beats Bryz for his second goal of the night - http://t.co/qBfsHnvI87", 
   "label": "O", 
   "id": 447924559744737281, 
   "hashtags": [], 
   "user_mentions": [
    "AutoLab_USA"
   ], 
   "created_at": "Mon Mar 24 02:35:11 +0000 2014", 
   "retweet_count": 14, 
   "favorite_count": 21
  }, 
  {
   "text": "Tonight's Stars of the Game Powered by @RamTrucks are...\n1. Moulson (1 Goal, 1 Assist)\n2. Nyquist (2 Goals)\n3. Howard (21 SV)", 
   "label": "O", 
   "id": 447921794469486593, 
   "hashtags": [], 
   "user_mentions": [
    "RamTrucks"
   ], 
   "created_at": "Mon Mar 24 02:24:12 +0000 2014", 
   "retweet_count": 36, 
   "favorite_count": 89
  }, 
  {
   "text": "Wild win on a deflection in OT, 4-3", 
   "label": "O", 
   "id": 447917638854139904, 
   "hashtags": [], 
   "user_mentions": [], 
   "created_at": "Mon Mar 24 02:07:41 +0000 2014", 
   "retweet_count": 105, 
   "favorite_count": 91
  }, 
  {
   "text": "#RedWings earn at least one huge point...we're off to overtime! #GoWings", 
   "label": "O", 
   "id": 447916483180388353, 
   "hashtags": [
    "RedWings", 
    "GoWings"
   ], 
   "user_mentions": [], 
   "created_at": "Mon Mar 24 02:03:06 +0000 2014", 
   "retweet_count": 219, 
   "favorite_count": 213
  }, 
  {
   "text": "BIG KILL. Even with less than 6 left #GoWings", 
   "label": "O", 
   "id": 447914330831716352, 
   "hashtags": [
    "GoWings"
   ], 
   "user_mentions": [], 
   "created_at": "Mon Mar 24 01:54:32 +0000 2014", 
   "retweet_count": 67, 
   "favorite_count": 121
  }, 
  {
   "text": "Lash goes off: Delay of Game at 12:07 #TeamRehabPK #GoWings", 
   "label": "O", 
   "id": 447913741879762944, 
   "hashtags": [
    "TeamRehabPK", 
    "GoWings"
   ], 
   "user_mentions": [], 
   "created_at": "Mon Mar 24 01:52:12 +0000 2014", 
   "retweet_count": 6, 
   "favorite_count": 23
  }, 
  {
   "text": "TATAR!!! \ud83d\udea8\ud83d\udea8\ud83d\udea8", 
   "label": "O", 
   "id": 447912826951061504, 
   "hashtags": [], 
   "user_mentions": [], 
   "created_at": "Mon Mar 24 01:48:34 +0000 2014", 
   "retweet_count": 497, 
   "favorite_count": 658
  }, 
  {
   "text": "Wild score, 3-2 MN #GoWings", 
   "label": "O", 
   "id": 447909920591990784, 
   "hashtags": [
    "GoWings"
   ], 
   "user_mentions": [], 
   "created_at": "Mon Mar 24 01:37:01 +0000 2014", 
   "retweet_count": 30, 
   "favorite_count": 52
  }, 
  {
   "text": "Kronwall gets slashed right in front, no call and Wild score. 2-2 #GoWings", 
   "label": "O", 
   "id": 447909200329318401, 
   "hashtags": [
    "GoWings"
   ], 
   "user_mentions": [], 
   "created_at": "Mon Mar 24 01:34:09 +0000 2014", 
   "retweet_count": 90, 
   "favorite_count": 82
  }, 
  {
   "text": "Here we go, Hockeytown...it's time for the third! #GoWings", 
   "label": "O", 
   "id": 447907240863748096, 
   "hashtags": [
    "GoWings"
   ], 
   "user_mentions": [], 
   "created_at": "Mon Mar 24 01:26:22 +0000 2014", 
   "retweet_count": 75, 
   "favorite_count": 163
  }, 
  {
   "text": "That'll do it for the second; we're up 2-1 #GoWings", 
   "label": "O", 
   "id": 447902769312043008, 
   "hashtags": [
    "GoWings"
   ], 
   "user_mentions": [], 
   "created_at": "Mon Mar 24 01:08:36 +0000 2014", 
   "retweet_count": 93, 
   "favorite_count": 126
  }, 
  {
   "text": "#RedWings Power Play! Minnesota heads to the box for hooking at 13:30 #GoWings", 
   "label": "O", 
   "id": 447899889385889792, 
   "hashtags": [
    "RedWings", 
    "GoWings"
   ], 
   "user_mentions": [], 
   "created_at": "Mon Mar 24 00:57:09 +0000 2014", 
   "retweet_count": 28, 
   "favorite_count": 51
  }, 
  {
   "text": "Pominville scores, 2-1 Detroit #GoWings", 
   "label": "O", 
   "id": 447899204200198144, 
   "hashtags": [
    "GoWings"
   ], 
   "user_mentions": [], 
   "created_at": "Mon Mar 24 00:54:26 +0000 2014", 
   "retweet_count": 31, 
   "favorite_count": 51
  }, 
  {
   "text": "Alfie rings one off the pipe, but the Wild go the other way and draw a Quincey interference #TeamRehabPK #GoWings", 
   "label": "O", 
   "id": 447898926109044736, 
   "hashtags": [
    "TeamRehabPK", 
    "GoWings"
   ], 
   "user_mentions": [], 
   "created_at": "Mon Mar 24 00:53:20 +0000 2014", 
   "retweet_count": 12, 
   "favorite_count": 33
  }, 
  {
   "text": "And we're baaack! The second period's underway #GoWings http://t.co/Yz9Pu7UP04", 
   "label": "O", 
   "id": 447893840402595840, 
   "hashtags": [
    "GoWings"
   ], 
   "user_mentions": [], 
   "created_at": "Mon Mar 24 00:33:07 +0000 2014", 
   "retweet_count": 147, 
   "favorite_count": 307
  }, 
  {
   "text": "OUT OF TOWN UPDATES: Columbus lost 2-0 today to the Islanders, Leafs are down 3-1 in New Jersey.", 
   "label": "O", 
   "id": 447890362325954560, 
   "hashtags": [], 
   "user_mentions": [], 
   "created_at": "Mon Mar 24 00:19:18 +0000 2014", 
   "retweet_count": 206, 
   "favorite_count": 316
  }, 
  {
   "text": "http://t.co/oDQKx3cx5R", 
   "label": "O", 
   "id": 447889813132554240, 
   "hashtags": [], 
   "user_mentions": [], 
   "created_at": "Mon Mar 24 00:17:07 +0000 2014", 
   "retweet_count": 525, 
   "favorite_count": 378
  }, 
  {
   "text": "Howie made all 12 saves and Nyquist scored twice in that period #MaineMen", 
   "label": "O", 
   "id": 447889385866805248, 
   "hashtags": [
    "MaineMen"
   ], 
   "user_mentions": [], 
   "created_at": "Mon Mar 24 00:15:25 +0000 2014", 
   "retweet_count": 196, 
   "favorite_count": 271
  }, 
  {
   "text": "That'll do it for the first; we're up 2-0 after a pair of goals by Nyquist #GoWings", 
   "label": "O", 
   "id": 447889269806206976, 
   "hashtags": [
    "GoWings"
   ], 
   "user_mentions": [], 
   "created_at": "Mon Mar 24 00:14:57 +0000 2014", 
   "retweet_count": 123, 
   "favorite_count": 200
  }, 
  {
   "text": "Gus undresses Bryz and scores his second of the night, 2-0 good guys!! #SNIPEQUIST #GoWings", 
   "label": "O", 
   "id": 447888716455895040, 
   "hashtags": [
    "SNIPEQUIST", 
    "GoWings"
   ], 
   "user_mentions": [], 
   "created_at": "Mon Mar 24 00:12:46 +0000 2014", 
   "retweet_count": 407, 
   "favorite_count": 312
  }, 
  {
   "text": "NYQUIST AGAIN!!! \ud83d\udea8\ud83d\udea8\ud83d\udea8", 
   "label": "O", 
   "id": 447888560830414848, 
   "hashtags": [], 
   "user_mentions": [], 
   "created_at": "Mon Mar 24 00:12:08 +0000 2014", 
   "retweet_count": 714, 
   "favorite_count": 731
  }, 
  {
   "text": "Wings with a nice kill and we're back at full strength #GoWings", 
   "label": "O", 
   "id": 447888075729821696, 
   "hashtags": [
    "GoWings"
   ], 
   "user_mentions": [], 
   "created_at": "Mon Mar 24 00:10:13 +0000 2014", 
   "retweet_count": 36, 
   "favorite_count": 100
  }, 
  {
   "text": "Legwand goes off for goalie interference...no comment. First PK of the game #TeamRehabPK #GoWings", 
   "label": "O", 
   "id": 447887502507278337, 
   "hashtags": [
    "TeamRehabPK", 
    "GoWings"
   ], 
   "user_mentions": [], 
   "created_at": "Mon Mar 24 00:07:56 +0000 2014", 
   "retweet_count": 32, 
   "favorite_count": 73
  }, 
  {
   "text": "22 goals this year = Gustav Snipequist #GoWings", 
   "label": "O", 
   "id": 447886732503945216, 
   "hashtags": [
    "GoWings"
   ], 
   "user_mentions": [], 
   "created_at": "Mon Mar 24 00:04:53 +0000 2014", 
   "retweet_count": 637, 
   "favorite_count": 540
  }, 
  {
   "text": "Gustav Nyquist slaps home a rebound and we're up 1-0! #LoosyGoosy #GoWings", 
   "label": "O", 
   "id": 447886314700939264, 
   "hashtags": [
    "LoosyGoosy", 
    "GoWings"
   ], 
   "user_mentions": [], 
   "created_at": "Mon Mar 24 00:03:13 +0000 2014", 
   "retweet_count": 224, 
   "favorite_count": 273
  }, 
  {
   "text": "NYQUIST!!! \ud83d\udea8\ud83d\udea8\ud83d\udea8", 
   "label": "O", 
   "id": 447885949486116864, 
   "hashtags": [], 
   "user_mentions": [], 
   "created_at": "Mon Mar 24 00:01:46 +0000 2014", 
   "retweet_count": 541, 
   "favorite_count": 642
  }, 
  {
   "text": "#RedWings Power Play! Charlie Coyle will head to the box for taking down Brendan Smith #GoWings", 
   "label": "O", 
   "id": 447884910800285697, 
   "hashtags": [
    "RedWings", 
    "GoWings"
   ], 
   "user_mentions": [], 
   "created_at": "Sun Mar 23 23:57:38 +0000 2014", 
   "retweet_count": 34, 
   "favorite_count": 58
  }, 
  {
   "text": "Jimmy Howard, you are just a beauty #BrickWall #GoWings", 
   "label": "O", 
   "id": 447882253214167041, 
   "hashtags": [
    "BrickWall", 
    "GoWings"
   ], 
   "user_mentions": [], 
   "created_at": "Sun Mar 23 23:47:05 +0000 2014", 
   "retweet_count": 412, 
   "favorite_count": 472
  }, 
  {
   "text": "It's game time, Hockeytown! #GoWings", 
   "label": "O", 
   "id": 447880268922093568, 
   "hashtags": [
    "GoWings"
   ], 
   "user_mentions": [], 
   "created_at": "Sun Mar 23 23:39:11 +0000 2014", 
   "retweet_count": 258, 
   "favorite_count": 235
  }, 
  {
   "text": "RT @NHLonNBCSports: TUNE IN NOW! @mnwild @DetroitRedWings on @NBCSN Click the @liveextra link--&gt; http://t.co/v8CYrx4vrY", 
   "label": "O", 
   "id": 447878607335997440, 
   "hashtags": [], 
   "user_mentions": [
    "NHLonNBCSports", 
    "mnwild", 
    "DetroitRedWings", 
    "NBCSN", 
    "LiveExtra"
   ], 
   "created_at": "Sun Mar 23 23:32:35 +0000 2014", 
   "retweet_count": 17, 
   "favorite_count": 0
  }, 
  {
   "text": "Andrew from Little Caesar's is tonight's @MichiganFirstCU Youth Skater of the Game! http://t.co/RBVLCtfU4L", 
   "label": "O", 
   "id": 447878065755262976, 
   "hashtags": [], 
   "user_mentions": [
    "MichiganFirstCU"
   ], 
   "created_at": "Sun Mar 23 23:30:26 +0000 2014", 
   "retweet_count": 29, 
   "favorite_count": 95
  }, 
  {
   "text": "UPDATE: Todd Bertuzzi is out tonight with the flu. Joakim Andersson will play #RedWings", 
   "label": "O", 
   "id": 447875153997733888, 
   "hashtags": [
    "RedWings"
   ], 
   "user_mentions": [], 
   "created_at": "Sun Mar 23 23:18:52 +0000 2014", 
   "retweet_count": 70, 
   "favorite_count": 86
  }, 
  {
   "text": "SOCIAL OFFER: Tickets to 3/27 vs. Montr\u00e9al Canadiens are just $30! OFFER ENDS AT MIDNIGHT! \nLINK: http://t.co/Fxn0mtACJ3\nPASS: uspark", 
   "label": "O", 
   "id": 447866273834094592, 
   "hashtags": [], 
   "user_mentions": [], 
   "created_at": "Sun Mar 23 22:43:35 +0000 2014", 
   "retweet_count": 12, 
   "favorite_count": 7
  }, 
  {
   "text": "Less than 2 hours til puck drop! Check out tonight's projected lines by @flagstar - http://t.co/BdERTGKUTw", 
   "label": "O", 
   "id": 447853562567991296, 
   "hashtags": [], 
   "user_mentions": [
    "flagstar"
   ], 
   "created_at": "Sun Mar 23 21:53:04 +0000 2014", 
   "retweet_count": 29, 
   "favorite_count": 54
  }, 
  {
   "text": "SOCIAL OFFER: Tickets to 3/27 vs. Montr\u00e9al Canadiens are just $30! OFFER ENDS AT MIDNIGHT. \nLINK: http://t.co/Fxn0mtACJ3\nPASS: uspark", 
   "label": "O", 
   "id": 447746417008709632, 
   "hashtags": [], 
   "user_mentions": [], 
   "created_at": "Sun Mar 23 14:47:19 +0000 2014", 
   "retweet_count": 20, 
   "favorite_count": 20
  }, 
  {
   "text": "Taylor Larowe rocks the red and white from Sydney, Australia. She's today's #RedWings Fan of the Day! http://t.co/HzGCrLo1wO", 
   "label": "O", 
   "id": 447739219377532928, 
   "hashtags": [
    "RedWings"
   ], 
   "user_mentions": [], 
   "created_at": "Sun Mar 23 14:18:43 +0000 2014", 
   "retweet_count": 17, 
   "favorite_count": 100
  }
 ]
}