{
 "num_road_team_goals": "2", 
 "home_team": "Edmonton Oilers", 
 "num_home_team_goals": "5", 
 "summary_url": "http://www.flyershistory.com/cgi-bin/poboxscore.cgi?H20131219", 
 "result": "L", 
 "road_team": "Vancouver Canucks", 
 "date": "2014-04-12", 
 "goals": [
  {
   "season_index": "1", 
   "strength": "(EV)", 
   "time": "2:14", 
   "period": "1", 
   "player": "R.Horak", 
   "assists": "(S.Pinizzotto, W.Acton)", 
   "game_index": "1", 
   "team": "EDM"
  }, 
  {
   "season_index": "7", 
   "strength": "(EV)", 
   "time": "13:17", 
   "period": "1", 
   "player": "J.Petry", 
   "assists": "(R.Nugent-Hopkins, T.Hall)", 
   "game_index": "2", 
   "team": "EDM"
  }, 
  {
   "season_index": "3", 
   "strength": "(EV)", 
   "time": "2:14", 
   "period": "2", 
   "player": "W.Acton", 
   "assists": "(P.Larsen, S.Pinizzotto)", 
   "game_index": "3", 
   "team": "EDM"
  }, 
  {
   "season_index": "12", 
   "strength": "(EV)", 
   "time": "5:25", 
   "period": "2", 
   "player": "S.Matthias", 
   "assists": "(Z.Kassian)", 
   "game_index": "4", 
   "team": "VAN"
  }, 
  {
   "season_index": "28", 
   "strength": "(PP)", 
   "time": "16:06", 
   "period": "2", 
   "player": "J.Eberle", 
   "assists": "(J.Schultz, T.Hall)", 
   "game_index": "5", 
   "team": "EDM"
  }, 
  {
   "season_index": "19", 
   "strength": "(EV)", 
   "time": "1:35", 
   "period": "3", 
   "player": "R.Nugent-Hopkins", 
   "assists": "(M.Marincin, T.Hall)", 
   "game_index": "6", 
   "team": "EDM"
  }, 
  {
   "season_index": "14", 
   "strength": "(EV)", 
   "time": "19:49", 
   "period": "3", 
   "player": "Z.Kassian", 
   "assists": "(B.Richardson, S.Matthias)", 
   "game_index": "7", 
   "team": "VAN"
  }
 ], 
 "tweets": [
  {
   "text": "Shawn Matthias scored his 12th goal of the year, but the #Canucks trail the Oilers 4-1 after the 2nd. Shots are 25-14 Vancouver.", 
   "label": "O", 
   "id": 455189563569602561, 
   "hashtags": [
    "Canucks"
   ], 
   "user_mentions": [], 
   "created_at": "Sun Apr 13 03:43:43 +0000 2014", 
   "retweet_count": 10, 
   "favorite_count": 25
  }, 
  {
   "text": "Kesler and Smyth going at it after the goal. Broken up by the refs. Shot went off Edler and in. 4-1 Edmonton. #Canucks", 
   "label": "O", 
   "id": 455187161709805568, 
   "hashtags": [
    "Canucks"
   ], 
   "user_mentions": [], 
   "created_at": "Sun Apr 13 03:34:10 +0000 2014", 
   "retweet_count": 15, 
   "favorite_count": 27
  }, 
  {
   "text": "4-1 oilers", 
   "label": "O", 
   "id": 455186887905669120, 
   "hashtags": [], 
   "user_mentions": [], 
   "created_at": "Sun Apr 13 03:33:05 +0000 2014", 
   "retweet_count": 12, 
   "favorite_count": 20
  }, 
  {
   "text": "Only one highlight for the #Canucks tonight so far. Here it be, Matthias' 12th goal of the season. \n http://t.co/1MHXFPzf9i", 
   "label": "O", 
   "id": 455186810822729728, 
   "hashtags": [
    "Canucks"
   ], 
   "user_mentions": [], 
   "created_at": "Sun Apr 13 03:32:47 +0000 2014", 
   "retweet_count": 4, 
   "favorite_count": 10
  }, 
  {
   "text": "#Canucks survive the penalties, more impressive than that was Smyth's four hour shift. Take a breather big guy. 3-1 EDM, 6 mins left in 2nd.", 
   "label": "O", 
   "id": 455185550417616896, 
   "hashtags": [
    "Canucks"
   ], 
   "user_mentions": [], 
   "created_at": "Sun Apr 13 03:27:46 +0000 2014", 
   "retweet_count": 16, 
   "favorite_count": 47
  }, 
  {
   "text": "Stanton and Edler are both in the box, Oilers have a 23-second 5-on-3 power play coming up. #Canucks", 
   "label": "O", 
   "id": 455184068595167232, 
   "hashtags": [
    "Canucks"
   ], 
   "user_mentions": [], 
   "created_at": "Sun Apr 13 03:21:53 +0000 2014", 
   "retweet_count": 3, 
   "favorite_count": 14
  }, 
  {
   "text": "With 14:35 to play in the 2nd, the #Canucks are on the board, down 3-1. Matthias gets the goal; full credit to Kassian for the sick assist.", 
   "label": "O", 
   "id": 455181929990873088, 
   "hashtags": [
    "Canucks"
   ], 
   "user_mentions": [], 
   "created_at": "Sun Apr 13 03:13:23 +0000 2014", 
   "retweet_count": 19, 
   "favorite_count": 34
  }, 
  {
   "text": "SCORES!", 
   "label": "O", 
   "id": 455181742165737472, 
   "hashtags": [], 
   "user_mentions": [], 
   "created_at": "Sun Apr 13 03:12:38 +0000 2014", 
   "retweet_count": 23, 
   "favorite_count": 79
  }, 
  {
   "text": "17:46 to play in the 2nd and it's 3-0 Edmonton. Will Acton slaps it home from the slot on a broken play. #Canucks", 
   "label": "O", 
   "id": 455180740704366592, 
   "hashtags": [
    "Canucks"
   ], 
   "user_mentions": [], 
   "created_at": "Sun Apr 13 03:08:40 +0000 2014", 
   "retweet_count": 2, 
   "favorite_count": 13
  }, 
  {
   "text": "3-0 oilers", 
   "label": "O", 
   "id": 455180565323735040, 
   "hashtags": [], 
   "user_mentions": [], 
   "created_at": "Sun Apr 13 03:07:58 +0000 2014", 
   "retweet_count": 21, 
   "favorite_count": 32
  }, 
  {
   "text": "HERE WE GO! #2ndperiod #Canucks", 
   "label": "O", 
   "id": 455180028645736448, 
   "hashtags": [
    "2ndperiod", 
    "Canucks"
   ], 
   "user_mentions": [], 
   "created_at": "Sun Apr 13 03:05:50 +0000 2014", 
   "retweet_count": 7, 
   "favorite_count": 27
  }, 
  {
   "text": "Shots are 18-5 for the #Canucks, but it's 2-0 Oilers after 20 minutes. Daniel Sedin with a team-high three shots.", 
   "label": "O", 
   "id": 455175352453988352, 
   "hashtags": [
    "Canucks"
   ], 
   "user_mentions": [], 
   "created_at": "Sun Apr 13 02:47:15 +0000 2014", 
   "retweet_count": 12, 
   "favorite_count": 15
  }, 
  {
   "text": "Michael Zalewski with a nice first NHL shot. He didn't score on it, but who knows what the result of his second shot will be. #foreshadowing", 
   "label": "O", 
   "id": 455173192446119937, 
   "hashtags": [
    "foreshadowing"
   ], 
   "user_mentions": [], 
   "created_at": "Sun Apr 13 02:38:40 +0000 2014", 
   "retweet_count": 15, 
   "favorite_count": 55
  }, 
  {
   "text": "Jeff Petry goes top corner on Markstrom and doubles Edmonton's lead. It's 2-0 Oilers, 6:36 to play in 1st. #Canucks", 
   "label": "O", 
   "id": 455172618484998144, 
   "hashtags": [
    "Canucks"
   ], 
   "user_mentions": [], 
   "created_at": "Sun Apr 13 02:36:23 +0000 2014", 
   "retweet_count": 1, 
   "favorite_count": 10
  }, 
  {
   "text": "2-0 oilers", 
   "label": "O", 
   "id": 455172150203547649, 
   "hashtags": [], 
   "user_mentions": [], 
   "created_at": "Sun Apr 13 02:34:31 +0000 2014", 
   "retweet_count": 11, 
   "favorite_count": 21
  }, 
  {
   "text": "7 mins remaining in 1st, #Canucks trail 1-0, but lead 11-3 in shots.", 
   "label": "O", 
   "id": 455172077805658112, 
   "hashtags": [
    "Canucks"
   ], 
   "user_mentions": [], 
   "created_at": "Sun Apr 13 02:34:14 +0000 2014", 
   "retweet_count": 2, 
   "favorite_count": 6
  }, 
  {
   "text": "Jensen is headed to the box and the #Canucks are headed to the kill.", 
   "label": "O", 
   "id": 455169421737484289, 
   "hashtags": [
    "Canucks"
   ], 
   "user_mentions": [], 
   "created_at": "Sun Apr 13 02:23:41 +0000 2014", 
   "retweet_count": 10, 
   "favorite_count": 18
  }, 
  {
   "text": "Markstrom responds with a nice stop on Ladner, which leads to two scoring chances for the #Canucks. 1-0 Oilers, 13:30 to play in 1st.", 
   "label": "O", 
   "id": 455168761776332800, 
   "hashtags": [
    "Canucks"
   ], 
   "user_mentions": [], 
   "created_at": "Sun Apr 13 02:21:04 +0000 2014", 
   "retweet_count": 4, 
   "favorite_count": 16
  }, 
  {
   "text": "Pinizzotto set that one up. Slick pass to Horak, who beat Markstrom. That's Pinner's 1st NHL point. 1-0 Oilers, early 1st. #Canucks", 
   "label": "O", 
   "id": 455167620577513472, 
   "hashtags": [
    "Canucks"
   ], 
   "user_mentions": [], 
   "created_at": "Sun Apr 13 02:16:32 +0000 2014", 
   "retweet_count": 12, 
   "favorite_count": 22
  }, 
  {
   "text": "oilers score", 
   "label": "O", 
   "id": 455167221527236608, 
   "hashtags": [], 
   "user_mentions": [], 
   "created_at": "Sun Apr 13 02:14:56 +0000 2014", 
   "retweet_count": 8, 
   "favorite_count": 31
  }, 
  {
   "text": "#Canucks vs. Oilers. Ready? GAME ON!", 
   "label": "O", 
   "id": 455166641958289408, 
   "hashtags": [
    "Canucks"
   ], 
   "user_mentions": [], 
   "created_at": "Sun Apr 13 02:12:38 +0000 2014", 
   "retweet_count": 24, 
   "favorite_count": 47
  }, 
  {
   "text": "Hats off to Ryan Smyth on a memorable career. Enjoy your final game (and here's hoping you don't add to your 23 career goals vs. Van!)", 
   "label": "O", 
   "id": 455165689939365888, 
   "hashtags": [], 
   "user_mentions": [], 
   "created_at": "Sun Apr 13 02:08:51 +0000 2014", 
   "retweet_count": 149, 
   "favorite_count": 191
  }, 
  {
   "text": "@JasonSolaris - We don't. but we'll look into it.", 
   "label": "O", 
   "id": 455135603152396288, 
   "hashtags": [], 
   "user_mentions": [
    "JasonSolaris"
   ], 
   "created_at": "Sun Apr 13 00:09:18 +0000 2014", 
   "retweet_count": 1, 
   "favorite_count": 1
  }, 
  {
   "text": "@ryanworrall1 - 4:30PM.", 
   "label": "O", 
   "id": 455134145384312832, 
   "hashtags": [], 
   "user_mentions": [
    "ryanworrall1"
   ], 
   "created_at": "Sun Apr 13 00:03:30 +0000 2014", 
   "retweet_count": 0, 
   "favorite_count": 0
  }, 
  {
   "text": "@isay2day - Answer: http://t.co/L7lmxoRlZL", 
   "label": "O", 
   "id": 455129958445481984, 
   "hashtags": [], 
   "user_mentions": [
    "isay2day"
   ], 
   "created_at": "Sat Apr 12 23:46:52 +0000 2014", 
   "retweet_count": 0, 
   "favorite_count": 1
  }, 
  {
   "text": "Zalewski gets his first @NHL start tonight in Edmonton. Is he excited? You tell us. WATCH: http://t.co/RwiXRKzYLr http://t.co/vkuizEbH0B", 
   "label": "O", 
   "id": 455122092787531776, 
   "hashtags": [], 
   "user_mentions": [
    "NHL"
   ], 
   "created_at": "Sat Apr 12 23:15:37 +0000 2014", 
   "retweet_count": 49, 
   "favorite_count": 78
  }, 
  {
   "text": "Torts is \u201cexcited\u201d to see Zalewski play. This - and much, much more - here: http://t.co/tNgyVOseud http://t.co/jTVdxq8xg8", 
   "label": "O", 
   "id": 455106921805381632, 
   "hashtags": [], 
   "user_mentions": [], 
   "created_at": "Sat Apr 12 22:15:20 +0000 2014", 
   "retweet_count": 20, 
   "favorite_count": 48
  }, 
  {
   "text": "@JMcDonough17 - Have your tickets? We assume doors open one hour prior to puck drop, but best to ask @EdmontonOilers.", 
   "label": "O", 
   "id": 455100359456071680, 
   "hashtags": [], 
   "user_mentions": [
    "JMcDonough17", 
    "EdmontonOilers"
   ], 
   "created_at": "Sat Apr 12 21:49:15 +0000 2014", 
   "retweet_count": 0, 
   "favorite_count": 0
  }, 
  {
   "text": "#Canucks face the Oilers tonight for the final road game of the season. WATCH the preview: http://t.co/f54Y02hBaD http://t.co/Lq89MOMKQQ", 
   "label": "O", 
   "id": 455094330467037184, 
   "hashtags": [
    "Canucks"
   ], 
   "user_mentions": [], 
   "created_at": "Sat Apr 12 21:25:18 +0000 2014", 
   "retweet_count": 13, 
   "favorite_count": 27
  }, 
  {
   "text": "@melissawiebe - We sure do care! Giving our young guns a chance to play for the final two games.", 
   "label": "O", 
   "id": 455089254943969280, 
   "hashtags": [], 
   "user_mentions": [
    "melissawiebe"
   ], 
   "created_at": "Sat Apr 12 21:05:08 +0000 2014", 
   "retweet_count": 0, 
   "favorite_count": 0
  }, 
  {
   "text": "@TheRobina - 4PM start. Joining us?", 
   "label": "O", 
   "id": 455089074261737473, 
   "hashtags": [], 
   "user_mentions": [
    "TheRobina"
   ], 
   "created_at": "Sat Apr 12 21:04:25 +0000 2014", 
   "retweet_count": 0, 
   "favorite_count": 0
  }, 
  {
   "text": "\"Pat got the most out of his players by just letting them play.\" Live stream on http://t.co/ir4c0EyUfd now. http://t.co/gqOPWIenXr", 
   "label": "O", 
   "id": 455082882218725377, 
   "hashtags": [], 
   "user_mentions": [], 
   "created_at": "Sat Apr 12 20:39:48 +0000 2014", 
   "retweet_count": 4, 
   "favorite_count": 25
  }, 
  {
   "text": "WATCH the Pat Quinn live show here, starting in 5 minutes: http://t.co/oM7LNWo5DL http://t.co/htKoGj4yiZ", 
   "label": "O", 
   "id": 455079217970298880, 
   "hashtags": [], 
   "user_mentions": [], 
   "created_at": "Sat Apr 12 20:25:15 +0000 2014", 
   "retweet_count": 6, 
   "favorite_count": 17
  }, 
  {
   "text": "We\u2019re hosting a live show in advance of Pat Quinn night. These buttons are set for 1:30PM. http://t.co/XMQGUdRe5B http://t.co/SPKezhkWVK", 
   "label": "O", 
   "id": 455071210620321792, 
   "hashtags": [], 
   "user_mentions": [], 
   "created_at": "Sat Apr 12 19:53:26 +0000 2014", 
   "retweet_count": 6, 
   "favorite_count": 21
  }, 
  {
   "text": "#Canucks face the Oilers tonight in the last road game of 2013.14. PREVIEW: http://t.co/m0fIIGQPvq http://t.co/KkWdSP7QBj", 
   "label": "O", 
   "id": 455048363441127424, 
   "hashtags": [
    "Canucks"
   ], 
   "user_mentions": [], 
   "created_at": "Sat Apr 12 18:22:38 +0000 2014", 
   "retweet_count": 24, 
   "favorite_count": 54
  }, 
  {
   "text": "#Quinning. http://t.co/JJt3nBUH3I http://t.co/a6SiTWXJUn", 
   "label": "O", 
   "id": 455044100241494017, 
   "hashtags": [
    "Quinning"
   ], 
   "user_mentions": [], 
   "created_at": "Sat Apr 12 18:05:42 +0000 2014", 
   "retweet_count": 8, 
   "favorite_count": 28
  }, 
  {
   "text": "Markstrom gets the start.", 
   "label": "O", 
   "id": 455037074006355969, 
   "hashtags": [], 
   "user_mentions": [], 
   "created_at": "Sat Apr 12 17:37:47 +0000 2014", 
   "retweet_count": 48, 
   "favorite_count": 90
  }, 
  {
   "text": "\u201cHiggins is sick and won\u2019t play. Corrado &amp; Schroeder will play tonight while Bieksa will be out.\u201d - Torts", 
   "label": "O", 
   "id": 455035722316406784, 
   "hashtags": [], 
   "user_mentions": [], 
   "created_at": "Sat Apr 12 17:32:25 +0000 2014", 
   "retweet_count": 26, 
   "favorite_count": 37
  }, 
  {
   "text": "\u201cZalewski will make his debut tonight. He\u2019s practiced really hard the last few weeks.\u201d - Torts", 
   "label": "O", 
   "id": 455035534927486976, 
   "hashtags": [], 
   "user_mentions": [], 
   "created_at": "Sat Apr 12 17:31:40 +0000 2014", 
   "retweet_count": 68, 
   "favorite_count": 78
  }, 
  {
   "text": "On the eve of Pat Quinn\u2019s induction into Ring of Honour, we\u2019re hosting a live event on YouTube at 1:30pm. Tune in. http://t.co/z8EQqd728D", 
   "label": "O", 
   "id": 455022721177759744, 
   "hashtags": [], 
   "user_mentions": [], 
   "created_at": "Sat Apr 12 16:40:45 +0000 2014", 
   "retweet_count": 20, 
   "favorite_count": 45
  }, 
  {
   "text": "@anjoot - Possibly. Word is that we already have poutine in the building...hey, @RogersArena?", 
   "label": "O", 
   "id": 455004719841546240, 
   "hashtags": [], 
   "user_mentions": [
    "anjoot", 
    "RogersArena"
   ], 
   "created_at": "Sat Apr 12 15:29:13 +0000 2014", 
   "retweet_count": 0, 
   "favorite_count": 0
  }
 ]
}