{
 "num_road_team_goals": "1", 
 "home_team": "Dallas Stars", 
 "num_home_team_goals": "6", 
 "summary_url": "http://www.flyershistory.com/cgi-bin/poboxscore.cgi?H20130944", 
 "result": "L", 
 "road_team": "Vancouver Canucks", 
 "date": "2014-03-06", 
 "goals": [
  {
   "season_index": "24", 
   "strength": "(EV)", 
   "time": "2:57", 
   "period": "1", 
   "player": "J.Benn", 
   "assists": "(T.Seguin, R.Peverley)", 
   "game_index": "1", 
   "team": "DAL"
  }, 
  {
   "season_index": "26", 
   "strength": "(PP)", 
   "time": "7:26", 
   "period": "1", 
   "player": "T.Seguin", 
   "assists": "(A.Chiasson, J.Benn)", 
   "game_index": "2", 
   "team": "DAL"
  }, 
  {
   "season_index": "27", 
   "strength": "(EV)", 
   "time": "11:59", 
   "period": "1", 
   "player": "T.Seguin", 
   "assists": "(R.Peverley, J.Benn)", 
   "game_index": "3", 
   "team": "DAL"
  }, 
  {
   "season_index": "5", 
   "strength": "(PP)", 
   "time": "2:20", 
   "period": "2", 
   "player": "A.Goligoski", 
   "assists": "(R.Whitney, T.Seguin)", 
   "game_index": "4", 
   "team": "DAL"
  }, 
  {
   "season_index": "12", 
   "strength": "(EV)", 
   "time": "12:08", 
   "period": "2", 
   "player": "R.Garbutt", 
   "assists": "(A.Goligoski, A.Roussel)", 
   "game_index": "5", 
   "team": "DAL"
  }, 
  {
   "season_index": "4", 
   "strength": "(PP)", 
   "time": "18:15", 
   "period": "2", 
   "player": "Z.Dalpe", 
   "assists": "(A.Edler, K.Bieksa)", 
   "game_index": "6", 
   "team": "VAN"
  }, 
  {
   "season_index": "28", 
   "strength": "(EV)", 
   "time": "12:53", 
   "period": "3", 
   "player": "T.Seguin", 
   "assists": "(J.Benn)", 
   "game_index": "7", 
   "team": "DAL"
  }
 ], 
 "tweets": [
  {
   "text": "Kevin Bieksa: \"If this isn't rock bottom, I don't know what is.\" #Canucks", 
   "label": "O", 
   "id": 441793606869716992, 
   "hashtags": [
    "Canucks"
   ], 
   "user_mentions": [], 
   "created_at": "Fri Mar 07 04:32:58 +0000 2014", 
   "retweet_count": 912, 
   "favorite_count": 679
  }, 
  {
   "text": "#Canucks lose for the 11th time in 12 games, 6-1 to the Stars. Zac Dalpe with the only Vancouver goal. Shots: 32-22 Van.", 
   "label": "O", 
   "id": 441788123581022208, 
   "hashtags": [
    "Canucks"
   ], 
   "user_mentions": [], 
   "created_at": "Fri Mar 07 04:11:11 +0000 2014", 
   "retweet_count": 82, 
   "favorite_count": 64
  }, 
  {
   "text": "Late 3rd, Dallas ahead 6-1. #Canucks", 
   "label": "O", 
   "id": 441787672357769216, 
   "hashtags": [
    "Canucks"
   ], 
   "user_mentions": [], 
   "created_at": "Fri Mar 07 04:09:23 +0000 2014", 
   "retweet_count": 5, 
   "favorite_count": 17
  }, 
  {
   "text": "here come the hats - seguin scores. 6-1 stars", 
   "label": "O", 
   "id": 441784815323709440, 
   "hashtags": [], 
   "user_mentions": [], 
   "created_at": "Fri Mar 07 03:58:02 +0000 2014", 
   "retweet_count": 43, 
   "favorite_count": 49
  }, 
  {
   "text": "9 minutes to play, #Canucks trailing 5-1. Vancouver now ahead in shots 24-21.", 
   "label": "O", 
   "id": 441784119698399232, 
   "hashtags": [
    "Canucks"
   ], 
   "user_mentions": [], 
   "created_at": "Fri Mar 07 03:55:16 +0000 2014", 
   "retweet_count": 9, 
   "favorite_count": 10
  }, 
  {
   "text": "@nolanestabrook - Oh come on!", 
   "label": "O", 
   "id": 441781898059468800, 
   "hashtags": [], 
   "user_mentions": [
    "nolanestabrook"
   ], 
   "created_at": "Fri Mar 07 03:46:27 +0000 2014", 
   "retweet_count": 1, 
   "favorite_count": 3
  }, 
  {
   "text": "#Canucks are 1-for-5 on the PP after failing to score there. 14:25 to play in 3rd, still 5-1 Stars.", 
   "label": "O", 
   "id": 441781210365591552, 
   "hashtags": [
    "Canucks"
   ], 
   "user_mentions": [], 
   "created_at": "Fri Mar 07 03:43:43 +0000 2014", 
   "retweet_count": 7, 
   "favorite_count": 13
  }, 
  {
   "text": "There was a #Canucks goal late in the 2nd, and it looked like this: http://t.co/aTotPV5YB9", 
   "label": "O", 
   "id": 441779332613406720, 
   "hashtags": [
    "Canucks"
   ], 
   "user_mentions": [], 
   "created_at": "Fri Mar 07 03:36:15 +0000 2014", 
   "retweet_count": 7, 
   "favorite_count": 20
  }, 
  {
   "text": "Third is a go! #Canucks", 
   "label": "O", 
   "id": 441779022402699264, 
   "hashtags": [
    "Canucks"
   ], 
   "user_mentions": [], 
   "created_at": "Fri Mar 07 03:35:01 +0000 2014", 
   "retweet_count": 4, 
   "favorite_count": 26
  }, 
  {
   "text": "Jacob Markstrom starts the 3rd in net for the #Canucks", 
   "label": "O", 
   "id": 441778799588679680, 
   "hashtags": [
    "Canucks"
   ], 
   "user_mentions": [], 
   "created_at": "Fri Mar 07 03:34:08 +0000 2014", 
   "retweet_count": 71, 
   "favorite_count": 73
  }, 
  {
   "text": "Dalpe scored for the #Canucks, but Vancouver trails 5-1 after 40 minutes. Shots are 17-15 Dallas.", 
   "label": "O", 
   "id": 441774340754145280, 
   "hashtags": [
    "Canucks"
   ], 
   "user_mentions": [], 
   "created_at": "Fri Mar 07 03:16:25 +0000 2014", 
   "retweet_count": 23, 
   "favorite_count": 31
  }, 
  {
   "text": "#Canucks are on the board. Dalpe scores to make it 5-1 Stars with 1:45 to play in 2nd period.", 
   "label": "O", 
   "id": 441773907742556160, 
   "hashtags": [
    "Canucks"
   ], 
   "user_mentions": [], 
   "created_at": "Fri Mar 07 03:14:42 +0000 2014", 
   "retweet_count": 16, 
   "favorite_count": 42
  }, 
  {
   "text": "Late 2nd, 5-0 Stars. #Canucks being outshot 17-14 overall and 9-6 this frame.", 
   "label": "O", 
   "id": 441772602496147456, 
   "hashtags": [
    "Canucks"
   ], 
   "user_mentions": [], 
   "created_at": "Fri Mar 07 03:09:30 +0000 2014", 
   "retweet_count": 16, 
   "favorite_count": 13
  }, 
  {
   "text": "stars score - 5-0 dallas", 
   "label": "O", 
   "id": 441770202616037376, 
   "hashtags": [], 
   "user_mentions": [], 
   "created_at": "Fri Mar 07 02:59:58 +0000 2014", 
   "retweet_count": 34, 
   "favorite_count": 39
  }, 
  {
   "text": "Burrows to the penalty box with 10:36 to play in the 2nd. Let's not discuss the score, we'll go with Dallas yay, Vancouver nay. #Canucks", 
   "label": "O", 
   "id": 441768635137540096, 
   "hashtags": [
    "Canucks"
   ], 
   "user_mentions": [], 
   "created_at": "Fri Mar 07 02:53:44 +0000 2014", 
   "retweet_count": 40, 
   "favorite_count": 79
  }, 
  {
   "text": "#Canucks legends and pond hockey. Perfection. Make Hockey Happen: http://t.co/0CI4ia8J8u", 
   "label": "O", 
   "id": 441766963552219136, 
   "hashtags": [
    "Canucks"
   ], 
   "user_mentions": [], 
   "created_at": "Fri Mar 07 02:47:06 +0000 2014", 
   "retweet_count": 9, 
   "favorite_count": 20
  }, 
  {
   "text": "6 mins into the 2nd, it's 4-0 Dallas. Vancouver down 12-9 in shots. #Canucks", 
   "label": "O", 
   "id": 441766445190750208, 
   "hashtags": [
    "Canucks"
   ], 
   "user_mentions": [], 
   "created_at": "Fri Mar 07 02:45:02 +0000 2014", 
   "retweet_count": 7, 
   "favorite_count": 10
  }, 
  {
   "text": "@FleurDeMar @nucksgrl @Aviewfromabroad - Glad to have you with us.", 
   "label": "O", 
   "id": 441765290272378881, 
   "hashtags": [], 
   "user_mentions": [
    "FleurDeMar", 
    "nucksgrl", 
    "Aviewfromabroad"
   ], 
   "created_at": "Fri Mar 07 02:40:27 +0000 2014", 
   "retweet_count": 0, 
   "favorite_count": 2
  }, 
  {
   "text": "17:40 to play in 2nd, PPG by Dallas makes it 4-0 Stars. #Canucks", 
   "label": "O", 
   "id": 441765102011056128, 
   "hashtags": [
    "Canucks"
   ], 
   "user_mentions": [], 
   "created_at": "Fri Mar 07 02:39:42 +0000 2014", 
   "retweet_count": 17, 
   "favorite_count": 10
  }, 
  {
   "text": "4-0 stars", 
   "label": "O", 
   "id": 441764995802865664, 
   "hashtags": [], 
   "user_mentions": [], 
   "created_at": "Fri Mar 07 02:39:17 +0000 2014", 
   "retweet_count": 28, 
   "favorite_count": 20
  }, 
  {
   "text": "Here we go! #Canucks @2ndperiod", 
   "label": "O", 
   "id": 441764280460132352, 
   "hashtags": [
    "Canucks"
   ], 
   "user_mentions": [
    "2ndperiod"
   ], 
   "created_at": "Fri Mar 07 02:36:26 +0000 2014", 
   "retweet_count": 10, 
   "favorite_count": 17
  }, 
  {
   "text": "#Canucks down 3-0 to Stars after the 1st. Shots are 8-8, Higgins &amp; Garrison with two each.", 
   "label": "O", 
   "id": 441759753916932096, 
   "hashtags": [
    "Canucks"
   ], 
   "user_mentions": [], 
   "created_at": "Fri Mar 07 02:18:27 +0000 2014", 
   "retweet_count": 16, 
   "favorite_count": 18
  }, 
  {
   "text": "Kassian hits Dillon as he comes out of the box. Kassian taken off the ice, tosses helmet as he leaves. Good draw weight. #Canucks", 
   "label": "O", 
   "id": 441759090180898816, 
   "hashtags": [
    "Canucks"
   ], 
   "user_mentions": [], 
   "created_at": "Fri Mar 07 02:15:49 +0000 2014", 
   "retweet_count": 31, 
   "favorite_count": 43
  }, 
  {
   "text": "Some rough stuff there, #Canucks end up with a power play. Vancouver goal, please.", 
   "label": "O", 
   "id": 441757927071043584, 
   "hashtags": [
    "Canucks"
   ], 
   "user_mentions": [], 
   "created_at": "Fri Mar 07 02:11:11 +0000 2014", 
   "retweet_count": 14, 
   "favorite_count": 33
  }, 
  {
   "text": "Four minutes to play in 1st. No goals against in the last four minutes. Baby steps. 3-0 Dallas. #Canucks", 
   "label": "O", 
   "id": 441757136453128192, 
   "hashtags": [
    "Canucks"
   ], 
   "user_mentions": [], 
   "created_at": "Fri Mar 07 02:08:03 +0000 2014", 
   "retweet_count": 39, 
   "favorite_count": 45
  }, 
  {
   "text": "8:01 to play in 1st, now 3-0 Dallas. Seguin with another goal, he's got three points tonight. #Canucks", 
   "label": "O", 
   "id": 441755318230728704, 
   "hashtags": [
    "Canucks"
   ], 
   "user_mentions": [], 
   "created_at": "Fri Mar 07 02:00:49 +0000 2014", 
   "retweet_count": 22, 
   "favorite_count": 17
  }, 
  {
   "text": "3-0 dallas", 
   "label": "O", 
   "id": 441755114962190336, 
   "hashtags": [], 
   "user_mentions": [], 
   "created_at": "Fri Mar 07 02:00:01 +0000 2014", 
   "retweet_count": 22, 
   "favorite_count": 24
  }, 
  {
   "text": "Midway through the 1st, 2-0 Dallas. Shots are 6-4 for the Stars. #Canucks", 
   "label": "O", 
   "id": 441754404342210560, 
   "hashtags": [
    "Canucks"
   ], 
   "user_mentions": [], 
   "created_at": "Fri Mar 07 01:57:12 +0000 2014", 
   "retweet_count": 6, 
   "favorite_count": 6
  }, 
  {
   "text": "Seguin got in alone late on the PP and it's 2-0 Dallas. Tanev had a chance at one end, Seguin doubles the lead at the other end. #Canucks", 
   "label": "O", 
   "id": 441752871613517824, 
   "hashtags": [
    "Canucks"
   ], 
   "user_mentions": [], 
   "created_at": "Fri Mar 07 01:51:06 +0000 2014", 
   "retweet_count": 14, 
   "favorite_count": 14
  }, 
  {
   "text": "2-0 stars", 
   "label": "O", 
   "id": 441752660233166848, 
   "hashtags": [], 
   "user_mentions": [], 
   "created_at": "Fri Mar 07 01:50:16 +0000 2014", 
   "retweet_count": 19, 
   "favorite_count": 20
  }, 
  {
   "text": "Stars are shooting. Lots of pressure there. Leads to Bieksa penalty. #Canucks to the kill.", 
   "label": "O", 
   "id": 441752048439394305, 
   "hashtags": [
    "Canucks"
   ], 
   "user_mentions": [], 
   "created_at": "Fri Mar 07 01:47:50 +0000 2014", 
   "retweet_count": 8, 
   "favorite_count": 8
  }, 
  {
   "text": "Less than 3 minutes into the 1st, Lack makes the first save but no one ties up Benn and it's 1-0 Stars. #Canucks", 
   "label": "O", 
   "id": 441751153966342144, 
   "hashtags": [
    "Canucks"
   ], 
   "user_mentions": [], 
   "created_at": "Fri Mar 07 01:44:17 +0000 2014", 
   "retweet_count": 11, 
   "favorite_count": 16
  }, 
  {
   "text": "stars score", 
   "label": "O", 
   "id": 441750999318167552, 
   "hashtags": [], 
   "user_mentions": [], 
   "created_at": "Fri Mar 07 01:43:40 +0000 2014", 
   "retweet_count": 18, 
   "favorite_count": 23
  }, 
  {
   "text": "#Canucks @ Stars. Ready? GAME ON!", 
   "label": "O", 
   "id": 441749690615599104, 
   "hashtags": [
    "Canucks"
   ], 
   "user_mentions": [], 
   "created_at": "Fri Mar 07 01:38:28 +0000 2014", 
   "retweet_count": 11, 
   "favorite_count": 38
  }, 
  {
   "text": "Ryan Stanton is a late scratch, Yannick Weber is in. #Canucks", 
   "label": "O", 
   "id": 441747521920958464, 
   "hashtags": [
    "Canucks"
   ], 
   "user_mentions": [], 
   "created_at": "Fri Mar 07 01:29:51 +0000 2014", 
   "retweet_count": 12, 
   "favorite_count": 23
  }, 
  {
   "text": "#Canucks lines in warm-up right now: 20-33-36, 14-17-9, 29-27-7, 49-45-21/ 2-8, 23-3, 18-5/ 31, 35", 
   "label": "O", 
   "id": 441744437933113344, 
   "hashtags": [
    "Canucks"
   ], 
   "user_mentions": [], 
   "created_at": "Fri Mar 07 01:17:35 +0000 2014", 
   "retweet_count": 17, 
   "favorite_count": 34
  }, 
  {
   "text": "Matthias makes his debut, reuniting with former teammate Jason Garrison tonight. Tidbits from morning practice: http://t.co/SxRpXsMkEZ", 
   "label": "O", 
   "id": 441729601648087042, 
   "hashtags": [], 
   "user_mentions": [], 
   "created_at": "Fri Mar 07 00:18:38 +0000 2014", 
   "retweet_count": 28, 
   "favorite_count": 39
  }, 
  {
   "text": "@gillykersh - Full details in the Rules &amp; Regs here: http://t.co/2ZmVJifhlh", 
   "label": "O", 
   "id": 441718537707880448, 
   "hashtags": [], 
   "user_mentions": [
    "gillykersh"
   ], 
   "created_at": "Thu Mar 06 23:34:40 +0000 2014", 
   "retweet_count": 0, 
   "favorite_count": 0
  }, 
  {
   "text": "@All4StarsHockey - Lack with the start.", 
   "label": "O", 
   "id": 441707397703557120, 
   "hashtags": [], 
   "user_mentions": [
    "All4StarsHockey"
   ], 
   "created_at": "Thu Mar 06 22:50:24 +0000 2014", 
   "retweet_count": 0, 
   "favorite_count": 1
  }, 
  {
   "text": "#Canucks face the Dallas Stars tonight at 5:30PM. WATCH on SNET Pacific and LISTEN on @TEAM1040.", 
   "label": "O", 
   "id": 441702630356955137, 
   "hashtags": [
    "Canucks"
   ], 
   "user_mentions": [
    "TEAM1040"
   ], 
   "created_at": "Thu Mar 06 22:31:28 +0000 2014", 
   "retweet_count": 13, 
   "favorite_count": 25
  }, 
  {
   "text": "@AminishUppal - Nice!", 
   "label": "O", 
   "id": 441686857257336832, 
   "hashtags": [], 
   "user_mentions": [
    "AminishUppal"
   ], 
   "created_at": "Thu Mar 06 21:28:47 +0000 2014", 
   "retweet_count": 0, 
   "favorite_count": 0
  }, 
  {
   "text": "Six friends, five games, 8,300km, and 6 Things you should know about cheering on the #Canucks abroad: http://t.co/fOhwti8EYr", 
   "label": "O", 
   "id": 441684845136445440, 
   "hashtags": [
    "Canucks"
   ], 
   "user_mentions": [], 
   "created_at": "Thu Mar 06 21:20:47 +0000 2014", 
   "retweet_count": 4, 
   "favorite_count": 17
  }, 
  {
   "text": "The #Canucks look to gain two points to catch the Dallas Stars tonight. Tale of Tape: http://t.co/WKF2UyZ3aF", 
   "label": "O", 
   "id": 441672209367855104, 
   "hashtags": [
    "Canucks"
   ], 
   "user_mentions": [], 
   "created_at": "Thu Mar 06 20:30:35 +0000 2014", 
   "retweet_count": 19, 
   "favorite_count": 23
  }, 
  {
   "text": "\"Richardson is out. Lack will start.\"", 
   "label": "O", 
   "id": 441630752481214464, 
   "hashtags": [], 
   "user_mentions": [], 
   "created_at": "Thu Mar 06 17:45:51 +0000 2014", 
   "retweet_count": 41, 
   "favorite_count": 66
  }, 
  {
   "text": "Torts on Matthias making his Canucks debut: \"He's a big body. I'm really anxious to see him play...and he'll play.\"", 
   "label": "O", 
   "id": 441630704225767425, 
   "hashtags": [], 
   "user_mentions": [], 
   "created_at": "Thu Mar 06 17:45:39 +0000 2014", 
   "retweet_count": 32, 
   "favorite_count": 54
  }, 
  {
   "text": "Both the Stars and Canucks swapped goalies with Florida before the deadline. Preview tonight's final season matchup: http://t.co/R1GFAGvwmB", 
   "label": "O", 
   "id": 441625791743664128, 
   "hashtags": [], 
   "user_mentions": [], 
   "created_at": "Thu Mar 06 17:26:08 +0000 2014", 
   "retweet_count": 13, 
   "favorite_count": 25
  }
 ]
}