{
 "num_road_team_goals": "1", 
 "home_team": "Vancouver Canucks", 
 "num_home_team_goals": "2", 
 "summary_url": "http://www.flyershistory.com/cgi-bin/poboxscore.cgi?H20131169", 
 "result": "W", 
 "road_team": "Los Angeles Kings", 
 "date": "2014-04-05", 
 "goals": [
  {
   "season_index": "4", 
   "strength": "(PP)", 
   "time": "19:32", 
   "period": "2", 
   "player": "S.Voynov", 
   "assists": "(J.Carter, M.Gaborik)", 
   "game_index": "1", 
   "team": "L.A"
  }, 
  {
   "season_index": "7", 
   "strength": "(PP)", 
   "time": "1:06", 
   "period": "3", 
   "player": "A.Edler", 
   "assists": "(D.Sedin, H.Sedin)", 
   "game_index": "2", 
   "team": "VAN"
  }, 
  {
   "season_index": "11", 
   "strength": "(EV)", 
   "time": "18:37", 
   "period": "3", 
   "player": "B.Richardson", 
   "assists": "(Z.Kassian, A.Edler)", 
   "game_index": "3", 
   "team": "VAN"
  }
 ], 
 "tweets": [
  {
   "text": "#Canucks lead in shots 20-19, but trail the Kings 1-0 through 40 minutes. Voynov with the goal, his 4th of the season.", 
   "label": "O", 
   "id": 452653024239157248, 
   "hashtags": [
    "Canucks"
   ], 
   "user_mentions": [], 
   "created_at": "Sun Apr 06 03:44:25 +0000 2014", 
   "retweet_count": 14, 
   "favorite_count": 18
  }, 
  {
   "text": "@14burr - Deal!", 
   "label": "O", 
   "id": 452652847344402432, 
   "hashtags": [], 
   "user_mentions": [], 
   "created_at": "Sun Apr 06 03:43:43 +0000 2014", 
   "retweet_count": 0, 
   "favorite_count": 1
  }, 
  {
   "text": "Voynov goes upstairs on Lack with 28 seconds remaining in the 2nd and it's 1-0 LA. #Canucks", 
   "label": "O", 
   "id": 452652725713776640, 
   "hashtags": [
    "Canucks"
   ], 
   "user_mentions": [], 
   "created_at": "Sun Apr 06 03:43:14 +0000 2014", 
   "retweet_count": 9, 
   "favorite_count": 14
  }, 
  {
   "text": "kings score", 
   "label": "O", 
   "id": 452652514840948736, 
   "hashtags": [], 
   "user_mentions": [], 
   "created_at": "Sun Apr 06 03:42:24 +0000 2014", 
   "retweet_count": 16, 
   "favorite_count": 19
  }, 
  {
   "text": "And Corrado just took his second ever penalty. Back-to-back trips to the sin bin. There must be cookies in there. #Canucks", 
   "label": "O", 
   "id": 452651919170088961, 
   "hashtags": [
    "Canucks"
   ], 
   "user_mentions": [], 
   "created_at": "Sun Apr 06 03:40:02 +0000 2014", 
   "retweet_count": 25, 
   "favorite_count": 73
  }, 
  {
   "text": "@14burr @LAKings - Plllllleeeeeeaaaaaassssssseeeeeee....", 
   "label": "O", 
   "id": 452651365597470720, 
   "hashtags": [], 
   "user_mentions": [
    "LAKings"
   ], 
   "created_at": "Sun Apr 06 03:37:50 +0000 2014", 
   "retweet_count": 10, 
   "favorite_count": 20
  }, 
  {
   "text": "The penalty is over and no harm was done, so let's officially congratulate @frankcorrado22 on taking his first @NHL penalty! #badboy", 
   "label": "O", 
   "id": 452650432599711744, 
   "hashtags": [
    "badboy"
   ], 
   "user_mentions": [
    "frankcorrado22", 
    "NHL"
   ], 
   "created_at": "Sun Apr 06 03:34:07 +0000 2014", 
   "retweet_count": 31, 
   "favorite_count": 90
  }, 
  {
   "text": "Kassian to Richardson...nice stop by Quick. Shots are now 17-15 #Canucks as Corrado takes a penalty.", 
   "label": "O", 
   "id": 452648572761440256, 
   "hashtags": [
    "Canucks"
   ], 
   "user_mentions": [], 
   "created_at": "Sun Apr 06 03:26:44 +0000 2014", 
   "retweet_count": 4, 
   "favorite_count": 21
  }, 
  {
   "text": "@amellywood @RobbieAmell - We know you both have @VanCanucks shirts on underneath. Appreciate the support!", 
   "label": "O", 
   "id": 452648187934031872, 
   "hashtags": [], 
   "user_mentions": [
    "amellywood", 
    "RobbieAmell", 
    "VanCanucks"
   ], 
   "created_at": "Sun Apr 06 03:25:12 +0000 2014", 
   "retweet_count": 12, 
   "favorite_count": 33
  }, 
  {
   "text": "And a hooking penalty to Richards puts the #Canucks on a 4-on-3 power play forrrrrr 34 seconds.", 
   "label": "O", 
   "id": 452647785897426944, 
   "hashtags": [
    "Canucks"
   ], 
   "user_mentions": [], 
   "created_at": "Sun Apr 06 03:23:36 +0000 2014", 
   "retweet_count": 7, 
   "favorite_count": 21
  }, 
  {
   "text": "Bieksa is off for roughing with 1:10 left in the #Canucks PP. That call was funny. We'll leave it at that.", 
   "label": "O", 
   "id": 452647379083489280, 
   "hashtags": [
    "Canucks"
   ], 
   "user_mentions": [], 
   "created_at": "Sun Apr 06 03:21:59 +0000 2014", 
   "retweet_count": 6, 
   "favorite_count": 35
  }, 
  {
   "text": "#Canucks to the power play with 11:50 to play in the 2nd. 0-0 score, LA leads in shots 15-14.", 
   "label": "O", 
   "id": 452646817524883456, 
   "hashtags": [
    "Canucks"
   ], 
   "user_mentions": [], 
   "created_at": "Sun Apr 06 03:19:45 +0000 2014", 
   "retweet_count": 4, 
   "favorite_count": 19
  }, 
  {
   "text": "@wilw - *goalie stick tap appreciated*", 
   "label": "O", 
   "id": 452644185322323968, 
   "hashtags": [], 
   "user_mentions": [
    "wilw"
   ], 
   "created_at": "Sun Apr 06 03:09:18 +0000 2014", 
   "retweet_count": 4, 
   "favorite_count": 33
  }, 
  {
   "text": "'EDDIE EDDIE EDDIE' chant after that remarkable save by Lack on Toffoli. #Tuffsave #Canucks", 
   "label": "O", 
   "id": 452643868186791936, 
   "hashtags": [
    "Tuffsave", 
    "Canucks"
   ], 
   "user_mentions": [], 
   "created_at": "Sun Apr 06 03:08:02 +0000 2014", 
   "retweet_count": 43, 
   "favorite_count": 130
  }, 
  {
   "text": "HERE WE GO! #Canucks #2ndperiod", 
   "label": "O", 
   "id": 452643127065837568, 
   "hashtags": [
    "Canucks", 
    "2ndperiod"
   ], 
   "user_mentions": [], 
   "created_at": "Sun Apr 06 03:05:05 +0000 2014", 
   "retweet_count": 13, 
   "favorite_count": 34
  }, 
  {
   "text": "#Canucks and Kings are tied 0-0 after 20 minutes in Vancouver. Shots are 12-11 LA; Matthias and Edler with 2 shots each.", 
   "label": "O", 
   "id": 452638408377393152, 
   "hashtags": [
    "Canucks"
   ], 
   "user_mentions": [], 
   "created_at": "Sun Apr 06 02:46:20 +0000 2014", 
   "retweet_count": 24, 
   "favorite_count": 27
  }, 
  {
   "text": "We're no lip-reading experts, but it appears as if Burrows and Mitchell \"like\" each other and just had \"nice\" things to say...", 
   "label": "O", 
   "id": 452636796594421760, 
   "hashtags": [], 
   "user_mentions": [], 
   "created_at": "Sun Apr 06 02:39:56 +0000 2014", 
   "retweet_count": 44, 
   "favorite_count": 101
  }, 
  {
   "text": "It's been a fast game, but not that fast. It's the 1st period, not the 3rd. #ourbad #Canucks", 
   "label": "O", 
   "id": 452634729863725056, 
   "hashtags": [
    "ourbad", 
    "Canucks"
   ], 
   "user_mentions": [], 
   "created_at": "Sun Apr 06 02:31:43 +0000 2014", 
   "retweet_count": 11, 
   "favorite_count": 54
  }, 
  {
   "text": "Not once, not twice, but thrice! Lack with three big stops at the side of the net. 0-0 game, 8:52 remaining in the 3rd. #Canucks", 
   "label": "O", 
   "id": 452634273515069440, 
   "hashtags": [
    "Canucks"
   ], 
   "user_mentions": [], 
   "created_at": "Sun Apr 06 02:29:55 +0000 2014", 
   "retweet_count": 10, 
   "favorite_count": 38
  }, 
  {
   "text": "6 minutes into the 1st period, 0-0 game, shots are 5-2 Kings. #Canucks", 
   "label": "O", 
   "id": 452631599226830848, 
   "hashtags": [
    "Canucks"
   ], 
   "user_mentions": [], 
   "created_at": "Sun Apr 06 02:19:17 +0000 2014", 
   "retweet_count": 6, 
   "favorite_count": 20
  }, 
  {
   "text": "@LAKings - Ya, the new popcorn machine in our press box sure is a beauty! How's things?", 
   "label": "O", 
   "id": 452631499414978560, 
   "hashtags": [], 
   "user_mentions": [
    "LAKings"
   ], 
   "created_at": "Sun Apr 06 02:18:53 +0000 2014", 
   "retweet_count": 12, 
   "favorite_count": 35
  }, 
  {
   "text": "@LAKings - Hey guys, so nice to see you again", 
   "label": "O", 
   "id": 452630288641052672, 
   "hashtags": [], 
   "user_mentions": [
    "LAKings"
   ], 
   "created_at": "Sun Apr 06 02:14:04 +0000 2014", 
   "retweet_count": 24, 
   "favorite_count": 52
  }, 
  {
   "text": "#Canucks vs. Kings. You ready? GAME ON!", 
   "label": "O", 
   "id": 452629281848688640, 
   "hashtags": [
    "Canucks"
   ], 
   "user_mentions": [], 
   "created_at": "Sun Apr 06 02:10:04 +0000 2014", 
   "retweet_count": 40, 
   "favorite_count": 74
  }, 
  {
   "text": "@martinh1972 - Solid!", 
   "label": "O", 
   "id": 452621380513988609, 
   "hashtags": [], 
   "user_mentions": [
    "martinh1972"
   ], 
   "created_at": "Sun Apr 06 01:38:41 +0000 2014", 
   "retweet_count": 0, 
   "favorite_count": 0
  }, 
  {
   "text": "Corrado on the ice for warm-up. Weber not skating. http://t.co/TK0Ry0kBiH", 
   "label": "O", 
   "id": 452619602221346816, 
   "hashtags": [], 
   "user_mentions": [], 
   "created_at": "Sun Apr 06 01:31:37 +0000 2014", 
   "retweet_count": 26, 
   "favorite_count": 68
  }, 
  {
   "text": "#Canucks will fight to the finish, beginning tonight in a royal matchup with LA. READ: http://t.co/Oqz0cSFnbR http://t.co/fnofQGao7o", 
   "label": "O", 
   "id": 452599150312714240, 
   "hashtags": [
    "Canucks"
   ], 
   "user_mentions": [], 
   "created_at": "Sun Apr 06 00:10:20 +0000 2014", 
   "retweet_count": 21, 
   "favorite_count": 37
  }, 
  {
   "text": "Henrik returns as the #Canucks face the Kings in @RogersArena tonight. Hear from Torts: http://t.co/UQA1nFo4J8 http://t.co/zWXTR1YbhZ", 
   "label": "O", 
   "id": 452589139251429376, 
   "hashtags": [
    "Canucks"
   ], 
   "user_mentions": [
    "RogersArena"
   ], 
   "created_at": "Sat Apr 05 23:30:34 +0000 2014", 
   "retweet_count": 14, 
   "favorite_count": 38
  }, 
  {
   "text": "#Canucks and Kings. 7PM. WATCH on @hockeynight | LISTEN on @TEAM1040. http://t.co/dq7HufRHqA", 
   "label": "O", 
   "id": 452572671046594561, 
   "hashtags": [
    "Canucks"
   ], 
   "user_mentions": [
    "hockeynight", 
    "TEAM1040"
   ], 
   "created_at": "Sat Apr 05 22:25:07 +0000 2014", 
   "retweet_count": 27, 
   "favorite_count": 48
  }, 
  {
   "text": "@andylassner - The catch? Check out this rain.", 
   "label": "O", 
   "id": 452568308664254465, 
   "hashtags": [], 
   "user_mentions": [
    "andylassner"
   ], 
   "created_at": "Sat Apr 05 22:07:47 +0000 2014", 
   "retweet_count": 1, 
   "favorite_count": 14
  }, 
  {
   "text": "@JesseSwitala - No timeline.", 
   "label": "O", 
   "id": 452564740695666688, 
   "hashtags": [], 
   "user_mentions": [
    "JesseSwitala"
   ], 
   "created_at": "Sat Apr 05 21:53:37 +0000 2014", 
   "retweet_count": 0, 
   "favorite_count": 0
  }, 
  {
   "text": "ICYMI: Canucks have recalled defenceman Frank Corrado from the Utica Comets http://t.co/BTdqL4IO0e http://t.co/E9jAu6l7xa", 
   "label": "O", 
   "id": 452558906582396930, 
   "hashtags": [], 
   "user_mentions": [], 
   "created_at": "Sat Apr 05 21:30:26 +0000 2014", 
   "retweet_count": 20, 
   "favorite_count": 57
  }, 
  {
   "text": "#Canucks face the Kings tonight in Vancouver. Henrik returns. PREVIEW: http://t.co/ayEdxvMKiY http://t.co/BoXr0bxUGW", 
   "label": "O", 
   "id": 452541965004210177, 
   "hashtags": [
    "Canucks"
   ], 
   "user_mentions": [], 
   "created_at": "Sat Apr 05 20:23:06 +0000 2014", 
   "retweet_count": 10, 
   "favorite_count": 31
  }, 
  {
   "text": "@JesseSwitala - Not Alberts.", 
   "label": "O", 
   "id": 452526948049494016, 
   "hashtags": [], 
   "user_mentions": [
    "JesseSwitala"
   ], 
   "created_at": "Sat Apr 05 19:23:26 +0000 2014", 
   "retweet_count": 0, 
   "favorite_count": 0
  }, 
  {
   "text": "\u201cWe\u2019re not going to quit. There\u2019s a lot of pride in this dressing room.\u201d - Kassian", 
   "label": "O", 
   "id": 452508514771283968, 
   "hashtags": [], 
   "user_mentions": [], 
   "created_at": "Sat Apr 05 18:10:11 +0000 2014", 
   "retweet_count": 48, 
   "favorite_count": 101
  }, 
  {
   "text": "\u201cEddie Lack starts tonight.\u201d - Torts", 
   "label": "O", 
   "id": 452506725590269952, 
   "hashtags": [], 
   "user_mentions": [], 
   "created_at": "Sat Apr 05 18:03:05 +0000 2014", 
   "retweet_count": 36, 
   "favorite_count": 101
  }, 
  {
   "text": "\u201cIf Weber can\u2019t go, Frankie will play. Henrik will also play tonight.\u201d - Torts #Canucks", 
   "label": "O", 
   "id": 452505792789635072, 
   "hashtags": [
    "Canucks"
   ], 
   "user_mentions": [], 
   "created_at": "Sat Apr 05 17:59:22 +0000 2014", 
   "retweet_count": 25, 
   "favorite_count": 40
  }, 
  {
   "text": "All #Canucks (including Henrik) are on the ice this morning, except Weber. http://t.co/J27RbojVq9", 
   "label": "O", 
   "id": 452500141405388801, 
   "hashtags": [
    "Canucks"
   ], 
   "user_mentions": [], 
   "created_at": "Sat Apr 05 17:36:55 +0000 2014", 
   "retweet_count": 26, 
   "favorite_count": 76
  }, 
  {
   "text": "#Canucks have recalled defenceman @frankcorrado22 from the @UticaComets.", 
   "label": "O", 
   "id": 452494542206697473, 
   "hashtags": [
    "Canucks"
   ], 
   "user_mentions": [
    "frankcorrado22", 
    "UticaComets"
   ], 
   "created_at": "Sat Apr 05 17:14:40 +0000 2014", 
   "retweet_count": 27, 
   "favorite_count": 51
  }, 
  {
   "text": "#Canucks face the Kings for a Saturday night tilt in @RogersArena. Puck drops @ 7PM. PREVIEW: http://t.co/RMOtNFv5FS http://t.co/6v5Oe2rFFB", 
   "label": "O", 
   "id": 452478635552034817, 
   "hashtags": [
    "Canucks"
   ], 
   "user_mentions": [
    "RogersArena"
   ], 
   "created_at": "Sat Apr 05 16:11:28 +0000 2014", 
   "retweet_count": 33, 
   "favorite_count": 59
  }, 
  {
   "text": "@wilfred_frank - We\u2019ll have all the updates.", 
   "label": "O", 
   "id": 452476851353812992, 
   "hashtags": [], 
   "user_mentions": [
    "wilfred_frank"
   ], 
   "created_at": "Sat Apr 05 16:04:22 +0000 2014", 
   "retweet_count": 0, 
   "favorite_count": 0
  }, 
  {
   "text": "@Caiteified - Travel safe!", 
   "label": "O", 
   "id": 452475088911482883, 
   "hashtags": [], 
   "user_mentions": [
    "Caiteified"
   ], 
   "created_at": "Sat Apr 05 15:57:22 +0000 2014", 
   "retweet_count": 0, 
   "favorite_count": 1
  }, 
  {
   "text": "@TH3C1MF4M - Check your DM.", 
   "label": "O", 
   "id": 452474814738210819, 
   "hashtags": [], 
   "user_mentions": [
    "TH3C1MF4M"
   ], 
   "created_at": "Sat Apr 05 15:56:17 +0000 2014", 
   "retweet_count": 0, 
   "favorite_count": 0
  }, 
  {
   "text": "@MarciaOnTheGo - Enjoy!", 
   "label": "O", 
   "id": 452336584537694208, 
   "hashtags": [], 
   "user_mentions": [
    "MarciaOnTheGo"
   ], 
   "created_at": "Sat Apr 05 06:47:00 +0000 2014", 
   "retweet_count": 0, 
   "favorite_count": 0
  }, 
  {
   "text": "@bradsoon - Great to hear!", 
   "label": "O", 
   "id": 452336452916232193, 
   "hashtags": [], 
   "user_mentions": [
    "bradsoon"
   ], 
   "created_at": "Sat Apr 05 06:46:29 +0000 2014", 
   "retweet_count": 0, 
   "favorite_count": 1
  }, 
  {
   "text": "@TH3C1MF4M - Send it through and send tweet to confirm. We\u2019ll pass the message along.", 
   "label": "O", 
   "id": 452336378563817472, 
   "hashtags": [], 
   "user_mentions": [
    "TH3C1MF4M"
   ], 
   "created_at": "Sat Apr 05 06:46:11 +0000 2014", 
   "retweet_count": 0, 
   "favorite_count": 0
  }, 
  {
   "text": "@TH3C1MF4M - We should! If they\u2019re booked, they\u2019ll display.", 
   "label": "O", 
   "id": 452336207348109312, 
   "hashtags": [], 
   "user_mentions": [
    "TH3C1MF4M"
   ], 
   "created_at": "Sat Apr 05 06:45:30 +0000 2014", 
   "retweet_count": 0, 
   "favorite_count": 0
  }, 
  {
   "text": "\u201cMy focus is the players.\u201d WATCH: http://t.co/PRThoRiEtj http://t.co/cowTh0tnoT", 
   "label": "O", 
   "id": 452295963961753600, 
   "hashtags": [], 
   "user_mentions": [], 
   "created_at": "Sat Apr 05 04:05:35 +0000 2014", 
   "retweet_count": 15, 
   "favorite_count": 29
  }
 ]
}