{
 "num_road_team_goals": "2", 
 "home_team": "Chicago Blackhawks", 
 "num_home_team_goals": "4", 
 "summary_url": "http://www.flyershistory.com/cgi-bin/poboxscore.cgi?H20131086", 
 "result": "L", 
 "road_team": "Dallas Stars", 
 "date": "2014-03-25", 
 "goals": [
  {
   "season_index": "19", 
   "strength": "(PP)", 
   "time": "19:42", 
   "period": "1", 
   "player": "A.Shaw", 
   "assists": "(P.Sharp, J.Toews)", 
   "game_index": "1", 
   "team": "CHI"
  }, 
  {
   "season_index": "12", 
   "strength": "(EV)", 
   "time": "4:12", 
   "period": "2", 
   "player": "K.Versteeg", 
   "assists": "(D.Keith, B.Seabrook)", 
   "game_index": "2", 
   "team": "CHI"
  }, 
  {
   "season_index": "13", 
   "strength": "(EV)", 
   "time": "10:56", 
   "period": "2", 
   "player": "R.Garbutt", 
   "assists": "(T.Seguin, J.Benn)", 
   "game_index": "3", 
   "team": "DAL"
  }, 
  {
   "season_index": "6", 
   "strength": "(EV)", 
   "time": "14:15", 
   "period": "2", 
   "player": "D.Keith", 
   "assists": "(P.Sharp, A.Shaw)", 
   "game_index": "4", 
   "team": "CHI"
  }, 
  {
   "season_index": "14", 
   "strength": "(EV)", 
   "time": "14:20", 
   "period": "3", 
   "player": "R.Garbutt", 
   "assists": "(V.Fiddler, A.Roussel)", 
   "game_index": "5", 
   "team": "DAL"
  }, 
  {
   "season_index": "26", 
   "strength": "(EV-EN)", 
   "time": "19:26", 
   "period": "3", 
   "player": "M.Hossa", 
   "assists": null, 
   "game_index": "6", 
   "team": "CHI"
  }
 ], 
 "tweets": [
  {
   "text": "That's the game. #Stars fall to the Blackhhawks, 4-2. \n\nThe boys return to the AAC Friday when they take on the Preds at 7:30 on FSSW.", 
   "label": "O", 
   "id": 448650627459989504, 
   "hashtags": [
    "Stars"
   ], 
   "user_mentions": [], 
   "created_at": "Wed Mar 26 02:40:19 +0000 2014", 
   "retweet_count": 5, 
   "favorite_count": 23
  }, 
  {
   "text": "Hossa scores on the empty net. #Stars down, 4-2.", 
   "label": "O", 
   "id": 448650025845813248, 
   "hashtags": [
    "Stars"
   ], 
   "user_mentions": [], 
   "created_at": "Wed Mar 26 02:37:56 +0000 2014", 
   "retweet_count": 6, 
   "favorite_count": 16
  }, 
  {
   "text": "GOAL!!!! @bino_onesix strikes again!!!! #Stars trail, 3-2, with 5:40 left in the third. #GoStars", 
   "label": "O", 
   "id": 448647140814753792, 
   "hashtags": [
    "Stars", 
    "GoStars"
   ], 
   "user_mentions": [
    "bino_onesix"
   ], 
   "created_at": "Wed Mar 26 02:26:28 +0000 2014", 
   "retweet_count": 30, 
   "favorite_count": 69
  }, 
  {
   "text": "Tyler Seguin goes off for delay of game---his third penalty of the season.", 
   "label": "O", 
   "id": 448642902051155968, 
   "hashtags": [], 
   "user_mentions": [], 
   "created_at": "Wed Mar 26 02:09:37 +0000 2014", 
   "retweet_count": 14, 
   "favorite_count": 63
  }, 
  {
   "text": "Second period comes to an end. Ryan Garbutt gets the #Stars on the board, but they trail the Blackhawks, 3-1.", 
   "label": "O", 
   "id": 448636359444426752, 
   "hashtags": [
    "Stars"
   ], 
   "user_mentions": [], 
   "created_at": "Wed Mar 26 01:43:38 +0000 2014", 
   "retweet_count": 5, 
   "favorite_count": 18
  }, 
  {
   "text": "Keith scores from the blueline. #Stars trail 3-1 with 5:45 left in the second.", 
   "label": "O", 
   "id": 448633879960637442, 
   "hashtags": [
    "Stars"
   ], 
   "user_mentions": [], 
   "created_at": "Wed Mar 26 01:33:46 +0000 2014", 
   "retweet_count": 7, 
   "favorite_count": 8
  }, 
  {
   "text": "Tyler Seguin credited with the assist on the Garbutt goal. He now extends his point streak to 10 games. #GoStars", 
   "label": "O", 
   "id": 448631662906060800, 
   "hashtags": [
    "GoStars"
   ], 
   "user_mentions": [], 
   "created_at": "Wed Mar 26 01:24:58 +0000 2014", 
   "retweet_count": 53, 
   "favorite_count": 127
  }, 
  {
   "text": "GOAL!!!! @bino_onesix gets the boys on the board with a beauty of a backhand! #GoStars", 
   "label": "O", 
   "id": 448631393837273089, 
   "hashtags": [
    "GoStars"
   ], 
   "user_mentions": [
    "bino_onesix"
   ], 
   "created_at": "Wed Mar 26 01:23:54 +0000 2014", 
   "retweet_count": 46, 
   "favorite_count": 74
  }, 
  {
   "text": "Seabrook goes off for slashing. #Stars get another crack at the power play with 14:09 left in the second.", 
   "label": "O", 
   "id": 448629739427622912, 
   "hashtags": [
    "Stars"
   ], 
   "user_mentions": [], 
   "created_at": "Wed Mar 26 01:17:19 +0000 2014", 
   "retweet_count": 1, 
   "favorite_count": 4
  }, 
  {
   "text": "Hossa scores. #Stars trail, 2-0, with 15:45 left in the second.", 
   "label": "O", 
   "id": 448629171636289536, 
   "hashtags": [
    "Stars"
   ], 
   "user_mentions": [], 
   "created_at": "Wed Mar 26 01:15:04 +0000 2014", 
   "retweet_count": 2, 
   "favorite_count": 10
  }, 
  {
   "text": "Second period underway! #GoStars", 
   "label": "O", 
   "id": 448627559261958144, 
   "hashtags": [
    "GoStars"
   ], 
   "user_mentions": [], 
   "created_at": "Wed Mar 26 01:08:39 +0000 2014", 
   "retweet_count": 9, 
   "favorite_count": 19
  }, 
  {
   "text": "First period is in the books. A break for the Blackhawks has them on top, 1-0, after 20.", 
   "label": "O", 
   "id": 448623065514008577, 
   "hashtags": [], 
   "user_mentions": [], 
   "created_at": "Wed Mar 26 00:50:48 +0000 2014", 
   "retweet_count": 3, 
   "favorite_count": 9
  }, 
  {
   "text": "Shaw scores on the power play. #Stars trail, 1-0, with 18 seconds left in the first.", 
   "label": "O", 
   "id": 448622639167205377, 
   "hashtags": [
    "Stars"
   ], 
   "user_mentions": [], 
   "created_at": "Wed Mar 26 00:49:06 +0000 2014", 
   "retweet_count": 3, 
   "favorite_count": 16
  }, 
  {
   "text": "PK unit gets to work with under a minute left in the first as Cody Eakin is sent to the box for goalie interference.", 
   "label": "O", 
   "id": 448622196521324544, 
   "hashtags": [], 
   "user_mentions": [], 
   "created_at": "Wed Mar 26 00:47:21 +0000 2014", 
   "retweet_count": 1, 
   "favorite_count": 6
  }, 
  {
   "text": "KARI! KARI! KARI! #LehtsGoStars", 
   "label": "O", 
   "id": 448621613307535360, 
   "hashtags": [
    "LehtsGoStars"
   ], 
   "user_mentions": [], 
   "created_at": "Wed Mar 26 00:45:02 +0000 2014", 
   "retweet_count": 49, 
   "favorite_count": 99
  }, 
  {
   "text": "Bollig goes off for slashing and sends the #Stars to their first power play early in the first! #GoStars", 
   "label": "O", 
   "id": 448614127913549824, 
   "hashtags": [
    "Stars", 
    "GoStars"
   ], 
   "user_mentions": [], 
   "created_at": "Wed Mar 26 00:15:17 +0000 2014", 
   "retweet_count": 3, 
   "favorite_count": 18
  }, 
  {
   "text": "Puck dropped! We're underway in Chicago! #GoStars", 
   "label": "O", 
   "id": 448612735484309505, 
   "hashtags": [
    "GoStars"
   ], 
   "user_mentions": [], 
   "created_at": "Wed Mar 26 00:09:45 +0000 2014", 
   "retweet_count": 34, 
   "favorite_count": 73
  }, 
  {
   "text": "The @TexasStars continue to tear it up in the AHL. Get the latest from Cedar Park.  READ: Texas #Stars Report--&gt;http://t.co/BUHn9PZsir", 
   "label": "O", 
   "id": 448569838047227904, 
   "hashtags": [
    "Stars"
   ], 
   "user_mentions": [
    "TexasStars"
   ], 
   "created_at": "Tue Mar 25 21:19:18 +0000 2014", 
   "retweet_count": 11, 
   "favorite_count": 27
  }, 
  {
   "text": "Fun starts at 7pm! Join us! RT @jeffk_stars: prize teaser for tonight's @DallasStars watch party @HardRockDallas http://t.co/XPOPqUYOKM", 
   "label": "O", 
   "id": 448540975766708224, 
   "hashtags": [], 
   "user_mentions": [
    "jeffk_stars", 
    "DallasStars", 
    "HardRockDallas"
   ], 
   "created_at": "Tue Mar 25 19:24:36 +0000 2014", 
   "retweet_count": 7, 
   "favorite_count": 16
  }, 
  {
   "text": "@WillettsAndy all our videos are on http://t.co/OdQPF6pQC8", 
   "label": "O", 
   "id": 448501013167628288, 
   "hashtags": [], 
   "user_mentions": [
    "WillettsAndy"
   ], 
   "created_at": "Tue Mar 25 16:45:48 +0000 2014", 
   "retweet_count": 0, 
   "favorite_count": 0
  }, 
  {
   "text": "RT @PR_NHL: Tyler Seguin extended his career-long pt streak to 9 games (7-9\u201416). He leads the @DallasStars w/ 32 goals, incl. 6 game-winner\u2026", 
   "label": "O", 
   "id": 448493179424088065, 
   "hashtags": [], 
   "user_mentions": [
    "PR_NHL", 
    "DallasStars"
   ], 
   "created_at": "Tue Mar 25 16:14:41 +0000 2014", 
   "retweet_count": 104, 
   "favorite_count": 0
  }, 
  {
   "text": "It's GAME DAY! The #Stars look to keep rolling when they take on the Blackhawks tonight at 7pm on FSSW. PREVIEW:http://t.co/OHZo5W9XRd", 
   "label": "O", 
   "id": 448480189626867712, 
   "hashtags": [
    "Stars"
   ], 
   "user_mentions": [], 
   "created_at": "Tue Mar 25 15:23:04 +0000 2014", 
   "retweet_count": 24, 
   "favorite_count": 44
  }, 
  {
   "text": "RT @StarsInsideEdge: 2014 Playoff Tracker for March 25 - Dallas Stars - Inside Edge http://t.co/V6RMtnQ5AB", 
   "label": "O", 
   "id": 448476083168739328, 
   "hashtags": [], 
   "user_mentions": [
    "StarsInsideEdge"
   ], 
   "created_at": "Tue Mar 25 15:06:45 +0000 2014", 
   "retweet_count": 2, 
   "favorite_count": 12
  }, 
  {
   "text": "POST GAME VIDEO\nCoach Ruff:http://t.co/6OZvvU3G1L\nKari Lehtonen: http://t.co/9GxeTwaTDm", 
   "label": "O", 
   "id": 448466173563117568, 
   "hashtags": [], 
   "user_mentions": [], 
   "created_at": "Tue Mar 25 14:27:22 +0000 2014", 
   "retweet_count": 2, 
   "favorite_count": 11
  }, 
  {
   "text": "Power play, Kari Lehtonen carry #Stars past Jets. \nRECAP: http://t.co/51z2LkIUNg \nWATCH: Stars Rewind - http://t.co/jpyVdJxQ71", 
   "label": "O", 
   "id": 448464571247124480, 
   "hashtags": [
    "Stars"
   ], 
   "user_mentions": [], 
   "created_at": "Tue Mar 25 14:21:00 +0000 2014", 
   "retweet_count": 7, 
   "favorite_count": 24
  }
 ]
}