{
 "num_road_team_goals": "5", 
 "home_team": "Florida Panthers", 
 "num_home_team_goals": "2", 
 "summary_url": "http://www.flyershistory.com/cgi-bin/poboxscore.cgi?H20130963", 
 "result": "W", 
 "road_team": "Boston Bruins", 
 "date": "2014-03-09", 
 "goals": [
  {
   "season_index": "6", 
   "strength": "(EV)", 
   "time": "7:00", 
   "period": "2", 
   "player": "J.Hayes", 
   "assists": "(N.Bjugstad, S.Bergenheim)", 
   "game_index": "1", 
   "team": "FLA"
  }, 
  {
   "season_index": "6", 
   "strength": "(PP)", 
   "time": "9:58", 
   "period": "2", 
   "player": "Andrej Meszaros", 
   "assists": "(R.Smith, P.Bergeron)", 
   "game_index": "2", 
   "team": "BOS"
  }, 
  {
   "season_index": "13", 
   "strength": "(EV)", 
   "time": "7:38", 
   "period": "3", 
   "player": "T.Krug", 
   "assists": "(B.Marchand, P.Bergeron)", 
   "game_index": "3", 
   "team": "BOS"
  }, 
  {
   "season_index": "18", 
   "strength": "(PP)", 
   "time": "11:21", 
   "period": "3", 
   "player": "P.Bergeron", 
   "assists": "(L.Eriksson, C.Soderberg)", 
   "game_index": "4", 
   "team": "BOS"
  }, 
  {
   "season_index": "7", 
   "strength": "(EV)", 
   "time": "11:50", 
   "period": "3", 
   "player": "J.Hayes", 
   "assists": "(J.Huberdeau)", 
   "game_index": "5", 
   "team": "FLA"
  }, 
  {
   "season_index": "20", 
   "strength": "(EV)", 
   "time": "12:13", 
   "period": "3", 
   "player": "J.Iginla", 
   "assists": "(M.Lucic, Z.Chara)", 
   "game_index": "6", 
   "team": "BOS"
  }, 
  {
   "season_index": "6", 
   "strength": "(EV-EN)", 
   "time": "18:52", 
   "period": "3", 
   "player": "C.Kelly", 
   "assists": null, 
   "game_index": "7", 
   "team": "BOS"
  }
 ], 
 "tweets": [
  {
   "text": "#NHLBruins topped #FlaPanthers 5-2 on Sunday night. Watch Bruins Beat for highlights + interviews: http://t.co/zh1hme3SOr ^TV", 
   "label": "O", 
   "id": 442869948495691776, 
   "hashtags": [
    "NHLBruins", 
    "FlaPanthers"
   ], 
   "user_mentions": [], 
   "created_at": "Mon Mar 10 03:49:58 +0000 2014"
  }, 
  {
   "text": "#NHLBruins take care of business with 5-2 win over Florida; take over top of the East: http://t.co/0ppXqdMOnK ^CS http://t.co/CUqBOVdcby", 
   "label": "O", 
   "id": 442863829538451457, 
   "hashtags": [
    "NHLBruins"
   ], 
   "user_mentions": [], 
   "created_at": "Mon Mar 10 03:25:39 +0000 2014"
  }, 
  {
   "text": "#NHLBruins got on the board, thanks to this blast from Andrej Meszaros with Carl Soderberg in front. Watch: http://t.co/MMgPyMpAdp ^TV", 
   "label": "O", 
   "id": 442837249559113729, 
   "hashtags": [
    "NHLBruins"
   ], 
   "user_mentions": [], 
   "created_at": "Mon Mar 10 01:40:02 +0000 2014"
  }, 
  {
   "text": "By now, you're accustomed to this. Watch as Kevan Miller lands a heavy hit along the boards vs Florida: http://t.co/XIx9tTuqG0 ^TV", 
   "label": "O", 
   "id": 442834738001489920, 
   "hashtags": [], 
   "user_mentions": [], 
   "created_at": "Mon Mar 10 01:30:03 +0000 2014"
  }, 
  {
   "text": "Watch as Jarome Iginla nets his 20th goal of the season &amp; 550th of his career: http://t.co/vZNKOZMOBp ^TV", 
   "label": "O", 
   "id": 442833691765923840, 
   "hashtags": [], 
   "user_mentions": [], 
   "created_at": "Mon Mar 10 01:25:54 +0000 2014"
  }, 
  {
   "text": "Patrice Bergeron ripped a one-timer past Luongo on the power play for the game-winner. Watch: http://t.co/o53aaC1ZZ1 ^TV", 
   "label": "O", 
   "id": 442833428988559360, 
   "hashtags": [], 
   "user_mentions": [], 
   "created_at": "Mon Mar 10 01:24:51 +0000 2014"
  }, 
  {
   "text": "\"Krug dangles!\" Watch as Torey Krug scores his 13th goal of the season to give #NHLBruins the lead: http://t.co/JHKcnYtGTV ^TV", 
   "label": "O", 
   "id": 442832392492163074, 
   "hashtags": [
    "NHLBruins"
   ], 
   "user_mentions": [], 
   "created_at": "Mon Mar 10 01:20:44 +0000 2014"
  }, 
  {
   "text": "Torey Krug celebrates his third period goal with Patrice Bergeron and Reilly Smith in #NHLBruins 5-2\u2026 http://t.co/e0DxfGMmoC", 
   "label": "O", 
   "id": 442827223679373312, 
   "hashtags": [
    "NHLBruins"
   ], 
   "user_mentions": [], 
   "created_at": "Mon Mar 10 01:00:12 +0000 2014"
  }, 
  {
   "text": "Carl's deflection goal was changed to Meszaros postgame. If it sticks, he's the first Bruins D to score in debut since Gonchar on 3/4/04 ^CS", 
   "label": "O", 
   "id": 442826479496597504, 
   "hashtags": [], 
   "user_mentions": [], 
   "created_at": "Mon Mar 10 00:57:14 +0000 2014"
  }, 
  {
   "text": "Andrej said the guys were joking with him pregame, asking him if he was nervous. D-man now a vet of 572 NHL games after his Bruins debut ^CS", 
   "label": "O", 
   "id": 442825596452995072, 
   "hashtags": [], 
   "user_mentions": [], 
   "created_at": "Mon Mar 10 00:53:44 +0000 2014"
  }, 
  {
   "text": "Iginla = now 6 goals away from tying Chief in all-time goals (556). \"Chief, he joked with me at the beginning of the year...pretty cool\" ^CS", 
   "label": "O", 
   "id": 442823666850877440, 
   "hashtags": [], 
   "user_mentions": [], 
   "created_at": "Mon Mar 10 00:46:04 +0000 2014"
  }, 
  {
   "text": "Congrats to Jarome Iginla on reaching goal No. 550 tonight! Milestone after milestone for Iggy ^CS http://t.co/lj8UgloAo0", 
   "label": "O", 
   "id": 442822966745636864, 
   "hashtags": [], 
   "user_mentions": [], 
   "created_at": "Mon Mar 10 00:43:18 +0000 2014"
  }, 
  {
   "text": "Coach on Paille: \"He feels pretty good - after the game, I saw him. So hopefully it's just a minor bump\" ^CS", 
   "label": "O", 
   "id": 442819848188755968, 
   "hashtags": [], 
   "user_mentions": [], 
   "created_at": "Mon Mar 10 00:30:53 +0000 2014"
  }, 
  {
   "text": "Julien said doctors didn't allow Paille to come back after he took that hit, but he was told \"it's not very serious\" ^CS", 
   "label": "O", 
   "id": 442819536480632833, 
   "hashtags": [], 
   "user_mentions": [], 
   "created_at": "Mon Mar 10 00:29:39 +0000 2014"
  }, 
  {
   "text": "Bruins pick up win No. 42 on the season for their fifth straight win. Longest winning streak of the season ^CS", 
   "label": "O", 
   "id": 442808736181403648, 
   "hashtags": [], 
   "user_mentions": [], 
   "created_at": "Sun Mar 09 23:46:44 +0000 2014"
  }, 
  {
   "text": "#NHLBruins win!! 5-2 over #FlaPanthers ^CS", 
   "label": "END", 
   "id": 442807507015454721, 
   "hashtags": [
    "NHLBruins", 
    "FlaPanthers"
   ], 
   "user_mentions": [], 
   "created_at": "Sun Mar 09 23:41:51 +0000 2014"
  }, 
  {
   "text": "Chris Kelly puts home the empty-netter to make it 5-2 #NHLBruins with 1:08 on the clock ^CS", 
   "label": "GOAL-7", 
   "id": 442806842444775425, 
   "hashtags": [
    "NHLBruins"
   ], 
   "user_mentions": [], 
   "created_at": "Sun Mar 09 23:39:12 +0000 2014"
  }, 
  {
   "text": "Empty net for Florida ^CS", 
   "label": "O", 
   "id": 442806332522254336, 
   "hashtags": [], 
   "user_mentions": [], 
   "created_at": "Sun Mar 09 23:37:11 +0000 2014"
  }, 
  {
   "text": "#NHLBruins up 4-2 as clock ticks under 1:30. Shots currently 40-21 in favor of Boston ^CS", 
   "label": "O", 
   "id": 442806303992594432, 
   "hashtags": [
    "NHLBruins"
   ], 
   "user_mentions": [], 
   "created_at": "Sun Mar 09 23:37:04 +0000 2014"
  }, 
  {
   "text": "That tally gives Jarome Iginla his 15th 20-goal season ^CS", 
   "label": "O", 
   "id": 442804439590899712, 
   "hashtags": [], 
   "user_mentions": [], 
   "created_at": "Sun Mar 09 23:29:39 +0000 2014"
  }, 
  {
   "text": "Let's rehash that. 3 goals in 52 seconds. BOS Goal: Bergeron, 11:21 into 3rd. FLA Goal: Hayes, 11:50. BOS Goal: Iginla, 12:13. ^CS", 
   "label": "O", 
   "id": 442804166340395008, 
   "hashtags": [], 
   "user_mentions": [], 
   "created_at": "Sun Mar 09 23:28:34 +0000 2014"
  }, 
  {
   "text": "Jarome Iginla fires in his 20th of the season to put #NHLBruins up 4-2 ^CS", 
   "label": "GOAL-6", 
   "id": 442803460866863104, 
   "hashtags": [
    "NHLBruins"
   ], 
   "user_mentions": [], 
   "created_at": "Sun Mar 09 23:25:46 +0000 2014"
  }, 
  {
   "text": "GOAL! #NHLBruins answer ^CS", 
   "label": "GOAL-6", 
   "id": 442803324354830336, 
   "hashtags": [
    "NHLBruins"
   ], 
   "user_mentions": [], 
   "created_at": "Sun Mar 09 23:25:14 +0000 2014"
  }, 
  {
   "text": "#FlaPanthers waste no time in making it a one-goal game. Battle down low, and Jimmy Hayes pokes it in ^CS", 
   "label": "GOAL-5", 
   "id": 442803234995191808, 
   "hashtags": [
    "FlaPanthers"
   ], 
   "user_mentions": [], 
   "created_at": "Sun Mar 09 23:24:52 +0000 2014"
  }, 
  {
   "text": "GOAL! Bergeron puts home the quick wrister from the right circle to put #NHLBruins up 3-1 ^CS", 
   "label": "GOAL-4", 
   "id": 442802763928715264, 
   "hashtags": [
    "NHLBruins"
   ], 
   "user_mentions": [], 
   "created_at": "Sun Mar 09 23:23:00 +0000 2014"
  }, 
  {
   "text": "#NHLBruins to the power play, 10:33 left in the third ^CS", 
   "label": "O", 
   "id": 442801868197343232, 
   "hashtags": [
    "NHLBruins"
   ], 
   "user_mentions": [], 
   "created_at": "Sun Mar 09 23:19:26 +0000 2014"
  }, 
  {
   "text": "Mark that as Torey's 13th goal of the season ^CS", 
   "label": "GOAL-3", 
   "id": 442801371520466944, 
   "hashtags": [], 
   "user_mentions": [], 
   "created_at": "Sun Mar 09 23:17:28 +0000 2014"
  }, 
  {
   "text": "Torey Krug joins the rush, handles a beauty of a pass from Marchand &amp; backhands it past Luongo. #NHLBruins take the 2-1 lead ^CS", 
   "label": "GOAL-3", 
   "id": 442801239894818817, 
   "hashtags": [
    "NHLBruins"
   ], 
   "user_mentions": [], 
   "created_at": "Sun Mar 09 23:16:57 +0000 2014"
  }, 
  {
   "text": "Krrruuuuuuuuuugggg breaks out from Boston faithful in attendance ^CS", 
   "label": "O", 
   "id": 442801052333907968, 
   "hashtags": [], 
   "user_mentions": [], 
   "created_at": "Sun Mar 09 23:16:12 +0000 2014"
  }, 
  {
   "text": "Bergeron set up point-blank by Smith. Came after Marchand stood up Gudbranson at the blueline and the two got tangled ^CS", 
   "label": "O", 
   "id": 442800617762074624, 
   "hashtags": [], 
   "user_mentions": [], 
   "created_at": "Sun Mar 09 23:14:28 +0000 2014"
  }, 
  {
   "text": "Boychuk out of the box. #NHLBruins 4-for-4 on the penalty kill ^CS", 
   "label": "O", 
   "id": 442800105742409728, 
   "hashtags": [
    "NHLBruins"
   ], 
   "user_mentions": [], 
   "created_at": "Sun Mar 09 23:12:26 +0000 2014"
  }, 
  {
   "text": "#NHLBruins back to PK. Strange sequence, as B's had possession of the puck &amp; Chad skated to the bench. But, Boychuk called for roughing ^CS", 
   "label": "O", 
   "id": 442799788611108865, 
   "hashtags": [
    "NHLBruins"
   ], 
   "user_mentions": [], 
   "created_at": "Sun Mar 09 23:11:11 +0000 2014"
  }, 
  {
   "text": "Soupy shorthanded on the breakway up the middle; Luongo with a good blocker save... ^CS", 
   "label": "O", 
   "id": 442799267082928128, 
   "hashtags": [], 
   "user_mentions": [], 
   "created_at": "Sun Mar 09 23:09:06 +0000 2014"
  }, 
  {
   "text": "Chad Johnson defends the #NHLBruins net against #FlaPanthers during tonight's game in Sunrise, FL. http://t.co/22UbDAhFmO", 
   "label": "O", 
   "id": 442798614008856576, 
   "hashtags": [
    "NHLBruins", 
    "FlaPanthers"
   ], 
   "user_mentions": [], 
   "created_at": "Sun Mar 09 23:06:31 +0000 2014"
  }, 
  {
   "text": "#NHLBruins on the PK early in the third, with Soderberg in the box for high-sticking ^CS", 
   "label": "O", 
   "id": 442798438024241152, 
   "hashtags": [
    "NHLBruins"
   ], 
   "user_mentions": [], 
   "created_at": "Sun Mar 09 23:05:49 +0000 2014"
  }, 
  {
   "text": "Third underway with teams tied at 1-1 ^CS", 
   "label": "PER-3", 
   "id": 442797600346234880, 
   "hashtags": [], 
   "user_mentions": [], 
   "created_at": "Sun Mar 09 23:02:29 +0000 2014"
  }, 
  {
   "text": "B's nearly took the lead late in 2nd. Lucic with head of steam &gt; pass back to Krejci &gt; no-look feed to Iggy for a one-timer &gt; Luongo save^CS", 
   "label": "O", 
   "id": 442793412786655232, 
   "hashtags": [], 
   "user_mentions": [], 
   "created_at": "Sun Mar 09 22:45:50 +0000 2014"
  }, 
  {
   "text": "#NHLBruins leading shots 27-15 through 40 minutes. Meszaros leading all skaters with 4 shots ^CS", 
   "label": "O", 
   "id": 442792947382484992, 
   "hashtags": [
    "NHLBruins"
   ], 
   "user_mentions": [], 
   "created_at": "Sun Mar 09 22:44:00 +0000 2014"
  }, 
  {
   "text": "#NHLBruins and #FlaPanthers head to the third tied at 1-1 ^CS", 
   "label": "O", 
   "id": 442792737310797824, 
   "hashtags": [
    "NHLBruins", 
    "FlaPanthers"
   ], 
   "user_mentions": [], 
   "created_at": "Sun Mar 09 22:43:09 +0000 2014"
  }, 
  {
   "text": "#NHLBruins and #FlaPanthers still knotted at 1-1 with 4:20 to go in the 2nd ^CS", 
   "label": "O", 
   "id": 442790864331739136, 
   "hashtags": [
    "NHLBruins", 
    "FlaPanthers"
   ], 
   "user_mentions": [], 
   "created_at": "Sun Mar 09 22:35:43 +0000 2014"
  }, 
  {
   "text": "#NHLBruins make the kill, Marchand out of the box ^CS", 
   "label": "O", 
   "id": 442790494264102912, 
   "hashtags": [
    "NHLBruins"
   ], 
   "user_mentions": [], 
   "created_at": "Sun Mar 09 22:34:15 +0000 2014"
  }, 
  {
   "text": "#NHLBruins on their second PK of the game, with 7:26 left in the 2nd. Marchand in the box for cross-checking Brian Campbell ^CS", 
   "label": "O", 
   "id": 442789785032474624, 
   "hashtags": [
    "NHLBruins"
   ], 
   "user_mentions": [], 
   "created_at": "Sun Mar 09 22:31:26 +0000 2014"
  }, 
  {
   "text": "Goal switch. As expected, given to Carl Soderberg, assisted by Meszaros and Smith. 2 goals in 2 games for Carl ^CS", 
   "label": "GOAL-2", 
   "id": 442789234962092032, 
   "hashtags": [], 
   "user_mentions": [], 
   "created_at": "Sun Mar 09 22:29:14 +0000 2014"
  }, 
  {
   "text": "Power-play goal being credited right now to Andrej Meszaros, his first as a Bruin ^CS", 
   "label": "GOAL-2", 
   "id": 442788867645898752, 
   "hashtags": [], 
   "user_mentions": [], 
   "created_at": "Sun Mar 09 22:27:47 +0000 2014"
  }, 
  {
   "text": "Good goal! ^CS", 
   "label": "GOAL-2", 
   "id": 442788330913431552, 
   "hashtags": [], 
   "user_mentions": [], 
   "created_at": "Sun Mar 09 22:25:39 +0000 2014"
  }, 
  {
   "text": "\"Play is under review\" ^CS", 
   "label": "O", 
   "id": 442787869619662848, 
   "hashtags": [], 
   "user_mentions": [], 
   "created_at": "Sun Mar 09 22:23:49 +0000 2014"
  }, 
  {
   "text": "GOAL! Blast from Andrej Meszaros goes off Carl Soderberg and in. 1-1 game ^CS", 
   "label": "GOAL-2", 
   "id": 442787714296213504, 
   "hashtags": [], 
   "user_mentions": [], 
   "created_at": "Sun Mar 09 22:23:12 +0000 2014"
  }, 
  {
   "text": "#NHLBruins power play coming up. Too many men for Florida. 10:38 left in the 2nd ^CS", 
   "label": "O", 
   "id": 442787262351560704, 
   "hashtags": [
    "NHLBruins"
   ], 
   "user_mentions": [], 
   "created_at": "Sun Mar 09 22:21:24 +0000 2014"
  }, 
  {
   "text": "#FlaPanthers get on the board first. 1-0, 13:00 left in the 2nd. Jimmy Hayes wide open on the rebound at the top of the crease ^CS", 
   "label": "GOAL-1", 
   "id": 442785850037121024, 
   "hashtags": [
    "FlaPanthers"
   ], 
   "user_mentions": [], 
   "created_at": "Sun Mar 09 22:15:47 +0000 2014"
  }, 
  {
   "text": "Soderberg makes a move in tight, pushes puck over to Kelly. Chance hits the post and then Luongo gets his stick on it... ^CS", 
   "label": "O", 
   "id": 442784310043869186, 
   "hashtags": [], 
   "user_mentions": [], 
   "created_at": "Sun Mar 09 22:09:40 +0000 2014"
  }, 
  {
   "text": "Quick 2-on-1 develops for Panthers, with Scottie Upshall ringing the iron over Johnson's glove... ^CS", 
   "label": "O", 
   "id": 442784010184708096, 
   "hashtags": [], 
   "user_mentions": [], 
   "created_at": "Sun Mar 09 22:08:29 +0000 2014"
  }, 
  {
   "text": "Panthers take a timeout after an icing; Bruins with good pressure. Just about 3:00 into the 2nd. Still no score ^CS", 
   "label": "O", 
   "id": 442783674866884608, 
   "hashtags": [], 
   "user_mentions": [], 
   "created_at": "Sun Mar 09 22:07:09 +0000 2014"
  }, 
  {
   "text": "Second period underway from Sunrise ^CS", 
   "label": "PER-2", 
   "id": 442782272878813184, 
   "hashtags": [], 
   "user_mentions": [], 
   "created_at": "Sun Mar 09 22:01:35 +0000 2014"
  }, 
  {
   "text": "UPDATE: Daniel Paille will not return to tonight's game ^BB", 
   "label": "O", 
   "id": 442779207689854976, 
   "hashtags": [], 
   "user_mentions": [], 
   "created_at": "Sun Mar 09 21:49:24 +0000 2014"
  }, 
  {
   "text": "That's a wrap on the first. #NHLBruins and #FlaPanthers head to 2nd scoreless. Shots 12-7 Boston ^CS", 
   "label": "O", 
   "id": 442777609680994304, 
   "hashtags": [
    "NHLBruins", 
    "FlaPanthers"
   ], 
   "user_mentions": [], 
   "created_at": "Sun Mar 09 21:43:03 +0000 2014"
  }, 
  {
   "text": "Meszaros getting power play time tonight; just let one rip and Luongo flashed the glove.. ^CS", 
   "label": "O", 
   "id": 442777274728075264, 
   "hashtags": [], 
   "user_mentions": [], 
   "created_at": "Sun Mar 09 21:41:43 +0000 2014"
  }, 
  {
   "text": "Kelly gets high-sticked. #NHLBruins back on the power play. 2:17 left in first ^CS", 
   "label": "O", 
   "id": 442776702943789056, 
   "hashtags": [
    "NHLBruins"
   ], 
   "user_mentions": [], 
   "created_at": "Sun Mar 09 21:39:27 +0000 2014"
  }, 
  {
   "text": "Daniel Paille has not returned to the Bruins bench this period; went down the tunnel after his first shift ^CS", 
   "label": "O", 
   "id": 442776134254886914, 
   "hashtags": [], 
   "user_mentions": [], 
   "created_at": "Sun Mar 09 21:37:11 +0000 2014"
  }, 
  {
   "text": "Loui hits the iron... ^CS", 
   "label": "O", 
   "id": 442775968311410688, 
   "hashtags": [], 
   "user_mentions": [], 
   "created_at": "Sun Mar 09 21:36:31 +0000 2014"
  }, 
  {
   "text": "Krejci takes the body on Trochek, cancels out possible shorthanded chance for Panthers ^CS", 
   "label": "O", 
   "id": 442775739415666688, 
   "hashtags": [], 
   "user_mentions": [], 
   "created_at": "Sun Mar 09 21:35:37 +0000 2014"
  }, 
  {
   "text": "#NHLBruins on the power play with 5:16 left in the first ^CS", 
   "label": "O", 
   "id": 442775499916730369, 
   "hashtags": [
    "NHLBruins"
   ], 
   "user_mentions": [], 
   "created_at": "Sun Mar 09 21:34:40 +0000 2014"
  }, 
  {
   "text": "Chad Johnson comes up with two big stops on Winchester &amp; Gomez, and holds ^CS", 
   "label": "O", 
   "id": 442775184123383808, 
   "hashtags": [], 
   "user_mentions": [], 
   "created_at": "Sun Mar 09 21:33:24 +0000 2014"
  }, 
  {
   "text": "#NHLBruins to the PK. 8:34 left in the first, with Lucic in the box for hooking ^CS", 
   "label": "O", 
   "id": 442774049450897408, 
   "hashtags": [
    "NHLBruins"
   ], 
   "user_mentions": [], 
   "created_at": "Sun Mar 09 21:28:54 +0000 2014"
  }, 
  {
   "text": "Smith with a nice move dancing in towards Luongo, feeds Thornton for the drive. B's sustained pressure but still no score in the first ^CS", 
   "label": "O", 
   "id": 442773206706188288, 
   "hashtags": [], 
   "user_mentions": [], 
   "created_at": "Sun Mar 09 21:25:33 +0000 2014"
  }, 
  {
   "text": "Kevan Miller with a hugeee hit, drilling Brandon Pirri along the boards ^CS", 
   "label": "O", 
   "id": 442772489991909377, 
   "hashtags": [], 
   "user_mentions": [], 
   "created_at": "Sun Mar 09 21:22:42 +0000 2014"
  }, 
  {
   "text": "No score 7:50 into the first. Shots 3-1 Boston ^CS", 
   "label": "O", 
   "id": 442771536785985536, 
   "hashtags": [], 
   "user_mentions": [], 
   "created_at": "Sun Mar 09 21:18:55 +0000 2014"
  }, 
  {
   "text": "Puck dropped! #NHLBruins vs #FlaPanthers underway ^CS", 
   "label": "START", 
   "id": 442769065585958912, 
   "hashtags": [
    "NHLBruins", 
    "FlaPanthers"
   ], 
   "user_mentions": [], 
   "created_at": "Sun Mar 09 21:09:06 +0000 2014"
  }, 
  {
   "text": "Marchand the last one off for warmups, as usual, after making sure a few young fans gets pucks as souvenirs ^CS", 
   "label": "O", 
   "id": 442763571156779008, 
   "hashtags": [], 
   "user_mentions": [], 
   "created_at": "Sun Mar 09 20:47:16 +0000 2014"
  }, 
  {
   "text": "#NHLBruins on the ice for warmups in Sunrise. Puck drops at 5 pm ET vs Panthers! http://t.co/l4G6mVtX85", 
   "label": "O", 
   "id": 442762284830826496, 
   "hashtags": [
    "NHLBruins"
   ], 
   "user_mentions": [], 
   "created_at": "Sun Mar 09 20:42:09 +0000 2014"
  }, 
  {
   "text": "Lines as usual. Lucic-Krejci-Iginla, Marchand-Bergeron-Smith, Kelly-Soderberg-Eriksson, Paille-Campbell-Thornton ^CS #NHLBruins", 
   "label": "O", 
   "id": 442761632209698816, 
   "hashtags": [
    "NHLBruins"
   ], 
   "user_mentions": [], 
   "created_at": "Sun Mar 09 20:39:33 +0000 2014"
  }, 
  {
   "text": "Likely defense pairs: Chara-Meszaros, Bartkowski-Boychuk, Krug-Miller (with Hamilton &amp; Potter the healthy scratches) ^CS", 
   "label": "O", 
   "id": 442761607530438656, 
   "hashtags": [], 
   "user_mentions": [], 
   "created_at": "Sun Mar 09 20:39:28 +0000 2014"
  }, 
  {
   "text": "Meszaros takes first rushes paired with Chara ^CS", 
   "label": "O", 
   "id": 442761016079024128, 
   "hashtags": [], 
   "user_mentions": [], 
   "created_at": "Sun Mar 09 20:37:07 +0000 2014"
  }, 
  {
   "text": "Chad Johnson and Roberto Luongo in nets ^CS #NHLBruins #FlaPanthers", 
   "label": "O", 
   "id": 442759708588650496, 
   "hashtags": [
    "NHLBruins", 
    "FlaPanthers"
   ], 
   "user_mentions": [], 
   "created_at": "Sun Mar 09 20:31:55 +0000 2014"
  }, 
  {
   "text": "Chad Johnson the starter tonight in FL ^CS", 
   "label": "O", 
   "id": 442759400538001409, 
   "hashtags": [], 
   "user_mentions": [], 
   "created_at": "Sun Mar 09 20:30:41 +0000 2014"
  }, 
  {
   "text": "Julien said Andrej Meszaros will be in and Dougie Hamilton with be a healthy scratch ^CS", 
   "label": "O", 
   "id": 442751681617743872, 
   "hashtags": [], 
   "user_mentions": [], 
   "created_at": "Sun Mar 09 20:00:01 +0000 2014"
  }, 
  {
   "text": "Meszaros making his Bruins' debut tonight ^CS", 
   "label": "O", 
   "id": 442751519050723329, 
   "hashtags": [], 
   "user_mentions": [], 
   "created_at": "Sun Mar 09 19:59:22 +0000 2014"
  }, 
  {
   "text": "Looch: \"we've got to do whatever we can to find our energy &amp; hopefully we can find it early enough and sustain it\" ^CS", 
   "label": "O", 
   "id": 442748217634344960, 
   "hashtags": [], 
   "user_mentions": [], 
   "created_at": "Sun Mar 09 19:46:15 +0000 2014"
  }, 
  {
   "text": "2nd game in 22 hours + coming in late + lost hour w/daylight savings. Lucic: \"those are only excuses if you want to make them excuses\" ^CS", 
   "label": "O", 
   "id": 442748083328532480, 
   "hashtags": [], 
   "user_mentions": [], 
   "created_at": "Sun Mar 09 19:45:43 +0000 2014"
  }, 
  {
   "text": "If you missed last night's 4-3 shootout win over #TBLightning, catch highlights + interviews here: http://t.co/DgHUwF3Ysh ^CS", 
   "label": "O", 
   "id": 442746509831184384, 
   "hashtags": [
    "TBLightning"
   ], 
   "user_mentions": [], 
   "created_at": "Sun Mar 09 19:39:28 +0000 2014"
  }, 
  {
   "text": "During scoring drought, Reilly said Brad &amp; Patrice \"are pretty good about keeping me on a even keel\" if he's ever getting upset w/himself^CS", 
   "label": "O", 
   "id": 442746209338675200, 
   "hashtags": [], 
   "user_mentions": [], 
   "created_at": "Sun Mar 09 19:38:16 +0000 2014"
  }, 
  {
   "text": "#NHLBruins have arrived at @thebbtcenter! Puck drop in about 90 minutes ^CS http://t.co/jmZYmJwAy3", 
   "label": "O", 
   "id": 442743855960821760, 
   "hashtags": [
    "NHLBruins"
   ], 
   "user_mentions": [
    "thebbtcenter"
   ], 
   "created_at": "Sun Mar 09 19:28:55 +0000 2014"
  }, 
  {
   "text": "Show off your Bruins Wild Side for the chance to win 2 tix to an upcoming game, courtesy of @JackLinks. Enter now: http://t.co/idi8nNSppf", 
   "label": "O", 
   "id": 442721937014681601, 
   "hashtags": [], 
   "user_mentions": [
    "JackLinks"
   ], 
   "created_at": "Sun Mar 09 18:01:49 +0000 2014"
  }, 
  {
   "text": "No morning skate today for #NHLBruins. Puck drops tonight vs. #FlaPanthers at 5 pm ET ^CS", 
   "label": "O", 
   "id": 442682330407534592, 
   "hashtags": [
    "NHLBruins", 
    "FlaPanthers"
   ], 
   "user_mentions": [], 
   "created_at": "Sun Mar 09 15:24:26 +0000 2014"
  }, 
  {
   "text": "#NHLBruins earn 4-3 shootout win over #TBLightning. Watch Bruins Beat from FL for highlights + interviews: http://t.co/DgHUwF3Ysh ^TV", 
   "label": "O", 
   "id": 442561180683755520, 
   "hashtags": [
    "NHLBruins", 
    "TBLightning"
   ], 
   "user_mentions": [], 
   "created_at": "Sun Mar 09 07:23:02 +0000 2014"
  }, 
  {
   "text": "Reilly Smith's shootout winner seals #NHLBruins late surge over Bolts. Read more: http://t.co/K93co2MZS6 ^CS http://t.co/R9y7ZWyoZs", 
   "label": "O", 
   "id": 442560099358224384, 
   "hashtags": [
    "NHLBruins"
   ], 
   "user_mentions": [], 
   "created_at": "Sun Mar 09 07:18:44 +0000 2014"
  }, 
  {
   "text": "Shawn Thornton &amp; Keith Aulie dropped the gloves in the first period. Watch: http://t.co/zSvGHafD9M  ^TV", 
   "label": "O", 
   "id": 442526845058023424, 
   "hashtags": [], 
   "user_mentions": [], 
   "created_at": "Sun Mar 09 05:06:36 +0000 2014"
  }
 ]
}