{
 "num_road_team_goals": "1", 
 "home_team": "Winnipeg Jets", 
 "num_home_team_goals": "2", 
 "summary_url": "http://www.flyershistory.com/cgi-bin/poboxscore.cgi?H20131202", 
 "result": "L (SO)", 
 "road_team": "Boston Bruins", 
 "date": "2014-04-10", 
 "goals": [
  {
   "season_index": "24", 
   "strength": "(EV)", 
   "time": "10:12", 
   "period": "1", 
   "player": "B.Marchand", 
   "assists": "(R.Smith, D.Krejci)", 
   "game_index": "1", 
   "team": "BOS"
  }, 
  {
   "season_index": "18", 
   "strength": "(EV)", 
   "time": "18:03", 
   "period": "3", 
   "player": "E.Kane", 
   "assists": "(B.Wheeler, T.Enstrom)", 
   "game_index": "2", 
   "team": "WPG"
  }
 ], 
 "tweets": [
  {
   "text": "Coach: \"We looked like a disinterested team tonight and they were determined to have a good strong finish here, and they did\" ^CS", 
   "label": "O", 
   "id": 454462783002660864, 
   "hashtags": [], 
   "user_mentions": [], 
   "created_at": "Fri Apr 11 03:35:45 +0000 2014"
  }, 
  {
   "text": "#NHLBruins fall 2-1 in the shootout to #NHLJets ^CS", 
   "label": "END", 
   "id": 454450347931475969, 
   "hashtags": [
    "NHLBruins", 
    "NHLJets"
   ], 
   "user_mentions": [], 
   "created_at": "Fri Apr 11 02:46:20 +0000 2014"
  }, 
  {
   "text": "Round 3: Marchand gets stopped, and that's it for this one ^CS", 
   "label": "O", 
   "id": 454450249902198784, 
   "hashtags": [], 
   "user_mentions": [], 
   "created_at": "Fri Apr 11 02:45:57 +0000 2014"
  }, 
  {
   "text": "Round 2: Spooner misses wide; Johnson stops Jokinen ^CS", 
   "label": "O", 
   "id": 454450009052684288, 
   "hashtags": [], 
   "user_mentions": [], 
   "created_at": "Fri Apr 11 02:45:00 +0000 2014"
  }, 
  {
   "text": "Round 1: Smith can't get it through; Little gets it past Johnson ^CS", 
   "label": "O", 
   "id": 454449833734979584, 
   "hashtags": [], 
   "user_mentions": [], 
   "created_at": "Fri Apr 11 02:44:18 +0000 2014"
  }, 
  {
   "text": "Bruins get looks at the end of OT but Hutchinson pulled out a glove save and Hamilton's final drive was blocked down ^CS", 
   "label": "O", 
   "id": 454448891648167936, 
   "hashtags": [], 
   "user_mentions": [], 
   "created_at": "Fri Apr 11 02:40:33 +0000 2014"
  }, 
  {
   "text": "That's it for OT. To the shootout we go... ^CS", 
   "label": "PER-SO", 
   "id": 454448646885371904, 
   "hashtags": [], 
   "user_mentions": [], 
   "created_at": "Fri Apr 11 02:39:35 +0000 2014"
  }, 
  {
   "text": "Boston gets a power play with 39.4 left in OT ^CS", 
   "label": "O", 
   "id": 454448087587504128, 
   "hashtags": [], 
   "user_mentions": [], 
   "created_at": "Fri Apr 11 02:37:21 +0000 2014"
  }, 
  {
   "text": "Bruins normally go with 3 forwards, 1 D in overtime. Tonight, it's 2 F, 2 D ^CS", 
   "label": "O", 
   "id": 454446940004958209, 
   "hashtags": [], 
   "user_mentions": [], 
   "created_at": "Fri Apr 11 02:32:48 +0000 2014"
  }, 
  {
   "text": "Puck dropped on OT ^CS", 
   "label": "PER-OT", 
   "id": 454446499447840768, 
   "hashtags": [], 
   "user_mentions": [], 
   "created_at": "Fri Apr 11 02:31:03 +0000 2014"
  }, 
  {
   "text": "1-1 tie after regulation, and this crowd is fired up. To overtime we go... ^CS", 
   "label": "O", 
   "id": 454445979542884352, 
   "hashtags": [], 
   "user_mentions": [], 
   "created_at": "Fri Apr 11 02:28:59 +0000 2014"
  }, 
  {
   "text": "Winnipeg ties it up 1-1. Evander Kane goes upstairs, set up by Wheeler. 1:57 to go ^CS", 
   "label": "GOAL-2", 
   "id": 454445098260893698, 
   "hashtags": [], 
   "user_mentions": [], 
   "created_at": "Fri Apr 11 02:25:29 +0000 2014"
  }, 
  {
   "text": "Chad Johnson keeping Boston up 1-0 in the third, as clocks ticks under 3:00 ^CS", 
   "label": "O", 
   "id": 454444715505491968, 
   "hashtags": [], 
   "user_mentions": [], 
   "created_at": "Fri Apr 11 02:23:58 +0000 2014"
  }, 
  {
   "text": "TV timeout. Winnipeg getting most of the chances with 4:54 to go. #NHLBruins still up 1-0 ^CS", 
   "label": "O", 
   "id": 454443835884457984, 
   "hashtags": [
    "NHLBruins"
   ], 
   "user_mentions": [], 
   "created_at": "Fri Apr 11 02:20:28 +0000 2014"
  }, 
  {
   "text": "Save by Johnson! Jokinen set up by Wheeler, and Johnson make a terrific save with his pad ^CS", 
   "label": "O", 
   "id": 454442632622522368, 
   "hashtags": [], 
   "user_mentions": [], 
   "created_at": "Fri Apr 11 02:15:41 +0000 2014"
  }, 
  {
   "text": "#NHLBruins still up 1-0 with 8:49 to play in the 3rd. Shots 31-28 Boston ^CS", 
   "label": "O", 
   "id": 454442205344563201, 
   "hashtags": [
    "NHLBruins"
   ], 
   "user_mentions": [], 
   "created_at": "Fri Apr 11 02:13:59 +0000 2014"
  }, 
  {
   "text": "Smith touches both ends. Nearly tips in a slick pass from Marchand, then races on the backcheck to halt an attempt on Johnson ^CS", 
   "label": "O", 
   "id": 454439464362708992, 
   "hashtags": [], 
   "user_mentions": [], 
   "created_at": "Fri Apr 11 02:03:06 +0000 2014"
  }, 
  {
   "text": "Brad Marchand finishes off a great feed from Reilly Smith to put the #NHLBruins on the board in the\u2026 http://t.co/NcsUCQ3Egj", 
   "label": "O", 
   "id": 454439263682453504, 
   "hashtags": [
    "NHLBruins"
   ], 
   "user_mentions": [], 
   "created_at": "Fri Apr 11 02:02:18 +0000 2014"
  }, 
  {
   "text": "Saves at both ends. Wheeler races in on Johnson, moves to his backhand, Johnson makes the stop ^CS", 
   "label": "O", 
   "id": 454437510827884546, 
   "hashtags": [], 
   "user_mentions": [], 
   "created_at": "Fri Apr 11 01:55:20 +0000 2014"
  }, 
  {
   "text": "Puck dropped! 3rd underway with #NHLBruins leading 1-0 ^CS", 
   "label": "PER-3", 
   "id": 454437056391823360, 
   "hashtags": [
    "NHLBruins"
   ], 
   "user_mentions": [], 
   "created_at": "Fri Apr 11 01:53:31 +0000 2014"
  }, 
  {
   "text": "Iggy wants that one-timer...leads #NHLBruins with 5 shots on goal through 40 minutes (8 attempts) ^CS", 
   "label": "O", 
   "id": 454432884380545024, 
   "hashtags": [
    "NHLBruins"
   ], 
   "user_mentions": [], 
   "created_at": "Fri Apr 11 01:36:57 +0000 2014"
  }, 
  {
   "text": "That's a wrap on the 2nd. #NHLBruins up 1-0 heading to the 3rd. Shots 21-20 Boston ^CS", 
   "label": "O", 
   "id": 454432391264608256, 
   "hashtags": [
    "NHLBruins"
   ], 
   "user_mentions": [], 
   "created_at": "Fri Apr 11 01:34:59 +0000 2014"
  }, 
  {
   "text": "#NHLBruins back on the power play. 5:01 left in the 2nd. Stuart called for a high stick on Marchand ^CS", 
   "label": "O", 
   "id": 454430313834233856, 
   "hashtags": [
    "NHLBruins"
   ], 
   "user_mentions": [], 
   "created_at": "Fri Apr 11 01:26:44 +0000 2014"
  }, 
  {
   "text": "Nice movement by Bruins. Loui with the drive from the right circle. Hutchinson robs him again ^CS", 
   "label": "O", 
   "id": 454429678975983616, 
   "hashtags": [], 
   "user_mentions": [], 
   "created_at": "Fri Apr 11 01:24:13 +0000 2014"
  }, 
  {
   "text": "#NHLBruins to the power play, 7:12 left in the 2nd. Thornton makes a move, draws a hook by Adam Pardy in tight ^CS", 
   "label": "O", 
   "id": 454429160727777280, 
   "hashtags": [
    "NHLBruins"
   ], 
   "user_mentions": [], 
   "created_at": "Fri Apr 11 01:22:09 +0000 2014"
  }, 
  {
   "text": "Torey Krug and Eric Tangradi jousting at the red line. Both head to the box for roughing. 9:43 to play in the 2nd ^CS", 
   "label": "O", 
   "id": 454427948343259136, 
   "hashtags": [], 
   "user_mentions": [], 
   "created_at": "Fri Apr 11 01:17:20 +0000 2014"
  }, 
  {
   "text": "Lucic fires one from inside the blueline, fed by Iginla. Hutchinson flashes out the glove ^CS", 
   "label": "O", 
   "id": 454427521790914560, 
   "hashtags": [], 
   "user_mentions": [], 
   "created_at": "Fri Apr 11 01:15:38 +0000 2014"
  }, 
  {
   "text": "Boychuk breaks his stick, gets stuck in the zone for significant time. Bruins eventually get it out. Still up 1-0 in the 2nd ^CS", 
   "label": "O", 
   "id": 454426283305226240, 
   "hashtags": [], 
   "user_mentions": [], 
   "created_at": "Fri Apr 11 01:10:43 +0000 2014"
  }, 
  {
   "text": "#NHLBruins make the kill, Caron out of the box ^CS", 
   "label": "O", 
   "id": 454425538547822592, 
   "hashtags": [
    "NHLBruins"
   ], 
   "user_mentions": [], 
   "created_at": "Fri Apr 11 01:07:45 +0000 2014"
  }, 
  {
   "text": "#NHLBruins to the PK, 16:56 on the clock in the 2nd. Caron to the box for holding ^CS", 
   "label": "O", 
   "id": 454424768347774976, 
   "hashtags": [
    "NHLBruins"
   ], 
   "user_mentions": [], 
   "created_at": "Fri Apr 11 01:04:42 +0000 2014"
  }, 
  {
   "text": "Puck dropped on the 2nd! #NHLBruins up 1-0 over #NHLJets ^CS", 
   "label": "PER-2", 
   "id": 454423552561672192, 
   "hashtags": [
    "NHLBruins", 
    "NHLJets"
   ], 
   "user_mentions": [], 
   "created_at": "Fri Apr 11 00:59:52 +0000 2014"
  }, 
  {
   "text": "Shots 12-6 in favor of Winnipeg after 20 minutes ^CS", 
   "label": "O", 
   "id": 454419086034731009, 
   "hashtags": [], 
   "user_mentions": [], 
   "created_at": "Fri Apr 11 00:42:07 +0000 2014"
  }, 
  {
   "text": "Horn sounds on the 1st. #NHLBruins take 1-0 lead to the 2nd, thanks to Marchand's 24th of the season ^CS", 
   "label": "GOAL-1", 
   "id": 454418968531329024, 
   "hashtags": [
    "NHLBruins"
   ], 
   "user_mentions": [], 
   "created_at": "Fri Apr 11 00:41:39 +0000 2014"
  }, 
  {
   "text": "Krejci springs Iginla on the breakaway, as he races past Trouba and Stuart. Hutchinson makes a biiig stop. Under 4:00 left in 1st ^CS", 
   "label": "O", 
   "id": 454417658281095168, 
   "hashtags": [], 
   "user_mentions": [], 
   "created_at": "Fri Apr 11 00:36:27 +0000 2014"
  }, 
  {
   "text": "@TuukkaRaskk B's played a preseason game here, but Iginla didn't play. He played the next night vs. Jets in Saskatoon ^CS", 
   "label": "O", 
   "id": 454417194747576320, 
   "hashtags": [], 
   "user_mentions": [
    "TuukkaRaskk"
   ], 
   "created_at": "Fri Apr 11 00:34:36 +0000 2014"
  }, 
  {
   "text": "@TuukkaRaskk Jets first season at MTS = 2011-12. CGY didn't play here that season or during lockout season 2012-13 ^CS", 
   "label": "O", 
   "id": 454417108739170304, 
   "hashtags": [], 
   "user_mentions": [
    "TuukkaRaskk"
   ], 
   "created_at": "Fri Apr 11 00:34:16 +0000 2014"
  }, 
  {
   "text": "Mark that as Brad Marchand's 24th goal of the season, assisted by Reilly Smith and David Krejci ^CS", 
   "label": "GOAL-1", 
   "id": 454415134539018240, 
   "hashtags": [], 
   "user_mentions": [], 
   "created_at": "Fri Apr 11 00:26:25 +0000 2014"
  }, 
  {
   "text": "Heads-up play by Smith, chipping the puck in for Marchand, who had a step on his man, collected puck off the endboards &amp; slipped it in ^CS", 
   "label": "GOAL-1", 
   "id": 454414938031656960, 
   "hashtags": [], 
   "user_mentions": [], 
   "created_at": "Fri Apr 11 00:25:38 +0000 2014"
  }, 
  {
   "text": "GOAL! Marchand backhands it in to give #NHLBruins the 1-0 lead, 9:48 left in the first ^CS", 
   "label": "GOAL-1", 
   "id": 454414566726725632, 
   "hashtags": [
    "NHLBruins"
   ], 
   "user_mentions": [], 
   "created_at": "Fri Apr 11 00:24:09 +0000 2014"
  }, 
  {
   "text": "Lucic and Campbell join Krejci wearing the 'A' tonight, with Chara, Bergeron and Kelly not in the lineup ^CS", 
   "label": "O", 
   "id": 454413828839596033, 
   "hashtags": [], 
   "user_mentions": [], 
   "created_at": "Fri Apr 11 00:21:14 +0000 2014"
  }, 
  {
   "text": "With Bergeron out, Marchand saw PP time with the other unit. Hamilton, Smith, Marchand, Eriksson, Soderberg ^CS", 
   "label": "O", 
   "id": 454413195243843584, 
   "hashtags": [], 
   "user_mentions": [], 
   "created_at": "Fri Apr 11 00:18:42 +0000 2014"
  }, 
  {
   "text": "Jets make the kill, back to five-on-five with 7 minutes gone in the first. Shots 1-1 ^CS", 
   "label": "O", 
   "id": 454412936660783105, 
   "hashtags": [], 
   "user_mentions": [], 
   "created_at": "Fri Apr 11 00:17:41 +0000 2014"
  }, 
  {
   "text": "Spooner gets power-play time on the unit with Krug, Lucic, Krejci, Iginla (with Zee out tonight) ^CS", 
   "label": "O", 
   "id": 454412555977371648, 
   "hashtags": [], 
   "user_mentions": [], 
   "created_at": "Fri Apr 11 00:16:10 +0000 2014"
  }, 
  {
   "text": "#NHLBruins to the power play, 4:47 into the first ^CS", 
   "label": "O", 
   "id": 454412339635163136, 
   "hashtags": [
    "NHLBruins"
   ], 
   "user_mentions": [], 
   "created_at": "Fri Apr 11 00:15:19 +0000 2014"
  }, 
  {
   "text": "Puck dropped! #NHLBruins vs. #NHLJets underway in Winnipeg ^CS", 
   "label": "START", 
   "id": 454410950280364032, 
   "hashtags": [
    "NHLBruins", 
    "NHLJets"
   ], 
   "user_mentions": [], 
   "created_at": "Fri Apr 11 00:09:47 +0000 2014"
  }, 
  {
   "text": "Lineups. Chara, Potter healthy scratches. Kelly day-to-day (back). Bergeron out &amp; is not a 'healthy' scratch ^CS http://t.co/6jZKBLxLxw", 
   "label": "O", 
   "id": 454409834142527488, 
   "hashtags": [], 
   "user_mentions": [], 
   "created_at": "Fri Apr 11 00:05:21 +0000 2014"
  }, 
  {
   "text": "Jarome Iginla back in the lineup tonight. First time he's ever played a game here at MTS Centre ^CS", 
   "label": "O", 
   "id": 454408549972443136, 
   "hashtags": [], 
   "user_mentions": [], 
   "created_at": "Fri Apr 11 00:00:15 +0000 2014"
  }, 
  {
   "text": "Goalie matchup = Chad Johnson &amp; Michael Hutchinson. 2nd NHL game for Hutchinson, the former B's prospect (77th overall in 2008) ^CS", 
   "label": "O", 
   "id": 454407725099671552, 
   "hashtags": [], 
   "user_mentions": [], 
   "created_at": "Thu Apr 10 23:56:58 +0000 2014"
  }, 
  {
   "text": "@OttHockeyGirl in, according to warmups ^CS", 
   "label": "O", 
   "id": 454406619892154368, 
   "hashtags": [], 
   "user_mentions": [
    "OttHockeyGirl"
   ], 
   "created_at": "Thu Apr 10 23:52:35 +0000 2014"
  }, 
  {
   "text": "Re: last tweet--those 3 Jan. games, coincidentally, were 3 straight 6-goal wins by Boston. Also, Paille learned some Swedish w/Carl+Loui ^CS", 
   "label": "O", 
   "id": 454406434638135297, 
   "hashtags": [], 
   "user_mentions": [], 
   "created_at": "Thu Apr 10 23:51:51 +0000 2014"
  }, 
  {
   "text": "Paille-Soderberg-Eriksson have played 3 games together. 1/25 vs PHI (when Kelly was injured &amp; Spooner ill), 1/27 vs. NYI, 1/28 vs FLA ^CS", 
   "label": "O", 
   "id": 454405593885720577, 
   "hashtags": [], 
   "user_mentions": [], 
   "created_at": "Thu Apr 10 23:48:30 +0000 2014"
  }, 
  {
   "text": "According to warmups/rushes, looks like Bergeron &amp; Chara get the night off; Spooner's in; Potter the healthy scratch on defense ^CS", 
   "label": "O", 
   "id": 454403822060711936, 
   "hashtags": [], 
   "user_mentions": [], 
   "created_at": "Thu Apr 10 23:41:28 +0000 2014"
  }, 
  {
   "text": "Line rushes: Lucic-Krejci-Iginla, Marchand-Spooner-Smith, Paille-Soderberg-Eriksson, Caron-Campbell-Thornton ^CS #NHLBruins", 
   "label": "O", 
   "id": 454403409894862848, 
   "hashtags": [
    "NHLBruins"
   ], 
   "user_mentions": [], 
   "created_at": "Thu Apr 10 23:39:49 +0000 2014"
  }, 
  {
   "text": "Likely defense pairs tonight, per warmups: Meszaros-Boychuk, Bartkowski-Miller, Krug-Hamilton ^CS #NHLBruins", 
   "label": "O", 
   "id": 454403288255823872, 
   "hashtags": [
    "NHLBruins"
   ], 
   "user_mentions": [], 
   "created_at": "Thu Apr 10 23:39:20 +0000 2014"
  }, 
  {
   "text": "Chris Kelly won't be playing tonight; he's out day-to-day (back). More info here: http://t.co/GH0JpeYk3T ^CS", 
   "label": "O", 
   "id": 454402256150859776, 
   "hashtags": [], 
   "user_mentions": [], 
   "created_at": "Thu Apr 10 23:35:14 +0000 2014"
  }, 
  {
   "text": "Zdeno Chara &amp; Patrice Bergeron not on for warmups; looks like tonight may be their night for rest ^CS", 
   "label": "O", 
   "id": 454401702678892544, 
   "hashtags": [], 
   "user_mentions": [], 
   "created_at": "Thu Apr 10 23:33:02 +0000 2014"
  }, 
  {
   "text": "Iginla and Miller both on the ice for warmups ^CS", 
   "label": "O", 
   "id": 454401107100315648, 
   "hashtags": [], 
   "user_mentions": [], 
   "created_at": "Thu Apr 10 23:30:40 +0000 2014"
  }, 
  {
   "text": "Chad Johnson leads the Bruins out for warmups, will get the start tonight vs. Jets ^CS #NHLBruins", 
   "label": "O", 
   "id": 454400871699206144, 
   "hashtags": [
    "NHLBruins"
   ], 
   "user_mentions": [], 
   "created_at": "Thu Apr 10 23:29:44 +0000 2014"
  }, 
  {
   "text": "Join #BeardAThon &amp; raise $25 by 5PM on 4/11 for the chance to win 2 tix to the BOS vs. BUF game &amp; a player's jersey: http://t.co/Sp0QnYTbqO", 
   "label": "O", 
   "id": 454374290260254720, 
   "hashtags": [
    "BeardAThon"
   ], 
   "user_mentions": [], 
   "created_at": "Thu Apr 10 21:44:07 +0000 2014"
  }, 
  {
   "text": "RT @tdgarden: #Boston #business leaders, #TDGardenBiz Network is here! More via @BostonGlobe: http://t.co/2Mo7xY1AlQ Follow @tdgardenbiz", 
   "label": "O", 
   "id": 454366433498001408, 
   "hashtags": [
    "Boston", 
    "business", 
    "TDGardenBiz"
   ], 
   "user_mentions": [
    "tdgarden", 
    "BostonGlobe", 
    "tdgardenbiz"
   ], 
   "created_at": "Thu Apr 10 21:12:54 +0000 2014"
  }, 
  {
   "text": "Chris Kelly still day-to-day, David Krejci rested up as #NHLBruins take on Jets. More in Bruins Blog: http://t.co/GH0JpeYk3T ^CS", 
   "label": "O", 
   "id": 454362810667896832, 
   "hashtags": [
    "NHLBruins"
   ], 
   "user_mentions": [], 
   "created_at": "Thu Apr 10 20:58:30 +0000 2014"
  }, 
  {
   "text": "#NHLBruins face the Jets tonight in Winnipeg. Watch Bruins Beat for your preview: http://t.co/LcCDgj9jrb ^TV", 
   "label": "O", 
   "id": 454352123723907072, 
   "hashtags": [
    "NHLBruins"
   ], 
   "user_mentions": [], 
   "created_at": "Thu Apr 10 20:16:02 +0000 2014"
  }, 
  {
   "text": "Julien: \"If you\u2019re going to get dressed and you\u2019re going to play, you've got to play hard, no matter what\" ^CS", 
   "label": "O", 
   "id": 454349759432888321, 
   "hashtags": [], 
   "user_mentions": [], 
   "created_at": "Thu Apr 10 20:06:38 +0000 2014"
  }, 
  {
   "text": "Coach, on getting a stronger effort tonight than vs. Wild: \"just because you rest players, doesn\u2019t mean you want your team to relax\" ^CS", 
   "label": "O", 
   "id": 454349603866148866, 
   "hashtags": [], 
   "user_mentions": [], 
   "created_at": "Thu Apr 10 20:06:01 +0000 2014"
  }, 
  {
   "text": "Forward Ryan Spooner joined the team for pregame skate this morning in Winnipeg. #NHLBruins http://t.co/U9oFEbb83U", 
   "label": "O", 
   "id": 454344562933510144, 
   "hashtags": [
    "NHLBruins"
   ], 
   "user_mentions": [], 
   "created_at": "Thu Apr 10 19:45:59 +0000 2014"
  }, 
  {
   "text": "Watch Black &amp; Blue hockey featuring past &amp; present B's to pay tribute to 90 years of Bruins hockey, pres. by NuStat: http://t.co/RX8saTT9Nj", 
   "label": "O", 
   "id": 454326477950296064, 
   "hashtags": [], 
   "user_mentions": [], 
   "created_at": "Thu Apr 10 18:34:07 +0000 2014"
  }, 
  {
   "text": "Coach said Kelly will not play tonight (day-to-day, back spasms)-\"from what I'm told, very optimistic about him being ready for playoffs\"^CS", 
   "label": "O", 
   "id": 454308989589659648, 
   "hashtags": [], 
   "user_mentions": [], 
   "created_at": "Thu Apr 10 17:24:38 +0000 2014"
  }, 
  {
   "text": "Julien said they'll be making some lineup changes tonight, but didn't disclose; warmups will be the best indication ^CS", 
   "label": "O", 
   "id": 454308161688584192, 
   "hashtags": [], 
   "user_mentions": [], 
   "created_at": "Thu Apr 10 17:21:21 +0000 2014"
  }, 
  {
   "text": "Optional skate for the Bruins this morning in Winnipeg. Ryan Spooner (recalled yesterday) on with the group, Chris Kelly is not ^CS", 
   "label": "O", 
   "id": 454297359132811264, 
   "hashtags": [], 
   "user_mentions": [], 
   "created_at": "Thu Apr 10 16:38:25 +0000 2014"
  }, 
  {
   "text": "Ready for the #FrozenFour? B's prospects Ryan Fitzgerald &amp; Zane Gothberg are. Watch video: http://t.co/gISnzh3PTP ^TV", 
   "label": "O", 
   "id": 454279605306675200, 
   "hashtags": [
    "FrozenFour"
   ], 
   "user_mentions": [], 
   "created_at": "Thu Apr 10 15:27:52 +0000 2014"
  }, 
  {
   "text": "#NHLBruins practiced in Winnipeg yesterday before facing Jets, with Iginla &amp; Miller joining in. Watch: http://t.co/OHkefBabMr ^TV", 
   "label": "O", 
   "id": 454263913991774208, 
   "hashtags": [
    "NHLBruins"
   ], 
   "user_mentions": [], 
   "created_at": "Thu Apr 10 14:25:31 +0000 2014"
  }, 
  {
   "text": "B's prospects Ryan Fitzgerald (BC) and Zane Gothberg (UND) are ready to shine in the #FrozenFour Read more: http://t.co/5TTTed0R96", 
   "label": "O", 
   "id": 454256272528113664, 
   "hashtags": [
    "FrozenFour"
   ], 
   "user_mentions": [], 
   "created_at": "Thu Apr 10 13:55:09 +0000 2014"
  }, 
  {
   "text": "GAMEDAY. #NHLBruins http://t.co/Bvq62KG19Q", 
   "label": "O", 
   "id": 454253449794691072, 
   "hashtags": [
    "NHLBruins"
   ], 
   "user_mentions": [], 
   "created_at": "Thu Apr 10 13:43:56 +0000 2014"
  }
 ]
}