{
 "num_road_team_goals": "2", 
 "home_team": "Florida Panthers", 
 "num_home_team_goals": "4", 
 "summary_url": "http://www.flyershistory.com/cgi-bin/poboxscore.cgi?H20131199", 
 "result": "L", 
 "road_team": "Toronto Maple Leafs", 
 "date": "2014-04-10", 
 "goals": [
  {
   "season_index": "13", 
   "strength": "(EV)", 
   "time": "6:06", 
   "period": "1", 
   "player": "B.Pirri", 
   "assists": "(Q.Howden, B.Campbell)", 
   "game_index": "1", 
   "team": "FLA"
  }, 
  {
   "season_index": "19", 
   "strength": "(EV)", 
   "time": "4:13", 
   "period": "2", 
   "player": "T.Bozak", 
   "assists": "(J.Gardiner, J.van)", 
   "game_index": "2", 
   "team": "TOR"
  }, 
  {
   "season_index": "21", 
   "strength": "(EV)", 
   "time": "19:57", 
   "period": "2", 
   "player": "B.Boyes", 
   "assists": "(N.Bjugstad, S.Bergenheim)", 
   "game_index": "3", 
   "team": "FLA"
  }, 
  {
   "season_index": "15", 
   "strength": "(EV)", 
   "time": "3:23", 
   "period": "3", 
   "player": "N.Bjugstad", 
   "assists": "(S.Bergenheim, B.Boyes)", 
   "game_index": "4", 
   "team": "FLA"
  }, 
  {
   "season_index": "16", 
   "strength": "(SH)", 
   "time": "6:02", 
   "period": "3", 
   "player": "N.Bjugstad", 
   "assists": "(T.Fleischmann, C.Robak)", 
   "game_index": "5", 
   "team": "FLA"
  }, 
  {
   "season_index": "6", 
   "strength": "(EV)", 
   "time": "13:57", 
   "period": "3", 
   "player": "P.Ranger", 
   "assists": "(T.Bozak, J.Gardiner)", 
   "game_index": "6", 
   "team": "TOR"
  }
 ], 
 "tweets": [
  {
   "text": "Scotiabank Game Recap: MacIntyre Solid In First Start But #Leafs Fall To #Panthers http://t.co/DFaDj37mLi #TMLtalk", 
   "label": "O", 
   "id": 454460023604015104, 
   "hashtags": [
    "Leafs", 
    "Panthers", 
    "TMLtalk"
   ], 
   "user_mentions": [], 
   "created_at": "Fri Apr 11 03:24:47 +0000 2014", 
   "retweet_count": 14, 
   "favorite_count": 24
  }, 
  {
   "text": "@shcssoccer9 @Bozie42 awesome pic.", 
   "label": "O", 
   "id": 454456507040825344, 
   "hashtags": [], 
   "user_mentions": [
    "shcssoccer9", 
    "Bozie42"
   ], 
   "created_at": "Fri Apr 11 03:10:49 +0000 2014", 
   "retweet_count": 1, 
   "favorite_count": 2
  }, 
  {
   "text": "@charchar_11 @mriles4 @Jgardiner272 two great guys. It's a great episode. Glad you enjoyed it.", 
   "label": "O", 
   "id": 454456330619990016, 
   "hashtags": [], 
   "user_mentions": [
    "charchar_11", 
    "mriles4", 
    "Jgardiner272"
   ], 
   "created_at": "Fri Apr 11 03:10:07 +0000 2014", 
   "retweet_count": 0, 
   "favorite_count": 3
  }, 
  {
   "text": "Drew MacIntyre with 33 saves in his first @NHL start. #TMLtalk #UncleDrew http://t.co/Q9VGucGXNi", 
   "label": "O", 
   "id": 454451918517960705, 
   "hashtags": [
    "TMLtalk", 
    "UncleDrew"
   ], 
   "user_mentions": [
    "NHL"
   ], 
   "created_at": "Fri Apr 11 02:52:35 +0000 2014", 
   "retweet_count": 111, 
   "favorite_count": 181
  }, 
  {
   "text": "The #Leafs fall 4-2 to the #Panthers. Bozak and Ranger with the goals for Toronto. #TMLtalk http://t.co/8qXmKmTU3O", 
   "label": "O", 
   "id": 454442251288977408, 
   "hashtags": [
    "Leafs", 
    "Panthers", 
    "TMLtalk"
   ], 
   "user_mentions": [], 
   "created_at": "Fri Apr 11 02:14:10 +0000 2014", 
   "retweet_count": 57, 
   "favorite_count": 67
  }, 
  {
   "text": "@MsJackieGeorge correct.", 
   "label": "O", 
   "id": 454441055354884096, 
   "hashtags": [], 
   "user_mentions": [
    "MsJackieGeorge"
   ], 
   "created_at": "Fri Apr 11 02:09:25 +0000 2014", 
   "retweet_count": 0, 
   "favorite_count": 0
  }, 
  {
   "text": "@awebieberr sure.", 
   "label": "O", 
   "id": 454439959660101632, 
   "hashtags": [], 
   "user_mentions": [
    "awebieberr"
   ], 
   "created_at": "Fri Apr 11 02:05:04 +0000 2014", 
   "retweet_count": 1, 
   "favorite_count": 2
  }, 
  {
   "text": "Was a beauty RT @illaydillay: Best save of Uncle Drew's night #TMLtalk", 
   "label": "O", 
   "id": 454439671280705536, 
   "hashtags": [
    "TMLtalk"
   ], 
   "user_mentions": [
    "illaydillay"
   ], 
   "created_at": "Fri Apr 11 02:03:55 +0000 2014", 
   "retweet_count": 15, 
   "favorite_count": 27
  }, 
  {
   "text": "Now 4-2 as Ranger's shot beats Luongo RT @DuneTiger: Leafs get one back! #TMLTalk", 
   "label": "O", 
   "id": 454438290817814528, 
   "hashtags": [
    "TMLTalk"
   ], 
   "user_mentions": [
    "DuneTiger"
   ], 
   "created_at": "Fri Apr 11 01:58:26 +0000 2014", 
   "retweet_count": 21, 
   "favorite_count": 46
  }, 
  {
   "text": "@DLounz quite possibly it is. Cheers", 
   "label": "O", 
   "id": 454438042045284352, 
   "hashtags": [], 
   "user_mentions": [
    "DLounz"
   ], 
   "created_at": "Fri Apr 11 01:57:26 +0000 2014", 
   "retweet_count": 0, 
   "favorite_count": 0
  }, 
  {
   "text": "@chasing_adalia @BonsieTweets ha...", 
   "label": "O", 
   "id": 454437431077781504, 
   "hashtags": [], 
   "user_mentions": [
    "chasing_adalia", 
    "BonsieTweets"
   ], 
   "created_at": "Fri Apr 11 01:55:01 +0000 2014", 
   "retweet_count": 1, 
   "favorite_count": 0
  }, 
  {
   "text": "RT @PR_NHL: Prior to D. MacIntyre (TOR), last goalie to make 1st start at least 12 seasons after draft year was R. Knickle (1st start 1993,\u2026", 
   "label": "O", 
   "id": 454436376524890112, 
   "hashtags": [], 
   "user_mentions": [
    "PR_NHL"
   ], 
   "created_at": "Fri Apr 11 01:50:49 +0000 2014", 
   "retweet_count": 46, 
   "favorite_count": 0
  }, 
  {
   "text": "@Muk_TML we will miss you too.", 
   "label": "O", 
   "id": 454436276201336832, 
   "hashtags": [], 
   "user_mentions": [
    "Muk_TML"
   ], 
   "created_at": "Fri Apr 11 01:50:25 +0000 2014", 
   "retweet_count": 0, 
   "favorite_count": 1
  }, 
  {
   "text": "Shothanded goal by FLA makes it 4-1. #TMLtalk", 
   "label": "O", 
   "id": 454433900216188928, 
   "hashtags": [
    "TMLtalk"
   ], 
   "user_mentions": [], 
   "created_at": "Fri Apr 11 01:40:59 +0000 2014", 
   "retweet_count": 30, 
   "favorite_count": 39
  }, 
  {
   "text": "@Ainsley117 he's confused.", 
   "label": "O", 
   "id": 454433355585835009, 
   "hashtags": [], 
   "user_mentions": [
    "Ainsley117"
   ], 
   "created_at": "Fri Apr 11 01:38:49 +0000 2014", 
   "retweet_count": 1, 
   "favorite_count": 5
  }, 
  {
   "text": "@ConnorDownss Joe is the best.", 
   "label": "O", 
   "id": 454432425008173056, 
   "hashtags": [], 
   "user_mentions": [
    "ConnorDownss"
   ], 
   "created_at": "Fri Apr 11 01:35:07 +0000 2014", 
   "retweet_count": 0, 
   "favorite_count": 0
  }, 
  {
   "text": "#TMLtalk update RT @aysh_94: 3-1 Florida #TMLtalk", 
   "label": "O", 
   "id": 454432187161780225, 
   "hashtags": [
    "TMLtalk", 
    "TMLtalk"
   ], 
   "user_mentions": [
    "aysh_94"
   ], 
   "created_at": "Fri Apr 11 01:34:11 +0000 2014", 
   "retweet_count": 12, 
   "favorite_count": 17
  }, 
  {
   "text": "#TMLtalk video: #UncleDrew with the beauty poke check http://t.co/IL8giHPsAX #Leafs", 
   "label": "O", 
   "id": 454430633637707776, 
   "hashtags": [
    "TMLtalk", 
    "UncleDrew", 
    "Leafs"
   ], 
   "user_mentions": [], 
   "created_at": "Fri Apr 11 01:28:00 +0000 2014", 
   "retweet_count": 11, 
   "favorite_count": 29
  }, 
  {
   "text": "@WillG_1212 thanks for the tweet Will.", 
   "label": "O", 
   "id": 454430090164973568, 
   "hashtags": [], 
   "user_mentions": [
    "WillG_1212"
   ], 
   "created_at": "Fri Apr 11 01:25:51 +0000 2014", 
   "retweet_count": 0, 
   "favorite_count": 0
  }, 
  {
   "text": "@TheTermiNathan @TorontoMarlies he's having a great night with 24 saves after 2 periods.", 
   "label": "O", 
   "id": 454428697232424960, 
   "hashtags": [], 
   "user_mentions": [
    "TheTermiNathan", 
    "TorontoMarlies"
   ], 
   "created_at": "Fri Apr 11 01:20:18 +0000 2014", 
   "retweet_count": 2, 
   "favorite_count": 3
  }, 
  {
   "text": "The #Leafs trail 2-1 after 2.. #TMLtalk video: Tyler Bozak's 19th goal is a new career-high http://t.co/8G5z1dKIEA", 
   "label": "O", 
   "id": 454426483025788930, 
   "hashtags": [
    "Leafs", 
    "TMLtalk"
   ], 
   "user_mentions": [], 
   "created_at": "Fri Apr 11 01:11:31 +0000 2014", 
   "retweet_count": 27, 
   "favorite_count": 40
  }, 
  {
   "text": "Just 3 seconds left in the 2nd.. RT @samantha_isobel: 2-1 Panthers #TMLtalk", 
   "label": "O", 
   "id": 454426052522418176, 
   "hashtags": [
    "TMLtalk"
   ], 
   "user_mentions": [
    "samantha_isobel"
   ], 
   "created_at": "Fri Apr 11 01:09:48 +0000 2014", 
   "retweet_count": 16, 
   "favorite_count": 21
  }, 
  {
   "text": "@ABDELBALLACK he's been around a long time.", 
   "label": "O", 
   "id": 454425814927687680, 
   "hashtags": [], 
   "user_mentions": [
    "ABDELBALLACK"
   ], 
   "created_at": "Fri Apr 11 01:08:51 +0000 2014", 
   "retweet_count": 0, 
   "favorite_count": 0
  }, 
  {
   "text": "21 saves so far RT @StanleyJRT: #UncleDrew making the most of his first NHL start! #tmltalk", 
   "label": "O", 
   "id": 454425006899224577, 
   "hashtags": [
    "UncleDrew", 
    "tmltalk"
   ], 
   "user_mentions": [
    "StanleyJRT"
   ], 
   "created_at": "Fri Apr 11 01:05:39 +0000 2014", 
   "retweet_count": 18, 
   "favorite_count": 37
  }, 
  {
   "text": "@ldnguy ha!", 
   "label": "O", 
   "id": 454424435056209920, 
   "hashtags": [], 
   "user_mentions": [
    "ldnguy"
   ], 
   "created_at": "Fri Apr 11 01:03:22 +0000 2014", 
   "retweet_count": 0, 
   "favorite_count": 0
  }, 
  {
   "text": "@StanleyJRT yes.", 
   "label": "O", 
   "id": 454421929328640000, 
   "hashtags": [], 
   "user_mentions": [
    "StanleyJRT"
   ], 
   "created_at": "Fri Apr 11 00:53:25 +0000 2014", 
   "retweet_count": 0, 
   "favorite_count": 0
  }, 
  {
   "text": "@EmilyReichstein have fun in Ottawa!", 
   "label": "O", 
   "id": 454421529116147712, 
   "hashtags": [], 
   "user_mentions": [
    "EmilyReichstein"
   ], 
   "created_at": "Fri Apr 11 00:51:49 +0000 2014", 
   "retweet_count": 0, 
   "favorite_count": 1
  }, 
  {
   "text": "1st of the night RT @LeafsNationFan: Leafs on the power play! #TMLtalk", 
   "label": "O", 
   "id": 454421373155573760, 
   "hashtags": [
    "TMLtalk"
   ], 
   "user_mentions": [
    "LeafsNationFan"
   ], 
   "created_at": "Fri Apr 11 00:51:12 +0000 2014", 
   "retweet_count": 12, 
   "favorite_count": 26
  }, 
  {
   "text": "@BurhanAKABA no kidding...", 
   "label": "O", 
   "id": 454419562428366848, 
   "hashtags": [], 
   "user_mentions": [
    "BurhanAKABA"
   ], 
   "created_at": "Fri Apr 11 00:44:01 +0000 2014", 
   "retweet_count": 1, 
   "favorite_count": 1
  }, 
  {
   "text": "No. 19 on the season for Bozak. A career-high RT @SukhrajS99: BOZAK!!!! #TMLtalk", 
   "label": "O", 
   "id": 454418361376833536, 
   "hashtags": [
    "TMLtalk"
   ], 
   "user_mentions": [
    "SukhrajS99"
   ], 
   "created_at": "Fri Apr 11 00:39:14 +0000 2014", 
   "retweet_count": 56, 
   "favorite_count": 76
  }, 
  {
   "text": "Bozie! Ties it 1-1 RT @LeafsNationFan: GOAL! #TMLtalk", 
   "label": "O", 
   "id": 454418156078243840, 
   "hashtags": [
    "TMLtalk"
   ], 
   "user_mentions": [
    "LeafsNationFan"
   ], 
   "created_at": "Fri Apr 11 00:38:25 +0000 2014", 
   "retweet_count": 74, 
   "favorite_count": 108
  }, 
  {
   "text": "@illaydillay we appreciate it.", 
   "label": "O", 
   "id": 454417094269206528, 
   "hashtags": [], 
   "user_mentions": [
    "illaydillay"
   ], 
   "created_at": "Fri Apr 11 00:34:12 +0000 2014", 
   "retweet_count": 0, 
   "favorite_count": 1
  }, 
  {
   "text": "#TMLtalk video: #UncleDrew reaches back and clears the puck off the line http://t.co/NhzVBA8000 #Leafs", 
   "label": "O", 
   "id": 454416594098475008, 
   "hashtags": [
    "TMLtalk", 
    "UncleDrew", 
    "Leafs"
   ], 
   "user_mentions": [], 
   "created_at": "Fri Apr 11 00:32:13 +0000 2014", 
   "retweet_count": 16, 
   "favorite_count": 21
  }, 
  {
   "text": "RT @DuneTiger: @MapleLeafs Beastmode engaged. #TMLTalk", 
   "label": "O", 
   "id": 454415159164145665, 
   "hashtags": [
    "TMLTalk"
   ], 
   "user_mentions": [
    "DuneTiger", 
    "MapleLeafs"
   ], 
   "created_at": "Fri Apr 11 00:26:31 +0000 2014", 
   "retweet_count": 2, 
   "favorite_count": 0
  }, 
  {
   "text": "RT @ABDELBALLACK: @MapleLeafs Uncle Drew provided the team with the stability and calmness they needed #TMLtalk #UncleDrew", 
   "label": "O", 
   "id": 454415118932406272, 
   "hashtags": [
    "TMLtalk", 
    "UncleDrew"
   ], 
   "user_mentions": [
    "ABDELBALLACK", 
    "MapleLeafs"
   ], 
   "created_at": "Fri Apr 11 00:26:21 +0000 2014", 
   "retweet_count": 4, 
   "favorite_count": 0
  }, 
  {
   "text": "#TMLtalk Q2. Thoughts on the first period for #UncleDrew? Include #TMLtalk in your reply.", 
   "label": "O", 
   "id": 454414655663136768, 
   "hashtags": [
    "TMLtalk", 
    "UncleDrew", 
    "TMLtalk"
   ], 
   "user_mentions": [], 
   "created_at": "Fri Apr 11 00:24:31 +0000 2014", 
   "retweet_count": 5, 
   "favorite_count": 14
  }, 
  {
   "text": "@musicislove127 nice pic.", 
   "label": "O", 
   "id": 454414520296144896, 
   "hashtags": [], 
   "user_mentions": [
    "musicislove127"
   ], 
   "created_at": "Fri Apr 11 00:23:58 +0000 2014", 
   "retweet_count": 0, 
   "favorite_count": 1
  }, 
  {
   "text": "Eight saves after 20 minutes. RT @laurie029: #uncledrew and his fancy glove moves. #TMLtalk", 
   "label": "O", 
   "id": 454413832669364224, 
   "hashtags": [
    "uncledrew", 
    "TMLtalk"
   ], 
   "user_mentions": [
    "laurie029"
   ], 
   "created_at": "Fri Apr 11 00:21:14 +0000 2014", 
   "retweet_count": 11, 
   "favorite_count": 30
  }, 
  {
   "text": "After 20, the #Leafs trail 1-0... #TMLtalk video: MacIntyre the beauty glove save http://t.co/vWttAVLj2a #Leafs", 
   "label": "O", 
   "id": 454412090942697472, 
   "hashtags": [
    "Leafs", 
    "TMLtalk", 
    "Leafs"
   ], 
   "user_mentions": [], 
   "created_at": "Fri Apr 11 00:14:19 +0000 2014", 
   "retweet_count": 20, 
   "favorite_count": 26
  }, 
  {
   "text": "@TylerrQ12 ha!", 
   "label": "O", 
   "id": 454411741108383744, 
   "hashtags": [], 
   "user_mentions": [
    "TylerrQ12"
   ], 
   "created_at": "Fri Apr 11 00:12:56 +0000 2014", 
   "retweet_count": 2, 
   "favorite_count": 12
  }, 
  {
   "text": "Video of the save to come. RT @McGuire80: Drew MacIncredible save #TMLtalk", 
   "label": "O", 
   "id": 454411369665036288, 
   "hashtags": [
    "TMLtalk"
   ], 
   "user_mentions": [
    "McGuire80"
   ], 
   "created_at": "Fri Apr 11 00:11:27 +0000 2014", 
   "retweet_count": 11, 
   "favorite_count": 19
  }, 
  {
   "text": "#UncleDrew clears the puck off the line with his blocker RT @ammyliuu: How'd that NOT go in? #TMLtalk", 
   "label": "O", 
   "id": 454411195672723456, 
   "hashtags": [
    "UncleDrew", 
    "TMLtalk"
   ], 
   "user_mentions": [
    "ammyliuu"
   ], 
   "created_at": "Fri Apr 11 00:10:46 +0000 2014", 
   "retweet_count": 12, 
   "favorite_count": 23
  }, 
  {
   "text": "@LEAFSFAN71 enjoy the night Alan.", 
   "label": "O", 
   "id": 454410345483075584, 
   "hashtags": [], 
   "user_mentions": [
    "LEAFSFAN71"
   ], 
   "created_at": "Fri Apr 11 00:07:23 +0000 2014", 
   "retweet_count": 0, 
   "favorite_count": 0
  }, 
  {
   "text": "@Matt_MapleLeafs yes he is.", 
   "label": "O", 
   "id": 454410094688874496, 
   "hashtags": [], 
   "user_mentions": [
    "Matt_MapleLeafs"
   ], 
   "created_at": "Fri Apr 11 00:06:23 +0000 2014", 
   "retweet_count": 1, 
   "favorite_count": 1
  }, 
  {
   "text": "@Live4theLeafs19 not tonight. Back with a prize on Saturday.", 
   "label": "O", 
   "id": 454409612935323648, 
   "hashtags": [], 
   "user_mentions": [
    "Live4theLeafs19"
   ], 
   "created_at": "Fri Apr 11 00:04:28 +0000 2014", 
   "retweet_count": 0, 
   "favorite_count": 0
  }, 
  {
   "text": "Great glove save! RT @LeafsNationFan: Holy MacIntyre! #TMLtalk", 
   "label": "O", 
   "id": 454407996865794048, 
   "hashtags": [
    "TMLtalk"
   ], 
   "user_mentions": [
    "LeafsNationFan"
   ], 
   "created_at": "Thu Apr 10 23:58:03 +0000 2014", 
   "retweet_count": 33, 
   "favorite_count": 41
  }, 
  {
   "text": "@widzy99 that wouldn't be good.", 
   "label": "O", 
   "id": 454407639204892672, 
   "hashtags": [], 
   "user_mentions": [
    "widzy99"
   ], 
   "created_at": "Thu Apr 10 23:56:38 +0000 2014", 
   "retweet_count": 0, 
   "favorite_count": 0
  }, 
  {
   "text": "@RobinGeidenmark Ashton is hurt and D'Amigo was sent back to the Marlies.", 
   "label": "O", 
   "id": 454406624661471233, 
   "hashtags": [], 
   "user_mentions": [
    "RobinGeidenmark"
   ], 
   "created_at": "Thu Apr 10 23:52:36 +0000 2014", 
   "retweet_count": 0, 
   "favorite_count": 0
  }, 
  {
   "text": "Update RT @SukhrajS99: 1-0 Florida #TMLtalk", 
   "label": "O", 
   "id": 454405735305445376, 
   "hashtags": [
    "TMLtalk"
   ], 
   "user_mentions": [
    "SukhrajS99"
   ], 
   "created_at": "Thu Apr 10 23:49:04 +0000 2014", 
   "retweet_count": 15, 
   "favorite_count": 19
  }, 
  {
   "text": "#UncleDrew that is. RT @DuneTiger: DREWWWW #TMLtalk", 
   "label": "O", 
   "id": 454405017295134720, 
   "hashtags": [
    "UncleDrew", 
    "TMLtalk"
   ], 
   "user_mentions": [
    "DuneTiger"
   ], 
   "created_at": "Thu Apr 10 23:46:13 +0000 2014", 
   "retweet_count": 10, 
   "favorite_count": 27
  }, 
  {
   "text": "From Henny  RT @HennyTweets: Trevor Smith has arrived at the rink. #TMLtalk", 
   "label": "O", 
   "id": 454404907999956992, 
   "hashtags": [
    "TMLtalk"
   ], 
   "user_mentions": [
    "HennyTweets"
   ], 
   "created_at": "Thu Apr 10 23:45:47 +0000 2014", 
   "retweet_count": 9, 
   "favorite_count": 16
  }, 
  {
   "text": "@bpdrouillard it's great to see. He does look like Felix.", 
   "label": "O", 
   "id": 454404504231100416, 
   "hashtags": [], 
   "user_mentions": [
    "bpdrouillard"
   ], 
   "created_at": "Thu Apr 10 23:44:10 +0000 2014", 
   "retweet_count": 1, 
   "favorite_count": 0
  }, 
  {
   "text": "Drew MacIntyre making his first NHL start tonight RT @PaulCasamassima: First underway #TMLtalk", 
   "label": "O", 
   "id": 454403688103436288, 
   "hashtags": [
    "TMLtalk"
   ], 
   "user_mentions": [
    "PaulCasamassima"
   ], 
   "created_at": "Thu Apr 10 23:40:56 +0000 2014", 
   "retweet_count": 43, 
   "favorite_count": 62
  }, 
  {
   "text": "RT @StaceyHill: @MapleLeafs kessel with the first. Final score leafs 3- panthers 2 #tmltalk", 
   "label": "O", 
   "id": 454402579720863745, 
   "hashtags": [
    "tmltalk"
   ], 
   "user_mentions": [
    "StaceyHill", 
    "MapleLeafs"
   ], 
   "created_at": "Thu Apr 10 23:36:32 +0000 2014", 
   "retweet_count": 4, 
   "favorite_count": 16
  }, 
  {
   "text": "@mtotheg12 but who scores first?", 
   "label": "O", 
   "id": 454402500737900544, 
   "hashtags": [], 
   "user_mentions": [
    "mtotheg12"
   ], 
   "created_at": "Thu Apr 10 23:36:13 +0000 2014", 
   "retweet_count": 0, 
   "favorite_count": 0
  }, 
  {
   "text": "RT @leaffam: @MapleLeafs 4-3 and Kadri scores first! #TMLtalk", 
   "label": "O", 
   "id": 454402430982447104, 
   "hashtags": [
    "TMLtalk"
   ], 
   "user_mentions": [
    "leaffam", 
    "MapleLeafs"
   ], 
   "created_at": "Thu Apr 10 23:35:56 +0000 2014", 
   "retweet_count": 4, 
   "favorite_count": 0
  }, 
  {
   "text": "-&gt; RT @GSparks40: #UncleDrew", 
   "label": "O", 
   "id": 454402368667660288, 
   "hashtags": [
    "UncleDrew"
   ], 
   "user_mentions": [
    "GSparks40"
   ], 
   "created_at": "Thu Apr 10 23:35:41 +0000 2014", 
   "retweet_count": 9, 
   "favorite_count": 26
  }, 
  {
   "text": "Welcome to #TMLtalk. Q1. Predict the final score and first #Leafs goal scorer. Include #TMLtalk in your reply.", 
   "label": "O", 
   "id": 454401955519938560, 
   "hashtags": [
    "TMLtalk", 
    "Leafs", 
    "TMLtalk"
   ], 
   "user_mentions": [], 
   "created_at": "Thu Apr 10 23:34:03 +0000 2014", 
   "retweet_count": 7, 
   "favorite_count": 12
  }, 
  {
   "text": "@SimmerGill_ well done.", 
   "label": "O", 
   "id": 454401847957389312, 
   "hashtags": [], 
   "user_mentions": [
    "SimmerGill_"
   ], 
   "created_at": "Thu Apr 10 23:33:37 +0000 2014", 
   "retweet_count": 2, 
   "favorite_count": 2
  }, 
  {
   "text": "#NowPlaying: #Leafs vs. #Panthers on @Leafs_TV, @TSN1050Radio and #TMLtalk.", 
   "label": "O", 
   "id": 454401200834625536, 
   "hashtags": [
    "NowPlaying", 
    "Leafs", 
    "Panthers", 
    "TMLtalk"
   ], 
   "user_mentions": [
    "Leafs_TV", 
    "TSN1050Radio"
   ], 
   "created_at": "Thu Apr 10 23:31:03 +0000 2014", 
   "retweet_count": 31, 
   "favorite_count": 23
  }, 
  {
   "text": "@leafs21 that is pretty cool.", 
   "label": "O", 
   "id": 454401006806511617, 
   "hashtags": [], 
   "user_mentions": [], 
   "created_at": "Thu Apr 10 23:30:17 +0000 2014", 
   "retweet_count": 1, 
   "favorite_count": 3
  }, 
  {
   "text": "@dnussey looking forward to it.", 
   "label": "O", 
   "id": 454400845170626561, 
   "hashtags": [], 
   "user_mentions": [
    "dnussey"
   ], 
   "created_at": "Thu Apr 10 23:29:38 +0000 2014", 
   "retweet_count": 0, 
   "favorite_count": 1
  }, 
  {
   "text": "@olie74 no prize tonight unfortunately but there is one Saturday.", 
   "label": "O", 
   "id": 454400219971866624, 
   "hashtags": [], 
   "user_mentions": [
    "olie74"
   ], 
   "created_at": "Thu Apr 10 23:27:09 +0000 2014", 
   "retweet_count": 0, 
   "favorite_count": 2
  }, 
  {
   "text": "@NuttyLeafFan of course.", 
   "label": "O", 
   "id": 454399583691759616, 
   "hashtags": [], 
   "user_mentions": [
    "NuttyLeafFan"
   ], 
   "created_at": "Thu Apr 10 23:24:37 +0000 2014", 
   "retweet_count": 0, 
   "favorite_count": 3
  }, 
  {
   "text": "@TimothyPRylett thanks for the tweet.", 
   "label": "O", 
   "id": 454398879753338880, 
   "hashtags": [], 
   "user_mentions": [
    "TimothyPRylett"
   ], 
   "created_at": "Thu Apr 10 23:21:49 +0000 2014", 
   "retweet_count": 0, 
   "favorite_count": 0
  }, 
  {
   "text": "@Habshockeyfan93 he certainly is.", 
   "label": "O", 
   "id": 454398090519527424, 
   "hashtags": [], 
   "user_mentions": [
    "Habshockeyfan93"
   ], 
   "created_at": "Thu Apr 10 23:18:41 +0000 2014", 
   "retweet_count": 0, 
   "favorite_count": 0
  }, 
  {
   "text": "@amy_c_76 yes it is.", 
   "label": "O", 
   "id": 454397865297981440, 
   "hashtags": [], 
   "user_mentions": [
    "amy_c_76"
   ], 
   "created_at": "Thu Apr 10 23:17:48 +0000 2014", 
   "retweet_count": 0, 
   "favorite_count": 0
  }, 
  {
   "text": "Not familiar with Drew MacIntyre's work? He has one of the greatest saves in hockey history http://t.co/AJftxCyYaN #TMLtalk", 
   "label": "O", 
   "id": 454397735475478528, 
   "hashtags": [
    "TMLtalk"
   ], 
   "user_mentions": [], 
   "created_at": "Thu Apr 10 23:17:17 +0000 2014", 
   "retweet_count": 166, 
   "favorite_count": 119
  }, 
  {
   "text": "@erincandy a great day for Drew.", 
   "label": "O", 
   "id": 454395816762150912, 
   "hashtags": [], 
   "user_mentions": [
    "erincandy"
   ], 
   "created_at": "Thu Apr 10 23:09:39 +0000 2014", 
   "retweet_count": 1, 
   "favorite_count": 1
  }, 
  {
   "text": "@breakaway23 you got it!", 
   "label": "O", 
   "id": 454395470014869504, 
   "hashtags": [], 
   "user_mentions": [
    "breakaway23"
   ], 
   "created_at": "Thu Apr 10 23:08:16 +0000 2014", 
   "retweet_count": 0, 
   "favorite_count": 0
  }, 
  {
   "text": "-&gt; RT @TorontoMarlies: Guess who's getting his first start for the @MapleLeafs tonight? #TMLtalk #UncleDrew http://t.co/7UBOUblRVJ", 
   "label": "O", 
   "id": 454395254788341761, 
   "hashtags": [
    "TMLtalk", 
    "UncleDrew"
   ], 
   "user_mentions": [
    "TorontoMarlies", 
    "MapleLeafs"
   ], 
   "created_at": "Thu Apr 10 23:07:25 +0000 2014", 
   "retweet_count": 116, 
   "favorite_count": 163
  }, 
  {
   "text": "The Inhabitants of the Iced Islands are Drew MacIntyre and Roberto Luongo. #TMLtalk http://t.co/Y1Zmo1rop1", 
   "label": "O", 
   "id": 454394338433196032, 
   "hashtags": [
    "TMLtalk"
   ], 
   "user_mentions": [], 
   "created_at": "Thu Apr 10 23:03:47 +0000 2014", 
   "retweet_count": 84, 
   "favorite_count": 103
  }, 
  {
   "text": "@CarringtonMike would be great to see.", 
   "label": "O", 
   "id": 454393993678565376, 
   "hashtags": [], 
   "user_mentions": [
    "CarringtonMike"
   ], 
   "created_at": "Thu Apr 10 23:02:24 +0000 2014", 
   "retweet_count": 1, 
   "favorite_count": 2
  }, 
  {
   "text": "@Kevinjparr cheers.", 
   "label": "O", 
   "id": 454393386565660672, 
   "hashtags": [], 
   "user_mentions": [
    "Kevinjparr"
   ], 
   "created_at": "Thu Apr 10 23:00:00 +0000 2014", 
   "retweet_count": 1, 
   "favorite_count": 1
  }, 
  {
   "text": "Scotiabank Gametime: An hour away from #Leafs vs. #Panthers on @Leafs_TV, @TSN1050Radio and #TMLtalk http://t.co/4nkohtXNq8", 
   "label": "O", 
   "id": 454385850785071106, 
   "hashtags": [
    "Leafs", 
    "Panthers", 
    "TMLtalk"
   ], 
   "user_mentions": [
    "Leafs_TV", 
    "TSN1050Radio"
   ], 
   "created_at": "Thu Apr 10 22:30:03 +0000 2014", 
   "retweet_count": 17, 
   "favorite_count": 17
  }, 
  {
   "text": "@joe66golfer Drew MacIntyre will start in net.", 
   "label": "O", 
   "id": 454384849135337473, 
   "hashtags": [], 
   "user_mentions": [
    "joe66golfer"
   ], 
   "created_at": "Thu Apr 10 22:26:04 +0000 2014", 
   "retweet_count": 1, 
   "favorite_count": 2
  }, 
  {
   "text": "@charchar_11 hope you feel better soon.", 
   "label": "O", 
   "id": 454384633225183232, 
   "hashtags": [], 
   "user_mentions": [
    "charchar_11"
   ], 
   "created_at": "Thu Apr 10 22:25:13 +0000 2014", 
   "retweet_count": 0, 
   "favorite_count": 1
  }, 
  {
   "text": "@_ronikaturna thank you.", 
   "label": "O", 
   "id": 454384407248666624, 
   "hashtags": [], 
   "user_mentions": [
    "_ronikaturna"
   ], 
   "created_at": "Thu Apr 10 22:24:19 +0000 2014", 
   "retweet_count": 1, 
   "favorite_count": 6
  }, 
  {
   "text": ". @Carl_Gun speaks with @HennyTweets on Thursday: http://t.co/OgmumKqDfi #Leafs v #Panthers 7:30p @Leafs_TV", 
   "label": "O", 
   "id": 454378802433368064, 
   "hashtags": [
    "Leafs", 
    "Panthers"
   ], 
   "user_mentions": [
    "carl_gun", 
    "HennyTweets", 
    "Leafs_TV"
   ], 
   "created_at": "Thu Apr 10 22:02:03 +0000 2014", 
   "retweet_count": 8, 
   "favorite_count": 25
  }, 
  {
   "text": "Tyler Bozak speaks with @HockeyAbbs on Thursday: http://t.co/8Mi6KgLYs2 #Leafs v #Panthers 7:30p @Leafs_TV", 
   "label": "O", 
   "id": 454366722942717952, 
   "hashtags": [
    "Leafs", 
    "Panthers"
   ], 
   "user_mentions": [
    "HockeyAbbs", 
    "Leafs_TV"
   ], 
   "created_at": "Thu Apr 10 21:14:03 +0000 2014", 
   "retweet_count": 25, 
   "favorite_count": 42
  }, 
  {
   "text": "@LeafFansOttawa of course we will follow you. Cheers", 
   "label": "O", 
   "id": 454341277216428034, 
   "hashtags": [], 
   "user_mentions": [
    "LeafFansOttawa"
   ], 
   "created_at": "Thu Apr 10 19:32:56 +0000 2014", 
   "retweet_count": 0, 
   "favorite_count": 0
  }, 
  {
   "text": "@Riya_Forever thanks for the tweet.", 
   "label": "O", 
   "id": 454341007375872000, 
   "hashtags": [], 
   "user_mentions": [
    "Riya_Forever"
   ], 
   "created_at": "Thu Apr 10 19:31:52 +0000 2014", 
   "retweet_count": 0, 
   "favorite_count": 1
  }, 
  {
   "text": "@SpitsBlog1 well done!", 
   "label": "O", 
   "id": 454340945073676288, 
   "hashtags": [], 
   "user_mentions": [
    "SpitsBlog1"
   ], 
   "created_at": "Thu Apr 10 19:31:37 +0000 2014", 
   "retweet_count": 0, 
   "favorite_count": 0
  }, 
  {
   "text": "@ronnieforsman appreciate it.", 
   "label": "O", 
   "id": 454340801540390912, 
   "hashtags": [], 
   "user_mentions": [
    "ronnieforsman"
   ], 
   "created_at": "Thu Apr 10 19:31:02 +0000 2014", 
   "retweet_count": 0, 
   "favorite_count": 1
  }, 
  {
   "text": "RT @MLSEFoundation: @MapleLeafs Wendel Clark, @Raptors Jamaal Magloire &amp; @torontofc's Doneil Henry! #MLSEShapeUpWeek http://t.co/G1tz84GhA3", 
   "label": "O", 
   "id": 454340801351266304, 
   "hashtags": [
    "MLSEShapeUpWeek"
   ], 
   "user_mentions": [
    "MLSEFoundation", 
    "MapleLeafs", 
    "Raptors", 
    "torontofc"
   ], 
   "created_at": "Thu Apr 10 19:31:02 +0000 2014", 
   "retweet_count": 24, 
   "favorite_count": 60
  }, 
  {
   "text": ". @HennyTweets and @HockeyAbbs with your #TMLtalk Game Preview: http://t.co/cx8aqXkq6n #Leafs v #Panthers 7:30p @Leafs_TV", 
   "label": "O", 
   "id": 454335264576401408, 
   "hashtags": [
    "TMLtalk", 
    "Leafs", 
    "Panthers"
   ], 
   "user_mentions": [
    "HennyTweets", 
    "HockeyAbbs", 
    "Leafs_TV"
   ], 
   "created_at": "Thu Apr 10 19:09:02 +0000 2014", 
   "retweet_count": 6, 
   "favorite_count": 15
  }, 
  {
   "text": "A few members of the 1958 #Leafs board the bus for a road trip. http://t.co/bzjYg2nsE6 #tbt http://t.co/kRJ2oocO9W", 
   "label": "O", 
   "id": 454328289088131072, 
   "hashtags": [
    "Leafs", 
    "tbt"
   ], 
   "user_mentions": [], 
   "created_at": "Thu Apr 10 18:41:19 +0000 2014", 
   "retweet_count": 57, 
   "favorite_count": 112
  }, 
  {
   "text": "@xxfonny97xx appears that way.", 
   "label": "O", 
   "id": 454312942444765184, 
   "hashtags": [], 
   "user_mentions": [
    "xxfonny97xx"
   ], 
   "created_at": "Thu Apr 10 17:40:20 +0000 2014", 
   "retweet_count": 0, 
   "favorite_count": 0
  }, 
  {
   "text": "Your game preview ahead of #Leafs vs. #Panthers at 7:30pm on @Leafs_TV and @TSN1050Radio http://t.co/4nkohtXNq8 #TMLtalk", 
   "label": "O", 
   "id": 454303555445219328, 
   "hashtags": [
    "Leafs", 
    "Panthers", 
    "TMLtalk"
   ], 
   "user_mentions": [
    "Leafs_TV", 
    "TSN1050Radio"
   ], 
   "created_at": "Thu Apr 10 17:03:02 +0000 2014", 
   "retweet_count": 11, 
   "favorite_count": 25
  }, 
  {
   "text": ". @SportChek Player Alert: The #Leafs have signed Ryan Rupert to an entry level contract http://t.co/QnBVzA1A5J #TMLtalk", 
   "label": "O", 
   "id": 454286263118753792, 
   "hashtags": [
    "Leafs", 
    "TMLtalk"
   ], 
   "user_mentions": [
    "SportChek"
   ], 
   "created_at": "Thu Apr 10 15:54:20 +0000 2014", 
   "retweet_count": 73, 
   "favorite_count": 59
  }, 
  {
   "text": "RT @tpspix:@SamanthaSirbos got her marrow match @OneMatchNetwork Help patients find theirs @ShopSTC swab clinic today http://t.co/QQAzMLM8Ob", 
   "label": "O", 
   "id": 454272602005975042, 
   "hashtags": [], 
   "user_mentions": [
    "tpspix", 
    "SamanthaSirbos", 
    "OneMatchNetwork", 
    "ShopSTC"
   ], 
   "created_at": "Thu Apr 10 15:00:02 +0000 2014", 
   "retweet_count": 49, 
   "favorite_count": 88
  }, 
  {
   "text": "@ScottSlasher don't know Scott. Should know closer to puck drop. Cheers", 
   "label": "O", 
   "id": 454267156113678336, 
   "hashtags": [], 
   "user_mentions": [
    "ScottSlasher"
   ], 
   "created_at": "Thu Apr 10 14:38:24 +0000 2014", 
   "retweet_count": 0, 
   "favorite_count": 0
  }, 
  {
   "text": "@Dylan_Doucet thanks for the tweet. Cheers", 
   "label": "O", 
   "id": 454266863456092160, 
   "hashtags": [], 
   "user_mentions": [
    "Dylan_Doucet"
   ], 
   "created_at": "Thu Apr 10 14:37:14 +0000 2014", 
   "retweet_count": 0, 
   "favorite_count": 0
  }, 
  {
   "text": "@KaylaRozmus thank you.", 
   "label": "O", 
   "id": 454266656693698560, 
   "hashtags": [], 
   "user_mentions": [
    "KaylaRozmus"
   ], 
   "created_at": "Thu Apr 10 14:36:25 +0000 2014", 
   "retweet_count": 0, 
   "favorite_count": 0
  }, 
  {
   "text": "@Megs77 @PetesOHLhockey good luck to the Petes tonight.", 
   "label": "O", 
   "id": 454266592663470080, 
   "hashtags": [], 
   "user_mentions": [
    "Megs77", 
    "PetesOHLhockey"
   ], 
   "created_at": "Thu Apr 10 14:36:10 +0000 2014", 
   "retweet_count": 1, 
   "favorite_count": 1
  }, 
  {
   "text": "Tonight, after the game, it's #TheLeaf - presented by BlackBerry with Morgan Rielly and Jake Gardiner: http://t.co/FE5QeQAyyK", 
   "label": "O", 
   "id": 454258760614019072, 
   "hashtags": [
    "TheLeaf"
   ], 
   "user_mentions": [], 
   "created_at": "Thu Apr 10 14:05:02 +0000 2014", 
   "retweet_count": 17, 
   "favorite_count": 38
  }, 
  {
   "text": "The @BrookePashley Minute with Paul Ranger http://t.co/KalRaL88B0 #Leafs v #Panthers 7:30p @Leafs_TV", 
   "label": "O", 
   "id": 454242904479772672, 
   "hashtags": [
    "Leafs", 
    "Panthers"
   ], 
   "user_mentions": [
    "BrookePashley", 
    "Leafs_TV"
   ], 
   "created_at": "Thu Apr 10 13:02:02 +0000 2014", 
   "retweet_count": 9, 
   "favorite_count": 20
  }, 
  {
   "text": "It's Scotiabank Game Day: #Leafs vs. #Panthers 7:30pm (@Leafs_TV, @TSN1050Radio). Preview http://t.co/rVN7btBhYW #NHL", 
   "label": "O", 
   "id": 454229314855530496, 
   "hashtags": [
    "Leafs", 
    "Panthers", 
    "NHL"
   ], 
   "user_mentions": [
    "Leafs_TV", 
    "TSN1050Radio"
   ], 
   "created_at": "Thu Apr 10 12:08:02 +0000 2014", 
   "retweet_count": 36, 
   "favorite_count": 36
  }
 ]
}