{
 "num_road_team_goals": "5", 
 "home_team": "Toronto Maple Leafs", 
 "num_home_team_goals": "3", 
 "summary_url": "http://www.flyershistory.com/cgi-bin/poboxscore.cgi?H20131079", 
 "result": "L", 
 "road_team": "St.Louis Blues", 
 "date": "2014-03-25", 
 "goals": [
  {
   "season_index": "21", 
   "strength": "(PP)", 
   "time": "11:30", 
   "period": "1", 
   "player": "J.Lupul", 
   "assists": "(N.Kadri, J.Gardiner)", 
   "game_index": "1", 
   "team": "TOR"
  }, 
  {
   "season_index": "18", 
   "strength": "(EV)", 
   "time": "15:55", 
   "period": "1", 
   "player": "T.Oshie", 
   "assists": "(R.Polak, B.Jackman)", 
   "game_index": "2", 
   "team": "STL"
  }, 
  {
   "season_index": "25", 
   "strength": "(PP)", 
   "time": "19:27", 
   "period": "1", 
   "player": "D.Backes", 
   "assists": "(T.Oshie)", 
   "game_index": "3", 
   "team": "STL"
  }, 
  {
   "season_index": "26", 
   "strength": "(EV)", 
   "time": "7:32", 
   "period": "2", 
   "player": "D.Backes", 
   "assists": "(A.Pietrangelo, A.Steen)", 
   "game_index": "4", 
   "team": "STL"
  }, 
  {
   "season_index": "31", 
   "strength": "(EV)", 
   "time": "17:35", 
   "period": "2", 
   "player": "A.Steen", 
   "assists": "(K.Shattenkirk, P.Berglund)", 
   "game_index": "5", 
   "team": "STL"
  }, 
  {
   "season_index": "3", 
   "strength": "(EV)", 
   "time": "4:39", 
   "period": "3", 
   "player": "C.Gunnarsson", 
   "assists": null, 
   "game_index": "6", 
   "team": "TOR"
  }, 
  {
   "season_index": null, 
   "strength": "(EV)", 
   "time": "15:54", 
   "period": "3", 
   "player": "J.van", 
   "assists": "(P.Kessel, J.Gardiner)", 
   "game_index": "7", 
   "team": "TOR"
  }, 
  {
   "season_index": "27", 
   "strength": "(EV-EN)", 
   "time": "18:53", 
   "period": "3", 
   "player": "D.Backes", 
   "assists": "(T.Oshie, A.Steen)", 
   "game_index": "8", 
   "team": "STL"
  }
 ], 
 "tweets": [
  {
   "text": "Video: Randy Carlyle discusses the #Leafs loss to the #Blues: http://t.co/h2EWoFYi3q #TMLtalk", 
   "label": "O", 
   "id": 448670224988921856, 
   "hashtags": [
    "Leafs", 
    "Blues", 
    "TMLtalk"
   ], 
   "user_mentions": [], 
   "created_at": "Wed Mar 26 03:58:12 +0000 2014", 
   "retweet_count": 20, 
   "favorite_count": 24
  }, 
  {
   "text": "More post-game comments from @JLupul: http://t.co/TQevDcFVGe and @Carl_Gun: http://t.co/3kLSYbopWI #TMLtalk #Leafs", 
   "label": "O", 
   "id": 448663933625176064, 
   "hashtags": [
    "TMLtalk", 
    "Leafs"
   ], 
   "user_mentions": [
    "JLupul", 
    "carl_gun"
   ], 
   "created_at": "Wed Mar 26 03:33:12 +0000 2014", 
   "retweet_count": 12, 
   "favorite_count": 25
  }, 
  {
   "text": "@leafssss_ not sure. You should asko @AlpineCan as they would know. Cheers.", 
   "label": "O", 
   "id": 448659972143190016, 
   "hashtags": [], 
   "user_mentions": [
    "AlpineCAN"
   ], 
   "created_at": "Wed Mar 26 03:17:27 +0000 2014", 
   "retweet_count": 2, 
   "favorite_count": 1
  }, 
  {
   "text": "#TMLtalk video: @JVReemer21's take on the loss to the #Blues: http://t.co/L0ssGW4fQT #Leafs", 
   "label": "O", 
   "id": 448659655279927296, 
   "hashtags": [
    "TMLtalk", 
    "Blues", 
    "Leafs"
   ], 
   "user_mentions": [
    "JVReemer21"
   ], 
   "created_at": "Wed Mar 26 03:16:12 +0000 2014", 
   "retweet_count": 13, 
   "favorite_count": 21
  }, 
  {
   "text": "@dingarse @BlackBerry see you Tuesday, John!", 
   "label": "O", 
   "id": 448655653125754880, 
   "hashtags": [], 
   "user_mentions": [
    "dingarse", 
    "BlackBerry"
   ], 
   "created_at": "Wed Mar 26 03:00:18 +0000 2014", 
   "retweet_count": 1, 
   "favorite_count": 0
  }, 
  {
   "text": "Video: Jonathan Bernier speaks with the media after his return from injury  http://t.co/FIC7Q8lzPW #TMLtalk #Leafs", 
   "label": "O", 
   "id": 448655629716971520, 
   "hashtags": [
    "TMLtalk", 
    "Leafs"
   ], 
   "user_mentions": [], 
   "created_at": "Wed Mar 26 03:00:12 +0000 2014", 
   "retweet_count": 14, 
   "favorite_count": 27
  }, 
  {
   "text": "The Scotiabank Game In Six Minutes: #Leafs vs. #Blues http://t.co/7Q0fX1OWak #TMLtalk", 
   "label": "O", 
   "id": 448653335999307777, 
   "hashtags": [
    "Leafs", 
    "Blues", 
    "TMLtalk"
   ], 
   "user_mentions": [], 
   "created_at": "Wed Mar 26 02:51:05 +0000 2014", 
   "retweet_count": 18, 
   "favorite_count": 19
  }, 
  {
   "text": "The Scotiabank Game Recap: #Leafs Losing Streak Now At Six Games http://t.co/ZxU3qnruuJ #TMLtalk", 
   "label": "O", 
   "id": 448644428476219392, 
   "hashtags": [
    "Leafs", 
    "TMLtalk"
   ], 
   "user_mentions": [], 
   "created_at": "Wed Mar 26 02:15:41 +0000 2014", 
   "retweet_count": 21, 
   "favorite_count": 21
  }, 
  {
   "text": "@obrien_tl @16DarcyTucker great pic!", 
   "label": "O", 
   "id": 448644117460156417, 
   "hashtags": [], 
   "user_mentions": [
    "obrien_tl", 
    "16DarcyTucker"
   ], 
   "created_at": "Wed Mar 26 02:14:27 +0000 2014", 
   "retweet_count": 0, 
   "favorite_count": 0
  }, 
  {
   "text": "#Leafs lose 5-3 to the #Blues. Jonathan Bernier made 44 saves in the loss. #TMLtalk http://t.co/lyNRc2DU9n", 
   "label": "O", 
   "id": 448638152102539264, 
   "hashtags": [
    "Leafs", 
    "Blues", 
    "TMLtalk"
   ], 
   "user_mentions": [], 
   "created_at": "Wed Mar 26 01:50:45 +0000 2014", 
   "retweet_count": 132, 
   "favorite_count": 142
  }, 
  {
   "text": "Update RT @saraahng: 5-3... #TMLtalk", 
   "label": "O", 
   "id": 448635162373656576, 
   "hashtags": [
    "TMLtalk"
   ], 
   "user_mentions": [
    "saraahng"
   ], 
   "created_at": "Wed Mar 26 01:38:52 +0000 2014", 
   "retweet_count": 26, 
   "favorite_count": 29
  }, 
  {
   "text": "Six attackers for the #Leafs... #TMLtalk", 
   "label": "O", 
   "id": 448634778804568064, 
   "hashtags": [
    "Leafs", 
    "TMLtalk"
   ], 
   "user_mentions": [], 
   "created_at": "Wed Mar 26 01:37:21 +0000 2014", 
   "retweet_count": 42, 
   "favorite_count": 57
  }, 
  {
   "text": "1:35 to go in the 3rd... RT @LeafsNationFan: Toronto has called a 30 second timeout. #TMLtalk", 
   "label": "O", 
   "id": 448634571756949504, 
   "hashtags": [
    "TMLtalk"
   ], 
   "user_mentions": [
    "LeafsNationFan"
   ], 
   "created_at": "Wed Mar 26 01:36:31 +0000 2014", 
   "retweet_count": 23, 
   "favorite_count": 35
  }, 
  {
   "text": "Under 2 to go... #TMLtalk", 
   "label": "O", 
   "id": 448634299856982016, 
   "hashtags": [
    "TMLtalk"
   ], 
   "user_mentions": [], 
   "created_at": "Wed Mar 26 01:35:26 +0000 2014", 
   "retweet_count": 32, 
   "favorite_count": 46
  }, 
  {
   "text": "Yes. Yes he is. RT @Lucko_Rani: Seriously, Kessel is God. #TMLtalk", 
   "label": "O", 
   "id": 448633838185771008, 
   "hashtags": [
    "TMLtalk"
   ], 
   "user_mentions": [
    "Lucko_Rani"
   ], 
   "created_at": "Wed Mar 26 01:33:36 +0000 2014", 
   "retweet_count": 76, 
   "favorite_count": 93
  }, 
  {
   "text": "@mikeswcoast2004 yes!", 
   "label": "O", 
   "id": 448633660053659649, 
   "hashtags": [], 
   "user_mentions": [
    "mikeswcoast2004"
   ], 
   "created_at": "Wed Mar 26 01:32:54 +0000 2014", 
   "retweet_count": 0, 
   "favorite_count": 2
  }, 
  {
   "text": "Now 4-3... 4:06 to go... RT @aysh_94: JVR SCORES #TMLtalk", 
   "label": "O", 
   "id": 448633604265226241, 
   "hashtags": [
    "TMLtalk"
   ], 
   "user_mentions": [
    "aysh_94"
   ], 
   "created_at": "Wed Mar 26 01:32:41 +0000 2014", 
   "retweet_count": 96, 
   "favorite_count": 106
  }, 
  {
   "text": "@smc0513 thanks Marie.", 
   "label": "O", 
   "id": 448633276736233472, 
   "hashtags": [], 
   "user_mentions": [
    "smc0513"
   ], 
   "created_at": "Wed Mar 26 01:31:23 +0000 2014", 
   "retweet_count": 0, 
   "favorite_count": 0
  }, 
  {
   "text": "#TMLtalk video: Carl Gunnarsson's 3rd period goal http://t.co/UC1lPh4cap #Leafs", 
   "label": "O", 
   "id": 448632830781050880, 
   "hashtags": [
    "TMLtalk", 
    "Leafs"
   ], 
   "user_mentions": [], 
   "created_at": "Wed Mar 26 01:29:36 +0000 2014", 
   "retweet_count": 12, 
   "favorite_count": 26
  }, 
  {
   "text": "Just 1 shot on the powerplay RT @SukhrajS99: Full Strength #TMLtalk", 
   "label": "O", 
   "id": 448632395185807360, 
   "hashtags": [
    "TMLtalk"
   ], 
   "user_mentions": [
    "SukhrajS99"
   ], 
   "created_at": "Wed Mar 26 01:27:52 +0000 2014", 
   "retweet_count": 8, 
   "favorite_count": 23
  }, 
  {
   "text": "8:21 to go, remains 4-2 STL RT @PaulCasamassima: #Leafs going to the power play #TMLtalk", 
   "label": "O", 
   "id": 448631477488848896, 
   "hashtags": [
    "Leafs", 
    "TMLtalk"
   ], 
   "user_mentions": [
    "PaulCasamassima"
   ], 
   "created_at": "Wed Mar 26 01:24:14 +0000 2014", 
   "retweet_count": 19, 
   "favorite_count": 23
  }, 
  {
   "text": "#TMLtalk video: Clarkson and Morrow drop the mitts http://t.co/hJqw5octN4 #Leafs", 
   "label": "O", 
   "id": 448631064312180736, 
   "hashtags": [
    "TMLtalk", 
    "Leafs"
   ], 
   "user_mentions": [], 
   "created_at": "Wed Mar 26 01:22:35 +0000 2014", 
   "retweet_count": 23, 
   "favorite_count": 40
  }, 
  {
   "text": "@MDee14 blue", 
   "label": "O", 
   "id": 448630355952930816, 
   "hashtags": [], 
   "user_mentions": [
    "MDee14"
   ], 
   "created_at": "Wed Mar 26 01:19:46 +0000 2014", 
   "retweet_count": 0, 
   "favorite_count": 1
  }, 
  {
   "text": "Now 4-2 with 15:21 to go.. RT @TDot_Sports87: Gunnarson Scores. #TMLtalk", 
   "label": "O", 
   "id": 448629300640899073, 
   "hashtags": [
    "TMLtalk"
   ], 
   "user_mentions": [
    "TDot_Sports87"
   ], 
   "created_at": "Wed Mar 26 01:15:35 +0000 2014", 
   "retweet_count": 40, 
   "favorite_count": 48
  }, 
  {
   "text": "Gunnarsson! RT @aysh_94: 4-2! #TMLtalk", 
   "label": "O", 
   "id": 448629201940520961, 
   "hashtags": [
    "TMLtalk"
   ], 
   "user_mentions": [
    "aysh_94"
   ], 
   "created_at": "Wed Mar 26 01:15:11 +0000 2014", 
   "retweet_count": 53, 
   "favorite_count": 57
  }, 
  {
   "text": "RT @MLSEFoundation: #5050 TOTAL JACKPOT TONIGHT @MapleLeafs is $19,019 - half goes to the fan with ticket 101266- other half supports @Righ\u2026", 
   "label": "O", 
   "id": 448628613479686144, 
   "hashtags": [], 
   "user_mentions": [
    "MLSEFoundation", 
    "MapleLeafs", 
    "RightToPlayCAN"
   ], 
   "created_at": "Wed Mar 26 01:12:51 +0000 2014", 
   "retweet_count": 8, 
   "favorite_count": 0
  }, 
  {
   "text": "Couple more beauty stops RT @Paris__G: Bernier Wow #TMLtalk", 
   "label": "O", 
   "id": 448628101065768960, 
   "hashtags": [
    "TMLtalk"
   ], 
   "user_mentions": [
    "Paris__G"
   ], 
   "created_at": "Wed Mar 26 01:10:49 +0000 2014", 
   "retweet_count": 13, 
   "favorite_count": 23
  }, 
  {
   "text": "-&gt; RT @Zara9lives: 3rd is underway .. #TMLtalk", 
   "label": "O", 
   "id": 448627397626437632, 
   "hashtags": [
    "TMLtalk"
   ], 
   "user_mentions": [
    "Zara9lives"
   ], 
   "created_at": "Wed Mar 26 01:08:01 +0000 2014", 
   "retweet_count": 11, 
   "favorite_count": 19
  }, 
  {
   "text": "It's 4-1 Blues after 40 minutes. Joffrey Lupul has the goal for the #Leafs tonight. #TMLtalk http://t.co/EqzgYDAZnh", 
   "label": "O", 
   "id": 448622600395042816, 
   "hashtags": [
    "Leafs", 
    "TMLtalk"
   ], 
   "user_mentions": [], 
   "created_at": "Wed Mar 26 00:48:57 +0000 2014", 
   "retweet_count": 59, 
   "favorite_count": 89
  }, 
  {
   "text": "-&gt; RT @LeafsNationFan: Fight. Morrow vs Clarkson. #TMLtalk", 
   "label": "O", 
   "id": 448622121900847104, 
   "hashtags": [
    "TMLtalk"
   ], 
   "user_mentions": [
    "LeafsNationFan"
   ], 
   "created_at": "Wed Mar 26 00:47:03 +0000 2014", 
   "retweet_count": 23, 
   "favorite_count": 36
  }, 
  {
   "text": ". RT @AMitch16: Steen 4-1 @MapleLeafs #tmltalk", 
   "label": "O", 
   "id": 448620532205105152, 
   "hashtags": [
    "tmltalk"
   ], 
   "user_mentions": [
    "AMitch16", 
    "MapleLeafs"
   ], 
   "created_at": "Wed Mar 26 00:40:44 +0000 2014", 
   "retweet_count": 25, 
   "favorite_count": 25
  }, 
  {
   "text": "#TMLtalk video: @BrookePashley sang the National Anthems tonight http://t.co/cNnLSCluwZ #Leafs", 
   "label": "O", 
   "id": 448619384429621248, 
   "hashtags": [
    "TMLtalk", 
    "Leafs"
   ], 
   "user_mentions": [
    "BrookePashley"
   ], 
   "created_at": "Wed Mar 26 00:36:10 +0000 2014", 
   "retweet_count": 15, 
   "favorite_count": 34
  }, 
  {
   "text": "Franson called for interference. Now 4-on-4 RT @samantha_isobel: Leafs PP! #TMLtalk", 
   "label": "O", 
   "id": 448617992763736065, 
   "hashtags": [
    "TMLtalk"
   ], 
   "user_mentions": [
    "samantha_isobel"
   ], 
   "created_at": "Wed Mar 26 00:30:39 +0000 2014", 
   "retweet_count": 15, 
   "favorite_count": 27
  }, 
  {
   "text": "Almost... RT @AlayneLangford: @MapleLeafs #TMLtalk McClement rattles the post!", 
   "label": "O", 
   "id": 448616840705880065, 
   "hashtags": [
    "TMLtalk"
   ], 
   "user_mentions": [
    "AlayneLangford", 
    "MapleLeafs"
   ], 
   "created_at": "Wed Mar 26 00:26:04 +0000 2014", 
   "retweet_count": 13, 
   "favorite_count": 28
  }, 
  {
   "text": "#TMLtalk update RT @AbdulM__: 3-1 #TMLtalk", 
   "label": "O", 
   "id": 448615098215845888, 
   "hashtags": [
    "TMLtalk", 
    "TMLtalk"
   ], 
   "user_mentions": [
    "AbdulM__"
   ], 
   "created_at": "Wed Mar 26 00:19:08 +0000 2014", 
   "retweet_count": 24, 
   "favorite_count": 27
  }, 
  {
   "text": "@MegTW_17 huge PK here", 
   "label": "O", 
   "id": 448614447326961664, 
   "hashtags": [], 
   "user_mentions": [
    "MegTW_17"
   ], 
   "created_at": "Wed Mar 26 00:16:33 +0000 2014", 
   "retweet_count": 0, 
   "favorite_count": 0
  }, 
  {
   "text": "@_AmandaGee thank you indeed.", 
   "label": "O", 
   "id": 448613153233174528, 
   "hashtags": [], 
   "user_mentions": [
    "_AmandaGee"
   ], 
   "created_at": "Wed Mar 26 00:11:25 +0000 2014", 
   "retweet_count": 0, 
   "favorite_count": 2
  }, 
  {
   "text": "Here we go!!! RT @LeafsNationFan: The 2nd period is underway! #TMLtalk", 
   "label": "O", 
   "id": 448612350242062336, 
   "hashtags": [
    "TMLtalk"
   ], 
   "user_mentions": [
    "LeafsNationFan"
   ], 
   "created_at": "Wed Mar 26 00:08:13 +0000 2014", 
   "retweet_count": 37, 
   "favorite_count": 46
  }, 
  {
   "text": "@SirOliveBeard Unfortunately, do to NHL regional restrictions, it is in the Leafs viewing territory only.", 
   "label": "O", 
   "id": 448610229413220352, 
   "hashtags": [], 
   "user_mentions": [
    "SirOliveBeard"
   ], 
   "created_at": "Tue Mar 25 23:59:48 +0000 2014", 
   "retweet_count": 0, 
   "favorite_count": 0
  }, 
  {
   "text": "After 1, it's 2-1 STL.. #TMLtalk video: Big Bernier save leads to Lupul PP goal http://t.co/HFWZvsR4Tu #Leafs", 
   "label": "O", 
   "id": 448607715305476096, 
   "hashtags": [
    "TMLtalk", 
    "Leafs"
   ], 
   "user_mentions": [], 
   "created_at": "Tue Mar 25 23:49:48 +0000 2014", 
   "retweet_count": 34, 
   "favorite_count": 32
  }, 
  {
   "text": "-&gt; RT @yathu_6: 2-1 Blues #TMLtalk", 
   "label": "O", 
   "id": 448607404918575105, 
   "hashtags": [
    "TMLtalk"
   ], 
   "user_mentions": [
    "yathu_6"
   ], 
   "created_at": "Tue Mar 25 23:48:34 +0000 2014", 
   "retweet_count": 12, 
   "favorite_count": 23
  }, 
  {
   "text": "@IzabelaLeafsfan great idea.", 
   "label": "O", 
   "id": 448606486122737664, 
   "hashtags": [], 
   "user_mentions": [
    "IzabelaLeafsfan"
   ], 
   "created_at": "Tue Mar 25 23:44:55 +0000 2014", 
   "retweet_count": 1, 
   "favorite_count": 1
  }, 
  {
   "text": "Update RT @DuneTiger: Tied up #TMLTalk", 
   "label": "O", 
   "id": 448605516504522752, 
   "hashtags": [
    "TMLTalk"
   ], 
   "user_mentions": [
    "DuneTiger"
   ], 
   "created_at": "Tue Mar 25 23:41:04 +0000 2014", 
   "retweet_count": 18, 
   "favorite_count": 27
  }, 
  {
   "text": "@StLouisBlues ah, don't think so.", 
   "label": "O", 
   "id": 448604965842731008, 
   "hashtags": [], 
   "user_mentions": [
    "StLouisBlues"
   ], 
   "created_at": "Tue Mar 25 23:38:53 +0000 2014", 
   "retweet_count": 37, 
   "favorite_count": 83
  }, 
  {
   "text": "@r_salo sure is!", 
   "label": "O", 
   "id": 448603825608609794, 
   "hashtags": [], 
   "user_mentions": [
    "r_salo"
   ], 
   "created_at": "Tue Mar 25 23:34:21 +0000 2014", 
   "retweet_count": 0, 
   "favorite_count": 0
  }, 
  {
   "text": "@LeafsStatsGuy yes, yes it is.", 
   "label": "O", 
   "id": 448603442735767552, 
   "hashtags": [], 
   "user_mentions": [
    "LeafsStatsGuy"
   ], 
   "created_at": "Tue Mar 25 23:32:50 +0000 2014", 
   "retweet_count": 26, 
   "favorite_count": 64
  }, 
  {
   "text": "@Deesantangelo42 7 games was long enough.", 
   "label": "O", 
   "id": 448603318638895106, 
   "hashtags": [], 
   "user_mentions": [
    "Deesantangelo42"
   ], 
   "created_at": "Tue Mar 25 23:32:20 +0000 2014", 
   "retweet_count": 1, 
   "favorite_count": 4
  }, 
  {
   "text": "@Briansalexander yup!", 
   "label": "O", 
   "id": 448603188862910464, 
   "hashtags": [], 
   "user_mentions": [
    "Briansalexander"
   ], 
   "created_at": "Tue Mar 25 23:31:49 +0000 2014", 
   "retweet_count": 0, 
   "favorite_count": 0
  }, 
  {
   "text": "-&gt; RT @TheJasonLane: KING JOFFREY #TMLtalk", 
   "label": "O", 
   "id": 448603095992659968, 
   "hashtags": [
    "TMLtalk"
   ], 
   "user_mentions": [
    "TheJasonLane"
   ], 
   "created_at": "Tue Mar 25 23:31:27 +0000 2014", 
   "retweet_count": 74, 
   "favorite_count": 92
  }, 
  {
   "text": "Lupul!!!!!!!!!!!! A PP goal makes it 1-0 good guys! RT @samantha_isobel: GOOOOOAL! #TMLtalk", 
   "label": "O", 
   "id": 448602808393404416, 
   "hashtags": [
    "TMLtalk"
   ], 
   "user_mentions": [
    "samantha_isobel"
   ], 
   "created_at": "Tue Mar 25 23:30:18 +0000 2014", 
   "retweet_count": 230, 
   "favorite_count": 243
  }, 
  {
   "text": "Massive save on the breakaway RT @IzabelaLeafsfan: BERNIERRRR #TMLTalk", 
   "label": "O", 
   "id": 448602593959636992, 
   "hashtags": [
    "TMLTalk"
   ], 
   "user_mentions": [
    "IzabelaLeafsfan"
   ], 
   "created_at": "Tue Mar 25 23:29:27 +0000 2014", 
   "retweet_count": 34, 
   "favorite_count": 71
  }, 
  {
   "text": "@hvrny sure.", 
   "label": "O", 
   "id": 448602010091520000, 
   "hashtags": [], 
   "user_mentions": [
    "hvrny"
   ], 
   "created_at": "Tue Mar 25 23:27:08 +0000 2014", 
   "retweet_count": 0, 
   "favorite_count": 0
  }, 
  {
   "text": "#TMLtalk video: Jonathan Bernier with some big stops early in the game http://t.co/jqSe7qwOos #Leafs", 
   "label": "O", 
   "id": 448601693937487872, 
   "hashtags": [
    "TMLtalk", 
    "Leafs"
   ], 
   "user_mentions": [], 
   "created_at": "Tue Mar 25 23:25:53 +0000 2014", 
   "retweet_count": 40, 
   "favorite_count": 78
  }, 
  {
   "text": "@akaPointy great parenting!", 
   "label": "O", 
   "id": 448601251618762752, 
   "hashtags": [], 
   "user_mentions": [
    "akaPointy"
   ], 
   "created_at": "Tue Mar 25 23:24:07 +0000 2014", 
   "retweet_count": 0, 
   "favorite_count": 1
  }, 
  {
   "text": "@jakemunro9 understatement", 
   "label": "O", 
   "id": 448601184874790913, 
   "hashtags": [], 
   "user_mentions": [
    "jakemunro9"
   ], 
   "created_at": "Tue Mar 25 23:23:51 +0000 2014", 
   "retweet_count": 1, 
   "favorite_count": 7
  }, 
  {
   "text": "#TMLtalk RT @LeafsPR: #Leafs have reassigned goalie Drew MacIntyre to the #Marlies today.", 
   "label": "O", 
   "id": 448600251977699329, 
   "hashtags": [
    "TMLtalk", 
    "Leafs", 
    "Marlies"
   ], 
   "user_mentions": [
    "LeafsPR"
   ], 
   "created_at": "Tue Mar 25 23:20:09 +0000 2014", 
   "retweet_count": 28, 
   "favorite_count": 40
  }, 
  {
   "text": "@Zara9lives so far so good.", 
   "label": "O", 
   "id": 448600142497996800, 
   "hashtags": [], 
   "user_mentions": [
    "Zara9lives"
   ], 
   "created_at": "Tue Mar 25 23:19:43 +0000 2014", 
   "retweet_count": 1, 
   "favorite_count": 1
  }, 
  {
   "text": "@door0077 that is some dedication. We appreciate it.", 
   "label": "O", 
   "id": 448599125727412224, 
   "hashtags": [], 
   "user_mentions": [
    "door0077"
   ], 
   "created_at": "Tue Mar 25 23:15:40 +0000 2014", 
   "retweet_count": 0, 
   "favorite_count": 1
  }, 
  {
   "text": "Welcome back! RT @LeafsNationFan: Huge saves by Bernier early in this game! #TMLtalk", 
   "label": "O", 
   "id": 448598396497326080, 
   "hashtags": [
    "TMLtalk"
   ], 
   "user_mentions": [
    "LeafsNationFan"
   ], 
   "created_at": "Tue Mar 25 23:12:46 +0000 2014", 
   "retweet_count": 76, 
   "favorite_count": 86
  }, 
  {
   "text": "Of course! RT @levenah: @MapleLeafs @BrookePashley Can we get a video of that later for us non-local fans? :D", 
   "label": "O", 
   "id": 448597740919209984, 
   "hashtags": [], 
   "user_mentions": [
    "levenah", 
    "MapleLeafs", 
    "BrookePashley"
   ], 
   "created_at": "Tue Mar 25 23:10:10 +0000 2014", 
   "retweet_count": 6, 
   "favorite_count": 25
  }, 
  {
   "text": "Here we go!!! RT @ammyliuu: PUCK DROP! #TMLtalk", 
   "label": "O", 
   "id": 448597668512944128, 
   "hashtags": [
    "TMLtalk"
   ], 
   "user_mentions": [
    "ammyliuu"
   ], 
   "created_at": "Tue Mar 25 23:09:53 +0000 2014", 
   "retweet_count": 22, 
   "favorite_count": 49
  }, 
  {
   "text": "RT @Keirwalkup: @MapleLeafs 4-3 leafs, bozak #TMLtalk", 
   "label": "O", 
   "id": 448597444247711744, 
   "hashtags": [
    "TMLtalk"
   ], 
   "user_mentions": [
    "Keirwalkup", 
    "MapleLeafs"
   ], 
   "created_at": "Tue Mar 25 23:08:59 +0000 2014", 
   "retweet_count": 10, 
   "favorite_count": 0
  }, 
  {
   "text": "RT @pincented: 3-2 Leafs OT. JVR first goal. #TMLtalk", 
   "label": "O", 
   "id": 448597353193541632, 
   "hashtags": [
    "TMLtalk"
   ], 
   "user_mentions": [
    "pincented"
   ], 
   "created_at": "Tue Mar 25 23:08:38 +0000 2014", 
   "retweet_count": 13, 
   "favorite_count": 0
  }, 
  {
   "text": "Great job by @BrookePashley singing the National Anthems tonight! #TMLtalk", 
   "label": "O", 
   "id": 448597316594065409, 
   "hashtags": [
    "TMLtalk"
   ], 
   "user_mentions": [
    "BrookePashley"
   ], 
   "created_at": "Tue Mar 25 23:08:29 +0000 2014", 
   "retweet_count": 18, 
   "favorite_count": 39
  }, 
  {
   "text": "@torontoMcleafy no prize tonight unfortunately...", 
   "label": "O", 
   "id": 448596372158447616, 
   "hashtags": [], 
   "user_mentions": [
    "torontoMcleafy"
   ], 
   "created_at": "Tue Mar 25 23:04:44 +0000 2014", 
   "retweet_count": 0, 
   "favorite_count": 1
  }, 
  {
   "text": "Welcome to #TMLtalk. Q1. Predict the final score and first #Leafs goal scorer. Include #TMLtalk in your reply.", 
   "label": "O", 
   "id": 448596236581367808, 
   "hashtags": [
    "TMLtalk", 
    "Leafs", 
    "TMLtalk"
   ], 
   "user_mentions": [], 
   "created_at": "Tue Mar 25 23:04:11 +0000 2014", 
   "retweet_count": 16, 
   "favorite_count": 28
  }, 
  {
   "text": "@torontoMcleafy yup.", 
   "label": "O", 
   "id": 448596161742786560, 
   "hashtags": [], 
   "user_mentions": [
    "torontoMcleafy"
   ], 
   "created_at": "Tue Mar 25 23:03:54 +0000 2014", 
   "retweet_count": 0, 
   "favorite_count": 0
  }, 
  {
   "text": "#Leafs to start: Bernier; Phaneuf-Gunnarsson; Bodie-McClement-Kulemin #TMLtalk", 
   "label": "O", 
   "id": 448596071552675841, 
   "hashtags": [
    "Leafs", 
    "TMLtalk"
   ], 
   "user_mentions": [], 
   "created_at": "Tue Mar 25 23:03:32 +0000 2014", 
   "retweet_count": 57, 
   "favorite_count": 66
  }, 
  {
   "text": "@SuryaDewann so true!", 
   "label": "O", 
   "id": 448595874151952385, 
   "hashtags": [], 
   "user_mentions": [
    "SuryaDewann"
   ], 
   "created_at": "Tue Mar 25 23:02:45 +0000 2014", 
   "retweet_count": 1, 
   "favorite_count": 1
  }, 
  {
   "text": "#NowPlaying: #Leafs vs. #Blues on @Sportsnet, @TSN1050Radio and #TMLtalk.", 
   "label": "O", 
   "id": 448595481543725056, 
   "hashtags": [
    "NowPlaying", 
    "Leafs", 
    "Blues", 
    "TMLtalk"
   ], 
   "user_mentions": [
    "Sportsnet", 
    "TSN1050Radio"
   ], 
   "created_at": "Tue Mar 25 23:01:11 +0000 2014", 
   "retweet_count": 30, 
   "favorite_count": 41
  }, 
  {
   "text": "@NormMurrayTSC great pic!", 
   "label": "O", 
   "id": 448592129464741888, 
   "hashtags": [], 
   "user_mentions": [
    "NormMurrayTSC"
   ], 
   "created_at": "Tue Mar 25 22:47:52 +0000 2014", 
   "retweet_count": 1, 
   "favorite_count": 0
  }, 
  {
   "text": "@GeepsSays Basically, it means that Bernier and Miller are starting.", 
   "label": "O", 
   "id": 448591615876411392, 
   "hashtags": [], 
   "user_mentions": [
    "GeepsSays"
   ], 
   "created_at": "Tue Mar 25 22:45:50 +0000 2014", 
   "retweet_count": 0, 
   "favorite_count": 2
  }, 
  {
   "text": "@MrMclovinOG he sure is.", 
   "label": "O", 
   "id": 448591306752004097, 
   "hashtags": [], 
   "user_mentions": [
    "MrMclovinOG"
   ], 
   "created_at": "Tue Mar 25 22:44:36 +0000 2014", 
   "retweet_count": 0, 
   "favorite_count": 4
  }, 
  {
   "text": "@loganlights @AirCanadaCentre that's awesome!", 
   "label": "O", 
   "id": 448591266356686849, 
   "hashtags": [], 
   "user_mentions": [
    "loganlights", 
    "AirCanadaCentre"
   ], 
   "created_at": "Tue Mar 25 22:44:27 +0000 2014", 
   "retweet_count": 0, 
   "favorite_count": 0
  }, 
  {
   "text": "@z_bellisle Bernier", 
   "label": "O", 
   "id": 448590928434171904, 
   "hashtags": [], 
   "user_mentions": [
    "z_bellisle"
   ], 
   "created_at": "Tue Mar 25 22:43:06 +0000 2014", 
   "retweet_count": 1, 
   "favorite_count": 2
  }, 
  {
   "text": "The Hobos of the Honeycombed Hideouts are Jonathan Bernier and Ryan Miller. #TMLtalk http://t.co/5i40YjyYGr", 
   "label": "O", 
   "id": 448590892845133824, 
   "hashtags": [
    "TMLtalk"
   ], 
   "user_mentions": [], 
   "created_at": "Tue Mar 25 22:42:57 +0000 2014", 
   "retweet_count": 227, 
   "favorite_count": 177
  }, 
  {
   "text": "@DanZhao12 yes he is.", 
   "label": "O", 
   "id": 448590020103135232, 
   "hashtags": [], 
   "user_mentions": [
    "DanZhao12"
   ], 
   "created_at": "Tue Mar 25 22:39:29 +0000 2014", 
   "retweet_count": 2, 
   "favorite_count": 5
  }, 
  {
   "text": "Projected #Leafs defence: Gunnarsson-Phaneuf; Gardiner-Franson; Gleason-Rielly; #TMLtalk", 
   "label": "O", 
   "id": 448589967158435840, 
   "hashtags": [
    "Leafs", 
    "TMLtalk"
   ], 
   "user_mentions": [], 
   "created_at": "Tue Mar 25 22:39:17 +0000 2014", 
   "retweet_count": 32, 
   "favorite_count": 53
  }, 
  {
   "text": "@sarahmudgway @AirCanadaCentre it's go time.", 
   "label": "O", 
   "id": 448589791123496961, 
   "hashtags": [], 
   "user_mentions": [
    "sarahmudgway", 
    "AirCanadaCentre"
   ], 
   "created_at": "Tue Mar 25 22:38:35 +0000 2014", 
   "retweet_count": 1, 
   "favorite_count": 1
  }, 
  {
   "text": "Projected #Leafs lines: JVR-Bozak-Kessel; Lupul-Kadri-Kulemin; Raymond-Bolland-Clarkson; Orr-McClement-Bodie; #TMLtalk", 
   "label": "O", 
   "id": 448589721217032193, 
   "hashtags": [
    "Leafs", 
    "TMLtalk"
   ], 
   "user_mentions": [], 
   "created_at": "Tue Mar 25 22:38:18 +0000 2014", 
   "retweet_count": 58, 
   "favorite_count": 84
  }, 
  {
   "text": "@Desputeaux not tonight. Another prize on Friday.", 
   "label": "O", 
   "id": 448589021846208512, 
   "hashtags": [], 
   "user_mentions": [
    "Desputeaux"
   ], 
   "created_at": "Tue Mar 25 22:35:31 +0000 2014", 
   "retweet_count": 0, 
   "favorite_count": 0
  }, 
  {
   "text": "@AdrianTML99 Bernier", 
   "label": "O", 
   "id": 448588814874050560, 
   "hashtags": [], 
   "user_mentions": [], 
   "created_at": "Tue Mar 25 22:34:42 +0000 2014", 
   "retweet_count": 2, 
   "favorite_count": 3
  }, 
  {
   "text": "@stellapiano yup!", 
   "label": "O", 
   "id": 448588773061033985, 
   "hashtags": [], 
   "user_mentions": [
    "stellapiano"
   ], 
   "created_at": "Tue Mar 25 22:34:32 +0000 2014", 
   "retweet_count": 0, 
   "favorite_count": 2
  }, 
  {
   "text": "#TMLtalk photo: Jonathan Bernier leads the #Leafs out for warmup http://t.co/6XMFP1JhYs", 
   "label": "O", 
   "id": 448587663444959233, 
   "hashtags": [
    "TMLtalk", 
    "Leafs"
   ], 
   "user_mentions": [], 
   "created_at": "Tue Mar 25 22:30:07 +0000 2014", 
   "retweet_count": 484, 
   "favorite_count": 674
  }, 
  {
   "text": "@JawandaH should know soon.", 
   "label": "O", 
   "id": 448585938784907264, 
   "hashtags": [], 
   "user_mentions": [
    "JawandaH"
   ], 
   "created_at": "Tue Mar 25 22:23:16 +0000 2014", 
   "retweet_count": 1, 
   "favorite_count": 4
  }, 
  {
   "text": "@mannatdhami should know shortly.", 
   "label": "O", 
   "id": 448585834292199424, 
   "hashtags": [], 
   "user_mentions": [
    "mannatdhami"
   ], 
   "created_at": "Tue Mar 25 22:22:51 +0000 2014", 
   "retweet_count": 1, 
   "favorite_count": 1
  }, 
  {
   "text": "Scotiabank Gametime: An hour away from #Leafs vs. #Blues on @Sportsnet, @TSN1050Radio and #TMLtalk http://t.co/zR9sluq96b #NHL", 
   "label": "O", 
   "id": 448580130584014849, 
   "hashtags": [
    "Leafs", 
    "Blues", 
    "TMLtalk", 
    "NHL"
   ], 
   "user_mentions": [
    "Sportsnet", 
    "TSN1050Radio"
   ], 
   "created_at": "Tue Mar 25 22:00:12 +0000 2014", 
   "retweet_count": 29, 
   "favorite_count": 36
  }, 
  {
   "text": "Countdown to puck drop with Jay McClement: http://t.co/UD5p2yS7SG #Leafs v #Blues 7p @Sportsnet, @TSN1050Radio", 
   "label": "O", 
   "id": 448573083465420803, 
   "hashtags": [
    "Leafs", 
    "Blues"
   ], 
   "user_mentions": [
    "Sportsnet", 
    "TSN1050Radio"
   ], 
   "created_at": "Tue Mar 25 21:32:11 +0000 2014", 
   "retweet_count": 18, 
   "favorite_count": 37
  }, 
  {
   "text": "The #Leafs have signed Eric Knodel who joins the @TorontoMarlies for the remainder of the season: http://t.co/G4YV0ZrtNU", 
   "label": "O", 
   "id": 448566289078820865, 
   "hashtags": [
    "Leafs"
   ], 
   "user_mentions": [
    "TorontoMarlies"
   ], 
   "created_at": "Tue Mar 25 21:05:11 +0000 2014", 
   "retweet_count": 52, 
   "favorite_count": 64
  }, 
  {
   "text": "@TheLifeOfNadia sweet scarf.", 
   "label": "O", 
   "id": 448564252417470464, 
   "hashtags": [], 
   "user_mentions": [
    "TheLifeOfNadia"
   ], 
   "created_at": "Tue Mar 25 20:57:06 +0000 2014", 
   "retweet_count": 1, 
   "favorite_count": 1
  }, 
  {
   "text": "#TMLtalk ticket news: A limited number of tix remain for tonight's #Leafs vs. #Blues game: http://t.co/3XJbdbVOX8 #NHL", 
   "label": "O", 
   "id": 448561352198479872, 
   "hashtags": [
    "TMLtalk", 
    "Leafs", 
    "Blues", 
    "NHL"
   ], 
   "user_mentions": [], 
   "created_at": "Tue Mar 25 20:45:34 +0000 2014", 
   "retweet_count": 14, 
   "favorite_count": 23
  }, 
  {
   "text": "The #TMLtalk Preview with @HennyTweets and Ozzie...Mark Osborne:  http://t.co/XuhyRXex7A #Leafs v #Blues 7p @Sportsnet", 
   "label": "O", 
   "id": 448557983383838720, 
   "hashtags": [
    "TMLtalk", 
    "Leafs", 
    "Blues"
   ], 
   "user_mentions": [
    "HennyTweets", 
    "Sportsnet"
   ], 
   "created_at": "Tue Mar 25 20:32:11 +0000 2014", 
   "retweet_count": 14, 
   "favorite_count": 33
  }, 
  {
   "text": "@killerbees19 see you soon.", 
   "label": "O", 
   "id": 448553825163821056, 
   "hashtags": [], 
   "user_mentions": [
    "killerbees19"
   ], 
   "created_at": "Tue Mar 25 20:15:40 +0000 2014", 
   "retweet_count": 0, 
   "favorite_count": 0
  }, 
  {
   "text": "@SimmerGill_ no official word at this point. Should know at warm up.", 
   "label": "O", 
   "id": 448553769031462913, 
   "hashtags": [], 
   "user_mentions": [
    "SimmerGill_"
   ], 
   "created_at": "Tue Mar 25 20:15:26 +0000 2014", 
   "retweet_count": 1, 
   "favorite_count": 1
  }, 
  {
   "text": "@ohhbiebssmile thank you.", 
   "label": "O", 
   "id": 448553536197246976, 
   "hashtags": [], 
   "user_mentions": [
    "ohhbiebssmile"
   ], 
   "created_at": "Tue Mar 25 20:14:31 +0000 2014", 
   "retweet_count": 1, 
   "favorite_count": 1
  }, 
  {
   "text": "@RyanThompson311 no confirmation at this point.", 
   "label": "O", 
   "id": 448553344064561152, 
   "hashtags": [], 
   "user_mentions": [
    "RyanThompson311"
   ], 
   "created_at": "Tue Mar 25 20:13:45 +0000 2014", 
   "retweet_count": 1, 
   "favorite_count": 5
  }, 
  {
   "text": "@vanmar83 we appreciate the support.", 
   "label": "O", 
   "id": 448552380578410496, 
   "hashtags": [], 
   "user_mentions": [
    "vanmar83"
   ], 
   "created_at": "Tue Mar 25 20:09:55 +0000 2014", 
   "retweet_count": 1, 
   "favorite_count": 0
  }, 
  {
   "text": "@AnitaaOh thanks!", 
   "label": "O", 
   "id": 448552213703819265, 
   "hashtags": [], 
   "user_mentions": [
    "AnitaaOh"
   ], 
   "created_at": "Tue Mar 25 20:09:16 +0000 2014", 
   "retweet_count": 1, 
   "favorite_count": 3
  }, 
  {
   "text": "Video: @Carl_Gun spoke with the media after Tuesday's morning skate http://t.co/NmcCrCfgiP\n#Leafs #TMLtalk", 
   "label": "O", 
   "id": 448551188623925248, 
   "hashtags": [
    "Leafs", 
    "TMLtalk"
   ], 
   "user_mentions": [
    "carl_gun"
   ], 
   "created_at": "Tue Mar 25 20:05:11 +0000 2014", 
   "retweet_count": 12, 
   "favorite_count": 22
  }, 
  {
   "text": ". @SportChek Playert Alert: #Leafs sign d-man Eric Knodel to a 1-year entry level contract. http://t.co/vfKJd3AybD #TMLtalk", 
   "label": "O", 
   "id": 448537607497334784, 
   "hashtags": [
    "Leafs", 
    "TMLtalk"
   ], 
   "user_mentions": [
    "SportChek"
   ], 
   "created_at": "Tue Mar 25 19:11:13 +0000 2014", 
   "retweet_count": 74, 
   "favorite_count": 66
  }, 
  {
   "text": "Video: @JLupul's take ahead of tonight's game http://t.co/uRm8Wqp0nx #Leafs vs #Blues 7p @Sportsnet, @TSN1050Radio", 
   "label": "O", 
   "id": 448535837836189696, 
   "hashtags": [
    "Leafs", 
    "Blues"
   ], 
   "user_mentions": [
    "JLupul", 
    "Sportsnet", 
    "TSN1050Radio"
   ], 
   "created_at": "Tue Mar 25 19:04:11 +0000 2014", 
   "retweet_count": 29, 
   "favorite_count": 36
  }, 
  {
   "text": "@abdelvilla_7 not sure just yet. We will know once warm up begins.", 
   "label": "O", 
   "id": 448527894206480384, 
   "hashtags": [], 
   "user_mentions": [
    "abdelvilla_7"
   ], 
   "created_at": "Tue Mar 25 18:32:37 +0000 2014", 
   "retweet_count": 2, 
   "favorite_count": 3
  }, 
  {
   "text": "@jbitsall81 love it.", 
   "label": "O", 
   "id": 448527703361474560, 
   "hashtags": [], 
   "user_mentions": [
    "jbitsall81"
   ], 
   "created_at": "Tue Mar 25 18:31:52 +0000 2014", 
   "retweet_count": 0, 
   "favorite_count": 0
  }, 
  {
   "text": "@cool_hand_luke3 not sure at this point. Could be Bernier.", 
   "label": "O", 
   "id": 448527629172609026, 
   "hashtags": [], 
   "user_mentions": [
    "cool_hand_luke3"
   ], 
   "created_at": "Tue Mar 25 18:31:34 +0000 2014", 
   "retweet_count": 1, 
   "favorite_count": 3
  }, 
  {
   "text": "@EmilyMete not yet. If we find something out, we will pass it along.", 
   "label": "O", 
   "id": 448527411802832897, 
   "hashtags": [], 
   "user_mentions": [
    "EmilyMete"
   ], 
   "created_at": "Tue Mar 25 18:30:42 +0000 2014", 
   "retweet_count": 2, 
   "favorite_count": 3
  }, 
  {
   "text": "@kyle5526 thanks for the tweet Kyle.", 
   "label": "O", 
   "id": 448527323709841408, 
   "hashtags": [], 
   "user_mentions": [
    "kyle5526"
   ], 
   "created_at": "Tue Mar 25 18:30:21 +0000 2014", 
   "retweet_count": 0, 
   "favorite_count": 0
  }, 
  {
   "text": "@Jess_Pomeroy thanks!", 
   "label": "O", 
   "id": 448527224179019776, 
   "hashtags": [], 
   "user_mentions": [
    "Jess_Pomeroy"
   ], 
   "created_at": "Tue Mar 25 18:29:58 +0000 2014", 
   "retweet_count": 1, 
   "favorite_count": 1
  }, 
  {
   "text": "Tonight's game is presented by @RogersBuzz and they have a sweet Rogers First Rewards offer! #Leafs http://t.co/Tz339wgjpS", 
   "label": "O", 
   "id": 448527095460028416, 
   "hashtags": [
    "Leafs"
   ], 
   "user_mentions": [
    "RogersBuzz"
   ], 
   "created_at": "Tue Mar 25 18:29:27 +0000 2014", 
   "retweet_count": 21, 
   "favorite_count": 25
  }, 
  {
   "text": "#TMLtalk video: JVR speaks with @HennyTweets after the morning skate http://t.co/95BQBrqIk4 #Leafs v #Blues 7p @Sportsnet", 
   "label": "O", 
   "id": 448521241184706560, 
   "hashtags": [
    "TMLtalk", 
    "Leafs", 
    "Blues"
   ], 
   "user_mentions": [
    "HennyTweets", 
    "Sportsnet"
   ], 
   "created_at": "Tue Mar 25 18:06:11 +0000 2014", 
   "retweet_count": 14, 
   "favorite_count": 24
  }, 
  {
   "text": "#TMLtalk photo: Great Day @CleveClinicCan with the #Leafs Alumni. http://t.co/XDzueOsaeV", 
   "label": "O", 
   "id": 448517010012782592, 
   "hashtags": [
    "TMLtalk", 
    "Leafs"
   ], 
   "user_mentions": [
    "CleveClinicCan"
   ], 
   "created_at": "Tue Mar 25 17:49:22 +0000 2014", 
   "retweet_count": 21, 
   "favorite_count": 50
  }, 
  {
   "text": "A busy week off the ice. Your #TMLtalk Look Ahead with Brooke and Matt: http://t.co/qKedM36vse #Leafs v #Blues 7p @Sportsnet", 
   "label": "O", 
   "id": 448505637920452608, 
   "hashtags": [
    "TMLtalk", 
    "Leafs", 
    "Blues"
   ], 
   "user_mentions": [
    "Sportsnet"
   ], 
   "created_at": "Tue Mar 25 17:04:11 +0000 2014", 
   "retweet_count": 7, 
   "favorite_count": 18
  }, 
  {
   "text": "Carlyle on Bernier's availability.\"I haven't gotten that from the medical staff, yet.\" http://t.co/a0OATfmy7r #TMLtalk", 
   "label": "O", 
   "id": 448497584697376768, 
   "hashtags": [
    "TMLtalk"
   ], 
   "user_mentions": [], 
   "created_at": "Tue Mar 25 16:32:11 +0000 2014", 
   "retweet_count": 26, 
   "favorite_count": 26
  }, 
  {
   "text": "The game preview with stats, news, injury report and more: http://t.co/zR9sluq96b #Leafs v #Blues 7p @Sportsnet", 
   "label": "O", 
   "id": 448490286797189120, 
   "hashtags": [
    "Leafs", 
    "Blues"
   ], 
   "user_mentions": [
    "Sportsnet"
   ], 
   "created_at": "Tue Mar 25 16:03:11 +0000 2014", 
   "retweet_count": 17, 
   "favorite_count": 18
  }, 
  {
   "text": "@KingSchmidt thanks for the tweet.", 
   "label": "O", 
   "id": 448485949920780288, 
   "hashtags": [], 
   "user_mentions": [
    "KingSchmidt"
   ], 
   "created_at": "Tue Mar 25 15:45:57 +0000 2014", 
   "retweet_count": 0, 
   "favorite_count": 0
  }, 
  {
   "text": "@Youllneedhelp no official word just yet.", 
   "label": "O", 
   "id": 448485860305272832, 
   "hashtags": [], 
   "user_mentions": [
    "Youllneedhelp"
   ], 
   "created_at": "Tue Mar 25 15:45:36 +0000 2014", 
   "retweet_count": 0, 
   "favorite_count": 0
  }, 
  {
   "text": "RT @CleveClinicCan: The legendary Johnny Bower getting ready for his checkup at Cleveland Clinic Canada #hockey #Leafs #Toronto http://t.co\u2026", 
   "label": "O", 
   "id": 448485725689098240, 
   "hashtags": [
    "hockey", 
    "Leafs", 
    "Toronto"
   ], 
   "user_mentions": [
    "CleveClinicCan"
   ], 
   "created_at": "Tue Mar 25 15:45:04 +0000 2014", 
   "retweet_count": 26, 
   "favorite_count": 0
  }, 
  {
   "text": "@ryangraywheeler looks that way.", 
   "label": "O", 
   "id": 448480555638996993, 
   "hashtags": [], 
   "user_mentions": [
    "ryangraywheeler"
   ], 
   "created_at": "Tue Mar 25 15:24:31 +0000 2014", 
   "retweet_count": 1, 
   "favorite_count": 1
  }, 
  {
   "text": "@NickVerbaeys thanks Nick!", 
   "label": "O", 
   "id": 448479734335537152, 
   "hashtags": [], 
   "user_mentions": [
    "NickVerbaeys"
   ], 
   "created_at": "Tue Mar 25 15:21:15 +0000 2014", 
   "retweet_count": 0, 
   "favorite_count": 1
  }, 
  {
   "text": "Which former Leafs would @TylerArmes want to join @DownWithWebster? http://t.co/vR9rbHZeiu #Leafs v #Blues 7p @Sportsnet", 
   "label": "O", 
   "id": 448476444738322434, 
   "hashtags": [
    "Leafs", 
    "Blues"
   ], 
   "user_mentions": [
    "TylerArmes", 
    "DOWNWITHWEBSTER", 
    "Sportsnet"
   ], 
   "created_at": "Tue Mar 25 15:08:11 +0000 2014", 
   "retweet_count": 7, 
   "favorite_count": 24
  }, 
  {
   "text": "Who starts in net? Any Lineup changes? #NowPlaying: #TMLtalk Game Day Skate on @Leafs_TV and here http://t.co/mpjOiDHqRi.", 
   "label": "O", 
   "id": 448466884187279360, 
   "hashtags": [
    "NowPlaying", 
    "TMLtalk"
   ], 
   "user_mentions": [
    "Leafs_TV"
   ], 
   "created_at": "Tue Mar 25 14:30:12 +0000 2014", 
   "retweet_count": 24, 
   "favorite_count": 21
  }, 
  {
   "text": "@mmcpherson92 we will do our best. Happy b-day!", 
   "label": "O", 
   "id": 448454180467122176, 
   "hashtags": [], 
   "user_mentions": [
    "mmcpherson92"
   ], 
   "created_at": "Tue Mar 25 13:39:43 +0000 2014", 
   "retweet_count": 1, 
   "favorite_count": 3
  }, 
  {
   "text": "Coming up at 10:30am it's the #TMLtalk Game Day Skate: http://t.co/mpjOiDHqRi. #Leafs v #Blues 7p @Sportsnet", 
   "label": "O", 
   "id": 448445239070425088, 
   "hashtags": [
    "TMLtalk", 
    "Leafs", 
    "Blues"
   ], 
   "user_mentions": [
    "Sportsnet"
   ], 
   "created_at": "Tue Mar 25 13:04:11 +0000 2014", 
   "retweet_count": 19, 
   "favorite_count": 24
  }, 
  {
   "text": "@BennettJoeSmith sure", 
   "label": "O", 
   "id": 448431184436281344, 
   "hashtags": [], 
   "user_mentions": [
    "BennettJoeSmith"
   ], 
   "created_at": "Tue Mar 25 12:08:20 +0000 2014", 
   "retweet_count": 1, 
   "favorite_count": 5
  }, 
  {
   "text": "Good morning! It's Scotiabank Game Day: #Leafs vs. #Blues (7pm @Sportsnet, @TSN1050Radio). Preview http://t.co/zR9sluq96b", 
   "label": "O", 
   "id": 448429636188262403, 
   "hashtags": [
    "Leafs", 
    "Blues"
   ], 
   "user_mentions": [
    "Sportsnet", 
    "TSN1050Radio"
   ], 
   "created_at": "Tue Mar 25 12:02:11 +0000 2014", 
   "retweet_count": 77, 
   "favorite_count": 71
  }
 ]
}