{
 "num_road_team_goals": "4", 
 "home_team": "Carolina Hurricanes", 
 "num_home_team_goals": "1", 
 "summary_url": "http://www.flyershistory.com/cgi-bin/poboxscore.cgi?H20130876", 
 "result": "L", 
 "road_team": "Montreal Canadiens", 
 "date": "2014-02-08", 
 "goals": [
  {
   "season_index": "4", 
   "strength": "(EV)", 
   "time": "5:42", 
   "period": "2", 
   "player": "D.Bowman", 
   "assists": "(R.Nash, J.Faulk)", 
   "game_index": "1", 
   "team": "CAR"
  }, 
  {
   "season_index": "10", 
   "strength": "(EV)", 
   "time": "17:52", 
   "period": "2", 
   "player": "D.Desharnais", 
   "assists": "(R.Bourque, B.Gallagher)", 
   "game_index": "2", 
   "team": "MTL"
  }, 
  {
   "season_index": "2", 
   "strength": "(EV)", 
   "time": "19:17", 
   "period": "2", 
   "player": "R.White", 
   "assists": "(A.Markov)", 
   "game_index": "3", 
   "team": "MTL"
  }, 
  {
   "season_index": "11", 
   "strength": "(EV)", 
   "time": "6:15", 
   "period": "3", 
   "player": "D.Desharnais", 
   "assists": "(B.Gallagher, N.Beaulieu)", 
   "game_index": "4", 
   "team": "MTL"
  }, 
  {
   "season_index": "11", 
   "strength": "(EV-EN)", 
   "time": "17:43", 
   "period": "3", 
   "player": "B.Gionta", 
   "assists": "(B.Prust, R.White)", 
   "game_index": "5", 
   "team": "MTL"
  }
 ], 
 "tweets": [
  {
   "text": "#Canes fall 4-1 to #Habs in final game before Olympic break. RECAP: http://t.co/ZBCEOqtzKe", 
   "label": "O", 
   "id": 432345136933392384, 
   "hashtags": [
    "Canes", 
    "Habs"
   ], 
   "user_mentions": [], 
   "created_at": "Sun Feb 09 02:48:07 +0000 2014", 
   "retweet_count": 21, 
   "favorite_count": 10
  }, 
  {
   "text": "Tonight's @RexHealthcare Fan Photo of the Game came from @illini_minas. View all photos here: http://t.co/BE8Ckzi9T8 http://t.co/vYC284WYBZ", 
   "label": "O", 
   "id": 432336557237084160, 
   "hashtags": [], 
   "user_mentions": [
    "RexHealthcare", 
    "illini_minas"
   ], 
   "created_at": "Sun Feb 09 02:14:02 +0000 2014", 
   "retweet_count": 28, 
   "favorite_count": 18
  }, 
  {
   "text": "#Canes defenseman @JustinFaulk27 packs his #TeamUSA bag to head to the #Sochi2014 #Olympics. http://t.co/Z6gwbwSWV4 http://t.co/g9K75tAic3", 
   "label": "O", 
   "id": 432333763885154304, 
   "hashtags": [
    "Canes", 
    "TeamUSA", 
    "Sochi2014", 
    "Olympics"
   ], 
   "user_mentions": [
    "JustinFaulk27"
   ], 
   "created_at": "Sun Feb 09 02:02:56 +0000 2014", 
   "retweet_count": 97, 
   "favorite_count": 89
  }, 
  {
   "text": "RT @Canes_Gameday: #Canes fall 4-1 to the #Habs as the league's Olympic break begins.", 
   "label": "O", 
   "id": 432327694198796288, 
   "hashtags": [
    "Canes", 
    "Habs"
   ], 
   "user_mentions": [
    "Canes_Gameday"
   ], 
   "created_at": "Sun Feb 09 01:38:49 +0000 2014", 
   "retweet_count": 26, 
   "favorite_count": 0
  }, 
  {
   "text": "MTL Goal - 3rd/17:43 - ENG - B. Gionta (11). Assists: B. Prust (6) and R. White (3). #Habs 4, #Canes 1.", 
   "label": "O", 
   "id": 432327260755202048, 
   "hashtags": [
    "Habs", 
    "Canes"
   ], 
   "user_mentions": [], 
   "created_at": "Sun Feb 09 01:37:05 +0000 2014", 
   "retweet_count": 16, 
   "favorite_count": 6
  }, 
  {
   "text": "MTL Goal - 3rd/6:15 - D. Desharnais (11). Assists: B. Gallagher (18) and N. Beaulieu (2). #Habs 3, #Canes 1.", 
   "label": "O", 
   "id": 432321471797796864, 
   "hashtags": [
    "Habs", 
    "Canes"
   ], 
   "user_mentions": [], 
   "created_at": "Sun Feb 09 01:14:05 +0000 2014", 
   "retweet_count": 14, 
   "favorite_count": 4
  }, 
  {
   "text": "@ashley_wolff98 Not that we know of...", 
   "label": "O", 
   "id": 432315263636484096, 
   "hashtags": [], 
   "user_mentions": [], 
   "created_at": "Sun Feb 09 00:49:25 +0000 2014", 
   "retweet_count": 7, 
   "favorite_count": 7
  }, 
  {
   "text": "@hockeynight Still haven't found any coffee, eh?", 
   "label": "O", 
   "id": 432315087882567680, 
   "hashtags": [], 
   "user_mentions": [
    "hockeynight"
   ], 
   "created_at": "Sun Feb 09 00:48:43 +0000 2014", 
   "retweet_count": 7, 
   "favorite_count": 3
  }, 
  {
   "text": "RT @Canes_Gameday: #Canes trail the #Habs 2-1 after 40 minutes. Carolina with a 21-18 lead in shots.", 
   "label": "O", 
   "id": 432314513720102913, 
   "hashtags": [
    "Canes", 
    "Habs"
   ], 
   "user_mentions": [
    "Canes_Gameday"
   ], 
   "created_at": "Sun Feb 09 00:46:26 +0000 2014", 
   "retweet_count": 9, 
   "favorite_count": 0
  }, 
  {
   "text": "MTL Goal - 2nd/19:17 - R. White (2). Assists: A. Markov (26). #Habs 2, #Canes 1.", 
   "label": "O", 
   "id": 432314464416059392, 
   "hashtags": [
    "Habs", 
    "Canes"
   ], 
   "user_mentions": [], 
   "created_at": "Sun Feb 09 00:46:14 +0000 2014", 
   "retweet_count": 9, 
   "favorite_count": 5
  }, 
  {
   "text": "MTL Goal - 2nd/17:52 - D. Desharnais (10). Assists: R. Bourque (3) &amp; B. Gallagher (17). #Habs 1, #Canes 1.", 
   "label": "O", 
   "id": 432313708002705408, 
   "hashtags": [
    "Habs", 
    "Canes"
   ], 
   "user_mentions": [], 
   "created_at": "Sun Feb 09 00:43:14 +0000 2014", 
   "retweet_count": 8, 
   "favorite_count": 5
  }, 
  {
   "text": "Congrats to @h_hollinger for winning tonight's team-signed #RexHeart stick from @RexHealthcare!", 
   "label": "O", 
   "id": 432313136872718336, 
   "hashtags": [
    "RexHeart"
   ], 
   "user_mentions": [
    "h_hollinger", 
    "RexHealthcare"
   ], 
   "created_at": "Sun Feb 09 00:40:58 +0000 2014", 
   "retweet_count": 14, 
   "favorite_count": 8
  }, 
  {
   "text": "HIGHLIGHT - Drayson Bowman gives the #Canes a 1-0 lead vs. #Habs. WATCH: http://t.co/Jbo5Z9Vnui", 
   "label": "O", 
   "id": 432312393956610048, 
   "hashtags": [
    "Canes", 
    "Habs"
   ], 
   "user_mentions": [], 
   "created_at": "Sun Feb 09 00:38:01 +0000 2014", 
   "retweet_count": 22, 
   "favorite_count": 6
  }, 
  {
   "text": "CAR Goal - 2nd/5:42 - Drayson Bowman (4). Assists: @rileynash20 (7) &amp; @JustinFaulk27 (19). #Habs 0, #Canes 1.", 
   "label": "O", 
   "id": 432307903710904320, 
   "hashtags": [
    "Habs", 
    "Canes"
   ], 
   "user_mentions": [
    "rileynash20", 
    "JustinFaulk27"
   ], 
   "created_at": "Sun Feb 09 00:20:10 +0000 2014", 
   "retweet_count": 41, 
   "favorite_count": 25
  }, 
  {
   "text": "RT @ImAmberJaye: The Egan Family down here enjoying the game! So happy they're reunited! http://t.co/ChfQsSOGsd", 
   "label": "O", 
   "id": 432305661075275776, 
   "hashtags": [], 
   "user_mentions": [
    "ImAmberJaye"
   ], 
   "created_at": "Sun Feb 09 00:11:16 +0000 2014", 
   "retweet_count": 22, 
   "favorite_count": 0
  }, 
  {
   "text": "HIGHLIGHT - @USArmy SSG Egan surprised his daughter at the #Habs vs. #Canes game by coming home early. WATCH: http://t.co/FJdq77XAEv", 
   "label": "O", 
   "id": 432303915707924480, 
   "hashtags": [
    "Habs", 
    "Canes"
   ], 
   "user_mentions": [
    "USArmy"
   ], 
   "created_at": "Sun Feb 09 00:04:19 +0000 2014", 
   "retweet_count": 181, 
   "favorite_count": 104
  }, 
  {
   "text": "RT @Canes_Gameday: #Canes and #Habs scoreless after a period of hockey. Shots favor the visitors, 10-7.", 
   "label": "O", 
   "id": 432301087652339712, 
   "hashtags": [
    "Canes", 
    "Habs"
   ], 
   "user_mentions": [
    "Canes_Gameday"
   ], 
   "created_at": "Sat Feb 08 23:53:05 +0000 2014", 
   "retweet_count": 15, 
   "favorite_count": 0
  }, 
  {
   "text": "We think there's 4 mins left. RT @hockeynight: Scoreless between the #Habs and #Canes after 20. What did you think of the 1st period?", 
   "label": "O", 
   "id": 432299183723536385, 
   "hashtags": [
    "Habs", 
    "Canes"
   ], 
   "user_mentions": [
    "hockeynight"
   ], 
   "created_at": "Sat Feb 08 23:45:31 +0000 2014", 
   "retweet_count": 39, 
   "favorite_count": 49
  }, 
  {
   "text": "@brendanlowther @hockeynight An Army sergeant surprised his family by coming home early at the game. We'll have video of it soon.", 
   "label": "O", 
   "id": 432297768464699392, 
   "hashtags": [], 
   "user_mentions": [
    "brendanlowther", 
    "hockeynight"
   ], 
   "created_at": "Sat Feb 08 23:39:54 +0000 2014", 
   "retweet_count": 2, 
   "favorite_count": 4
  }, 
  {
   "text": "@ayden_whyit @TBLightning Nope, looks photoshopped.", 
   "label": "O", 
   "id": 432292943903588352, 
   "hashtags": [], 
   "user_mentions": [
    "ayden_whyit", 
    "TBLightning"
   ], 
   "created_at": "Sat Feb 08 23:20:44 +0000 2014", 
   "retweet_count": 3, 
   "favorite_count": 6
  }, 
  {
   "text": "Join in #Caniacs RT @Section_328: When the clock strikes 17:00, chant #LetsGoHurricanes until the clock strikes 16 #brindaminute", 
   "label": "O", 
   "id": 432290736588214272, 
   "hashtags": [
    "Caniacs", 
    "LetsGoHurricanes", 
    "brindaminute"
   ], 
   "user_mentions": [
    "Section_328"
   ], 
   "created_at": "Sat Feb 08 23:11:57 +0000 2014", 
   "retweet_count": 21, 
   "favorite_count": 13
  }, 
  {
   "text": "RT @Canes_Gameday: Starting for the #Canes: Tlusty-E. Staal-Semin up front, Sekera-Faulk on defense and Anton Khudobin. We're minutes from \u2026", 
   "label": "O", 
   "id": 432286965577551872, 
   "hashtags": [
    "Canes"
   ], 
   "user_mentions": [
    "Canes_Gameday"
   ], 
   "created_at": "Sat Feb 08 22:56:58 +0000 2014", 
   "retweet_count": 17, 
   "favorite_count": 0
  }, 
  {
   "text": "Before the Faceoff - @JohnForslund previews tonight's match-up between the #Habs and #Canes. WATCH: http://t.co/7s8qvDCn0M", 
   "label": "O", 
   "id": 432280228808114176, 
   "hashtags": [
    "Habs", 
    "Canes"
   ], 
   "user_mentions": [
    "JohnForslund"
   ], 
   "created_at": "Sat Feb 08 22:30:12 +0000 2014", 
   "retweet_count": 15, 
   "favorite_count": 8
  }, 
  {
   "text": "@wesleytanderson Sorry, just saw this. Guest services at section 127 would be able to assist.", 
   "label": "O", 
   "id": 432273718744993793, 
   "hashtags": [], 
   "user_mentions": [
    "wesleytanderson"
   ], 
   "created_at": "Sat Feb 08 22:04:20 +0000 2014", 
   "retweet_count": 0, 
   "favorite_count": 0
  }, 
  {
   "text": "RT @BroadwaySouth: Visit us at section 114 at the @NHLCanes game tonight to enter to win 4 George Thorogood tickets &amp; this jersey! http://t\u2026", 
   "label": "O", 
   "id": 432273487215202304, 
   "hashtags": [], 
   "user_mentions": [
    "BroadwaySouth", 
    "NHLCanes"
   ], 
   "created_at": "Sat Feb 08 22:03:25 +0000 2014", 
   "retweet_count": 9, 
   "favorite_count": 0
  }, 
  {
   "text": "Puck drops at 6 p.m. for #Habs vs. #Canes. Follow: @Canes_Gameday | Watch: @FSCarolinas | Listen: @999TheFan http://t.co/n65HgOZeMm", 
   "label": "O", 
   "id": 432273318289637376, 
   "hashtags": [
    "Habs", 
    "Canes"
   ], 
   "user_mentions": [
    "Canes_Gameday", 
    "FSCarolinas", 
    "999TheFan"
   ], 
   "created_at": "Sat Feb 08 22:02:44 +0000 2014", 
   "retweet_count": 25, 
   "favorite_count": 23
  }, 
  {
   "text": "Doors open in one hour &amp; the first 10,000 #Canes fans get an Alexander Semin bobblehead. Bobble with Semin: https://t.co/ol8ns0vbzM", 
   "label": "O", 
   "id": 432257534767169536, 
   "hashtags": [
    "Canes"
   ], 
   "user_mentions": [], 
   "created_at": "Sat Feb 08 21:00:01 +0000 2014", 
   "retweet_count": 33, 
   "favorite_count": 15
  }, 
  {
   "text": "Today in #CanesHistory - 2007: Ray Whitney scored a franchise-record 3 goals in 1:40 in the #Canes win vs. #Bruins. http://t.co/KCzRAaz4xt", 
   "label": "O", 
   "id": 432242440222040064, 
   "hashtags": [
    "CanesHistory", 
    "Canes", 
    "Bruins"
   ], 
   "user_mentions": [], 
   "created_at": "Sat Feb 08 20:00:03 +0000 2014", 
   "retweet_count": 86, 
   "favorite_count": 77
  }, 
  {
   "text": "@bchambo8 Yes we will still have College Rush tickets, but get there early for the best chance to get good seats that aren't singles.", 
   "label": "O", 
   "id": 432232721747030016, 
   "hashtags": [], 
   "user_mentions": [
    "bchambo8"
   ], 
   "created_at": "Sat Feb 08 19:21:26 +0000 2014", 
   "retweet_count": 2, 
   "favorite_count": 0
  }, 
  {
   "text": "#Habs vs. #Canes First Goal Contest: http://t.co/5VHN9MYQKX  \n  \nTonight's prize is a puck signed by Coach Muller! http://t.co/Hsno3Py4gB", 
   "label": "O", 
   "id": 432227344439578624, 
   "hashtags": [
    "Habs", 
    "Canes"
   ], 
   "user_mentions": [], 
   "created_at": "Sat Feb 08 19:00:03 +0000 2014", 
   "retweet_count": 16, 
   "favorite_count": 6
  }, 
  {
   "text": "Take a picture with the #Canes Olympic jerseys at section 108 before tonight's game. Remember, puck drops at 6 p.m. http://t.co/FKkA8GnNNU", 
   "label": "O", 
   "id": 432219791399845888, 
   "hashtags": [
    "Canes"
   ], 
   "user_mentions": [], 
   "created_at": "Sat Feb 08 18:30:03 +0000 2014", 
   "retweet_count": 28, 
   "favorite_count": 40
  }, 
  {
   "text": "Fans can come on the ice after tonight's #Canes game to take their picture with these banners: http://t.co/5BJOVvNjnq http://t.co/K0HQTX7ggV", 
   "label": "O", 
   "id": 432212251505086465, 
   "hashtags": [
    "Canes"
   ], 
   "user_mentions": [], 
   "created_at": "Sat Feb 08 18:00:05 +0000 2014", 
   "retweet_count": 93, 
   "favorite_count": 150
  }, 
  {
   "text": "Plus, enter to win a puck signed by Coach Muller in tonight's #Habs vs. #Canes First Goal Contest. ENTER HERE: http://t.co/gxNNq8I0BY", 
   "label": "O", 
   "id": 432204712008749056, 
   "hashtags": [
    "Habs", 
    "Canes"
   ], 
   "user_mentions": [], 
   "created_at": "Sat Feb 08 17:30:07 +0000 2014", 
   "retweet_count": 21, 
   "favorite_count": 5
  }, 
  {
   "text": "Help us wish #Canes Head Coach Kirk Muller a Happy Birthday! http://t.co/Fx4wFaUo48", 
   "label": "O", 
   "id": 432204685303631872, 
   "hashtags": [
    "Canes"
   ], 
   "user_mentions": [], 
   "created_at": "Sat Feb 08 17:30:01 +0000 2014", 
   "retweet_count": 93, 
   "favorite_count": 97
  }, 
  {
   "text": "@imsosaari Yes.", 
   "label": "O", 
   "id": 432201540389322752, 
   "hashtags": [], 
   "user_mentions": [
    "imsosaari"
   ], 
   "created_at": "Sat Feb 08 17:17:31 +0000 2014", 
   "retweet_count": 2, 
   "favorite_count": 1
  }, 
  {
   "text": "@canescup06 That is only for Friday night home games. Next chance to put in requests will be March 7!", 
   "label": "O", 
   "id": 432201452636098560, 
   "hashtags": [], 
   "user_mentions": [
    "canescup06"
   ], 
   "created_at": "Sat Feb 08 17:17:10 +0000 2014", 
   "retweet_count": 2, 
   "favorite_count": 0
  }, 
  {
   "text": "RT @CanesKNCF: Tonight's in-game auction (Sec. 129) features a team autographed #Canes \"Man Cave\" sign: http://t.co/dZ4Vl3Ur1q http://t.co/\u2026", 
   "label": "O", 
   "id": 432201352291553280, 
   "hashtags": [
    "Canes"
   ], 
   "user_mentions": [
    "CanesKNCF"
   ], 
   "created_at": "Sat Feb 08 17:16:46 +0000 2014", 
   "retweet_count": 23, 
   "favorite_count": 0
  }, 
  {
   "text": "Arrive early tonight (doors open at 5 for 6 pm puck drop) for bobbleheads &amp; Valentine's bears: http://t.co/onltLnVXcu http://t.co/Wdd3nhirMI", 
   "label": "O", 
   "id": 432189657401798656, 
   "hashtags": [], 
   "user_mentions": [], 
   "created_at": "Sat Feb 08 16:30:18 +0000 2014", 
   "retweet_count": 37, 
   "favorite_count": 27
  }, 
  {
   "text": "The #Canes host the #Habs tonight at 6 p.m. Limited tickets remain: http://t.co/LKsJ2zlaES http://t.co/qTJS7qU6rk", 
   "label": "O", 
   "id": 432166954678624256, 
   "hashtags": [
    "Canes", 
    "Habs"
   ], 
   "user_mentions": [], 
   "created_at": "Sat Feb 08 15:00:05 +0000 2014", 
   "retweet_count": 42, 
   "favorite_count": 33
  }, 
  {
   "text": "#Canes win, Caniacs Win! Get 50% off a Papa John's online order today with promo code CANIAC: http://t.co/tJGIeaLx9k http://t.co/G1gDNFEH8f", 
   "label": "O", 
   "id": 432159396467331072, 
   "hashtags": [
    "Canes"
   ], 
   "user_mentions": [], 
   "created_at": "Sat Feb 08 14:30:03 +0000 2014", 
   "retweet_count": 36, 
   "favorite_count": 31
  }, 
  {
   "text": "@fifaking_dave We weren't comparing, we were stating the fact that he passed someone to take over the record in this one stat.", 
   "label": "O", 
   "id": 432033028899373056, 
   "hashtags": [], 
   "user_mentions": [], 
   "created_at": "Sat Feb 08 06:07:55 +0000 2014", 
   "retweet_count": 2, 
   "favorite_count": 0
  }
 ]
}