{
 "num_road_team_goals": "1", 
 "home_team": "Carolina Hurricanes", 
 "num_home_team_goals": "5", 
 "summary_url": "http://www.flyershistory.com/cgi-bin/poboxscore.cgi?H20130869", 
 "result": "W", 
 "road_team": "Florida Panthers", 
 "date": "2014-02-07", 
 "goals": [
  {
   "season_index": "8", 
   "strength": "(EV)", 
   "time": "9:17", 
   "period": "1", 
   "player": "R.Nash", 
   "assists": "(T.Ruutu)", 
   "game_index": "1", 
   "team": "CAR"
  }, 
  {
   "season_index": "14", 
   "strength": "(EV)", 
   "time": "10:44", 
   "period": "1", 
   "player": "A.Semin", 
   "assists": null, 
   "game_index": "2", 
   "team": "CAR"
  }, 
  {
   "season_index": "13", 
   "strength": "(EV)", 
   "time": "15:30", 
   "period": "1", 
   "player": "N.Bjugstad", 
   "assists": "(D.Olsen, S.Upshall)", 
   "game_index": "3", 
   "team": "FLA"
  }, 
  {
   "season_index": "2", 
   "strength": "(EV)", 
   "time": "18:21", 
   "period": "1", 
   "player": "B.Bellemore", 
   "assists": "(E.Lindholm, J.Skinner)", 
   "game_index": "4", 
   "team": "CAR"
  }, 
  {
   "season_index": "9", 
   "strength": "(EV)", 
   "time": "4:36", 
   "period": "2", 
   "player": "J.Tlusty", 
   "assists": "(E.Staal)", 
   "game_index": "5", 
   "team": "CAR"
  }, 
  {
   "season_index": "9", 
   "strength": "(PP)", 
   "time": "12:48", 
   "period": "3", 
   "player": "A.Sekera", 
   "assists": "(J.Skinner, J.Staal)", 
   "game_index": "6", 
   "team": "CAR"
  }
 ], 
 "tweets": [
  {
   "text": "@DrewHopper_ They don't stay up. They probably were only up during that season.", 
   "label": "O", 
   "id": 432004469187149824, 
   "hashtags": [], 
   "user_mentions": [
    "DrewHopper_"
   ], 
   "created_at": "Sat Feb 08 04:14:26 +0000 2014", 
   "retweet_count": 2, 
   "favorite_count": 1
  }, 
  {
   "text": "@DrewHopper_ We did!", 
   "label": "O", 
   "id": 432004129096212480, 
   "hashtags": [], 
   "user_mentions": [
    "DrewHopper_"
   ], 
   "created_at": "Sat Feb 08 04:13:05 +0000 2014", 
   "retweet_count": 1, 
   "favorite_count": 2
  }, 
  {
   "text": "@GKing310 Nope.", 
   "label": "O", 
   "id": 432001856592936960, 
   "hashtags": [], 
   "user_mentions": [
    "GKing310"
   ], 
   "created_at": "Sat Feb 08 04:04:03 +0000 2014", 
   "retweet_count": 1, 
   "favorite_count": 1
  }, 
  {
   "text": "Now rising to the PNC Arena rafters...\n\nHave your photo taken on the ice with these banners: http://t.co/aRVABvfbk1 http://t.co/lKjcJQ15w6", 
   "label": "O", 
   "id": 432001550194864128, 
   "hashtags": [], 
   "user_mentions": [], 
   "created_at": "Sat Feb 08 04:02:50 +0000 2014", 
   "retweet_count": 165, 
   "favorite_count": 239
  }, 
  {
   "text": "#Canes storm past #FlaPanthers 5-1, as Khudobin makes 34 saves and 5 different players score. RECAP: http://t.co/8vLbQbU5XT", 
   "label": "O", 
   "id": 431996780348473344, 
   "hashtags": [
    "Canes", 
    "FlaPanthers"
   ], 
   "user_mentions": [], 
   "created_at": "Sat Feb 08 03:43:53 +0000 2014", 
   "retweet_count": 37, 
   "favorite_count": 30
  }, 
  {
   "text": "@practicemakesP1 That's right we do! It's a promotion-filled night tomorrow.", 
   "label": "O", 
   "id": 431993123154436096, 
   "hashtags": [], 
   "user_mentions": [], 
   "created_at": "Sat Feb 08 03:29:21 +0000 2014", 
   "retweet_count": 2, 
   "favorite_count": 0
  }, 
  {
   "text": "@IrishHeel1 Jerseys are available to purchase online, we have seen fans with them. It just wasn't something we could get to put in the store", 
   "label": "O", 
   "id": 431992844447145984, 
   "hashtags": [], 
   "user_mentions": [
    "IrishHeel1"
   ], 
   "created_at": "Sat Feb 08 03:28:14 +0000 2014", 
   "retweet_count": 2, 
   "favorite_count": 0
  }, 
  {
   "text": "@TommiSeppala Maybe they just haven't updated the stats?", 
   "label": "O", 
   "id": 431989015236337664, 
   "hashtags": [], 
   "user_mentions": [
    "TommiSeppala"
   ], 
   "created_at": "Sat Feb 08 03:13:01 +0000 2014", 
   "retweet_count": 1, 
   "favorite_count": 0
  }, 
  {
   "text": "@thebl4ckd0g Yes, that was Subway's sponsorship and they now sponsor the weekly caption contest.", 
   "label": "O", 
   "id": 431986972169879552, 
   "hashtags": [], 
   "user_mentions": [
    "thebl4ckd0g"
   ], 
   "created_at": "Sat Feb 08 03:04:54 +0000 2014", 
   "retweet_count": 1, 
   "favorite_count": 0
  }, 
  {
   "text": "@SportsChick_16 @asphaltpunk We are 41-26-6 all time in them and 4-1 in the last five games we've worn them...that's a weak curse!", 
   "label": "O", 
   "id": 431986544392814592, 
   "hashtags": [], 
   "user_mentions": [
    "asphaltpunk"
   ], 
   "created_at": "Sat Feb 08 03:03:12 +0000 2014", 
   "retweet_count": 0, 
   "favorite_count": 1
  }, 
  {
   "text": "Tonight's @RexHealthcare Fan Photo of the Game came from @ubritsa! View all photos here: http://t.co/i8ZysyaPTN http://t.co/OkklbuPonV", 
   "label": "O", 
   "id": 431986162589528064, 
   "hashtags": [], 
   "user_mentions": [
    "RexHealthcare", 
    "ubritsa"
   ], 
   "created_at": "Sat Feb 08 03:01:41 +0000 2014", 
   "retweet_count": 8, 
   "favorite_count": 11
  }, 
  {
   "text": "@joeycuthbert Tuomo will be in Sochi...", 
   "label": "O", 
   "id": 431984997181173760, 
   "hashtags": [], 
   "user_mentions": [
    "joeycuthbert"
   ], 
   "created_at": "Sat Feb 08 02:57:03 +0000 2014", 
   "retweet_count": 2, 
   "favorite_count": 6
  }, 
  {
   "text": "Correct...Free food for all! http://t.co/PxMIgJPxxM\n\nMT @BPuckett916: I think the #Canes provided all the food promos tonight. Am I right?", 
   "label": "O", 
   "id": 431984548097056768, 
   "hashtags": [
    "Canes"
   ], 
   "user_mentions": [
    "BPuckett916"
   ], 
   "created_at": "Sat Feb 08 02:55:16 +0000 2014", 
   "retweet_count": 20, 
   "favorite_count": 10
  }, 
  {
   "text": "@JustNealWithIt How was the game?", 
   "label": "O", 
   "id": 431984133708189696, 
   "hashtags": [], 
   "user_mentions": [
    "JustNealWithIt"
   ], 
   "created_at": "Sat Feb 08 02:53:38 +0000 2014", 
   "retweet_count": 3, 
   "favorite_count": 7
  }, 
  {
   "text": "@ayden_whyit Yes.", 
   "label": "O", 
   "id": 431983722297307136, 
   "hashtags": [], 
   "user_mentions": [
    "ayden_whyit"
   ], 
   "created_at": "Sat Feb 08 02:51:59 +0000 2014", 
   "retweet_count": 2, 
   "favorite_count": 2
  }, 
  {
   "text": "Did you know? The #Canes are now 4-1 in their last five black jersey games and 41-26-6 all time in the alternate uniform set.", 
   "label": "O", 
   "id": 431983680337485824, 
   "hashtags": [
    "Canes"
   ], 
   "user_mentions": [], 
   "created_at": "Sat Feb 08 02:51:49 +0000 2014", 
   "retweet_count": 62, 
   "favorite_count": 49
  }, 
  {
   "text": "@ayden_whyit Staal.", 
   "label": "O", 
   "id": 431983288874696704, 
   "hashtags": [], 
   "user_mentions": [
    "ayden_whyit"
   ], 
   "created_at": "Sat Feb 08 02:50:16 +0000 2014", 
   "retweet_count": 2, 
   "favorite_count": 3
  }, 
  {
   "text": "HIGHLIGHT - Andrej Sekera scores a power play goal from the point. WATCH: http://t.co/8kDkgHNj2S #Canes #FlaPanthers", 
   "label": "O", 
   "id": 431982487305478144, 
   "hashtags": [
    "Canes", 
    "FlaPanthers"
   ], 
   "user_mentions": [], 
   "created_at": "Sat Feb 08 02:47:05 +0000 2014", 
   "retweet_count": 18, 
   "favorite_count": 11
  }, 
  {
   "text": "@SportsChick_16 @asphaltpunk What curse?", 
   "label": "O", 
   "id": 431982267008057344, 
   "hashtags": [], 
   "user_mentions": [
    "asphaltpunk"
   ], 
   "created_at": "Sat Feb 08 02:46:12 +0000 2014", 
   "retweet_count": 0, 
   "favorite_count": 0
  }, 
  {
   "text": "@ayden_whyit Nope, all free now.", 
   "label": "O", 
   "id": 431982044491829248, 
   "hashtags": [], 
   "user_mentions": [
    "ayden_whyit"
   ], 
   "created_at": "Sat Feb 08 02:45:19 +0000 2014", 
   "retweet_count": 1, 
   "favorite_count": 0
  }, 
  {
   "text": "@JKJones10 Nice shot!", 
   "label": "O", 
   "id": 431981942821908480, 
   "hashtags": [], 
   "user_mentions": [
    "JKJones10"
   ], 
   "created_at": "Sat Feb 08 02:44:55 +0000 2014", 
   "retweet_count": 0, 
   "favorite_count": 1
  }, 
  {
   "text": "@kennedymk218 We'll give you the fourth star.", 
   "label": "O", 
   "id": 431981391690334208, 
   "hashtags": [], 
   "user_mentions": [
    "kennedymk218"
   ], 
   "created_at": "Sat Feb 08 02:42:44 +0000 2014", 
   "retweet_count": 1, 
   "favorite_count": 2
  }, 
  {
   "text": "Brett Bellemore given first star treatment from the media after scoring a goal in the #Canes 5-1 win. http://t.co/wITSVvzF6J", 
   "label": "O", 
   "id": 431980464581378049, 
   "hashtags": [
    "Canes"
   ], 
   "user_mentions": [], 
   "created_at": "Sat Feb 08 02:39:03 +0000 2014", 
   "retweet_count": 32, 
   "favorite_count": 50
  }, 
  {
   "text": "RT @Canes_Gameday: The #Canes defeat the #FlaPanthers 5-1!", 
   "label": "O", 
   "id": 431977454866288640, 
   "hashtags": [
    "Canes", 
    "FlaPanthers"
   ], 
   "user_mentions": [
    "Canes_Gameday"
   ], 
   "created_at": "Sat Feb 08 02:27:05 +0000 2014", 
   "retweet_count": 128, 
   "favorite_count": 0
  }, 
  {
   "text": "@Macman2655 Really.", 
   "label": "O", 
   "id": 431975917939089408, 
   "hashtags": [], 
   "user_mentions": [
    "Macman2655"
   ], 
   "created_at": "Sat Feb 08 02:20:59 +0000 2014", 
   "retweet_count": 0, 
   "favorite_count": 3
  }, 
  {
   "text": "CAR Goal - 3rd/12:48 - PPG - Andrej Sekera (9). Assists: @JeffSkinner (17) and Jordan Staal (16). #FlaPanthers 1, #Canes 5.", 
   "label": "O", 
   "id": 431975592763064320, 
   "hashtags": [
    "FlaPanthers", 
    "Canes"
   ], 
   "user_mentions": [
    "JeffSkinner"
   ], 
   "created_at": "Sat Feb 08 02:19:41 +0000 2014", 
   "retweet_count": 18, 
   "favorite_count": 28
  }, 
  {
   "text": "@IrishHeel1 We're not positive of the reason, but our director of merchandise said due to availability he would not be getting jerseys.", 
   "label": "O", 
   "id": 431973647092559872, 
   "hashtags": [], 
   "user_mentions": [
    "IrishHeel1"
   ], 
   "created_at": "Sat Feb 08 02:11:57 +0000 2014", 
   "retweet_count": 0, 
   "favorite_count": 0
  }, 
  {
   "text": "RT @CanesKNCF: We're happy to present @YMCATriangle with a $50,000 GOAL grant during tonight's #Canes game. http://t.co/KKoCAiQRbY", 
   "label": "O", 
   "id": 431972722370162688, 
   "hashtags": [
    "Canes"
   ], 
   "user_mentions": [
    "CanesKNCF", 
    "YMCATriangle"
   ], 
   "created_at": "Sat Feb 08 02:08:17 +0000 2014", 
   "retweet_count": 25, 
   "favorite_count": 0
  }, 
  {
   "text": "@IrishHeel1 Because we were unable to get them in stock.", 
   "label": "O", 
   "id": 431970829547876352, 
   "hashtags": [], 
   "user_mentions": [
    "IrishHeel1"
   ], 
   "created_at": "Sat Feb 08 02:00:46 +0000 2014", 
   "retweet_count": 0, 
   "favorite_count": 0
  }, 
  {
   "text": "@Chief_Dale14 @ima_tell_tucker No, because that means he not only hit the puck, but put it on net.", 
   "label": "O", 
   "id": 431967293737013248, 
   "hashtags": [], 
   "user_mentions": [
    "Chief_Dale14", 
    "ima_tell_tucker"
   ], 
   "created_at": "Sat Feb 08 01:46:43 +0000 2014", 
   "retweet_count": 0, 
   "favorite_count": 2
  }, 
  {
   "text": "@PointBlankHcky Second all time in franchise history (100 back from Ron Francis).", 
   "label": "O", 
   "id": 431967054833659904, 
   "hashtags": [], 
   "user_mentions": [
    "PointBlankHcky"
   ], 
   "created_at": "Sat Feb 08 01:45:46 +0000 2014", 
   "retweet_count": 0, 
   "favorite_count": 1
  }, 
  {
   "text": "With his last shot, Eric Staal has passed Ron Francis and is now the all-time #Canes franchise leader in shots! http://t.co/jK0YKygiBu", 
   "label": "O", 
   "id": 431965898887282688, 
   "hashtags": [
    "Canes"
   ], 
   "user_mentions": [], 
   "created_at": "Sat Feb 08 01:41:10 +0000 2014", 
   "retweet_count": 121, 
   "favorite_count": 119
  }, 
  {
   "text": "RT @Canes_Gameday: #Canes with the 4-1 lead with two periods down in Raleigh. Shots favor the visitors, 25-21.", 
   "label": "O", 
   "id": 431965618020298752, 
   "hashtags": [
    "Canes"
   ], 
   "user_mentions": [
    "Canes_Gameday"
   ], 
   "created_at": "Sat Feb 08 01:40:03 +0000 2014", 
   "retweet_count": 24, 
   "favorite_count": 0
  }, 
  {
   "text": "@CaniacCaz Wait, are you at the game or not? We're confused...", 
   "label": "O", 
   "id": 431965172425818112, 
   "hashtags": [], 
   "user_mentions": [
    "CaniacCaz"
   ], 
   "created_at": "Sat Feb 08 01:38:17 +0000 2014", 
   "retweet_count": 1, 
   "favorite_count": 8
  }, 
  {
   "text": "@WonderWomanRuns Good choice. We won't have any technical glitches here (we hope).", 
   "label": "O", 
   "id": 431964987213770752, 
   "hashtags": [], 
   "user_mentions": [], 
   "created_at": "Sat Feb 08 01:37:33 +0000 2014", 
   "retweet_count": 1, 
   "favorite_count": 1
  }, 
  {
   "text": "@cloww1017 Let's go #Canes!", 
   "label": "O", 
   "id": 431963174146179072, 
   "hashtags": [
    "Canes"
   ], 
   "user_mentions": [
    "cloww1017"
   ], 
   "created_at": "Sat Feb 08 01:30:20 +0000 2014", 
   "retweet_count": 2, 
   "favorite_count": 1
  }, 
  {
   "text": "@Adam_J_Mason @RexHealthcare Done!", 
   "label": "O", 
   "id": 431962921682599937, 
   "hashtags": [], 
   "user_mentions": [
    "Adam_J_Mason", 
    "RexHealthcare"
   ], 
   "created_at": "Sat Feb 08 01:29:20 +0000 2014", 
   "retweet_count": 0, 
   "favorite_count": 0
  }, 
  {
   "text": "@ToddPeth Acceptable, but you're missing a great game!", 
   "label": "O", 
   "id": 431961296331108352, 
   "hashtags": [], 
   "user_mentions": [
    "ToddPeth"
   ], 
   "created_at": "Sat Feb 08 01:22:53 +0000 2014", 
   "retweet_count": 0, 
   "favorite_count": 0
  }, 
  {
   "text": "HIGHLIGHT - @J_T_19 taps in a rebound to give the #Canes a 4-1 lead against the #FlaPanthers. WATCH: http://t.co/2r84WeiU3L #JustTapItIn", 
   "label": "O", 
   "id": 431960997763776512, 
   "hashtags": [
    "Canes", 
    "FlaPanthers", 
    "JustTapItIn"
   ], 
   "user_mentions": [
    "J_T_19"
   ], 
   "created_at": "Sat Feb 08 01:21:41 +0000 2014", 
   "retweet_count": 10, 
   "favorite_count": 9
  }, 
  {
   "text": "Congrats to @Adam_J_Mason for winning the team-signed #RexHeart stick from @RexHealthcare tonight!", 
   "label": "O", 
   "id": 431959799291707392, 
   "hashtags": [
    "RexHeart"
   ], 
   "user_mentions": [
    "Adam_J_Mason", 
    "RexHealthcare"
   ], 
   "created_at": "Sat Feb 08 01:16:56 +0000 2014", 
   "retweet_count": 2, 
   "favorite_count": 4
  }, 
  {
   "text": "@livilar615 Did you know that if you tweet it 133 times you get disqualified? 132 was okay, but now...", 
   "label": "O", 
   "id": 431959353789542400, 
   "hashtags": [], 
   "user_mentions": [
    "livilar615"
   ], 
   "created_at": "Sat Feb 08 01:15:10 +0000 2014", 
   "retweet_count": 0, 
   "favorite_count": 1
  }, 
  {
   "text": "Retweet to help congratulate #Canes forward Tuomo Ruutu on playing in his 600th @NHL game tonight! http://t.co/qoSb21SUVz", 
   "label": "O", 
   "id": 431959035395313664, 
   "hashtags": [
    "Canes"
   ], 
   "user_mentions": [
    "NHL"
   ], 
   "created_at": "Sat Feb 08 01:13:54 +0000 2014", 
   "retweet_count": 290, 
   "favorite_count": 213
  }, 
  {
   "text": "HIGHLIGHT - Brett Bellemore blasts a rocket past Thomas from the top of the circle. WATCH: http://t.co/E4ZwfarrYj #Canes #FlaPanthers", 
   "label": "O", 
   "id": 431958421781610496, 
   "hashtags": [
    "Canes", 
    "FlaPanthers"
   ], 
   "user_mentions": [], 
   "created_at": "Sat Feb 08 01:11:27 +0000 2014", 
   "retweet_count": 13, 
   "favorite_count": 11
  }, 
  {
   "text": "CAR Goal - 2nd/4:36 - @J_T_19 (9). Assist: E. Staal (31). #FlaPanthers 1, #Canes 4.", 
   "label": "O", 
   "id": 431958014166597633, 
   "hashtags": [
    "FlaPanthers", 
    "Canes"
   ], 
   "user_mentions": [
    "J_T_19"
   ], 
   "created_at": "Sat Feb 08 01:09:50 +0000 2014", 
   "retweet_count": 13, 
   "favorite_count": 15
  }, 
  {
   "text": "HIGHLIGHT - Alexander Semin turns, shoots and scores. WATCH: http://t.co/il6uftyzxM #Canes #FlaPanthers", 
   "label": "O", 
   "id": 431957454348644352, 
   "hashtags": [
    "Canes", 
    "FlaPanthers"
   ], 
   "user_mentions": [], 
   "created_at": "Sat Feb 08 01:07:37 +0000 2014", 
   "retweet_count": 10, 
   "favorite_count": 11
  }, 
  {
   "text": "With Riley Nash's goal tonight, you get a FREE side of chips &amp; queso tomorrow at any @MoesTriangle location. Just say #Canes!", 
   "label": "O", 
   "id": 431952610057543680, 
   "hashtags": [
    "Canes"
   ], 
   "user_mentions": [
    "MoesTriangle"
   ], 
   "created_at": "Sat Feb 08 00:48:22 +0000 2014", 
   "retweet_count": 17, 
   "favorite_count": 20
  }, 
  {
   "text": "HIGHLIGHT - @rileynash20 buries one from the slot to get the #Canes on the board first vs. #FlaPanthers. WATCH: http://t.co/rnNTy2oEGI", 
   "label": "O", 
   "id": 431952469720330240, 
   "hashtags": [
    "Canes", 
    "FlaPanthers"
   ], 
   "user_mentions": [
    "rileynash20"
   ], 
   "created_at": "Sat Feb 08 00:47:48 +0000 2014", 
   "retweet_count": 3, 
   "favorite_count": 8
  }, 
  {
   "text": "RT @Canes_Gameday: #Canes with a 3-1 lead after 20 minutes in Raleigh. They also lead 12-10 in shots.", 
   "label": "O", 
   "id": 431951647187959808, 
   "hashtags": [
    "Canes"
   ], 
   "user_mentions": [
    "Canes_Gameday"
   ], 
   "created_at": "Sat Feb 08 00:44:32 +0000 2014", 
   "retweet_count": 30, 
   "favorite_count": 0
  }, 
  {
   "text": "CAR Goal - 1st/18:21 - Brett Bellemore (2). Assists: @lindholmelias (8) and @JeffSkinner (16). #FlaPanthers 1, #Canes 3.", 
   "label": "O", 
   "id": 431951419680501760, 
   "hashtags": [
    "FlaPanthers", 
    "Canes"
   ], 
   "user_mentions": [
    "lindholmelias", 
    "JeffSkinner"
   ], 
   "created_at": "Sat Feb 08 00:43:38 +0000 2014", 
   "retweet_count": 17, 
   "favorite_count": 17
  }, 
  {
   "text": "@ayden_whyit Needy.", 
   "label": "O", 
   "id": 431950646523478016, 
   "hashtags": [], 
   "user_mentions": [
    "ayden_whyit"
   ], 
   "created_at": "Sat Feb 08 00:40:34 +0000 2014", 
   "retweet_count": 2, 
   "favorite_count": 7
  }, 
  {
   "text": "@ayden_whyit Busy, we'll talk later.", 
   "label": "O", 
   "id": 431950418768580608, 
   "hashtags": [], 
   "user_mentions": [
    "ayden_whyit"
   ], 
   "created_at": "Sat Feb 08 00:39:39 +0000 2014", 
   "retweet_count": 2, 
   "favorite_count": 5
  }, 
  {
   "text": "FLA Goal - 1st/15:32 - N. Bjugstad (13). Assists: Olsen (7) and Huberdeau (15). #FlaPanthers 1, #Canes 2.", 
   "label": "O", 
   "id": 431950324166041600, 
   "hashtags": [
    "FlaPanthers", 
    "Canes"
   ], 
   "user_mentions": [], 
   "created_at": "Sat Feb 08 00:39:17 +0000 2014", 
   "retweet_count": 2, 
   "favorite_count": 7
  }, 
  {
   "text": "Tweet your fan photos from tonight's game with #FreezeFrames and you could be shown on the videoboard in the third period!", 
   "label": "O", 
   "id": 431949019443904512, 
   "hashtags": [
    "FreezeFrames"
   ], 
   "user_mentions": [], 
   "created_at": "Sat Feb 08 00:34:06 +0000 2014", 
   "retweet_count": 4, 
   "favorite_count": 6
  }, 
  {
   "text": "@billmurphyvoice @FlaPanthers Checked it and it's good. Thanks for the concern though!", 
   "label": "O", 
   "id": 431948762098184192, 
   "hashtags": [], 
   "user_mentions": [
    "billmurphyvoice", 
    "FlaPanthers"
   ], 
   "created_at": "Sat Feb 08 00:33:04 +0000 2014", 
   "retweet_count": 1, 
   "favorite_count": 0
  }, 
  {
   "text": "@cornonthecobin Got it! It is random which ones show on the videoboard though, but you have a chance.", 
   "label": "O", 
   "id": 431948704657203200, 
   "hashtags": [], 
   "user_mentions": [
    "cornonthecobin"
   ], 
   "created_at": "Sat Feb 08 00:32:51 +0000 2014", 
   "retweet_count": 1, 
   "favorite_count": 0
  }, 
  {
   "text": "@garrison_drew53 5 p.m.", 
   "label": "O", 
   "id": 431947891889168384, 
   "hashtags": [], 
   "user_mentions": [
    "garrison_drew53"
   ], 
   "created_at": "Sat Feb 08 00:29:37 +0000 2014", 
   "retweet_count": 2, 
   "favorite_count": 1
  }, 
  {
   "text": "It's a College Select Night which means you can stop by the @SciQuest table on the concourse for a chance to win a team-signed stick!", 
   "label": "O", 
   "id": 431947825623343104, 
   "hashtags": [], 
   "user_mentions": [
    "SciQuest"
   ], 
   "created_at": "Sat Feb 08 00:29:21 +0000 2014", 
   "retweet_count": 2, 
   "favorite_count": 7
  }, 
  {
   "text": "CAR Goal - 1st/10:44 - Alexander Semin (14). #FlaPanthers 0, #Canes 2.", 
   "label": "O", 
   "id": 431947604436721664, 
   "hashtags": [
    "FlaPanthers", 
    "Canes"
   ], 
   "user_mentions": [], 
   "created_at": "Sat Feb 08 00:28:28 +0000 2014", 
   "retweet_count": 27, 
   "favorite_count": 28
  }, 
  {
   "text": "@Section_328 Of course. Drop them at the @CanesKNCF kiosk.", 
   "label": "O", 
   "id": 431946897138667520, 
   "hashtags": [], 
   "user_mentions": [
    "Section_328", 
    "CanesKNCF"
   ], 
   "created_at": "Sat Feb 08 00:25:40 +0000 2014", 
   "retweet_count": 0, 
   "favorite_count": 0
  }, 
  {
   "text": "CAR Goal - 1st/9:17 - @rileynash20 (8). Assists: Tuomo Ruutu (11). #FlaPanthers 0, #Canes 1.", 
   "label": "O", 
   "id": 431946429545054208, 
   "hashtags": [
    "FlaPanthers", 
    "Canes"
   ], 
   "user_mentions": [
    "rileynash20"
   ], 
   "created_at": "Sat Feb 08 00:23:48 +0000 2014", 
   "retweet_count": 20, 
   "favorite_count": 29
  }, 
  {
   "text": "MT @MoesTriangle: If Riley Nash scores in tonight's #Canes game, get a free side of queso at any Moe's Triangle location tomorrow!", 
   "label": "O", 
   "id": 431940405924757504, 
   "hashtags": [
    "Canes"
   ], 
   "user_mentions": [
    "MoesTriangle"
   ], 
   "created_at": "Fri Feb 07 23:59:52 +0000 2014", 
   "retweet_count": 5, 
   "favorite_count": 7
  }, 
  {
   "text": "RT @Canes_Gameday: Starting for the #Canes: Tlusty-E. Staal-Semin up front, Liles-Hainsey on defense and Anton Khudobin in net. Opening dra\u2026", 
   "label": "O", 
   "id": 431940074817994752, 
   "hashtags": [
    "Canes"
   ], 
   "user_mentions": [
    "Canes_Gameday"
   ], 
   "created_at": "Fri Feb 07 23:58:33 +0000 2014", 
   "retweet_count": 11, 
   "favorite_count": 0
  }, 
  {
   "text": "Stop by section 108 before tonight's game to take your picture with the Olympic jerseys for the #Canes players. http://t.co/a1Q2Po6kkc", 
   "label": "O", 
   "id": 431928457329926144, 
   "hashtags": [
    "Canes"
   ], 
   "user_mentions": [], 
   "created_at": "Fri Feb 07 23:12:23 +0000 2014", 
   "retweet_count": 23, 
   "favorite_count": 30
  }, 
  {
   "text": "Puck drops at 7 p.m. for #FlaPanthers vs. #Canes. Follow: @Canes_Gameday | Watch: @FSCarolinas | Listen: @999TheFan http://t.co/2uNu0VRlxc", 
   "label": "O", 
   "id": 431925416220426240, 
   "hashtags": [
    "FlaPanthers", 
    "Canes"
   ], 
   "user_mentions": [
    "Canes_Gameday", 
    "FSCarolinas", 
    "999TheFan"
   ], 
   "created_at": "Fri Feb 07 23:00:18 +0000 2014", 
   "retweet_count": 26, 
   "favorite_count": 22
  }, 
  {
   "text": "@WXMoose We've got you covered: http://t.co/CVBgIhsRkz", 
   "label": "O", 
   "id": 431894957826519040, 
   "hashtags": [], 
   "user_mentions": [
    "WXMoose"
   ], 
   "created_at": "Fri Feb 07 20:59:16 +0000 2014", 
   "retweet_count": 0, 
   "favorite_count": 1
  }, 
  {
   "text": "@SportsChick_16 Unfortunately we are sold out of the Faulk t-shirts.", 
   "label": "O", 
   "id": 431887583652507648, 
   "hashtags": [], 
   "user_mentions": [], 
   "created_at": "Fri Feb 07 20:29:58 +0000 2014", 
   "retweet_count": 0, 
   "favorite_count": 0
  }, 
  {
   "text": "@TherealEFarrell There is an email to contact on that page that we linked to though if there are any issues and they can assist!", 
   "label": "O", 
   "id": 431886511936905216, 
   "hashtags": [], 
   "user_mentions": [
    "TherealEFarrell"
   ], 
   "created_at": "Fri Feb 07 20:25:43 +0000 2014", 
   "retweet_count": 0, 
   "favorite_count": 0
  }, 
  {
   "text": "@TherealEFarrell Late responding to this, but your bio does say \"recent college graduate\" :)", 
   "label": "O", 
   "id": 431886363919929344, 
   "hashtags": [], 
   "user_mentions": [
    "TherealEFarrell"
   ], 
   "created_at": "Fri Feb 07 20:25:07 +0000 2014", 
   "retweet_count": 0, 
   "favorite_count": 0
  }, 
  {
   "text": "@B_Low_ Why can't @NHLCanes be your favorite @NHLCanes account?", 
   "label": "O", 
   "id": 431885044891025408, 
   "hashtags": [], 
   "user_mentions": [
    "B_Low_", 
    "NHLCanes", 
    "NHLCanes"
   ], 
   "created_at": "Fri Feb 07 20:19:53 +0000 2014", 
   "retweet_count": 2, 
   "favorite_count": 1
  }, 
  {
   "text": "RT @CanesKNCF: Tonight's #Canes game is your last chance to donate to Book Drive for a chance to an ABC-inspired prize! http://t.co/0IGJey7\u2026", 
   "label": "O", 
   "id": 431880392040529921, 
   "hashtags": [
    "Canes"
   ], 
   "user_mentions": [
    "CanesKNCF"
   ], 
   "created_at": "Fri Feb 07 20:01:24 +0000 2014", 
   "retweet_count": 16, 
   "favorite_count": 0
  }, 
  {
   "text": "#Canes vs. #FlaPanthers First Goal Contest: http://t.co/gkydoHUgwR  \n\nEnter to win this puck signed by Bellemore! http://t.co/ac3TEhJ4Id", 
   "label": "O", 
   "id": 431876243160858624, 
   "hashtags": [
    "Canes", 
    "FlaPanthers"
   ], 
   "user_mentions": [], 
   "created_at": "Fri Feb 07 19:44:54 +0000 2014", 
   "retweet_count": 21, 
   "favorite_count": 21
  }, 
  {
   "text": "You know you're a #Caniac when... MT @caniacjpm: Just called The Eye and wanted to be on hold to listen to @AndTheLetterK call #Canes goals.", 
   "label": "O", 
   "id": 431871594546610176, 
   "hashtags": [
    "Caniac", 
    "Canes"
   ], 
   "user_mentions": [
    "caniacjpm", 
    "AndTheLetterK"
   ], 
   "created_at": "Fri Feb 07 19:26:26 +0000 2014", 
   "retweet_count": 17, 
   "favorite_count": 13
  }, 
  {
   "text": "@chi_townpuck Ready.", 
   "label": "O", 
   "id": 431860842876141568, 
   "hashtags": [], 
   "user_mentions": [
    "chi_townpuck"
   ], 
   "created_at": "Fri Feb 07 18:43:43 +0000 2014", 
   "retweet_count": 2, 
   "favorite_count": 1
  }, 
  {
   "text": "Gameday: Important pair of games for #Canes before Olympic break begins tonight vs. #FlaPanthers. READ: http://t.co/kgBsbpFWMW", 
   "label": "O", 
   "id": 431847439436611584, 
   "hashtags": [
    "Canes", 
    "FlaPanthers"
   ], 
   "user_mentions": [], 
   "created_at": "Fri Feb 07 17:50:27 +0000 2014", 
   "retweet_count": 24, 
   "favorite_count": 8
  }, 
  {
   "text": "@ThoughtsofKatie Deal.", 
   "label": "O", 
   "id": 431843628080959488, 
   "hashtags": [], 
   "user_mentions": [
    "ThoughtsofKatie"
   ], 
   "created_at": "Fri Feb 07 17:35:18 +0000 2014", 
   "retweet_count": 1, 
   "favorite_count": 1
  }, 
  {
   "text": "@ThoughtsofKatie Can you at least maybe hang it up or something so it's visible?", 
   "label": "O", 
   "id": 431841178750046208, 
   "hashtags": [], 
   "user_mentions": [
    "ThoughtsofKatie"
   ], 
   "created_at": "Fri Feb 07 17:25:34 +0000 2014", 
   "retweet_count": 3, 
   "favorite_count": 4
  }, 
  {
   "text": "Have a song you want to hear during tonight's #Canes game at @PNCArena? Tweet it now using #CanesPlaylist for a chance to hear it!", 
   "label": "O", 
   "id": 431819657168031744, 
   "hashtags": [
    "Canes", 
    "CanesPlaylist"
   ], 
   "user_mentions": [
    "PNCArena"
   ], 
   "created_at": "Fri Feb 07 16:00:03 +0000 2014", 
   "retweet_count": 15, 
   "favorite_count": 7
  }, 
  {
   "text": "LIVE coverage of the #Canes morning skate starts now on the #StormSurge, hosted by @ImAmberJaye. WATCH: http://t.co/L4cLpjG6wy", 
   "label": "O", 
   "id": 431812104375795712, 
   "hashtags": [
    "Canes", 
    "StormSurge"
   ], 
   "user_mentions": [
    "ImAmberJaye"
   ], 
   "created_at": "Fri Feb 07 15:30:03 +0000 2014", 
   "retweet_count": 13, 
   "favorite_count": 9
  }, 
  {
   "text": "Wondering what the #Canes plan to do over the Olympic break? @ImAmberJaye has that story on today's #StormSurge: http://t.co/LXickc0owp", 
   "label": "O", 
   "id": 431810368240091137, 
   "hashtags": [
    "Canes", 
    "StormSurge"
   ], 
   "user_mentions": [
    "ImAmberJaye"
   ], 
   "created_at": "Fri Feb 07 15:23:09 +0000 2014", 
   "retweet_count": 18, 
   "favorite_count": 10
  }, 
  {
   "text": "@ayden_whyit Sup?", 
   "label": "O", 
   "id": 431809574124146688, 
   "hashtags": [], 
   "user_mentions": [
    "ayden_whyit"
   ], 
   "created_at": "Fri Feb 07 15:19:59 +0000 2014", 
   "retweet_count": 2, 
   "favorite_count": 3
  }, 
  {
   "text": "@JustNealWithIt You bet we are!", 
   "label": "O", 
   "id": 431808607169314816, 
   "hashtags": [], 
   "user_mentions": [
    "JustNealWithIt"
   ], 
   "created_at": "Fri Feb 07 15:16:09 +0000 2014", 
   "retweet_count": 2, 
   "favorite_count": 3
  }, 
  {
   "text": "By streaming the #StormSurge on YouTube, it will be available to watch on all devices and be streamed in HD. Tune In: http://t.co/bgyTulwLxt", 
   "label": "O", 
   "id": 431806481403748352, 
   "hashtags": [
    "StormSurge"
   ], 
   "user_mentions": [], 
   "created_at": "Fri Feb 07 15:07:42 +0000 2014", 
   "retweet_count": 14, 
   "favorite_count": 7
  }, 
  {
   "text": "We'll have LIVE coverage of the #Canes morning skate at 10:30 today. It will stream on our YouTube channel here: http://t.co/A0NEpoYsHT", 
   "label": "O", 
   "id": 431806047016480769, 
   "hashtags": [
    "Canes"
   ], 
   "user_mentions": [], 
   "created_at": "Fri Feb 07 15:05:58 +0000 2014", 
   "retweet_count": 12, 
   "favorite_count": 9
  }, 
  {
   "text": "The #Canes host the #FlaPanthers tonight at 7 p.m. Tickets: http://t.co/LdhuDUpdZI http://t.co/gYKl1rSELg", 
   "label": "O", 
   "id": 431804469580668928, 
   "hashtags": [
    "Canes", 
    "FlaPanthers"
   ], 
   "user_mentions": [], 
   "created_at": "Fri Feb 07 14:59:42 +0000 2014", 
   "retweet_count": 33, 
   "favorite_count": 32
  }
 ]
}