{
 "num_road_team_goals": "2", 
 "home_team": "Chicago Blackhawks", 
 "num_home_team_goals": "3", 
 "summary_url": "http://www.flyershistory.com/cgi-bin/poboxscore.cgi?H20131052", 
 "result": "L", 
 "road_team": "Carolina Hurricanes", 
 "date": "2014-03-21", 
 "goals": [
  {
   "season_index": "30", 
   "strength": "(EV)", 
   "time": "3:09", 
   "period": "2", 
   "player": "P.Sharp", 
   "assists": "(A.Shaw, M.Handzus)", 
   "game_index": "1", 
   "team": "CHI"
  }, 
  {
   "season_index": "11", 
   "strength": "(EV)", 
   "time": "16:26", 
   "period": "2", 
   "player": "K.Versteeg", 
   "assists": "(N.Leddy, B.Seabrook)", 
   "game_index": "2", 
   "team": "CHI"
  }, 
  {
   "season_index": "20", 
   "strength": "(EV)", 
   "time": "19:22", 
   "period": "2", 
   "player": "A.Semin", 
   "assists": "(E.Staal, A.Sekera)", 
   "game_index": "3", 
   "team": "CAR"
  }, 
  {
   "season_index": "21", 
   "strength": "(PP)", 
   "time": "2:58", 
   "period": "3", 
   "player": "A.Semin", 
   "assists": "(E.Staal)", 
   "game_index": "4", 
   "team": "CAR"
  }, 
  {
   "season_index": "28", 
   "strength": "(SH)", 
   "time": "3:29", 
   "period": "3", 
   "player": "J.Toews", 
   "assists": null, 
   "game_index": "5", 
   "team": "CHI"
  }
 ], 
 "tweets": [
  {
   "text": "Semin's two goals not enough in the #Canes 3-2 loss vs. #Blackhawks. Full stats - INFOGRAPHIC: http://t.co/xPHGasw5SU http://t.co/Xm0kmh0Kp7", 
   "label": "O", 
   "id": 447207671188684800, 
   "hashtags": [
    "Canes", 
    "Blackhawks"
   ], 
   "user_mentions": [], 
   "created_at": "Sat Mar 22 03:06:32 +0000 2014", 
   "retweet_count": 34, 
   "favorite_count": 17
  }, 
  {
   "text": "RT @Canes_Gameday: That's all from Chicago. The #Blackhawks defeat the #Canes, 3-2.", 
   "label": "O", 
   "id": 447198682635841536, 
   "hashtags": [
    "Blackhawks", 
    "Canes"
   ], 
   "user_mentions": [
    "Canes_Gameday"
   ], 
   "created_at": "Sat Mar 22 02:30:49 +0000 2014", 
   "retweet_count": 27, 
   "favorite_count": 0
  }, 
  {
   "text": "@nickmango41 We hear you loud and clear Nick and will be sure your concerns are passed along. We understand the frustration without playoffs", 
   "label": "O", 
   "id": 447194273965146112, 
   "hashtags": [], 
   "user_mentions": [
    "nickmango41"
   ], 
   "created_at": "Sat Mar 22 02:13:18 +0000 2014", 
   "retweet_count": 1, 
   "favorite_count": 1
  }, 
  {
   "text": "CHI Goal - 3rd/3:29 - SHG - J. Toews (28). #Canes 2, #Blackhawks 3.", 
   "label": "O", 
   "id": 447191986085593088, 
   "hashtags": [
    "Canes", 
    "Blackhawks"
   ], 
   "user_mentions": [], 
   "created_at": "Sat Mar 22 02:04:12 +0000 2014", 
   "retweet_count": 9, 
   "favorite_count": 8
  }, 
  {
   "text": "CAR Goal - 3rd/2:58 - PPG - Alexander Semin (21). Assist: Eric Staal (38). #Canes 2, #Blackhawks 2.", 
   "label": "O", 
   "id": 447191626835066880, 
   "hashtags": [
    "Canes", 
    "Blackhawks"
   ], 
   "user_mentions": [], 
   "created_at": "Sat Mar 22 02:02:46 +0000 2014", 
   "retweet_count": 21, 
   "favorite_count": 18
  }, 
  {
   "text": "@DougHolt1972 We have a poster giveaway set for April 5 this season: http://t.co/Jz7DyKweXT", 
   "label": "O", 
   "id": 447191152270528512, 
   "hashtags": [], 
   "user_mentions": [
    "DougHolt1972"
   ], 
   "created_at": "Sat Mar 22 02:00:53 +0000 2014", 
   "retweet_count": 0, 
   "favorite_count": 1
  }, 
  {
   "text": "@DougHolt1972 @E_Staal_Ego We do look around the league at what is done. Again, anything specific that you've seen done that you liked?", 
   "label": "O", 
   "id": 447190737198018561, 
   "hashtags": [], 
   "user_mentions": [
    "DougHolt1972", 
    "E_Staal_Ego"
   ], 
   "created_at": "Sat Mar 22 01:59:14 +0000 2014", 
   "retweet_count": 0, 
   "favorite_count": 0
  }, 
  {
   "text": "@DougHolt1972 @E_Staal_Ego We welcome suggestions for specific promotions/giveaways that you'd like to see. AHL can do some things NHL can't", 
   "label": "O", 
   "id": 447190052746309632, 
   "hashtags": [], 
   "user_mentions": [
    "DougHolt1972", 
    "E_Staal_Ego"
   ], 
   "created_at": "Sat Mar 22 01:56:31 +0000 2014", 
   "retweet_count": 0, 
   "favorite_count": 0
  }, 
  {
   "text": "@DougHolt1972 @E_Staal_Ego In addition to exclusive-STH promotions, we have promotions almost every game: http://t.co/kxgwLXBYqD", 
   "label": "O", 
   "id": 447189695249022977, 
   "hashtags": [], 
   "user_mentions": [
    "DougHolt1972", 
    "E_Staal_Ego"
   ], 
   "created_at": "Sat Mar 22 01:55:06 +0000 2014", 
   "retweet_count": 0, 
   "favorite_count": 0
  }, 
  {
   "text": "@DougHolt1972 @E_Staal_Ego Benefits include vouchers (free tickets), ticket exchanges, food &amp; beverage credit: http://t.co/nqOkrxSNar", 
   "label": "O", 
   "id": 447189374082772992, 
   "hashtags": [], 
   "user_mentions": [
    "DougHolt1972", 
    "E_Staal_Ego"
   ], 
   "created_at": "Sat Mar 22 01:53:49 +0000 2014", 
   "retweet_count": 0, 
   "favorite_count": 0
  }, 
  {
   "text": "RT @Canes_Gameday: After two periods in Chicago, the #Blackhawks lead the #Canes, 2-1.", 
   "label": "O", 
   "id": 447185207079489536, 
   "hashtags": [
    "Blackhawks", 
    "Canes"
   ], 
   "user_mentions": [
    "Canes_Gameday"
   ], 
   "created_at": "Sat Mar 22 01:37:16 +0000 2014", 
   "retweet_count": 7, 
   "favorite_count": 0
  }, 
  {
   "text": "CAR Goal - 2nd/19:21 - Alexander Semin (20). Assists: Eric Staal (37), Andrej Sekera (31). #Canes 1, #Blackhawks 2.", 
   "label": "O", 
   "id": 447185099868872704, 
   "hashtags": [
    "Canes", 
    "Blackhawks"
   ], 
   "user_mentions": [], 
   "created_at": "Sat Mar 22 01:36:50 +0000 2014", 
   "retweet_count": 23, 
   "favorite_count": 27
  }, 
  {
   "text": "CHI Goal - 2nd/16:26 - K. Versteeg (11). Assists: N. Leddy (22), B. Seabrook (32). #Canes 0, #Blackhawks 2.", 
   "label": "O", 
   "id": 447184159539478528, 
   "hashtags": [
    "Canes", 
    "Blackhawks"
   ], 
   "user_mentions": [], 
   "created_at": "Sat Mar 22 01:33:06 +0000 2014", 
   "retweet_count": 7, 
   "favorite_count": 5
  }, 
  {
   "text": "CHI Goal - 2nd/3:09 - P. Sharp (30). Assists:. A. Shaw (16), M. Handzus (10). #Canes 0, #Blackhawks 1.", 
   "label": "O", 
   "id": 447177622620209152, 
   "hashtags": [
    "Canes", 
    "Blackhawks"
   ], 
   "user_mentions": [], 
   "created_at": "Sat Mar 22 01:07:08 +0000 2014", 
   "retweet_count": 5, 
   "favorite_count": 7
  }, 
  {
   "text": "@jbk_ltd @Section_328 #appdontlie", 
   "label": "O", 
   "id": 447172855416233984, 
   "hashtags": [
    "appdontlie"
   ], 
   "user_mentions": [
    "jbk_ltd", 
    "Section_328"
   ], 
   "created_at": "Sat Mar 22 00:48:11 +0000 2014", 
   "retweet_count": 1, 
   "favorite_count": 2
  }, 
  {
   "text": "@kcracken @Section_328 No no, we had four that period. Four!", 
   "label": "O", 
   "id": 447172634158309377, 
   "hashtags": [], 
   "user_mentions": [
    "kcracken", 
    "Section_328"
   ], 
   "created_at": "Sat Mar 22 00:47:18 +0000 2014", 
   "retweet_count": 1, 
   "favorite_count": 0
  }, 
  {
   "text": "RT @Canes_Gameday: After 20 minutes in Chicago, the #Canes and #Blackhawks are scoreless.", 
   "label": "O", 
   "id": 447171366555746304, 
   "hashtags": [
    "Canes", 
    "Blackhawks"
   ], 
   "user_mentions": [
    "Canes_Gameday"
   ], 
   "created_at": "Sat Mar 22 00:42:16 +0000 2014", 
   "retweet_count": 14, 
   "favorite_count": 0
  }, 
  {
   "text": "@emohrberg \ud83d\ude4b", 
   "label": "O", 
   "id": 447170987076100096, 
   "hashtags": [], 
   "user_mentions": [
    "emohrberg"
   ], 
   "created_at": "Sat Mar 22 00:40:46 +0000 2014", 
   "retweet_count": 2, 
   "favorite_count": 4
  }, 
  {
   "text": "@tkcrider The feedback we got after 4 years of the gift program, which included jerseys, was that the food &amp; beverage credit was preferred.", 
   "label": "O", 
   "id": 447170690094219264, 
   "hashtags": [], 
   "user_mentions": [
    "tkcrider"
   ], 
   "created_at": "Sat Mar 22 00:39:35 +0000 2014", 
   "retweet_count": 3, 
   "favorite_count": 0
  }, 
  {
   "text": "@jbk_ltd @CanesHaveAShotOnGoal Made us click :(", 
   "label": "O", 
   "id": 447166972489629696, 
   "hashtags": [], 
   "user_mentions": [
    "jbk_ltd"
   ], 
   "created_at": "Sat Mar 22 00:24:48 +0000 2014", 
   "retweet_count": 3, 
   "favorite_count": 1
  }, 
  {
   "text": "@BURDA13 We disagree.", 
   "label": "O", 
   "id": 447164724070055937, 
   "hashtags": [], 
   "user_mentions": [
    "BURDA13"
   ], 
   "created_at": "Sat Mar 22 00:15:52 +0000 2014", 
   "retweet_count": 4, 
   "favorite_count": 1
  }, 
  {
   "text": "@kristinh21 Feel better!", 
   "label": "O", 
   "id": 447163372778573824, 
   "hashtags": [], 
   "user_mentions": [
    "kristinh21"
   ], 
   "created_at": "Sat Mar 22 00:10:30 +0000 2014", 
   "retweet_count": 2, 
   "favorite_count": 0
  }, 
  {
   "text": "RT @Canes_Gameday: Starting for the #Canes: E. Staal-J. Staal-Semin, Sekera-Liles and Anton Khudobin in net. Puck drop is coming up!", 
   "label": "O", 
   "id": 447160378590785536, 
   "hashtags": [
    "Canes"
   ], 
   "user_mentions": [
    "Canes_Gameday"
   ], 
   "created_at": "Fri Mar 21 23:58:36 +0000 2014", 
   "retweet_count": 21, 
   "favorite_count": 0
  }, 
  {
   "text": "Any other #Canes fans in the building tonight? RT @wluper: And here they are. It's @NHLCanes vs @NHLBlackhawks ! http://t.co/DplrEveujL", 
   "label": "O", 
   "id": 447153777146331136, 
   "hashtags": [
    "Canes"
   ], 
   "user_mentions": [
    "wluper", 
    "NHLCanes", 
    "NHLBlackhawks"
   ], 
   "created_at": "Fri Mar 21 23:32:22 +0000 2014", 
   "retweet_count": 18, 
   "favorite_count": 19
  }, 
  {
   "text": "Puck drops at 8 p.m. for #Canes vs. #Blackhawks. Follow: @Canes_Gameday | Watch: @FSCarolinas | Listen: @999TheFan http://t.co/FS8aUcKVBu", 
   "label": "O", 
   "id": 447145634496524288, 
   "hashtags": [
    "Canes", 
    "Blackhawks"
   ], 
   "user_mentions": [
    "Canes_Gameday", 
    "FSCarolinas", 
    "999TheFan"
   ], 
   "created_at": "Fri Mar 21 23:00:01 +0000 2014", 
   "retweet_count": 19, 
   "favorite_count": 13
  }, 
  {
   "text": "@CardiacCaneKP @OhioState_MHKY Picture in picture?", 
   "label": "O", 
   "id": 447144259326836736, 
   "hashtags": [], 
   "user_mentions": [
    "CardiacCaneKP", 
    "OhioState_MHKY"
   ], 
   "created_at": "Fri Mar 21 22:54:33 +0000 2014", 
   "retweet_count": 1, 
   "favorite_count": 0
  }, 
  {
   "text": "@BlatherNBombast Or maybe that is the @Panthers slogan...", 
   "label": "O", 
   "id": 447143685495742464, 
   "hashtags": [], 
   "user_mentions": [
    "BlatherNBombast", 
    "Panthers"
   ], 
   "created_at": "Fri Mar 21 22:52:16 +0000 2014", 
   "retweet_count": 2, 
   "favorite_count": 3
  }, 
  {
   "text": "#KeepPounding...Wait, Experience #Canes Hockey! RT @unitedcenter: Gates are open! Your @NHLBlackhawks host the @Panthers tonight.", 
   "label": "O", 
   "id": 447140825164972032, 
   "hashtags": [
    "KeepPounding", 
    "Canes"
   ], 
   "user_mentions": [
    "unitedcenter", 
    "NHLBlackhawks", 
    "Panthers"
   ], 
   "created_at": "Fri Mar 21 22:40:54 +0000 2014", 
   "retweet_count": 51, 
   "favorite_count": 39
  }, 
  {
   "text": "@tkcrider We try to open as many as possible up to residents outside of NC, but due to the prizes, our legal counsel had to restrict this.", 
   "label": "O", 
   "id": 447127525643550720, 
   "hashtags": [], 
   "user_mentions": [
    "tkcrider"
   ], 
   "created_at": "Fri Mar 21 21:48:04 +0000 2014", 
   "retweet_count": 0, 
   "favorite_count": 0
  }, 
  {
   "text": "@tkcrider Hi Tonya - Unfortunately it has to do with the different in sweepstakes laws between states.", 
   "label": "O", 
   "id": 447127342444736512, 
   "hashtags": [], 
   "user_mentions": [
    "tkcrider"
   ], 
   "created_at": "Fri Mar 21 21:47:20 +0000 2014", 
   "retweet_count": 0, 
   "favorite_count": 0
  }, 
  {
   "text": "@radionradiation @carolinalehouse is always a good spot!", 
   "label": "O", 
   "id": 447127125653729282, 
   "hashtags": [], 
   "user_mentions": [
    "radionradiation", 
    "carolinalehouse"
   ], 
   "created_at": "Fri Mar 21 21:46:28 +0000 2014", 
   "retweet_count": 0, 
   "favorite_count": 0
  }, 
  {
   "text": "Enter for a chance to take a $10,000 shot, presented by @carolinalehouse! ENTER HERE: http://t.co/ajf0decDR0 http://t.co/aKDcv1o9NR", 
   "label": "O", 
   "id": 447070158662959104, 
   "hashtags": [], 
   "user_mentions": [
    "carolinalehouse"
   ], 
   "created_at": "Fri Mar 21 18:00:06 +0000 2014", 
   "retweet_count": 19, 
   "favorite_count": 10
  }, 
  {
   "text": "#Canes vs. #Blackhawks First Goal Contest: http://t.co/o5G6FrhN1R \n\nEnter to win a puck signed by @lindholmelias! http://t.co/TgTobwpq9Y", 
   "label": "O", 
   "id": 447039974631043072, 
   "hashtags": [
    "Canes", 
    "Blackhawks"
   ], 
   "user_mentions": [
    "lindholmelias"
   ], 
   "created_at": "Fri Mar 21 16:00:10 +0000 2014", 
   "retweet_count": 23, 
   "favorite_count": 10
  }, 
  {
   "text": "@JoedyAP Ssshhhh! You weren't supposed to tell anyone...", 
   "label": "O", 
   "id": 447027739095474176, 
   "hashtags": [], 
   "user_mentions": [
    "JoedyAP"
   ], 
   "created_at": "Fri Mar 21 15:11:33 +0000 2014", 
   "retweet_count": 0, 
   "favorite_count": 1
  }, 
  {
   "text": "@wluper Awesome! Enjoy the game and thanks for supporting the team on the road.", 
   "label": "O", 
   "id": 447020814572220416, 
   "hashtags": [], 
   "user_mentions": [
    "wluper"
   ], 
   "created_at": "Fri Mar 21 14:44:02 +0000 2014", 
   "retweet_count": 0, 
   "favorite_count": 0
  }, 
  {
   "text": "Tweet your questions now for #Canes forward Riley Nash with #AskNash and they could be answered tonight on @FSCarolinas at 8 p.m.", 
   "label": "O", 
   "id": 447017283886792704, 
   "hashtags": [
    "Canes", 
    "AskNash"
   ], 
   "user_mentions": [
    "FSCarolinas"
   ], 
   "created_at": "Fri Mar 21 14:30:00 +0000 2014", 
   "retweet_count": 21, 
   "favorite_count": 4
  }, 
  {
   "text": "GAMEDAY: The #Canes are in Chicago to face the #Blackhawks at 8 p.m. tonight. http://t.co/OmtZalOEn5", 
   "label": "O", 
   "id": 447009742406561792, 
   "hashtags": [
    "Canes", 
    "Blackhawks"
   ], 
   "user_mentions": [], 
   "created_at": "Fri Mar 21 14:00:02 +0000 2014", 
   "retweet_count": 56, 
   "favorite_count": 38
  }
 ]
}