{
 "num_road_team_goals": "2", 
 "home_team": "Carolina Hurricanes", 
 "num_home_team_goals": "3", 
 "summary_url": "http://www.flyershistory.com/cgi-bin/poboxscore.cgi?H20130790", 
 "result": "W", 
 "road_team": "Columbus Blue Jackets", 
 "date": "2014-01-27", 
 "goals": [
  {
   "season_index": "5", 
   "strength": "(EV)", 
   "time": "2:25", 
   "period": "1", 
   "player": "D.MacKenzie", 
   "assists": "(F.Tyutin, C.Tropp)", 
   "game_index": "1", 
   "team": "CBJ"
  }, 
  {
   "season_index": "14", 
   "strength": "(EV)", 
   "time": "2:42", 
   "period": "1", 
   "player": "R.Umberger", 
   "assists": "(R.Johansen, N.Foligno)", 
   "game_index": "2", 
   "team": "CBJ"
  }, 
  {
   "season_index": "13", 
   "strength": "(EV)", 
   "time": "11:18", 
   "period": "3", 
   "player": "E.Staal", 
   "assists": "(A.Semin, J.Faulk)", 
   "game_index": "3", 
   "team": "CAR"
  }, 
  {
   "season_index": "14", 
   "strength": "(EV)", 
   "time": "12:18", 
   "period": "3", 
   "player": "E.Staal", 
   "assists": "(J.Tlusty)", 
   "game_index": "4", 
   "team": "CAR"
  }, 
  {
   "season_index": "11", 
   "strength": "(EV)", 
   "time": "14:05", 
   "period": "3", 
   "player": "J.Staal", 
   "assists": "(E.Lindholm, J.Skinner)", 
   "game_index": "5", 
   "team": "CAR"
  }
 ], 
 "tweets": [
  {
   "text": "@rdnkgrl83 The deal is valid all day. Maybe go ahead and order it for lunch to be safe!", 
   "label": "O", 
   "id": 428023793890897920, 
   "hashtags": [], 
   "user_mentions": [
    "rdnkgrl83"
   ], 
   "created_at": "Tue Jan 28 04:36:39 +0000 2014", 
   "retweet_count": 1, 
   "favorite_count": 0
  }, 
  {
   "text": "Staal brothers lead #Canes in a 3-2 comeback victory over #CBJ. RECAP: http://t.co/vJIqFKqX0e", 
   "label": "O", 
   "id": 428010291524567041, 
   "hashtags": [
    "Canes", 
    "CBJ"
   ], 
   "user_mentions": [], 
   "created_at": "Tue Jan 28 03:43:00 +0000 2014", 
   "retweet_count": 71, 
   "favorite_count": 51
  }, 
  {
   "text": "@LousyLape I think any responsibility for that is taken off of us with some of that fancy legal talk during the broadcast.", 
   "label": "O", 
   "id": 428007561192030208, 
   "hashtags": [], 
   "user_mentions": [], 
   "created_at": "Tue Jan 28 03:32:09 +0000 2014", 
   "retweet_count": 3, 
   "favorite_count": 4
  }, 
  {
   "text": "@JustNealWithIt Whoa whoa whoa...calm down, deep breath. Can't wait to see you in two weeks!", 
   "label": "O", 
   "id": 428006712277491713, 
   "hashtags": [], 
   "user_mentions": [
    "JustNealWithIt"
   ], 
   "created_at": "Tue Jan 28 03:28:46 +0000 2014", 
   "retweet_count": 3, 
   "favorite_count": 2
  }, 
  {
   "text": "@EverythingPens nhlcanes, of course!", 
   "label": "O", 
   "id": 428006049975910400, 
   "hashtags": [], 
   "user_mentions": [
    "EverythingPens"
   ], 
   "created_at": "Tue Jan 28 03:26:08 +0000 2014", 
   "retweet_count": 4, 
   "favorite_count": 3
  }, 
  {
   "text": "@LousyLape Sounds good to us!", 
   "label": "O", 
   "id": 428005150935252992, 
   "hashtags": [], 
   "user_mentions": [], 
   "created_at": "Tue Jan 28 03:22:34 +0000 2014", 
   "retweet_count": 2, 
   "favorite_count": 0
  }, 
  {
   "text": "@DeeMegz Back at ya!", 
   "label": "O", 
   "id": 428005034828513281, 
   "hashtags": [], 
   "user_mentions": [
    "DeeMegz"
   ], 
   "created_at": "Tue Jan 28 03:22:06 +0000 2014", 
   "retweet_count": 1, 
   "favorite_count": 1
  }, 
  {
   "text": "@Gclayman Yeah, but who would see it? I mean, you're in Idaho...", 
   "label": "O", 
   "id": 428004908189892608, 
   "hashtags": [], 
   "user_mentions": [
    "Gclayman"
   ], 
   "created_at": "Tue Jan 28 03:21:36 +0000 2014", 
   "retweet_count": 0, 
   "favorite_count": 2
  }, 
  {
   "text": "@niskababe Then we can talk.", 
   "label": "O", 
   "id": 428004585484337152, 
   "hashtags": [], 
   "user_mentions": [
    "niskababe"
   ], 
   "created_at": "Tue Jan 28 03:20:19 +0000 2014", 
   "retweet_count": 1, 
   "favorite_count": 5
  }, 
  {
   "text": "@ImJessi_C Of course!", 
   "label": "O", 
   "id": 428004107094589440, 
   "hashtags": [], 
   "user_mentions": [], 
   "created_at": "Tue Jan 28 03:18:25 +0000 2014", 
   "retweet_count": 0, 
   "favorite_count": 1
  }, 
  {
   "text": "@niskababe It's that header image on your profile...", 
   "label": "O", 
   "id": 428004082226573313, 
   "hashtags": [], 
   "user_mentions": [
    "niskababe"
   ], 
   "created_at": "Tue Jan 28 03:18:19 +0000 2014", 
   "retweet_count": 1, 
   "favorite_count": 9
  }, 
  {
   "text": "@RDailey28 @josh_hofer Make that 40-26-6!", 
   "label": "O", 
   "id": 428003814608994304, 
   "hashtags": [], 
   "user_mentions": [
    "RDailey28", 
    "josh_hofer"
   ], 
   "created_at": "Tue Jan 28 03:17:15 +0000 2014", 
   "retweet_count": 2, 
   "favorite_count": 1
  }, 
  {
   "text": "All 3. Layer up, it's getting cold! RT @Cierra_Waggoner: @NHLCanes Important question. Which one do I wear tomorrow? http://t.co/2fmxw3LJEb", 
   "label": "O", 
   "id": 428003463600283648, 
   "hashtags": [], 
   "user_mentions": [
    "NHLCanes"
   ], 
   "created_at": "Tue Jan 28 03:15:52 +0000 2014", 
   "retweet_count": 19, 
   "favorite_count": 32
  }, 
  {
   "text": "@Sperlmutter53 Don't worry, \"wly\" too!", 
   "label": "O", 
   "id": 428002200426930176, 
   "hashtags": [], 
   "user_mentions": [
    "Sperlmutter53"
   ], 
   "created_at": "Tue Jan 28 03:10:51 +0000 2014", 
   "retweet_count": 2, 
   "favorite_count": 11
  }, 
  {
   "text": "@SarahVElliott @TrendsRaleigh #CBJ is at the bottom. #Canes and Canes are at the top...well behind snow...", 
   "label": "O", 
   "id": 427999561370861568, 
   "hashtags": [
    "CBJ", 
    "Canes"
   ], 
   "user_mentions": [
    "SarahVElliott", 
    "TrendsRaleigh"
   ], 
   "created_at": "Tue Jan 28 03:00:21 +0000 2014", 
   "retweet_count": 0, 
   "favorite_count": 0
  }, 
  {
   "text": "HIGHLIGHTS - All the Staal third-period goals to give the #Canes a 3-2 win vs. #CBJ. WATCH: http://t.co/YA2yHVkcz6", 
   "label": "O", 
   "id": 427999379380006912, 
   "hashtags": [
    "Canes", 
    "CBJ"
   ], 
   "user_mentions": [], 
   "created_at": "Tue Jan 28 02:59:38 +0000 2014", 
   "retweet_count": 58, 
   "favorite_count": 42
  }, 
  {
   "text": "Which one? Doesn't matter. RT @TrendsRaleigh: 'staal' is now trending in #Raleigh http://t.co/ZRIWjrPOwk", 
   "label": "O", 
   "id": 427997686881861632, 
   "hashtags": [
    "Raleigh"
   ], 
   "user_mentions": [
    "TrendsRaleigh"
   ], 
   "created_at": "Tue Jan 28 02:52:55 +0000 2014", 
   "retweet_count": 29, 
   "favorite_count": 22
  }, 
  {
   "text": "@ThoughtsofKatie Oh my. That's....special. Did you know we're on Snapchat? nhlcanes...", 
   "label": "O", 
   "id": 427997500910612480, 
   "hashtags": [], 
   "user_mentions": [
    "ThoughtsofKatie"
   ], 
   "created_at": "Tue Jan 28 02:52:10 +0000 2014", 
   "retweet_count": 2, 
   "favorite_count": 10
  }, 
  {
   "text": "@i8pichu It's good after every #Canes win!", 
   "label": "O", 
   "id": 427996720820396032, 
   "hashtags": [
    "Canes"
   ], 
   "user_mentions": [
    "i8pichu"
   ], 
   "created_at": "Tue Jan 28 02:49:04 +0000 2014", 
   "retweet_count": 0, 
   "favorite_count": 0
  }, 
  {
   "text": "Sums it up nice RT @andyjohnson_: \u201c@NHLCanes: So #Caniacs, what are your thoughts on that third period comeback win?\u201d http://t.co/xkqIiFNu4E", 
   "label": "O", 
   "id": 427996226618163201, 
   "hashtags": [
    "Caniacs"
   ], 
   "user_mentions": [
    "andyjohnson_", 
    "NHLCanes"
   ], 
   "created_at": "Tue Jan 28 02:47:06 +0000 2014", 
   "retweet_count": 15, 
   "favorite_count": 28
  }, 
  {
   "text": "How do you like the new look of the standings after that #Canes win? http://t.co/k6Remj5RTC", 
   "label": "O", 
   "id": 427994787393064960, 
   "hashtags": [
    "Canes"
   ], 
   "user_mentions": [], 
   "created_at": "Tue Jan 28 02:41:23 +0000 2014", 
   "retweet_count": 329, 
   "favorite_count": 281
  }, 
  {
   "text": "Jordan Staal talks with the media after scoring the game-winning goal in the #Canes 3-2 comeback win vs. #CBJ. http://t.co/KccsiVzLCx", 
   "label": "O", 
   "id": 427993942031097856, 
   "hashtags": [
    "Canes", 
    "CBJ"
   ], 
   "user_mentions": [], 
   "created_at": "Tue Jan 28 02:38:02 +0000 2014", 
   "retweet_count": 62, 
   "favorite_count": 100
  }, 
  {
   "text": "So #Caniacs, what are your thoughts on that third period comeback win?", 
   "label": "O", 
   "id": 427991953444442112, 
   "hashtags": [
    "Caniacs"
   ], 
   "user_mentions": [], 
   "created_at": "Tue Jan 28 02:30:08 +0000 2014", 
   "retweet_count": 31, 
   "favorite_count": 82
  }, 
  {
   "text": "RT @Canes_Gameday: The #Canes erase a two-goal deficit in the third period to defeat #CBJ 3-2!", 
   "label": "O", 
   "id": 427990859385413632, 
   "hashtags": [
    "Canes", 
    "CBJ"
   ], 
   "user_mentions": [
    "Canes_Gameday"
   ], 
   "created_at": "Tue Jan 28 02:25:47 +0000 2014", 
   "retweet_count": 232, 
   "favorite_count": 0
  }, 
  {
   "text": "CAR Goal - 14:05/3rd - Jordan Staal (11). Assists: Elias Lindholm (7) &amp; Jeff Skinner (15). #Canes lead #CBJ 3-2!", 
   "label": "O", 
   "id": 427988624479891456, 
   "hashtags": [
    "Canes", 
    "CBJ"
   ], 
   "user_mentions": [], 
   "created_at": "Tue Jan 28 02:16:54 +0000 2014", 
   "retweet_count": 58, 
   "favorite_count": 78
  }, 
  {
   "text": "CAR Goal - 12:18/3rd - Eric Staal (14). Assist: Jiri Tlusty (8). #Canes &amp; #CBJ tied 2-2.", 
   "label": "O", 
   "id": 427987798856318976, 
   "hashtags": [
    "Canes", 
    "CBJ"
   ], 
   "user_mentions": [], 
   "created_at": "Tue Jan 28 02:13:37 +0000 2014", 
   "retweet_count": 29, 
   "favorite_count": 42
  }, 
  {
   "text": "CAR Goal - 11:18 - Eric Staal (13). Assists: Alexander Semin (15) and Justin Faulk (17). #CBJ leads #Canes 2-1.", 
   "label": "O", 
   "id": 427986752486522881, 
   "hashtags": [
    "CBJ", 
    "Canes"
   ], 
   "user_mentions": [], 
   "created_at": "Tue Jan 28 02:09:28 +0000 2014", 
   "retweet_count": 31, 
   "favorite_count": 34
  }, 
  {
   "text": "@g_bellissimo That's a great question...why not?", 
   "label": "O", 
   "id": 427978531726196736, 
   "hashtags": [], 
   "user_mentions": [
    "g_bellissimo"
   ], 
   "created_at": "Tue Jan 28 01:36:48 +0000 2014", 
   "retweet_count": 2, 
   "favorite_count": 1
  }, 
  {
   "text": "RT @Canes_Gameday: #Canes still trailing #CBJ 2-0 after 40 minutes of play. Shots 24-15 in favor of the home team.", 
   "label": "O", 
   "id": 427977654374264833, 
   "hashtags": [
    "Canes", 
    "CBJ"
   ], 
   "user_mentions": [
    "Canes_Gameday"
   ], 
   "created_at": "Tue Jan 28 01:33:18 +0000 2014", 
   "retweet_count": 5, 
   "favorite_count": 0
  }, 
  {
   "text": "@_JoshDGraham No no, we do both now! There's also flex cam and there was a Mo cam for Movember. Working on Cam cam next...", 
   "label": "O", 
   "id": 427976752393383936, 
   "hashtags": [], 
   "user_mentions": [
    "_JoshDGraham"
   ], 
   "created_at": "Tue Jan 28 01:29:43 +0000 2014", 
   "retweet_count": 1, 
   "favorite_count": 1
  }, 
  {
   "text": "@kblizzle That's right! But make sure you hashtag #Canes next time.", 
   "label": "O", 
   "id": 427973049582125056, 
   "hashtags": [
    "Canes"
   ], 
   "user_mentions": [
    "kblizzle"
   ], 
   "created_at": "Tue Jan 28 01:15:01 +0000 2014", 
   "retweet_count": 0, 
   "favorite_count": 0
  }, 
  {
   "text": "Congrats to @philiprabon for winning tonight's #RexHeart team-signed stick from @RexHealthcare.", 
   "label": "O", 
   "id": 427972858950991872, 
   "hashtags": [
    "RexHeart"
   ], 
   "user_mentions": [
    "philiprabon", 
    "RexHealthcare"
   ], 
   "created_at": "Tue Jan 28 01:14:15 +0000 2014", 
   "retweet_count": 2, 
   "favorite_count": 7
  }, 
  {
   "text": "@BlueJacketsNHL That's okay, we forgive you.", 
   "label": "O", 
   "id": 427971229161893888, 
   "hashtags": [], 
   "user_mentions": [
    "BlueJacketsNHL"
   ], 
   "created_at": "Tue Jan 28 01:07:47 +0000 2014", 
   "retweet_count": 5, 
   "favorite_count": 14
  }, 
  {
   "text": "@MikeSolarte @mikemaniscalco According to @BrianVerdi", 
   "label": "O", 
   "id": 427970289558106112, 
   "hashtags": [], 
   "user_mentions": [
    "MikeSolarte", 
    "mikemaniscalco", 
    "BrianVerdi"
   ], 
   "created_at": "Tue Jan 28 01:04:02 +0000 2014", 
   "retweet_count": 0, 
   "favorite_count": 0
  }, 
  {
   "text": "@RDailey28 @josh_hofer @PNCArena 2-5 last season.", 
   "label": "O", 
   "id": 427969617920012288, 
   "hashtags": [], 
   "user_mentions": [
    "RDailey28", 
    "josh_hofer", 
    "PNCArena"
   ], 
   "created_at": "Tue Jan 28 01:01:22 +0000 2014", 
   "retweet_count": 0, 
   "favorite_count": 0
  }, 
  {
   "text": "@RDailey28 @josh_hofer @PNCArena Did a little more research. #Canes are 39-26-6 all time in the black third jerseys.", 
   "label": "O", 
   "id": 427968727276343297, 
   "hashtags": [
    "Canes"
   ], 
   "user_mentions": [
    "RDailey28", 
    "josh_hofer", 
    "PNCArena"
   ], 
   "created_at": "Tue Jan 28 00:57:50 +0000 2014", 
   "retweet_count": 0, 
   "favorite_count": 0
  }, 
  {
   "text": "@ECUcraw @Canes_Gameday @mikemaniscalco 39-26-6 all time in the third jerseys.", 
   "label": "O", 
   "id": 427968509050912768, 
   "hashtags": [], 
   "user_mentions": [
    "ECUcraw", 
    "Canes_Gameday", 
    "mikemaniscalco"
   ], 
   "created_at": "Tue Jan 28 00:56:58 +0000 2014", 
   "retweet_count": 2, 
   "favorite_count": 1
  }, 
  {
   "text": "@ayden_whyit @BlueJacketsNHL Hi.", 
   "label": "O", 
   "id": 427966447961518080, 
   "hashtags": [], 
   "user_mentions": [
    "ayden_whyit", 
    "BlueJacketsNHL"
   ], 
   "created_at": "Tue Jan 28 00:48:47 +0000 2014", 
   "retweet_count": 2, 
   "favorite_count": 3
  }, 
  {
   "text": "@BlueJacketsNHL Could've been better.", 
   "label": "O", 
   "id": 427965979449364481, 
   "hashtags": [], 
   "user_mentions": [
    "BlueJacketsNHL"
   ], 
   "created_at": "Tue Jan 28 00:46:55 +0000 2014", 
   "retweet_count": 12, 
   "favorite_count": 17
  }, 
  {
   "text": "RT @Canes_Gameday: After one period, the #Canes trail #CBJ 2-0. Shots are even at seven.", 
   "label": "O", 
   "id": 427964480522571776, 
   "hashtags": [
    "Canes", 
    "CBJ"
   ], 
   "user_mentions": [
    "Canes_Gameday"
   ], 
   "created_at": "Tue Jan 28 00:40:58 +0000 2014", 
   "retweet_count": 6, 
   "favorite_count": 0
  }, 
  {
   "text": "@ECUcraw @Canes_Gameday @mikemaniscalco Don't have that readily available.", 
   "label": "O", 
   "id": 427964311156559872, 
   "hashtags": [], 
   "user_mentions": [
    "ECUcraw", 
    "Canes_Gameday", 
    "mikemaniscalco"
   ], 
   "created_at": "Tue Jan 28 00:40:17 +0000 2014", 
   "retweet_count": 0, 
   "favorite_count": 0
  }, 
  {
   "text": "@ECUcraw @Canes_Gameday @mikemaniscalco 3-4 this season so far.", 
   "label": "O", 
   "id": 427963674830319616, 
   "hashtags": [], 
   "user_mentions": [
    "ECUcraw", 
    "Canes_Gameday", 
    "mikemaniscalco"
   ], 
   "created_at": "Tue Jan 28 00:37:45 +0000 2014", 
   "retweet_count": 0, 
   "favorite_count": 0
  }, 
  {
   "text": "@MetalTodd Yes, we sell them in our team store and auction them through our in-game silent auctions: http://t.co/iBbumedKLo", 
   "label": "O", 
   "id": 427963579133071360, 
   "hashtags": [], 
   "user_mentions": [
    "MetalTodd"
   ], 
   "created_at": "Tue Jan 28 00:37:23 +0000 2014", 
   "retweet_count": 0, 
   "favorite_count": 0
  }, 
  {
   "text": "@LukeEnnis09 Tweet that again with #FreezeFrames and it could be on the videoboard!", 
   "label": "O", 
   "id": 427960726431731713, 
   "hashtags": [
    "FreezeFrames"
   ], 
   "user_mentions": [
    "LukeEnnis09"
   ], 
   "created_at": "Tue Jan 28 00:26:02 +0000 2014", 
   "retweet_count": 2, 
   "favorite_count": 0
  }, 
  {
   "text": "@BOMO_SAPIEN Yes, we have a shot.", 
   "label": "O", 
   "id": 427960029011267584, 
   "hashtags": [], 
   "user_mentions": [
    "BOMO_SAPIEN"
   ], 
   "created_at": "Tue Jan 28 00:23:16 +0000 2014", 
   "retweet_count": 0, 
   "favorite_count": 1
  }, 
  {
   "text": "@kc_k42 Nice view! Enjoy the game.", 
   "label": "O", 
   "id": 427956286568017920, 
   "hashtags": [], 
   "user_mentions": [
    "kc_k42"
   ], 
   "created_at": "Tue Jan 28 00:08:24 +0000 2014", 
   "retweet_count": 2, 
   "favorite_count": 0
  }, 
  {
   "text": "RT @Canes_Gameday: Starting for the #Canes: Skinner-J. Staal-Lindholm up front, Sekera-Faulk on defense and Anton Khudobin in net. Faceoff \u2026", 
   "label": "O", 
   "id": 427953668160495616, 
   "hashtags": [
    "Canes"
   ], 
   "user_mentions": [
    "Canes_Gameday"
   ], 
   "created_at": "Mon Jan 27 23:58:00 +0000 2014", 
   "retweet_count": 17, 
   "favorite_count": 0
  }, 
  {
   "text": "@aaronshows You're in the queue and have a chance!", 
   "label": "O", 
   "id": 427952742825754625, 
   "hashtags": [], 
   "user_mentions": [
    "aaronshows"
   ], 
   "created_at": "Mon Jan 27 23:54:19 +0000 2014", 
   "retweet_count": 0, 
   "favorite_count": 0
  }, 
  {
   "text": "@BrunoStAujus Pregame playlists are given to us by the players actually.", 
   "label": "O", 
   "id": 427948035411546112, 
   "hashtags": [], 
   "user_mentions": [
    "BrunoStAujus"
   ], 
   "created_at": "Mon Jan 27 23:35:37 +0000 2014", 
   "retweet_count": 2, 
   "favorite_count": 0
  }, 
  {
   "text": "Before the Faceoff - @JohnForslund previews tonight's game between the #CBJ and #Canes. WATCH: http://t.co/ZYVNsbOHhl", 
   "label": "O", 
   "id": 427946672023666688, 
   "hashtags": [
    "CBJ", 
    "Canes"
   ], 
   "user_mentions": [
    "JohnForslund"
   ], 
   "created_at": "Mon Jan 27 23:30:12 +0000 2014", 
   "retweet_count": 12, 
   "favorite_count": 9
  }, 
  {
   "text": "@kppuglisi Well I mean technically it looks like there is a row in front of you. But realistically, no!", 
   "label": "O", 
   "id": 427946025547214848, 
   "hashtags": [], 
   "user_mentions": [
    "kppuglisi"
   ], 
   "created_at": "Mon Jan 27 23:27:38 +0000 2014", 
   "retweet_count": 4, 
   "favorite_count": 2
  }, 
  {
   "text": "Puck drops at 7 p.m. for #CBJ vs. #Canes. Follow: @Canes_Gameday | Watch: @FSCarolinas | Listen: @999TheFan http://t.co/MHt6k0Hw4k", 
   "label": "O", 
   "id": 427939097609764864, 
   "hashtags": [
    "CBJ", 
    "Canes"
   ], 
   "user_mentions": [
    "Canes_Gameday", 
    "FSCarolinas", 
    "999TheFan"
   ], 
   "created_at": "Mon Jan 27 23:00:06 +0000 2014", 
   "retweet_count": 26, 
   "favorite_count": 30
  }, 
  {
   "text": "@TomNam13 @funkgolf Wow, we knew there was a lot on the line, but this raises the bar.", 
   "label": "O", 
   "id": 427938354546880512, 
   "hashtags": [], 
   "user_mentions": [
    "TomNam13", 
    "funkgolf"
   ], 
   "created_at": "Mon Jan 27 22:57:09 +0000 2014", 
   "retweet_count": 7, 
   "favorite_count": 10
  }, 
  {
   "text": "Stop by the South Plaza before tonight's #Canes game for a special Public Safety Appreciation Night display. http://t.co/Pf80AVTQEn", 
   "label": "O", 
   "id": 427929979129966592, 
   "hashtags": [
    "Canes"
   ], 
   "user_mentions": [], 
   "created_at": "Mon Jan 27 22:23:52 +0000 2014", 
   "retweet_count": 18, 
   "favorite_count": 15
  }, 
  {
   "text": "NEWS: #Canes recall forward @AaronPalushaj from @CheckersHockey. Details: http://t.co/di9va77vdM", 
   "label": "O", 
   "id": 427926539620323328, 
   "hashtags": [
    "Canes"
   ], 
   "user_mentions": [
    "AaronPalushaj", 
    "CheckersHockey"
   ], 
   "created_at": "Mon Jan 27 22:10:12 +0000 2014", 
   "retweet_count": 30, 
   "favorite_count": 20
  }, 
  {
   "text": "@dmitchsmith Ugh, come on @alyssa_k_brown!", 
   "label": "O", 
   "id": 427917379159330816, 
   "hashtags": [], 
   "user_mentions": [
    "dmitchsmith"
   ], 
   "created_at": "Mon Jan 27 21:33:48 +0000 2014", 
   "retweet_count": 1, 
   "favorite_count": 1
  }, 
  {
   "text": "Anyone planning to enjoy this 60+ degree weather and do some tailgating before tonight's #CBJ vs. #Canes game?", 
   "label": "O", 
   "id": 427916447390892032, 
   "hashtags": [
    "CBJ", 
    "Canes"
   ], 
   "user_mentions": [], 
   "created_at": "Mon Jan 27 21:30:06 +0000 2014", 
   "retweet_count": 16, 
   "favorite_count": 27
  }, 
  {
   "text": "Today in #CanesHistory - 2008: Eric Staal becomes the first player in franchise history to be named All-Star Game MVP http://t.co/FMypWCMCUB", 
   "label": "O", 
   "id": 427893782361931777, 
   "hashtags": [
    "CanesHistory"
   ], 
   "user_mentions": [], 
   "created_at": "Mon Jan 27 20:00:02 +0000 2014", 
   "retweet_count": 62, 
   "favorite_count": 74
  }, 
  {
   "text": "RT @FSCarolinas: The #PhantomCam is back tonight for the @NHLCanes games vs. the Blue Jackets. #HurricanesLIVE starts at 6:30pm ET.", 
   "label": "O", 
   "id": 427893758638968832, 
   "hashtags": [
    "PhantomCam", 
    "HurricanesLIVE"
   ], 
   "user_mentions": [
    "FSCarolinas", 
    "NHLCanes"
   ], 
   "created_at": "Mon Jan 27 19:59:56 +0000 2014", 
   "retweet_count": 8, 
   "favorite_count": 0
  }, 
  {
   "text": "@ivyleager Get well soon!", 
   "label": "O", 
   "id": 427889049370910720, 
   "hashtags": [], 
   "user_mentions": [
    "ivyleager"
   ], 
   "created_at": "Mon Jan 27 19:41:13 +0000 2014", 
   "retweet_count": 0, 
   "favorite_count": 0
  }, 
  {
   "text": "Rink Report - Manny Malhotra and Nathan Horton talk about tonight's matchup between the #Canes &amp; #CBJ. WATCH: http://t.co/uLFVMlKrvl", 
   "label": "O", 
   "id": 427888967015735296, 
   "hashtags": [
    "Canes", 
    "CBJ"
   ], 
   "user_mentions": [], 
   "created_at": "Mon Jan 27 19:40:54 +0000 2014", 
   "retweet_count": 16, 
   "favorite_count": 6
  }, 
  {
   "text": "Sekera totaled six points (1g, 5a) and a plus-8 rating, including the game-winning goal vs. #Sabres, in the #Canes three straight victories.", 
   "label": "O", 
   "id": 427865222905610241, 
   "hashtags": [
    "Sabres", 
    "Canes"
   ], 
   "user_mentions": [], 
   "created_at": "Mon Jan 27 18:06:33 +0000 2014", 
   "retweet_count": 30, 
   "favorite_count": 18
  }, 
  {
   "text": "NEWS: #Canes defenseman Andrej Sekera has been named the @NHL's Third Star of the Week. Info: http://t.co/jKH29NAOGI http://t.co/1PCECgIVpJ", 
   "label": "O", 
   "id": 427863688725692418, 
   "hashtags": [
    "Canes"
   ], 
   "user_mentions": [
    "NHL"
   ], 
   "created_at": "Mon Jan 27 18:00:27 +0000 2014", 
   "retweet_count": 108, 
   "favorite_count": 77
  }, 
  {
   "text": "Gameday: As far as the 52nd game in an 82-game season goes, this one is big, as the #Canes host #CBJ. READ: http://t.co/jIOvg6DdeX", 
   "label": "O", 
   "id": 427858271488471040, 
   "hashtags": [
    "Canes", 
    "CBJ"
   ], 
   "user_mentions": [], 
   "created_at": "Mon Jan 27 17:38:55 +0000 2014", 
   "retweet_count": 26, 
   "favorite_count": 15
  }, 
  {
   "text": "#Canes vs. #CBJ First Goal Contest - ENTER: http://t.co/zj64qqykEH\n\nTonight's prize is this puck signed by Eric Staal http://t.co/RWh35VyLrE", 
   "label": "O", 
   "id": 427840719559335937, 
   "hashtags": [
    "Canes", 
    "CBJ"
   ], 
   "user_mentions": [], 
   "created_at": "Mon Jan 27 16:29:11 +0000 2014", 
   "retweet_count": 28, 
   "favorite_count": 35
  }, 
  {
   "text": "#Canes Gameday! The Canes host the #CBJ tonight at 7 p.m. Tickets: http://t.co/nNR7fpt6vk http://t.co/nofKYHRwUD", 
   "label": "O", 
   "id": 427818290975887360, 
   "hashtags": [
    "Canes", 
    "CBJ"
   ], 
   "user_mentions": [], 
   "created_at": "Mon Jan 27 15:00:03 +0000 2014", 
   "retweet_count": 42, 
   "favorite_count": 42
  }, 
  {
   "text": "RT @FOXSportsLive: Hey @NHLCanes, not only was Gerbe's goal #The1 that night, it's #The1 of the week! Still can't believe his moves! http:/\u2026", 
   "label": "O", 
   "id": 427792022624546816, 
   "hashtags": [
    "The1", 
    "The1"
   ], 
   "user_mentions": [
    "FOXSportsLive", 
    "NHLCanes"
   ], 
   "created_at": "Mon Jan 27 13:15:40 +0000 2014", 
   "retweet_count": 110, 
   "favorite_count": 0
  }
 ]
}