{
 "num_road_team_goals": "2", 
 "home_team": "Buffalo Sabres", 
 "num_home_team_goals": "3", 
 "summary_url": "http://www.flyershistory.com/cgi-bin/poboxscore.cgi?H20130647", 
 "result": "L", 
 "road_team": "Carolina Hurricanes", 
 "date": "2014-02-25", 
 "goals": [
  {
   "season_index": "5", 
   "strength": "(PP)", 
   "time": "5:54", 
   "period": "2", 
   "player": "C.Ehrhoff", 
   "assists": "(D.Stafford, R.Miller)", 
   "game_index": "1", 
   "team": "BUF"
  }, 
  {
   "season_index": "15", 
   "strength": "(EV)", 
   "time": "16:52", 
   "period": "2", 
   "player": "E.Staal", 
   "assists": "(J.Faulk)", 
   "game_index": "2", 
   "team": "CAR"
  }, 
  {
   "season_index": "14", 
   "strength": "(EV)", 
   "time": "12:13", 
   "period": "3", 
   "player": "T.Ennis", 
   "assists": "(M.Moulson, D.Stafford)", 
   "game_index": "3", 
   "team": "BUF"
  }, 
  {
   "season_index": "15", 
   "strength": "(EV)", 
   "time": "16:00", 
   "period": "3", 
   "player": "A.Semin", 
   "assists": "(A.Sekera)", 
   "game_index": "4", 
   "team": "CAR"
  }, 
  {
   "season_index": "6", 
   "strength": "(EV)", 
   "time": "19:16", 
   "period": "3", 
   "player": "C.Ehrhoff", 
   "assists": "(R.Miller)", 
   "game_index": "5", 
   "team": "BUF"
  }
 ], 
 "tweets": [
  {
   "text": "RT @Canes_Gameday: #Canes fall 3-2 to the #Sabres. Next game in Dallas on Thursday at 8:30 p.m.", 
   "label": "O", 
   "id": 438502074180173825, 
   "hashtags": [
    "Canes", 
    "Sabres"
   ], 
   "user_mentions": [
    "Canes_Gameday"
   ], 
   "created_at": "Wed Feb 26 02:33:36 +0000 2014", 
   "retweet_count": 39, 
   "favorite_count": 0
  }, 
  {
   "text": "CAR Goal - 16:00/3rd - Alexander Semin (15). Assist: Andrej Sekera (24). #Canes 2, #Sabres 2.", 
   "label": "O", 
   "id": 438499863303827456, 
   "hashtags": [
    "Canes", 
    "Sabres"
   ], 
   "user_mentions": [], 
   "created_at": "Wed Feb 26 02:24:49 +0000 2014", 
   "retweet_count": 37, 
   "favorite_count": 22
  }, 
  {
   "text": "BUF Goal - 12:13/3rd - Goal: T. Ennis(14). Assists: M. Moulson (19) &amp; D. Stafford (14). #Canes 1, #Sabres, 2.", 
   "label": "O", 
   "id": 438498803227037696, 
   "hashtags": [
    "Canes", 
    "Sabres"
   ], 
   "user_mentions": [], 
   "created_at": "Wed Feb 26 02:20:36 +0000 2014", 
   "retweet_count": 11, 
   "favorite_count": 8
  }, 
  {
   "text": "Congrats to @equestrian66 for winning tonight's #RexHeart team-signed stick from @RexHealthcare.", 
   "label": "O", 
   "id": 438493070250999808, 
   "hashtags": [
    "RexHeart"
   ], 
   "user_mentions": [
    "equestrian66", 
    "RexHealthcare"
   ], 
   "created_at": "Wed Feb 26 01:57:49 +0000 2014", 
   "retweet_count": 14, 
   "favorite_count": 10
  }, 
  {
   "text": "@raffik87 Don't care, just pick someone.", 
   "label": "O", 
   "id": 438489755500937218, 
   "hashtags": [], 
   "user_mentions": [
    "raffik87"
   ], 
   "created_at": "Wed Feb 26 01:44:39 +0000 2014", 
   "retweet_count": 0, 
   "favorite_count": 0
  }, 
  {
   "text": "RT @Canes_Gameday: #Canes and #Sabres even at one after 40 minutes. Shots strongly favor the visitors, 21-9.", 
   "label": "O", 
   "id": 438487599184084993, 
   "hashtags": [
    "Canes", 
    "Sabres"
   ], 
   "user_mentions": [
    "Canes_Gameday"
   ], 
   "created_at": "Wed Feb 26 01:36:05 +0000 2014", 
   "retweet_count": 24, 
   "favorite_count": 0
  }, 
  {
   "text": "CAR Goal - 2nd/16:52 - Eric Staal (15). Assist: @JustinFaulk27 (20). #Canes 1, #Sabres 1.", 
   "label": "O", 
   "id": 438486867848482817, 
   "hashtags": [
    "Canes", 
    "Sabres"
   ], 
   "user_mentions": [
    "JustinFaulk27"
   ], 
   "created_at": "Wed Feb 26 01:33:10 +0000 2014", 
   "retweet_count": 30, 
   "favorite_count": 35
  }, 
  {
   "text": "@raffik87 @BuffaloSabres It's Staal, and he just scored.", 
   "label": "O", 
   "id": 438486536737521664, 
   "hashtags": [], 
   "user_mentions": [
    "raffik87", 
    "BuffaloSabres"
   ], 
   "created_at": "Wed Feb 26 01:31:51 +0000 2014", 
   "retweet_count": 1, 
   "favorite_count": 2
  }, 
  {
   "text": "@alawscause @BuffaloSabres Nice seats. Cheer them on loud!", 
   "label": "O", 
   "id": 438484354395033600, 
   "hashtags": [], 
   "user_mentions": [
    "alawscause", 
    "BuffaloSabres"
   ], 
   "created_at": "Wed Feb 26 01:23:11 +0000 2014", 
   "retweet_count": 0, 
   "favorite_count": 1
  }, 
  {
   "text": "@ncpurplepirate Psst...we're over here at this cool account with a blue checkmark.", 
   "label": "O", 
   "id": 438481992997687296, 
   "hashtags": [], 
   "user_mentions": [
    "ncpurplepirate"
   ], 
   "created_at": "Wed Feb 26 01:13:48 +0000 2014", 
   "retweet_count": 1, 
   "favorite_count": 2
  }, 
  {
   "text": "RT @sully_PGA: Yep, that's right. I'm having some @NHLCanes toast tonight! http://t.co/Y4CM2oYJ17", 
   "label": "O", 
   "id": 438478042697326592, 
   "hashtags": [], 
   "user_mentions": [
    "sully_PGA", 
    "NHLCanes"
   ], 
   "created_at": "Wed Feb 26 00:58:06 +0000 2014", 
   "retweet_count": 13, 
   "favorite_count": 0
  }, 
  {
   "text": "RT @Canes_Gameday: The #Canes and #Sabres are scoreless after one period.", 
   "label": "O", 
   "id": 438473988554362880, 
   "hashtags": [
    "Canes", 
    "Sabres"
   ], 
   "user_mentions": [
    "Canes_Gameday"
   ], 
   "created_at": "Wed Feb 26 00:41:59 +0000 2014", 
   "retweet_count": 21, 
   "favorite_count": 0
  }, 
  {
   "text": "@MikeRanney He decided today to go back to the old wrong pronunciation because no one was really get it right. So yeah, everyone is wrong...", 
   "label": "O", 
   "id": 438472989290815488, 
   "hashtags": [], 
   "user_mentions": [
    "MikeRanney"
   ], 
   "created_at": "Wed Feb 26 00:38:01 +0000 2014", 
   "retweet_count": 1, 
   "favorite_count": 1
  }, 
  {
   "text": "@c00gz @Canes_Gameday @NHLStormy With NHL Gamecenter, unless it's blacked out in your area.", 
   "label": "O", 
   "id": 438469340317638656, 
   "hashtags": [], 
   "user_mentions": [
    "c00gz", 
    "Canes_Gameday", 
    "NHLStormy"
   ], 
   "created_at": "Wed Feb 26 00:23:31 +0000 2014", 
   "retweet_count": 1, 
   "favorite_count": 0
  }, 
  {
   "text": "@Canadianblaken Yep: http://t.co/WaFll62kIO", 
   "label": "O", 
   "id": 438467736696803328, 
   "hashtags": [], 
   "user_mentions": [
    "Canadianblaken"
   ], 
   "created_at": "Wed Feb 26 00:17:09 +0000 2014", 
   "retweet_count": 1, 
   "favorite_count": 0
  }, 
  {
   "text": "@bearinvegas @NHL @BuffaloSabres @NHLNetwork #polarvortexproblems", 
   "label": "O", 
   "id": 438467539711328256, 
   "hashtags": [
    "polarvortexproblems"
   ], 
   "user_mentions": [
    "bearinvegas", 
    "NHL", 
    "BuffaloSabres", 
    "NHLNetwork"
   ], 
   "created_at": "Wed Feb 26 00:16:22 +0000 2014", 
   "retweet_count": 2, 
   "favorite_count": 1
  }, 
  {
   "text": "@krisxosgood Missed you too!", 
   "label": "O", 
   "id": 438466684371079168, 
   "hashtags": [], 
   "user_mentions": [
    "krisxosgood"
   ], 
   "created_at": "Wed Feb 26 00:12:58 +0000 2014", 
   "retweet_count": 1, 
   "favorite_count": 2
  }, 
  {
   "text": "@Canes_Gameday Hey buddy, we missed you!", 
   "label": "O", 
   "id": 438466166479417344, 
   "hashtags": [], 
   "user_mentions": [
    "Canes_Gameday"
   ], 
   "created_at": "Wed Feb 26 00:10:55 +0000 2014", 
   "retweet_count": 11, 
   "favorite_count": 54
  }, 
  {
   "text": "RT @Canes_Gameday: Starting for the #Canes: Tlusty-E. Staal-Semin, Sekera-Faulk and Cam Ward in net. Puck drops in 10 minutes!", 
   "label": "O", 
   "id": 438462187053809664, 
   "hashtags": [
    "Canes"
   ], 
   "user_mentions": [
    "Canes_Gameday"
   ], 
   "created_at": "Tue Feb 25 23:55:06 +0000 2014", 
   "retweet_count": 29, 
   "favorite_count": 0
  }, 
  {
   "text": "Tune in now to @SportSouth for #HurricanesLIVE before puck drops for #Canes vs. #Sabres at 7 p.m. Channel listings: http://t.co/hE3U27IO3X", 
   "label": "O", 
   "id": 438455896965136386, 
   "hashtags": [
    "HurricanesLIVE", 
    "Canes", 
    "Sabres"
   ], 
   "user_mentions": [
    "SportSouth"
   ], 
   "created_at": "Tue Feb 25 23:30:06 +0000 2014", 
   "retweet_count": 22, 
   "favorite_count": 9
  }, 
  {
   "text": "Channel listings for tonight's #Canes game on @SportSouth: http://t.co/vwAHPKpCPQ", 
   "label": "O", 
   "id": 438448594883186688, 
   "hashtags": [
    "Canes"
   ], 
   "user_mentions": [
    "SportSouth"
   ], 
   "created_at": "Tue Feb 25 23:01:05 +0000 2014", 
   "retweet_count": 12, 
   "favorite_count": 7
  }, 
  {
   "text": "Puck drops at 7 p.m. for #Canes vs. #Sabres. Follow: @Canes_Gameday | Watch: @SportSouth | Listen: @999TheFan http://t.co/HQOuzhfE93", 
   "label": "O", 
   "id": 438448362707513344, 
   "hashtags": [
    "Canes", 
    "Sabres"
   ], 
   "user_mentions": [
    "Canes_Gameday", 
    "SportSouth", 
    "999TheFan"
   ], 
   "created_at": "Tue Feb 25 23:00:10 +0000 2014", 
   "retweet_count": 29, 
   "favorite_count": 27
  }, 
  {
   "text": "@Oliver_Biggs14 We're just passing along what we are told. For the record, it's still wrong, but what he is choosing to use.", 
   "label": "O", 
   "id": 438428265599209472, 
   "hashtags": [], 
   "user_mentions": [
    "Oliver_Biggs14"
   ], 
   "created_at": "Tue Feb 25 21:40:18 +0000 2014", 
   "retweet_count": 3, 
   "favorite_count": 0
  }, 
  {
   "text": "@CapsCast He has more points than any Caps defenseman this season and is tied for lead in assists. So there's that...", 
   "label": "O", 
   "id": 438421334268592128, 
   "hashtags": [], 
   "user_mentions": [
    "CapsCast"
   ], 
   "created_at": "Tue Feb 25 21:12:46 +0000 2014", 
   "retweet_count": 2, 
   "favorite_count": 3
  }, 
  {
   "text": "FYI - RT @MikeSundheim: Andrej Sekera now prefers broadcasters return to pronouncing his name \"seh-KAIR-uh\" http://t.co/nDKD3QUaVq", 
   "label": "O", 
   "id": 438415469885022208, 
   "hashtags": [], 
   "user_mentions": [
    "MikeSundheim"
   ], 
   "created_at": "Tue Feb 25 20:49:28 +0000 2014", 
   "retweet_count": 32, 
   "favorite_count": 11
  }, 
  {
   "text": "#Canes vs. #Sabres First Goal Contest: http://t.co/CG7VjEZhji\n\nEnter to win a puck signed by Sekera &amp; a $500 @TriangleTown gift certificate!", 
   "label": "O", 
   "id": 438410593029349376, 
   "hashtags": [
    "Canes", 
    "Sabres"
   ], 
   "user_mentions": [
    "TriangleTown"
   ], 
   "created_at": "Tue Feb 25 20:30:05 +0000 2014", 
   "retweet_count": 21, 
   "favorite_count": 9
  }, 
  {
   "text": "@TwatWaffle807 @PNCArena Didn't just repaint it. It was taken out completely for the circus and now is put back in and painted.", 
   "label": "O", 
   "id": 438397223584686080, 
   "hashtags": [], 
   "user_mentions": [
    "PNCArena"
   ], 
   "created_at": "Tue Feb 25 19:36:57 +0000 2014", 
   "retweet_count": 2, 
   "favorite_count": 2
  }, 
  {
   "text": "Tuomo Ruutu has now medaled in each of the 11 major international competitions in which he\u2019s competed. READ MORE: http://t.co/vPvKDKXNIs", 
   "label": "O", 
   "id": 438384929647656960, 
   "hashtags": [], 
   "user_mentions": [], 
   "created_at": "Tue Feb 25 18:48:06 +0000 2014", 
   "retweet_count": 49, 
   "favorite_count": 31
  }, 
  {
   "text": "@EricFerreri Is that a challenge?", 
   "label": "O", 
   "id": 438356138007224320, 
   "hashtags": [], 
   "user_mentions": [
    "EricFerreri"
   ], 
   "created_at": "Tue Feb 25 16:53:42 +0000 2014", 
   "retweet_count": 2, 
   "favorite_count": 0
  }, 
  {
   "text": "We're hosting a Cool Bars stop at the Greenville @carolinalehouse for tonight's #Canes vs. #Sabres game. Details: http://t.co/k9y2LDNZYi", 
   "label": "O", 
   "id": 438327702891024384, 
   "hashtags": [
    "Canes", 
    "Sabres"
   ], 
   "user_mentions": [
    "carolinalehouse"
   ], 
   "created_at": "Tue Feb 25 15:00:42 +0000 2014", 
   "retweet_count": 30, 
   "favorite_count": 9
  }, 
  {
   "text": "The #Canes return to action tonight in Buffalo at 7 p.m. on @SportSouth! Predictions? http://t.co/0t3TGr9xTL", 
   "label": "O", 
   "id": 438327531557888000, 
   "hashtags": [
    "Canes"
   ], 
   "user_mentions": [
    "SportSouth"
   ], 
   "created_at": "Tue Feb 25 15:00:01 +0000 2014", 
   "retweet_count": 71, 
   "favorite_count": 50
  }, 
  {
   "text": "@kuleminy Truth. Feel the love!", 
   "label": "O", 
   "id": 438290964466384896, 
   "hashtags": [], 
   "user_mentions": [
    "kuleminy"
   ], 
   "created_at": "Tue Feb 25 12:34:43 +0000 2014", 
   "retweet_count": 5, 
   "favorite_count": 3
  }
 ]
}