{
 "num_road_team_goals": "3", 
 "home_team": "New York Islanders", 
 "num_home_team_goals": "2", 
 "summary_url": "http://www.flyershistory.com/cgi-bin/poboxscore.cgi?H20130632", 
 "result": "W", 
 "road_team": "Carolina Hurricanes", 
 "date": "2014-01-04", 
 "goals": [
  {
   "season_index": "4", 
   "strength": "(EV)", 
   "time": "6:57", 
   "period": "2", 
   "player": "M.Malhotra", 
   "assists": "(P.Dwyer)", 
   "game_index": "1", 
   "team": "CAR"
  }, 
  {
   "season_index": "17", 
   "strength": "(EV)", 
   "time": "7:41", 
   "period": "2", 
   "player": "J.Tavares", 
   "assists": "(T.VanEk)", 
   "game_index": "2", 
   "team": "NYI"
  }, 
  {
   "season_index": "9", 
   "strength": "(EV)", 
   "time": "13:12", 
   "period": "2", 
   "player": "J.Staal", 
   "assists": "(P.Dwyer, N.Gerbe)", 
   "game_index": "3", 
   "team": "CAR"
  }, 
  {
   "season_index": "1", 
   "strength": "(EV)", 
   "time": "14:09", 
   "period": "2", 
   "player": "B.Sutter", 
   "assists": "(J.Skinner, A.Sekera)", 
   "game_index": "4", 
   "team": "CAR"
  }, 
  {
   "season_index": "15", 
   "strength": "(PP)", 
   "time": "19:35", 
   "period": "3", 
   "player": "T.VanEk", 
   "assists": "(Andrew MacDonald, R.Strome)", 
   "game_index": "5", 
   "team": "NYI"
  }
 ], 
 "tweets": [
  {
   "text": "@TherealEFarrell Well there, now we fixed that!", 
   "label": "O", 
   "id": 419667546170994688, 
   "hashtags": [], 
   "user_mentions": [
    "TherealEFarrell"
   ], 
   "created_at": "Sun Jan 05 03:11:54 +0000 2014", 
   "retweet_count": 1, 
   "favorite_count": 0
  }, 
  {
   "text": "@haleyrach Aren't you coming down with someting? Do you need us to write you a note?", 
   "label": "O", 
   "id": 419666117343608832, 
   "hashtags": [], 
   "user_mentions": [
    "haleyrach"
   ], 
   "created_at": "Sun Jan 05 03:06:14 +0000 2014", 
   "retweet_count": 3, 
   "favorite_count": 2
  }, 
  {
   "text": "@TherealEFarrell Lower body injury. He returned to the ice, but then left again with the Canes holding a 3-1 lead.", 
   "label": "O", 
   "id": 419666071940243456, 
   "hashtags": [], 
   "user_mentions": [
    "TherealEFarrell"
   ], 
   "created_at": "Sun Jan 05 03:06:03 +0000 2014", 
   "retweet_count": 3, 
   "favorite_count": 0
  }, 
  {
   "text": "@dx1979 We randomly pick the winners for these things!", 
   "label": "O", 
   "id": 419661178168946688, 
   "hashtags": [], 
   "user_mentions": [
    "dx1979"
   ], 
   "created_at": "Sun Jan 05 02:46:36 +0000 2014", 
   "retweet_count": 1, 
   "favorite_count": 0
  }, 
  {
   "text": "Congrats to @caniac29 &amp; @Esbee92 for winning \"I #Canes\" shirts. Didn't win one? Get one here: http://t.co/qiSknl6jBv http://t.co/9CLNTdbilx", 
   "label": "O", 
   "id": 419660414809427968, 
   "hashtags": [
    "Canes"
   ], 
   "user_mentions": [
    "caniac29", 
    "Esbee92"
   ], 
   "created_at": "Sun Jan 05 02:43:34 +0000 2014", 
   "retweet_count": 18, 
   "favorite_count": 24
  }, 
  {
   "text": "The #Canes return home to try and stay undefeated in 2014 tomorrow vs. Preds at 7 pm. Tickets: http://t.co/UmBhfAn7in http://t.co/ElqF5SZa4f", 
   "label": "O", 
   "id": 419658613008121856, 
   "hashtags": [
    "Canes"
   ], 
   "user_mentions": [], 
   "created_at": "Sun Jan 05 02:36:24 +0000 2014", 
   "retweet_count": 46, 
   "favorite_count": 54
  }, 
  {
   "text": "RT @MSmithCanes: #Canes are 23-5-5 in their last 33 games vs. #Isles.", 
   "label": "O", 
   "id": 419657819278020608, 
   "hashtags": [
    "Canes", 
    "Isles"
   ], 
   "user_mentions": [
    "MSmithCanes"
   ], 
   "created_at": "Sun Jan 05 02:33:15 +0000 2014", 
   "retweet_count": 29, 
   "favorite_count": 0
  }, 
  {
   "text": "RT @Canes_Gameday: The #Canes defeat the #Isles 3-2! That's three in a row!", 
   "label": "O", 
   "id": 419657487466643456, 
   "hashtags": [
    "Canes", 
    "Isles"
   ], 
   "user_mentions": [
    "Canes_Gameday"
   ], 
   "created_at": "Sun Jan 05 02:31:56 +0000 2014", 
   "retweet_count": 170, 
   "favorite_count": 0
  }, 
  {
   "text": "@Section_328 Yeah, what's up with that @NYIslanders? They are using #Canes though, so they're in the running to win a shirt...", 
   "label": "O", 
   "id": 419651751281979392, 
   "hashtags": [
    "Canes"
   ], 
   "user_mentions": [
    "Section_328", 
    "NYIslanders"
   ], 
   "created_at": "Sun Jan 05 02:09:08 +0000 2014", 
   "retweet_count": 4, 
   "favorite_count": 6
  }, 
  {
   "text": "@Cierra_Waggoner Maybe we need to get some made for our players on Twitter and put their Twitter handles on the back...?", 
   "label": "O", 
   "id": 419646547991990272, 
   "hashtags": [], 
   "user_mentions": [], 
   "created_at": "Sun Jan 05 01:48:28 +0000 2014", 
   "retweet_count": 1, 
   "favorite_count": 4
  }, 
  {
   "text": "@Cierra_Waggoner It can't hurt...", 
   "label": "O", 
   "id": 419646369276915713, 
   "hashtags": [], 
   "user_mentions": [], 
   "created_at": "Sun Jan 05 01:47:45 +0000 2014", 
   "retweet_count": 1, 
   "favorite_count": 5
  }, 
  {
   "text": "RT @Canes_Gameday: The #Canes lead the #Isles 3-1 after 40 minutes.", 
   "label": "O", 
   "id": 419643275612782592, 
   "hashtags": [
    "Canes", 
    "Isles"
   ], 
   "user_mentions": [
    "Canes_Gameday"
   ], 
   "created_at": "Sun Jan 05 01:35:28 +0000 2014", 
   "retweet_count": 33, 
   "favorite_count": 0
  }, 
  {
   "text": "Gives the #Canes a 3-1 lead in the second period. RT @MSmithCanes: That's Brett Sutter's first goal since Dec. 23, 2008 vs. Anaheim.", 
   "label": "O", 
   "id": 419641276905295872, 
   "hashtags": [
    "Canes"
   ], 
   "user_mentions": [
    "MSmithCanes"
   ], 
   "created_at": "Sun Jan 05 01:27:31 +0000 2014", 
   "retweet_count": 23, 
   "favorite_count": 28
  }, 
  {
   "text": "@dx1979 After the game.", 
   "label": "O", 
   "id": 419639293767069696, 
   "hashtags": [], 
   "user_mentions": [
    "dx1979"
   ], 
   "created_at": "Sun Jan 05 01:19:38 +0000 2014", 
   "retweet_count": 1, 
   "favorite_count": 0
  }, 
  {
   "text": "@Esbee92 Here you go: http://t.co/2DQliFu7jG | Also, all Corners and interviews are posted here: http://t.co/Nl5DfjaN7i", 
   "label": "O", 
   "id": 419634593944576000, 
   "hashtags": [], 
   "user_mentions": [
    "Esbee92"
   ], 
   "created_at": "Sun Jan 05 01:00:58 +0000 2014", 
   "retweet_count": 1, 
   "favorite_count": 2
  }, 
  {
   "text": "@Raleighcaniac We'll check Monday to see if they can all be put online somewhere.", 
   "label": "O", 
   "id": 419633688000069632, 
   "hashtags": [], 
   "user_mentions": [
    "Raleighcaniac"
   ], 
   "created_at": "Sun Jan 05 00:57:22 +0000 2014", 
   "retweet_count": 1, 
   "favorite_count": 1
  }, 
  {
   "text": "@Obxcane More people use #Canes and it can be worked into more tweets, so it's more likely to get it trending. That's why we keep it simple!", 
   "label": "O", 
   "id": 419633392398127105, 
   "hashtags": [
    "Canes"
   ], 
   "user_mentions": [
    "Obxcane"
   ], 
   "created_at": "Sun Jan 05 00:56:11 +0000 2014", 
   "retweet_count": 1, 
   "favorite_count": 1
  }, 
  {
   "text": "@ayden_whyit Answer what? You said when we win...", 
   "label": "O", 
   "id": 419633197283291138, 
   "hashtags": [], 
   "user_mentions": [
    "ayden_whyit"
   ], 
   "created_at": "Sun Jan 05 00:55:25 +0000 2014", 
   "retweet_count": 3, 
   "favorite_count": 0
  }, 
  {
   "text": "You can go ahead and start tweeting questions for Dr. Drej using the hashtag #AskSekera. Tune in Tuesday on @FSCarolinas for answers.", 
   "label": "O", 
   "id": 419632666787717120, 
   "hashtags": [
    "AskSekera"
   ], 
   "user_mentions": [
    "FSCarolinas"
   ], 
   "created_at": "Sun Jan 05 00:53:18 +0000 2014", 
   "retweet_count": 13, 
   "favorite_count": 13
  }, 
  {
   "text": "@Obxcane Why is that?", 
   "label": "O", 
   "id": 419632541579366400, 
   "hashtags": [], 
   "user_mentions": [
    "Obxcane"
   ], 
   "created_at": "Sun Jan 05 00:52:48 +0000 2014", 
   "retweet_count": 0, 
   "favorite_count": 0
  }, 
  {
   "text": "@Section_328 Your question fixed it!", 
   "label": "O", 
   "id": 419631700239740928, 
   "hashtags": [], 
   "user_mentions": [
    "Section_328"
   ], 
   "created_at": "Sun Jan 05 00:49:28 +0000 2014", 
   "retweet_count": 4, 
   "favorite_count": 5
  }, 
  {
   "text": "@CaniacCathy @topshelfdrunk Yeah! Just don't tell them we authorized that...", 
   "label": "O", 
   "id": 419630343361400832, 
   "hashtags": [], 
   "user_mentions": [
    "CaniacCathy", 
    "topshelfdrunk"
   ], 
   "created_at": "Sun Jan 05 00:44:04 +0000 2014", 
   "retweet_count": 4, 
   "favorite_count": 2
  }, 
  {
   "text": "RT @Canes_Gameday: #Canes and #Isles scoreless with 20 minutes in the books. Shots 10-7 in favor of New York.", 
   "label": "O", 
   "id": 419629707165192192, 
   "hashtags": [
    "Canes", 
    "Isles"
   ], 
   "user_mentions": [
    "Canes_Gameday"
   ], 
   "created_at": "Sun Jan 05 00:41:33 +0000 2014", 
   "retweet_count": 8, 
   "favorite_count": 0
  }, 
  {
   "text": "@RDailey28 @NCCaniac42 Unless we win tonight, then wait until Monday. Unless we win tomorrow, then...", 
   "label": "O", 
   "id": 419625086380154881, 
   "hashtags": [], 
   "user_mentions": [
    "RDailey28", 
    "NCCaniac42"
   ], 
   "created_at": "Sun Jan 05 00:23:11 +0000 2014", 
   "retweet_count": 1, 
   "favorite_count": 3
  }, 
  {
   "text": "@RL_ReginaGeorge Nicely done @BWWings!", 
   "label": "O", 
   "id": 419624285339410432, 
   "hashtags": [], 
   "user_mentions": [
    "RL_ReginaGeorge", 
    "BWWings"
   ], 
   "created_at": "Sun Jan 05 00:20:00 +0000 2014", 
   "retweet_count": 1, 
   "favorite_count": 3
  }, 
  {
   "text": "@ayden_whyit You forgot #Canes", 
   "label": "O", 
   "id": 419620339426263040, 
   "hashtags": [
    "Canes"
   ], 
   "user_mentions": [
    "ayden_whyit"
   ], 
   "created_at": "Sun Jan 05 00:04:19 +0000 2014", 
   "retweet_count": 3, 
   "favorite_count": 0
  }, 
  {
   "text": "@Esbee92 Wow, deleting a previous tweet and redoing it to add in the hashtag...you're an early frontrunner! #dedication", 
   "label": "O", 
   "id": 419620177547132928, 
   "hashtags": [
    "dedication"
   ], 
   "user_mentions": [
    "Esbee92"
   ], 
   "created_at": "Sun Jan 05 00:03:41 +0000 2014", 
   "retweet_count": 1, 
   "favorite_count": 4
  }, 
  {
   "text": "C'mon @ryanmurphy24, we want queso! RT @MoesTriangle: Tonight's Moe's Queso Player of the Game is number 7, Ryan Murphy. Let's go #Canes!", 
   "label": "O", 
   "id": 419619885233504256, 
   "hashtags": [
    "Canes"
   ], 
   "user_mentions": [
    "ryanmurphy24", 
    "MoesTriangle"
   ], 
   "created_at": "Sun Jan 05 00:02:31 +0000 2014", 
   "retweet_count": 19, 
   "favorite_count": 16
  }, 
  {
   "text": "Make sure to tag tweets about tonight's game with #Canes. We'll pick a couple of you to get a free \"I #Canes\" shirt! http://t.co/HFRoNhya9O", 
   "label": "O", 
   "id": 419619555279765504, 
   "hashtags": [
    "Canes", 
    "Canes"
   ], 
   "user_mentions": [], 
   "created_at": "Sun Jan 05 00:01:12 +0000 2014", 
   "retweet_count": 33, 
   "favorite_count": 25
  }, 
  {
   "text": "RT @Canes_Gameday: Starting for the #Canes: Gerbe-J. Staal-Ruutu up front, Sekera-Faulk on defense and Anton Khudobin in net. Faceoff is up\u2026", 
   "label": "O", 
   "id": 419618255637319680, 
   "hashtags": [
    "Canes"
   ], 
   "user_mentions": [
    "Canes_Gameday"
   ], 
   "created_at": "Sat Jan 04 23:56:02 +0000 2014", 
   "retweet_count": 25, 
   "favorite_count": 0
  }, 
  {
   "text": "@NYIsles4Me Just for in the locker room as the trade happened with the team on the road. He's got a jersey with his name on it.", 
   "label": "O", 
   "id": 419615457587785729, 
   "hashtags": [], 
   "user_mentions": [
    "NYIsles4Me"
   ], 
   "created_at": "Sat Jan 04 23:44:55 +0000 2014", 
   "retweet_count": 0, 
   "favorite_count": 0
  }, 
  {
   "text": "Puck drops at 7 p.m. for #Canes vs. #Isles. Follow: @Canes_Gameday | Watch: @FSCarolinas | Listen: @999TheFan http://t.co/emfdl1I4Wt", 
   "label": "O", 
   "id": 419604173882421248, 
   "hashtags": [
    "Canes", 
    "Isles"
   ], 
   "user_mentions": [
    "Canes_Gameday", 
    "FSCarolinas", 
    "999TheFan"
   ], 
   "created_at": "Sat Jan 04 23:00:05 +0000 2014", 
   "retweet_count": 34, 
   "favorite_count": 29
  }, 
  {
   "text": "@cindyammons Clearly a mistake...fixed!", 
   "label": "O", 
   "id": 419591313835970561, 
   "hashtags": [], 
   "user_mentions": [
    "cindyammons"
   ], 
   "created_at": "Sat Jan 04 22:08:59 +0000 2014", 
   "retweet_count": 2, 
   "favorite_count": 3
  }, 
  {
   "text": "@jrmckins @Bruser365 Unfortunately the Instagram API is unreliable, but we've chosen to keep it connected. It's inconsistent for all users.", 
   "label": "O", 
   "id": 419557277532966912, 
   "hashtags": [], 
   "user_mentions": [
    "jrmckins", 
    "Bruser365"
   ], 
   "created_at": "Sat Jan 04 19:53:44 +0000 2014", 
   "retweet_count": 0, 
   "favorite_count": 0
  }, 
  {
   "text": "#Canes vs. #Isles First Goal Contest - Submit a guess to win a puck signed by Jordan Staal. ENTER HERE: http://t.co/79soDSmDmg", 
   "label": "O", 
   "id": 419543784838660096, 
   "hashtags": [
    "Canes", 
    "Isles"
   ], 
   "user_mentions": [], 
   "created_at": "Sat Jan 04 19:00:07 +0000 2014", 
   "retweet_count": 18, 
   "favorite_count": 8
  }, 
  {
   "text": "#Canes Fresh Take Caption Contest - ENTER: http://t.co/eMcizgZZ6C\n\nCaption this photo to win a $25 @Subway gift card! http://t.co/ZymAKaTKoq", 
   "label": "O", 
   "id": 419513587418562560, 
   "hashtags": [
    "Canes"
   ], 
   "user_mentions": [
    "SUBWAY"
   ], 
   "created_at": "Sat Jan 04 17:00:08 +0000 2014", 
   "retweet_count": 19, 
   "favorite_count": 14
  }, 
  {
   "text": "What is @JeffSkinner's key to scoring 15 goals in 14 games? Find out here: http://t.co/gOvh2v3gMW", 
   "label": "O", 
   "id": 419494686953578496, 
   "hashtags": [], 
   "user_mentions": [
    "JeffSkinner"
   ], 
   "created_at": "Sat Jan 04 15:45:01 +0000 2014", 
   "retweet_count": 62, 
   "favorite_count": 42
  }, 
  {
   "text": "@jrmckins Are you only having issues with the Instagram points still, or is there anything else?", 
   "label": "O", 
   "id": 419493184876871680, 
   "hashtags": [], 
   "user_mentions": [
    "jrmckins"
   ], 
   "created_at": "Sat Jan 04 15:39:03 +0000 2014", 
   "retweet_count": 2, 
   "favorite_count": 0
  }, 
  {
   "text": "@jrmckins It's monitored by the company that developed the site. We've contacted our rep to find out why you're not getting an answer.", 
   "label": "O", 
   "id": 419493074327588864, 
   "hashtags": [], 
   "user_mentions": [
    "jrmckins"
   ], 
   "created_at": "Sat Jan 04 15:38:37 +0000 2014", 
   "retweet_count": 2, 
   "favorite_count": 0
  }, 
  {
   "text": "@make_lemons You can always order official merchandise over the phone with The Eye team store: http://t.co/u6bOmXqNm1", 
   "label": "O", 
   "id": 419492779002437632, 
   "hashtags": [], 
   "user_mentions": [
    "make_lemons"
   ], 
   "created_at": "Sat Jan 04 15:37:26 +0000 2014", 
   "retweet_count": 1, 
   "favorite_count": 0
  }, 
  {
   "text": "Do you have a question for Manny Malhotra? Tweet them with #AskManny, then tune in at 7 pm on @FSCarolinas tonight to see if it's answered.", 
   "label": "O", 
   "id": 419490906920992768, 
   "hashtags": [
    "AskManny"
   ], 
   "user_mentions": [
    "FSCarolinas"
   ], 
   "created_at": "Sat Jan 04 15:30:00 +0000 2014", 
   "retweet_count": 21, 
   "favorite_count": 10
  }, 
  {
   "text": "The #Canes are in New York to face the #Isles tonight at 7 p.m. Predictions? http://t.co/Nobj0bLYXt", 
   "label": "O", 
   "id": 419483373472874496, 
   "hashtags": [
    "Canes", 
    "Isles"
   ], 
   "user_mentions": [], 
   "created_at": "Sat Jan 04 15:00:04 +0000 2014", 
   "retweet_count": 43, 
   "favorite_count": 36
  }
 ]
}