{
 "num_road_team_goals": "2", 
 "home_team": "Colorado Avalanche", 
 "num_home_team_goals": "3", 
 "summary_url": "http://www.flyershistory.com/cgi-bin/poboxscore.cgi?H20131151", 
 "result": "W (SO)", 
 "road_team": "New York Rangers", 
 "date": "2014-04-03", 
 "goals": [
  {
   "season_index": "4", 
   "strength": "(EV)", 
   "time": "2:10", 
   "period": "1", 
   "player": "J.Moore", 
   "assists": "(M.Zuccarello, B.Pouliot)", 
   "game_index": "1", 
   "team": "NYR"
  }, 
  {
   "season_index": "7", 
   "strength": "(EV)", 
   "time": "5:57", 
   "period": "2", 
   "player": "A.Benoit", 
   "assists": "(J.Mitchell, R.O'reilly)", 
   "game_index": "2", 
   "team": "COL"
  }, 
  {
   "season_index": "16", 
   "strength": "(EV)", 
   "time": "15:30", 
   "period": "2", 
   "player": "D.Stepan", 
   "assists": "(K.Klein, D.Girardi)", 
   "game_index": "3", 
   "team": "NYR"
  }, 
  {
   "season_index": "11", 
   "strength": "(EV)", 
   "time": "19:08", 
   "period": "3", 
   "player": "T.Barrie", 
   "assists": "(P.Stastny, E.Johnson)", 
   "game_index": "4", 
   "team": "COL"
  }
 ], 
 "tweets": [
  {
   "text": "#AvsHeader time. We'll take submissions until 10:10 p.m. MT. Ready, set, go!", 
   "label": "O", 
   "id": 451931733391196161, 
   "hashtags": [
    "AvsHeader"
   ], 
   "user_mentions": [], 
   "created_at": "Fri Apr 04 03:58:16 +0000 2014", 
   "retweet_count": 0, 
   "favorite_count": 8
  }, 
  {
   "text": "Semyon Varlamov ties Patrick Roy's franchise record for most home wins in a single season with 24 (2000-01). Varly is 23-9-3 at home.", 
   "label": "O", 
   "id": 451931551933009920, 
   "hashtags": [], 
   "user_mentions": [], 
   "created_at": "Fri Apr 04 03:57:33 +0000 2014", 
   "retweet_count": 160, 
   "favorite_count": 172
  }, 
  {
   "text": "Tonight's 3 Stars: 1) Semyon Varlamov--COL (29 saves, 3 SO saves); 2) Henrik Lundqvist--NYR (35 saves); Tyson Barrie--COL (Goal, SO GDG).", 
   "label": "O", 
   "id": 451930696383090688, 
   "hashtags": [], 
   "user_mentions": [], 
   "created_at": "Fri Apr 04 03:54:09 +0000 2014", 
   "retweet_count": 47, 
   "favorite_count": 109
  }, 
  {
   "text": "Final: #Avs - 3, Rangers - 2 (SO). #AvsWin #VarlyVarly http://t.co/YWrvXYtxDN", 
   "label": "O", 
   "id": 451930294426169344, 
   "hashtags": [
    "Avs", 
    "AvsWin", 
    "VarlyVarly"
   ], 
   "user_mentions": [], 
   "created_at": "Fri Apr 04 03:52:33 +0000 2014", 
   "retweet_count": 418, 
   "favorite_count": 372
  }, 
  {
   "text": "Varly with a great pad save and this game is over.", 
   "label": "O", 
   "id": 451930026313662465, 
   "hashtags": [], 
   "user_mentions": [], 
   "created_at": "Fri Apr 04 03:51:29 +0000 2014", 
   "retweet_count": 121, 
   "favorite_count": 172
  }, 
  {
   "text": "Nope.", 
   "label": "O", 
   "id": 451929939567075328, 
   "hashtags": [], 
   "user_mentions": [], 
   "created_at": "Fri Apr 04 03:51:08 +0000 2014", 
   "retweet_count": 38, 
   "favorite_count": 81
  }, 
  {
   "text": "Rangers' Brad Richards' turn. He needs to score to keep SO going.", 
   "label": "O", 
   "id": 451929906855686144, 
   "hashtags": [], 
   "user_mentions": [], 
   "created_at": "Fri Apr 04 03:51:00 +0000 2014", 
   "retweet_count": 5, 
   "favorite_count": 10
  }, 
  {
   "text": "Rings one off the post.", 
   "label": "O", 
   "id": 451929815679909888, 
   "hashtags": [], 
   "user_mentions": [], 
   "created_at": "Fri Apr 04 03:50:39 +0000 2014", 
   "retweet_count": 2, 
   "favorite_count": 21
  }, 
  {
   "text": "Landy up. He can win it here.", 
   "label": "O", 
   "id": 451929768292667392, 
   "hashtags": [], 
   "user_mentions": [], 
   "created_at": "Fri Apr 04 03:50:27 +0000 2014", 
   "retweet_count": 5, 
   "favorite_count": 31
  }, 
  {
   "text": "St. Louis tries to fake out Varly, but Varly says \"Nay\". Great pad stop.", 
   "label": "O", 
   "id": 451929731428937730, 
   "hashtags": [], 
   "user_mentions": [], 
   "created_at": "Fri Apr 04 03:50:19 +0000 2014", 
   "retweet_count": 33, 
   "favorite_count": 78
  }, 
  {
   "text": "St. Louis now for NYR.", 
   "label": "O", 
   "id": 451929616949579779, 
   "hashtags": [], 
   "user_mentions": [], 
   "created_at": "Fri Apr 04 03:49:51 +0000 2014", 
   "retweet_count": 3, 
   "favorite_count": 7
  }, 
  {
   "text": "O'Reilly comes in wide, and just misses on backhand.", 
   "label": "O", 
   "id": 451929579653849088, 
   "hashtags": [], 
   "user_mentions": [], 
   "created_at": "Fri Apr 04 03:49:42 +0000 2014", 
   "retweet_count": 3, 
   "favorite_count": 9
  }, 
  {
   "text": "O'Reilly's turn.", 
   "label": "O", 
   "id": 451929461324144640, 
   "hashtags": [], 
   "user_mentions": [], 
   "created_at": "Fri Apr 04 03:49:14 +0000 2014", 
   "retweet_count": 3, 
   "favorite_count": 19
  }, 
  {
   "text": "... and he misses wide. Avs lead 1-0 after 1st round.", 
   "label": "O", 
   "id": 451929421264330752, 
   "hashtags": [], 
   "user_mentions": [], 
   "created_at": "Fri Apr 04 03:49:05 +0000 2014", 
   "retweet_count": 11, 
   "favorite_count": 29
  }, 
  {
   "text": "NYR Zuccarello up now.", 
   "label": "O", 
   "id": 451929353220136960, 
   "hashtags": [], 
   "user_mentions": [], 
   "created_at": "Fri Apr 04 03:48:48 +0000 2014", 
   "retweet_count": 0, 
   "favorite_count": 9
  }, 
  {
   "text": "Barrie SCORES with a backhand. #HotHand", 
   "label": "O", 
   "id": 451929274983796737, 
   "hashtags": [
    "HotHand"
   ], 
   "user_mentions": [], 
   "created_at": "Fri Apr 04 03:48:30 +0000 2014", 
   "retweet_count": 53, 
   "favorite_count": 115
  }, 
  {
   "text": "Tyson Barries shooting 1st for the Avs.", 
   "label": "O", 
   "id": 451929158868664320, 
   "hashtags": [], 
   "user_mentions": [], 
   "created_at": "Fri Apr 04 03:48:02 +0000 2014", 
   "retweet_count": 9, 
   "favorite_count": 41
  }, 
  {
   "text": "After 65 minutes of play, #Avalanche outshot the Rangers 37-31, including 21-8 in the 3rd period &amp; OT.", 
   "label": "O", 
   "id": 451928891905433600, 
   "hashtags": [
    "Avalanche"
   ], 
   "user_mentions": [], 
   "created_at": "Fri Apr 04 03:46:58 +0000 2014", 
   "retweet_count": 9, 
   "favorite_count": 36
  }, 
  {
   "text": "Game heads to a best-of-3 shootout.", 
   "label": "O", 
   "id": 451928571359940610, 
   "hashtags": [], 
   "user_mentions": [], 
   "created_at": "Fri Apr 04 03:45:42 +0000 2014", 
   "retweet_count": 28, 
   "favorite_count": 40
  }, 
  {
   "text": "John Mitchell gets one last shot. Goes off end wall, and right past Lundqvist's arm.", 
   "label": "O", 
   "id": 451928527772717056, 
   "hashtags": [], 
   "user_mentions": [], 
   "created_at": "Fri Apr 04 03:45:32 +0000 2014", 
   "retweet_count": 3, 
   "favorite_count": 14
  }, 
  {
   "text": "#VarlyVarly blocker save with less than 30 seconds to go in OT.", 
   "label": "O", 
   "id": 451928085474967552, 
   "hashtags": [
    "VarlyVarly"
   ], 
   "user_mentions": [], 
   "created_at": "Fri Apr 04 03:43:46 +0000 2014", 
   "retweet_count": 8, 
   "favorite_count": 49
  }, 
  {
   "text": "Landeskog feeds the puck in Stastny for a tip, but the shot just goes over the net. #SoClose", 
   "label": "O", 
   "id": 451927095065604096, 
   "hashtags": [
    "SoClose"
   ], 
   "user_mentions": [], 
   "created_at": "Fri Apr 04 03:39:50 +0000 2014", 
   "retweet_count": 9, 
   "favorite_count": 23
  }, 
  {
   "text": "Overtime is underway. #Avs begin with a good chance 14 seconds in.", 
   "label": "O", 
   "id": 451926776218779648, 
   "hashtags": [
    "Avs"
   ], 
   "user_mentions": [], 
   "created_at": "Fri Apr 04 03:38:34 +0000 2014", 
   "retweet_count": 12, 
   "favorite_count": 34
  }, 
  {
   "text": "We are heading to overtime. Game tied 2-2.", 
   "label": "O", 
   "id": 451926268141764608, 
   "hashtags": [], 
   "user_mentions": [], 
   "created_at": "Fri Apr 04 03:36:33 +0000 2014", 
   "retweet_count": 47, 
   "favorite_count": 74
  }, 
  {
   "text": "Paul Stastny &amp; Erik Johnson  assist on Tyson Barrie's 11th goal of the season with 52 seconds left in the 3rd period to tie the game.", 
   "label": "O", 
   "id": 451926202261852162, 
   "hashtags": [], 
   "user_mentions": [], 
   "created_at": "Fri Apr 04 03:36:17 +0000 2014", 
   "retweet_count": 20, 
   "favorite_count": 68
  }, 
  {
   "text": "The puck came loose into the slot and Barrie quickly gathered it and wristed a shot into the back of the net.", 
   "label": "O", 
   "id": 451925934363271168, 
   "hashtags": [], 
   "user_mentions": [], 
   "created_at": "Fri Apr 04 03:35:13 +0000 2014", 
   "retweet_count": 20, 
   "favorite_count": 51
  }, 
  {
   "text": "Tyson \"Clutch\" Barrie.", 
   "label": "O", 
   "id": 451925709577924608, 
   "hashtags": [], 
   "user_mentions": [], 
   "created_at": "Fri Apr 04 03:34:20 +0000 2014", 
   "retweet_count": 173, 
   "favorite_count": 203
  }, 
  {
   "text": "TYSON BARRIE WITH THE SHOT!", 
   "label": "O", 
   "id": 451925648353677312, 
   "hashtags": [], 
   "user_mentions": [], 
   "created_at": "Fri Apr 04 03:34:05 +0000 2014", 
   "retweet_count": 79, 
   "favorite_count": 142
  }, 
  {
   "text": "AVS GOAL! Guess who?", 
   "label": "O", 
   "id": 451925586886144003, 
   "hashtags": [], 
   "user_mentions": [], 
   "created_at": "Fri Apr 04 03:33:50 +0000 2014", 
   "retweet_count": 68, 
   "favorite_count": 116
  }, 
  {
   "text": "#GoAvsGo", 
   "label": "O", 
   "id": 451925439301185536, 
   "hashtags": [
    "GoAvsGo"
   ], 
   "user_mentions": [], 
   "created_at": "Fri Apr 04 03:33:15 +0000 2014", 
   "retweet_count": 27, 
   "favorite_count": 46
  }, 
  {
   "text": "#NYR ices the puck. Colorado calls timeout. Faceoff in Rangers' end with 59.3 seconds left.", 
   "label": "O", 
   "id": 451925323534192641, 
   "hashtags": [
    "NYR"
   ], 
   "user_mentions": [], 
   "created_at": "Fri Apr 04 03:32:48 +0000 2014", 
   "retweet_count": 6, 
   "favorite_count": 5
  }, 
  {
   "text": "Faceoff to the left of Lundqvist with 1:30 to go.", 
   "label": "O", 
   "id": 451925012199383040, 
   "hashtags": [], 
   "user_mentions": [], 
   "created_at": "Fri Apr 04 03:31:33 +0000 2014", 
   "retweet_count": 1, 
   "favorite_count": 6
  }, 
  {
   "text": "Varly to the bench with 2:07 left.", 
   "label": "O", 
   "id": 451924661685600256, 
   "hashtags": [], 
   "user_mentions": [], 
   "created_at": "Fri Apr 04 03:30:10 +0000 2014", 
   "retweet_count": 5, 
   "favorite_count": 10
  }, 
  {
   "text": "Congratulations to tonight's AT&amp;T #AvsPrizeTime winner! http://t.co/CBAn4lTBte", 
   "label": "O", 
   "id": 451924486112030721, 
   "hashtags": [
    "AvsPrizeTime"
   ], 
   "user_mentions": [], 
   "created_at": "Fri Apr 04 03:29:28 +0000 2014", 
   "retweet_count": 1, 
   "favorite_count": 21
  }, 
  {
   "text": "#Avs pressing. Get a couple good looks. No goal yet.", 
   "label": "O", 
   "id": 451924371934679041, 
   "hashtags": [
    "Avs"
   ], 
   "user_mentions": [], 
   "created_at": "Fri Apr 04 03:29:01 +0000 2014", 
   "retweet_count": 1, 
   "favorite_count": 7
  }, 
  {
   "text": "Landeskog called for slashing with 12:34 left in the 3rd period.", 
   "label": "O", 
   "id": 451919543045087232, 
   "hashtags": [], 
   "user_mentions": [], 
   "created_at": "Fri Apr 04 03:09:49 +0000 2014", 
   "retweet_count": 1, 
   "favorite_count": 11
  }, 
  {
   "text": "Shot by Benoit at blue line, rebound and shot by Landeskog, but denied by Lundqvist.", 
   "label": "O", 
   "id": 451918127580708864, 
   "hashtags": [], 
   "user_mentions": [], 
   "created_at": "Fri Apr 04 03:04:12 +0000 2014", 
   "retweet_count": 2, 
   "favorite_count": 14
  }, 
  {
   "text": "New York Rangers penalty on Dominic Moore for slashing at 2:29 of the third period.", 
   "label": "O", 
   "id": 451917818804441089, 
   "hashtags": [], 
   "user_mentions": [], 
   "created_at": "Fri Apr 04 03:02:58 +0000 2014", 
   "retweet_count": 1, 
   "favorite_count": 7
  }, 
  {
   "text": "Third period is underway. #GoAvsGo", 
   "label": "O", 
   "id": 451916616331046912, 
   "hashtags": [
    "GoAvsGo"
   ], 
   "user_mentions": [], 
   "created_at": "Fri Apr 04 02:58:12 +0000 2014", 
   "retweet_count": 13, 
   "favorite_count": 21
  }, 
  {
   "text": "John Mitchell assisted on Benoit's goal and now has 29 points this season, tying his career best in scoring (TOR in 2008-09).", 
   "label": "O", 
   "id": 451913670662967296, 
   "hashtags": [], 
   "user_mentions": [], 
   "created_at": "Fri Apr 04 02:46:29 +0000 2014", 
   "retweet_count": 5, 
   "favorite_count": 15
  }, 
  {
   "text": "#Avs trail Rangers 2-1 after the 2nd period. Andre Benoit scored for Colorado in the period.", 
   "label": "O", 
   "id": 451912084427509760, 
   "hashtags": [
    "Avs"
   ], 
   "user_mentions": [], 
   "created_at": "Fri Apr 04 02:40:11 +0000 2014", 
   "retweet_count": 4, 
   "favorite_count": 8
  }, 
  {
   "text": "Gabriel Landeskog called for tripping with 19 seconds left in the 2nd period.", 
   "label": "O", 
   "id": 451911862888570880, 
   "hashtags": [], 
   "user_mentions": [], 
   "created_at": "Fri Apr 04 02:39:18 +0000 2014", 
   "retweet_count": 0, 
   "favorite_count": 13
  }, 
  {
   "text": "#NYR penalty on Derick Brassard for holding with 49 seconds left in the period. #GoAvsGo", 
   "label": "O", 
   "id": 451911455927853057, 
   "hashtags": [
    "NYR", 
    "GoAvsGo"
   ], 
   "user_mentions": [], 
   "created_at": "Fri Apr 04 02:37:41 +0000 2014", 
   "retweet_count": 2, 
   "favorite_count": 7
  }, 
  {
   "text": "#Avs back at full strength after the penalty kill.", 
   "label": "O", 
   "id": 451910962799333376, 
   "hashtags": [
    "Avs"
   ], 
   "user_mentions": [], 
   "created_at": "Fri Apr 04 02:35:44 +0000 2014", 
   "retweet_count": 3, 
   "favorite_count": 15
  }, 
  {
   "text": "Colorado penalty on John Mitchell for interference with 4:05 left in the 2nd period.", 
   "label": "O", 
   "id": 451910103579377664, 
   "hashtags": [], 
   "user_mentions": [], 
   "created_at": "Fri Apr 04 02:32:19 +0000 2014", 
   "retweet_count": 1, 
   "favorite_count": 4
  }, 
  {
   "text": "Derek Stephan scores on a nice shot over Varlamov's shoulder to give #NYR the lead.", 
   "label": "O", 
   "id": 451909741963247616, 
   "hashtags": [
    "NYR"
   ], 
   "user_mentions": [], 
   "created_at": "Fri Apr 04 02:30:53 +0000 2014", 
   "retweet_count": 8, 
   "favorite_count": 9
  }, 
  {
   "text": "McLeod slid into the end wall in the #Rangers zone and was down for a bit. Helped off and into the dressing room \u2026 #AvsVsRangers", 
   "label": "O", 
   "id": 451908679457972224, 
   "hashtags": [
    "Rangers", 
    "AvsVsRangers"
   ], 
   "user_mentions": [], 
   "created_at": "Fri Apr 04 02:26:39 +0000 2014", 
   "retweet_count": 4, 
   "favorite_count": 8
  }, 
  {
   "text": "Colorado's Cody McLeod called for holding with 8:50 left in the 2nd period.", 
   "label": "O", 
   "id": 451907076931874817, 
   "hashtags": [], 
   "user_mentions": [], 
   "created_at": "Fri Apr 04 02:20:17 +0000 2014", 
   "retweet_count": 2, 
   "favorite_count": 6
  }, 
  {
   "text": "Pass in front to EJ for a tip just misses.", 
   "label": "O", 
   "id": 451906418619056128, 
   "hashtags": [], 
   "user_mentions": [], 
   "created_at": "Fri Apr 04 02:17:40 +0000 2014", 
   "retweet_count": 0, 
   "favorite_count": 7
  }, 
  {
   "text": "#Avs go on the power play for the 2nd time tonight. #GoAvsGo", 
   "label": "O", 
   "id": 451906116025196544, 
   "hashtags": [
    "Avs", 
    "GoAvsGo"
   ], 
   "user_mentions": [], 
   "created_at": "Fri Apr 04 02:16:28 +0000 2014", 
   "retweet_count": 6, 
   "favorite_count": 19
  }, 
  {
   "text": "New York Rangers penalty on Derick Brassard for hooking with 11:22 left in the 2nd period.", 
   "label": "O", 
   "id": 451906019405221888, 
   "hashtags": [], 
   "user_mentions": [], 
   "created_at": "Fri Apr 04 02:16:05 +0000 2014", 
   "retweet_count": 2, 
   "favorite_count": 9
  }, 
  {
   "text": "Another #Avs 2-on-1, a mad scramble in front and somehow the puck stays out.", 
   "label": "O", 
   "id": 451905022511431680, 
   "hashtags": [
    "Avs"
   ], 
   "user_mentions": [], 
   "created_at": "Fri Apr 04 02:12:08 +0000 2014", 
   "retweet_count": 1, 
   "favorite_count": 14
  }, 
  {
   "text": "Andre Benoit's 7th goal of the season was at 5:57 of the 2nd period.", 
   "label": "O", 
   "id": 451904531710767104, 
   "hashtags": [], 
   "user_mentions": [], 
   "created_at": "Fri Apr 04 02:10:11 +0000 2014", 
   "retweet_count": 5, 
   "favorite_count": 20
  }, 
  {
   "text": "Tie game, 1-1.", 
   "label": "O", 
   "id": 451904248356155392, 
   "hashtags": [], 
   "user_mentions": [], 
   "created_at": "Fri Apr 04 02:09:03 +0000 2014", 
   "retweet_count": 18, 
   "favorite_count": 38
  }, 
  {
   "text": "O'Reilly made a great feed up the wall to Mitchell for a 2-on-1 chance. Another nice pass by Mitchell to Benoit for a backhand goal.", 
   "label": "O", 
   "id": 451904151111208960, 
   "hashtags": [], 
   "user_mentions": [], 
   "created_at": "Fri Apr 04 02:08:40 +0000 2014", 
   "retweet_count": 19, 
   "favorite_count": 35
  }, 
  {
   "text": "AVS GOAL! Great passing leads to a 2-on-1 and a Benoit score!", 
   "label": "O", 
   "id": 451903941492473857, 
   "hashtags": [], 
   "user_mentions": [], 
   "created_at": "Fri Apr 04 02:07:50 +0000 2014", 
   "retweet_count": 52, 
   "favorite_count": 84
  }, 
  {
   "text": "A couple good chances by Colorado in front of the NYR net, but Lundqvist comes up big each time.", 
   "label": "O", 
   "id": 451903803495706626, 
   "hashtags": [], 
   "user_mentions": [], 
   "created_at": "Fri Apr 04 02:07:17 +0000 2014", 
   "retweet_count": 2, 
   "favorite_count": 5
  }, 
  {
   "text": "Nice tic-tac-toe passing by the #Avs but Lundqvist stops Stastny's close shot.", 
   "label": "O", 
   "id": 451902334679797760, 
   "hashtags": [
    "Avs"
   ], 
   "user_mentions": [], 
   "created_at": "Fri Apr 04 02:01:27 +0000 2014", 
   "retweet_count": 5, 
   "favorite_count": 18
  }, 
  {
   "text": "A quick NYR shot and a Varlamov kick save. #VarlyVarly", 
   "label": "O", 
   "id": 451901934966816768, 
   "hashtags": [
    "VarlyVarly"
   ], 
   "user_mentions": [], 
   "created_at": "Fri Apr 04 01:59:51 +0000 2014", 
   "retweet_count": 4, 
   "favorite_count": 19
  }, 
  {
   "text": "Puck is dropped. Second period is a go. #GameOn", 
   "label": "O", 
   "id": 451901574642548736, 
   "hashtags": [
    "GameOn"
   ], 
   "user_mentions": [], 
   "created_at": "Fri Apr 04 01:58:25 +0000 2014", 
   "retweet_count": 4, 
   "favorite_count": 22
  }, 
  {
   "text": "Both teams are back on the ice. 2nd period is about to get underway.", 
   "label": "O", 
   "id": 451901343247003648, 
   "hashtags": [], 
   "user_mentions": [], 
   "created_at": "Fri Apr 04 01:57:30 +0000 2014", 
   "retweet_count": 7, 
   "favorite_count": 13
  }, 
  {
   "text": "RT @AltitudePodcast: AUDIO: Avs trail Rangers 1-0 after 1. Hilights right here. http://t.co/Dgvo65jhci", 
   "label": "O", 
   "id": 451899249379127296, 
   "hashtags": [], 
   "user_mentions": [
    "AltitudePodcast"
   ], 
   "created_at": "Fri Apr 04 01:49:11 +0000 2014", 
   "retweet_count": 2, 
   "favorite_count": 0
  }, 
  {
   "text": "Shots after the 1st period: COL - 9, NYR - 8. More stats --&gt; http://t.co/e72HGSIXxq", 
   "label": "O", 
   "id": 451897267067187200, 
   "hashtags": [], 
   "user_mentions": [], 
   "created_at": "Fri Apr 04 01:41:18 +0000 2014", 
   "retweet_count": 4, 
   "favorite_count": 8
  }, 
  {
   "text": "The first period comes to an end with the Rangers leading the #Avs 1-0.", 
   "label": "O", 
   "id": 451896892381597696, 
   "hashtags": [
    "Avs"
   ], 
   "user_mentions": [], 
   "created_at": "Fri Apr 04 01:39:49 +0000 2014", 
   "retweet_count": 7, 
   "favorite_count": 3
  }, 
  {
   "text": "#Avs kill off the penalty and are back at full strength.", 
   "label": "O", 
   "id": 451896426457341952, 
   "hashtags": [
    "Avs"
   ], 
   "user_mentions": [], 
   "created_at": "Fri Apr 04 01:37:58 +0000 2014", 
   "retweet_count": 6, 
   "favorite_count": 13
  }, 
  {
   "text": "Colorado penalty on Gabriel Landeskog for hooking with 3:10 left in the 1st period.", 
   "label": "O", 
   "id": 451895922545266688, 
   "hashtags": [], 
   "user_mentions": [], 
   "created_at": "Fri Apr 04 01:35:58 +0000 2014", 
   "retweet_count": 3, 
   "favorite_count": 9
  }, 
  {
   "text": "It's AT&amp;T #AvsPrizeTime! The 1st to find Bernie &amp; say THE ASSISTANT wins a stick signed by Paul Stastny!", 
   "label": "O", 
   "id": 451894628430909441, 
   "hashtags": [
    "AvsPrizeTime"
   ], 
   "user_mentions": [], 
   "created_at": "Fri Apr 04 01:30:49 +0000 2014", 
   "retweet_count": 1, 
   "favorite_count": 7
  }, 
  {
   "text": "RT @WagsCA: @Avalanche game versus @NYRangers ...hmmm starting to become a hockey fan.Conflicted hockey more fun than football! http://t.co\u2026", 
   "label": "O", 
   "id": 451893962735751168, 
   "hashtags": [], 
   "user_mentions": [
    "WagsCA", 
    "Avalanche", 
    "NYRangers"
   ], 
   "created_at": "Fri Apr 04 01:28:11 +0000 2014", 
   "retweet_count": 7, 
   "favorite_count": 0
  }, 
  {
   "text": "The penalty occurred after a #LandyMacSandwich", 
   "label": "O", 
   "id": 451893671072239616, 
   "hashtags": [
    "LandyMacSandwich"
   ], 
   "user_mentions": [], 
   "created_at": "Fri Apr 04 01:27:01 +0000 2014", 
   "retweet_count": 21, 
   "favorite_count": 36
  }, 
  {
   "text": "#NYR penalty on Derek Dorsett for slashing with 6:27 left in the 1st period.", 
   "label": "O", 
   "id": 451893548103659520, 
   "hashtags": [
    "NYR"
   ], 
   "user_mentions": [], 
   "created_at": "Fri Apr 04 01:26:32 +0000 2014", 
   "retweet_count": 3, 
   "favorite_count": 5
  }, 
  {
   "text": "Landy makes a quick feed to Kid Mac for a 2-on-1, but MacKinnon's wrister is stopped by Lundqvist.", 
   "label": "O", 
   "id": 451892006654980096, 
   "hashtags": [], 
   "user_mentions": [], 
   "created_at": "Fri Apr 04 01:20:24 +0000 2014", 
   "retweet_count": 5, 
   "favorite_count": 16
  }, 
  {
   "text": "Back-to-back saves by #VarlyVarly from close range.", 
   "label": "O", 
   "id": 451891041881186304, 
   "hashtags": [
    "VarlyVarly"
   ], 
   "user_mentions": [], 
   "created_at": "Fri Apr 04 01:16:34 +0000 2014", 
   "retweet_count": 7, 
   "favorite_count": 33
  }, 
  {
   "text": "Rangers strike first on a shot from the point and past a screened Semyon Varlamov.", 
   "label": "O", 
   "id": 451889719861723136, 
   "hashtags": [], 
   "user_mentions": [], 
   "created_at": "Fri Apr 04 01:11:19 +0000 2014", 
   "retweet_count": 8, 
   "favorite_count": 7
  }, 
  {
   "text": "The puck is dropped and tonight's game is underway. #AvsVsNYR #GoAvsGo", 
   "label": "O", 
   "id": 451889104754466816, 
   "hashtags": [
    "AvsVsNYR", 
    "GoAvsGo"
   ], 
   "user_mentions": [], 
   "created_at": "Fri Apr 04 01:08:52 +0000 2014", 
   "retweet_count": 22, 
   "favorite_count": 32
  }, 
  {
   "text": "#GoAvsGo, anyone?", 
   "label": "O", 
   "id": 451888909195026432, 
   "hashtags": [
    "GoAvsGo"
   ], 
   "user_mentions": [], 
   "created_at": "Fri Apr 04 01:08:06 +0000 2014", 
   "retweet_count": 73, 
   "favorite_count": 117
  }, 
  {
   "text": "Now playing @Pepsi_Center! --&gt; http://t.co/jyRZP0y5it\n\n\"We Are the Avalanche!\" http://t.co/CIP8Xu1bjs", 
   "label": "O", 
   "id": 451887654959738880, 
   "hashtags": [], 
   "user_mentions": [
    "Pepsi_Center"
   ], 
   "created_at": "Fri Apr 04 01:03:07 +0000 2014", 
   "retweet_count": 65, 
   "favorite_count": 115
  }, 
  {
   "text": "New York scratches: Chris Kreider, Ryan McDonagh, Ryan Haggerty &amp; Justin Falk.", 
   "label": "O", 
   "id": 451886608321499136, 
   "hashtags": [], 
   "user_mentions": [], 
   "created_at": "Fri Apr 04 00:58:57 +0000 2014", 
   "retweet_count": 2, 
   "favorite_count": 6
  }, 
  {
   "text": "Colorado scratches: Reto Berra, Matt Duchene, PA Parenteau, Cory Sarich &amp; Ryan Wilson.", 
   "label": "O", 
   "id": 451886539291639808, 
   "hashtags": [], 
   "user_mentions": [], 
   "created_at": "Fri Apr 04 00:58:41 +0000 2014", 
   "retweet_count": 7, 
   "favorite_count": 5
  }, 
  {
   "text": "#Avs starting lineup: Fwds: Gabriel Landeskog, Paul Stastny, Nathan MacKinnon; Def: Erik Johnson, Jan Hejda; Goalie: Semyon Varlamov.", 
   "label": "O", 
   "id": 451886102031265792, 
   "hashtags": [
    "Avs"
   ], 
   "user_mentions": [], 
   "created_at": "Fri Apr 04 00:56:57 +0000 2014", 
   "retweet_count": 15, 
   "favorite_count": 41
  }, 
  {
   "text": "The Rangers' starters tonight: Fwds: Rick Nash, Derek Stephan, Carl Hagelin; Def: Anton Stralman, Marc Staal; Goalie: Henrik Lundqvist.", 
   "label": "O", 
   "id": 451885848909201410, 
   "hashtags": [], 
   "user_mentions": [], 
   "created_at": "Fri Apr 04 00:55:56 +0000 2014", 
   "retweet_count": 2, 
   "favorite_count": 7
  }, 
  {
   "text": "The #Avs have 48 wins this season, third most in franchise history. They can move into a tie for second with a victory tonight. #GoAvsGo", 
   "label": "O", 
   "id": 451885039358205952, 
   "hashtags": [
    "Avs", 
    "GoAvsGo"
   ], 
   "user_mentions": [], 
   "created_at": "Fri Apr 04 00:52:43 +0000 2014", 
   "retweet_count": 23, 
   "favorite_count": 39
  }, 
  {
   "text": "RT @RadioMoser: Getting closer.... http://t.co/LZHoII79Ev", 
   "label": "O", 
   "id": 451876032790814720, 
   "hashtags": [], 
   "user_mentions": [
    "RadioMoser"
   ], 
   "created_at": "Fri Apr 04 00:16:56 +0000 2014", 
   "retweet_count": 13, 
   "favorite_count": 0
  }, 
  {
   "text": "#Avs are 27-4-6 in one-goal games this season -- the @NHL's best mark (.730) --&gt; http://t.co/gs0WI4APhE http://t.co/PihnXAi5FF", 
   "label": "O", 
   "id": 451874830682300416, 
   "hashtags": [
    "Avs"
   ], 
   "user_mentions": [
    "NHL"
   ], 
   "created_at": "Fri Apr 04 00:12:09 +0000 2014", 
   "retweet_count": 18, 
   "favorite_count": 39
  }, 
  {
   "text": "Heading to the game tonight? Watch for AT&amp;T #AvsPrizeTime for a chance to win a stick signed by Paul Stastny!", 
   "label": "O", 
   "id": 451872387962011649, 
   "hashtags": [
    "AvsPrizeTime"
   ], 
   "user_mentions": [], 
   "created_at": "Fri Apr 04 00:02:27 +0000 2014", 
   "retweet_count": 1, 
   "favorite_count": 13
  }, 
  {
   "text": "The Avs are 20-9-1 against Eastern Conference teams this year, including a 9-4-1 mark at home. #GoAvsGo", 
   "label": "O", 
   "id": 451861541424357377, 
   "hashtags": [
    "GoAvsGo"
   ], 
   "user_mentions": [], 
   "created_at": "Thu Apr 03 23:19:21 +0000 2014", 
   "retweet_count": 20, 
   "favorite_count": 37
  }, 
  {
   "text": "RT @5050Colorado: #5050 tix go on sale soon @Avalanche fans.  Support youth sports and have a chance to win $$  #Avs #AvsVsRangers #GoAvsGo", 
   "label": "O", 
   "id": 451857650154614784, 
   "hashtags": [
    "Avs", 
    "AvsVsRangers", 
    "GoAvsGo"
   ], 
   "user_mentions": [
    "5050Colorado", 
    "Avalanche"
   ], 
   "created_at": "Thu Apr 03 23:03:53 +0000 2014", 
   "retweet_count": 2, 
   "favorite_count": 0
  }, 
  {
   "text": "Gabriel Landeskog has five goals and seven points in the last four games. #GoAvsGo #CaptainClutch", 
   "label": "O", 
   "id": 451857019767500800, 
   "hashtags": [
    "GoAvsGo", 
    "CaptainClutch"
   ], 
   "user_mentions": [], 
   "created_at": "Thu Apr 03 23:01:23 +0000 2014", 
   "retweet_count": 41, 
   "favorite_count": 102
  }, 
  {
   "text": "#VarlyVarly should get at least four more regular-season starts for playoff-bound #Avs --&gt; http://t.co/MK5OPZAAbV http://t.co/QnIUnifc6c", 
   "label": "O", 
   "id": 451851986355240960, 
   "hashtags": [
    "VarlyVarly", 
    "Avs"
   ], 
   "user_mentions": [], 
   "created_at": "Thu Apr 03 22:41:23 +0000 2014", 
   "retweet_count": 12, 
   "favorite_count": 60
  }, 
  {
   "text": ".@Mackinnon9 will be back on the wing tonight v. the #Rangers. Full #Avs' lines --&gt; http://t.co/dumaU8lb9J http://t.co/3n3T78JSE3", 
   "label": "O", 
   "id": 451834248836567040, 
   "hashtags": [
    "Rangers", 
    "Avs"
   ], 
   "user_mentions": [
    "Mackinnon9"
   ], 
   "created_at": "Thu Apr 03 21:30:54 +0000 2014", 
   "retweet_count": 33, 
   "favorite_count": 81
  }, 
  {
   "text": "#Avs have chance for a little payback tonight v. the @NYRangers. \n\nPREGAME READ: http://t.co/dumaU8lb9J http://t.co/qzjQGqp7Ar", 
   "label": "O", 
   "id": 451810688579534848, 
   "hashtags": [
    "Avs"
   ], 
   "user_mentions": [
    "NYRangers"
   ], 
   "created_at": "Thu Apr 03 19:57:17 +0000 2014", 
   "retweet_count": 36, 
   "favorite_count": 66
  }, 
  {
   "text": "Nathan MacKinnon, Ryan O'Reilly, Gabe Landeskog &amp; Jamie McGinn talk about facing #NYR tonight: http://t.co/VpDZV8Gjyg http://t.co/ZYtf3801Cy", 
   "label": "O", 
   "id": 451796942540926976, 
   "hashtags": [
    "NYR"
   ], 
   "user_mentions": [], 
   "created_at": "Thu Apr 03 19:02:39 +0000 2014", 
   "retweet_count": 13, 
   "favorite_count": 65
  }, 
  {
   "text": "MORNING ROY: #Avs coach Patrick Roy talks lineup &amp; tonight's game vs. #NYR. WATCH: http://t.co/GzXYKcwWD8 http://t.co/rAvdlTkW8i", 
   "label": "O", 
   "id": 451786434471403520, 
   "hashtags": [
    "Avs", 
    "NYR"
   ], 
   "user_mentions": [], 
   "created_at": "Thu Apr 03 18:20:54 +0000 2014", 
   "retweet_count": 7, 
   "favorite_count": 25
  }, 
  {
   "text": "#AvsVsNYR Radio Preview MT @AltitudePodcast: AUDIO: Avs-NYR Pod. Cody McLeod, Brad Malone, Ryan O'Reilly &amp; Coach Roy. http://t.co/ChNkN26PMH", 
   "label": "O", 
   "id": 451778428224544768, 
   "hashtags": [
    "AvsVsNYR"
   ], 
   "user_mentions": [
    "AltitudePodcast"
   ], 
   "created_at": "Thu Apr 03 17:49:05 +0000 2014", 
   "retweet_count": 4, 
   "favorite_count": 6
  }, 
  {
   "text": ". @Max25talbot will center the #Avs' third line between Cody McLeod and Patrick Bordeleau.", 
   "label": "O", 
   "id": 451777696712777728, 
   "hashtags": [
    "Avs"
   ], 
   "user_mentions": [
    "Max25talbot"
   ], 
   "created_at": "Thu Apr 03 17:46:11 +0000 2014", 
   "retweet_count": 10, 
   "favorite_count": 31
  }, 
  {
   "text": "Roy said he will go with the same lines that he finished the #CBJ with. 90-7-11, 92-26-29.", 
   "label": "O", 
   "id": 451775891060715520, 
   "hashtags": [
    "CBJ"
   ], 
   "user_mentions": [], 
   "created_at": "Thu Apr 03 17:39:00 +0000 2014", 
   "retweet_count": 15, 
   "favorite_count": 32
  }, 
  {
   "text": "Roy on tonight's game vs. #NYR: \"We have to approach it like we have the last few games.\"", 
   "label": "O", 
   "id": 451775157355286528, 
   "hashtags": [
    "NYR"
   ], 
   "user_mentions": [], 
   "created_at": "Thu Apr 03 17:36:05 +0000 2014", 
   "retweet_count": 10, 
   "favorite_count": 31
  }, 
  {
   "text": "#Gameday #Avalanche #Rangers #TheA #PepsiCenter http://t.co/NqkSTFm4NQ", 
   "label": "O", 
   "id": 451761969692160001, 
   "hashtags": [
    "Gameday", 
    "Avalanche", 
    "Rangers", 
    "TheA", 
    "PepsiCenter"
   ], 
   "user_mentions": [], 
   "created_at": "Thu Apr 03 16:43:41 +0000 2014", 
   "retweet_count": 12, 
   "favorite_count": 22
  }, 
  {
   "text": "Varlamov is 23-9-3 on home ice this year. Varly's 38 wins overall lead the NHL and are 2 shy of Roy's record set in 2000-01. #GoAvsGo", 
   "label": "O", 
   "id": 451760640789475328, 
   "hashtags": [
    "GoAvsGo"
   ], 
   "user_mentions": [], 
   "created_at": "Thu Apr 03 16:38:24 +0000 2014", 
   "retweet_count": 51, 
   "favorite_count": 64
  }, 
  {
   "text": "Tonight, Semyon Varlamov will look to tie Patrick Roy's franchise record for most home wins in a single season (24 in 2000-01). #AvsNotes", 
   "label": "O", 
   "id": 451759885982507008, 
   "hashtags": [
    "AvsNotes"
   ], 
   "user_mentions": [], 
   "created_at": "Thu Apr 03 16:35:24 +0000 2014", 
   "retweet_count": 45, 
   "favorite_count": 70
  }, 
  {
   "text": "Colorado is 10-3-0 in its last 13 games vs. New York Rangers and is 13-4-0 in the last 17 meetings. #AvsNotes #GoAvsGo", 
   "label": "O", 
   "id": 451757872498491392, 
   "hashtags": [
    "AvsNotes", 
    "GoAvsGo"
   ], 
   "user_mentions": [], 
   "created_at": "Thu Apr 03 16:27:24 +0000 2014", 
   "retweet_count": 18, 
   "favorite_count": 34
  }, 
  {
   "text": "Tonight is the 2nd &amp; final meeting of the season between the #Avs &amp; the Rangers. The teams played Feb. 4 in New York. #GoAvsGo", 
   "label": "O", 
   "id": 451757113656627200, 
   "hashtags": [
    "Avs", 
    "GoAvsGo"
   ], 
   "user_mentions": [], 
   "created_at": "Thu Apr 03 16:24:23 +0000 2014", 
   "retweet_count": 4, 
   "favorite_count": 21
  }, 
  {
   "text": "#AvsVsNYR tonight at Pepsi Center. Game time is at 7 p.m. MT. Watch it live on @AltitudeTV. #GoAvsGo", 
   "label": "O", 
   "id": 451754378349645825, 
   "hashtags": [
    "AvsVsNYR", 
    "GoAvsGo"
   ], 
   "user_mentions": [
    "AltitudeTV"
   ], 
   "created_at": "Thu Apr 03 16:13:31 +0000 2014", 
   "retweet_count": 15, 
   "favorite_count": 27
  }, 
  {
   "text": "10 a.m. MT Saturday, in fact! RT @Steven_Landon: #Avs playoff tickets go on sale soon! http://t.co/wrwI679ydt", 
   "label": "O", 
   "id": 451748714445430785, 
   "hashtags": [
    "Avs"
   ], 
   "user_mentions": [
    "Steven_Landon"
   ], 
   "created_at": "Thu Apr 03 15:51:01 +0000 2014", 
   "retweet_count": 28, 
   "favorite_count": 64
  }, 
  {
   "text": "#VarlyVarly tonight v. the @NYRangers can pull w/in 1 W of #Roy's #Avs single-season mark --&gt; http://t.co/2Z4JUBaQG7 http://t.co/8rUd41fCDE", 
   "label": "O", 
   "id": 451717121991397377, 
   "hashtags": [
    "VarlyVarly", 
    "Roy", 
    "Avs"
   ], 
   "user_mentions": [
    "NYRangers"
   ], 
   "created_at": "Thu Apr 03 13:45:29 +0000 2014", 
   "retweet_count": 54, 
   "favorite_count": 113
  }, 
  {
   "text": "#Avs and #VarlyVarly look tomorrow for 11th win in past 14 games vs. the @NYRangers --&gt; http://t.co/2Z4JUBaQG7 http://t.co/RbTrAc6DWn", 
   "label": "O", 
   "id": 451576034974916608, 
   "hashtags": [
    "Avs", 
    "VarlyVarly"
   ], 
   "user_mentions": [
    "NYRangers"
   ], 
   "created_at": "Thu Apr 03 04:24:51 +0000 2014", 
   "retweet_count": 45, 
   "favorite_count": 110
  }
 ]
}