{
 "num_road_team_goals": "4", 
 "home_team": "San Jose Sharks", 
 "num_home_team_goals": "5", 
 "summary_url": "http://www.flyershistory.com/cgi-bin/poboxscore.cgi?H20131139", 
 "result": "W", 
 "road_team": "Edmonton Oilers", 
 "date": "2014-04-01", 
 "goals": [
  {
   "season_index": "3", 
   "strength": "(EV)", 
   "time": "3:11", 
   "period": "1", 
   "player": "A.Desjardins", 
   "assists": "(T.Kennedy, J.Demers)", 
   "game_index": "1", 
   "team": "S.J"
  }, 
  {
   "season_index": "26", 
   "strength": "(PP)", 
   "time": "12:34", 
   "period": "1", 
   "player": "T.Hall", 
   "assists": "(R.Nugent-Hopkins, J.Eberle)", 
   "game_index": "2", 
   "team": "EDM"
  }, 
  {
   "season_index": "11", 
   "strength": "(EV)", 
   "time": "15:54", 
   "period": "1", 
   "player": "D.Boyle", 
   "assists": "(J.Thornton)", 
   "game_index": "3", 
   "team": "S.J"
  }, 
  {
   "season_index": "16", 
   "strength": "(EV)", 
   "time": "2:45", 
   "period": "2", 
   "player": "T.Wingels", 
   "assists": "(B.Stuart, J.Braun)", 
   "game_index": "4", 
   "team": "S.J"
  }, 
  {
   "season_index": "17", 
   "strength": "(EV)", 
   "time": "13:04", 
   "period": "2", 
   "player": "R.Nugent-Hopkins", 
   "assists": "(A.Belov, T.Hall)", 
   "game_index": "5", 
   "team": "EDM"
  }, 
  {
   "season_index": "25", 
   "strength": "(EV)", 
   "time": "13:42", 
   "period": "2", 
   "player": "J.Eberle", 
   "assists": "(O.Klefbom, T.Hall)", 
   "game_index": "6", 
   "team": "EDM"
  }, 
  {
   "season_index": "18", 
   "strength": "(EV)", 
   "time": "6:16", 
   "period": "3", 
   "player": "R.Nugent-Hopkins", 
   "assists": "(J.Eberle, T.Hall)", 
   "game_index": "7", 
   "team": "EDM"
  }, 
  {
   "season_index": "22", 
   "strength": "(EV)", 
   "time": "10:35", 
   "period": "3", 
   "player": "B.Burns", 
   "assists": "(J.Thornton, J.Pavelski)", 
   "game_index": "8", 
   "team": "S.J"
  }, 
  {
   "season_index": "32", 
   "strength": "(PP)", 
   "time": "12:31", 
   "period": "3", 
   "player": "P.Marleau", 
   "assists": "(J.Pavelski, B.Burns)", 
   "game_index": "9", 
   "team": "S.J"
  }
 ], 
 "tweets": [
  {
   "text": "VIDEOS: Watch @TommyWingels grow a #SJSharks lead to 3-1 here in the 2nd frame. http://t.co/87TXLK9OrP", 
   "label": "O", 
   "id": 451205911734808576, 
   "hashtags": [
    "SJSharks"
   ], 
   "user_mentions": [
    "TommyWingels"
   ], 
   "created_at": "Wed Apr 02 03:54:07 +0000 2014", 
   "retweet_count": 11, 
   "favorite_count": 16
  }, 
  {
   "text": "#SJSharks have outshot Hall and Oil crew 10-2 halfway through the 2nd after being outshot 9-6 in the 1st.", 
   "label": "O", 
   "id": 451205420917334016, 
   "hashtags": [
    "SJSharks"
   ], 
   "user_mentions": [], 
   "created_at": "Wed Apr 02 03:52:10 +0000 2014", 
   "retweet_count": 7, 
   "favorite_count": 19
  }, 
  {
   "text": "Party in the corner. Refs will not let Burns and Fraser get together, but send them to the box, Fraser gets 4 for roughing. Burns only 2.", 
   "label": "O", 
   "id": 451203702922035200, 
   "hashtags": [], 
   "user_mentions": [], 
   "created_at": "Wed Apr 02 03:45:20 +0000 2014", 
   "retweet_count": 12, 
   "favorite_count": 30
  }, 
  {
   "text": "#SJSharks GOAL! Just as the power play expires @tommywingels scores his 16th this year to puts Sharks ahead 3-1", 
   "label": "O", 
   "id": 451202758335406080, 
   "hashtags": [
    "SJSharks"
   ], 
   "user_mentions": [
    "TommyWingels"
   ], 
   "created_at": "Wed Apr 02 03:41:35 +0000 2014", 
   "retweet_count": 88, 
   "favorite_count": 101
  }, 
  {
   "text": "RT @SRobo44: Love my @SanJoseSharks app for my phone. I am in Taiwan waiting for HSR listening live to @sharkvoice call the game. http://t.\u2026", 
   "label": "O", 
   "id": 451202319263072256, 
   "hashtags": [], 
   "user_mentions": [
    "SRobo44", 
    "SanJoseSharks", 
    "sharkvoice"
   ], 
   "created_at": "Wed Apr 02 03:39:50 +0000 2014", 
   "retweet_count": 2, 
   "favorite_count": 0
  }, 
  {
   "text": "#SJSharks power play comes as Mark Fraser exits for the hook, just 45 seconds into the 2nd period.", 
   "label": "O", 
   "id": 451201726972850177, 
   "hashtags": [
    "SJSharks"
   ], 
   "user_mentions": [], 
   "created_at": "Wed Apr 02 03:37:29 +0000 2014", 
   "retweet_count": 11, 
   "favorite_count": 15
  }, 
  {
   "text": "Back underway in the 2nd, #SJSharks control a 2-1 lead over the Oilers. Catch the action on CSN-CA and KFOX 98.5/102.1", 
   "label": "O", 
   "id": 451201559804649472, 
   "hashtags": [
    "SJSharks"
   ], 
   "user_mentions": [], 
   "created_at": "Wed Apr 02 03:36:49 +0000 2014", 
   "retweet_count": 9, 
   "favorite_count": 15
  }, 
  {
   "text": "RT @Bakes_Jamie13: Great to see the 4th line get rewarded for all their hard work.  Now save a few big goals for the playoffs!", 
   "label": "O", 
   "id": 451200377707167744, 
   "hashtags": [], 
   "user_mentions": [
    "Bakes_Jamie13"
   ], 
   "created_at": "Wed Apr 02 03:32:07 +0000 2014", 
   "retweet_count": 9, 
   "favorite_count": 0
  }, 
  {
   "text": "Take away Taylor Hall's 4 shots for the Oilers that period and #SJSharks would lead that category 6-5 after twenty minutes.", 
   "label": "O", 
   "id": 451199979210567680, 
   "hashtags": [
    "SJSharks"
   ], 
   "user_mentions": [], 
   "created_at": "Wed Apr 02 03:30:32 +0000 2014", 
   "retweet_count": 6, 
   "favorite_count": 14
  }, 
  {
   "text": "VIDEO: #SJSharks lead Oilers 2-1, after one, thanks to goals from Desi and Boyle. Watch them at http://t.co/87TXLK9OrP", 
   "label": "O", 
   "id": 451197091281252353, 
   "hashtags": [
    "SJSharks"
   ], 
   "user_mentions": [], 
   "created_at": "Wed Apr 02 03:19:04 +0000 2014", 
   "retweet_count": 14, 
   "favorite_count": 21
  }, 
  {
   "text": "#SJSharks power play! Anton Lander had the high-stick, catching Boyle behind the Sharks net.1:16 left in the 1st.", 
   "label": "O", 
   "id": 451196262709075968, 
   "hashtags": [
    "SJSharks"
   ], 
   "user_mentions": [], 
   "created_at": "Wed Apr 02 03:15:46 +0000 2014", 
   "retweet_count": 10, 
   "favorite_count": 21
  }, 
  {
   "text": "RT @KirsCoachman: GOOOOOOAAAAALLLLL!!!! Boyle registers his 11th goal of the season! 2-1 #SJSharks", 
   "label": "O", 
   "id": 451195020184285184, 
   "hashtags": [
    "SJSharks"
   ], 
   "user_mentions": [
    "KirsCoachman"
   ], 
   "created_at": "Wed Apr 02 03:10:50 +0000 2014", 
   "retweet_count": 13, 
   "favorite_count": 0
  }, 
  {
   "text": "#SJSharks GOAL! Thornton wins the draw and finds Boyle who puts in his 11th this year for a 2-1 lead!", 
   "label": "O", 
   "id": 451194837039972354, 
   "hashtags": [
    "SJSharks"
   ], 
   "user_mentions": [], 
   "created_at": "Wed Apr 02 03:10:06 +0000 2014", 
   "retweet_count": 94, 
   "favorite_count": 125
  }, 
  {
   "text": "Burns and Nugent-Hopkins each head to the penalty box w/ 5 minutes left in the 1st. 4-on-4 for two minutes.", 
   "label": "O", 
   "id": 451194227171409920, 
   "hashtags": [], 
   "user_mentions": [], 
   "created_at": "Wed Apr 02 03:07:41 +0000 2014", 
   "retweet_count": 5, 
   "favorite_count": 13
  }, 
  {
   "text": "Hall shot beats Niemi on the Oilers power play and it's tied 1-1 w/ 7:26 to play in the 1st.", 
   "label": "O", 
   "id": 451192848151363585, 
   "hashtags": [], 
   "user_mentions": [], 
   "created_at": "Wed Apr 02 03:02:12 +0000 2014", 
   "retweet_count": 7, 
   "favorite_count": 10
  }, 
  {
   "text": "Boyle is called for the #SJSharks second penalty of the 1st period. Back on the PK.", 
   "label": "O", 
   "id": 451192599999549441, 
   "hashtags": [
    "SJSharks"
   ], 
   "user_mentions": [], 
   "created_at": "Wed Apr 02 03:01:13 +0000 2014", 
   "retweet_count": 3, 
   "favorite_count": 17
  }, 
  {
   "text": "Back to 5-on-5 hockey with under half a period left in the 1st. #SJSharks lead #Oilers 1-0.", 
   "label": "O", 
   "id": 451191683061788672, 
   "hashtags": [
    "SJSharks", 
    "Oilers"
   ], 
   "user_mentions": [], 
   "created_at": "Wed Apr 02 02:57:34 +0000 2014", 
   "retweet_count": 11, 
   "favorite_count": 20
  }, 
  {
   "text": "RT @KirsCoachman: Power play time!!! #chompchomp #SJSharks http://t.co/TCAS5lDleh", 
   "label": "O", 
   "id": 451190708456525824, 
   "hashtags": [
    "chompchomp", 
    "SJSharks"
   ], 
   "user_mentions": [
    "KirsCoachman"
   ], 
   "created_at": "Wed Apr 02 02:53:42 +0000 2014", 
   "retweet_count": 11, 
   "favorite_count": 0
  }, 
  {
   "text": "@ChristianLukens A's are rained out, check there or CSN-CA+. We're on both! Here's another reference: http://t.co/j2kyxaeLUd", 
   "label": "O", 
   "id": 451190519113076736, 
   "hashtags": [], 
   "user_mentions": [
    "ChristianLukens"
   ], 
   "created_at": "Wed Apr 02 02:52:57 +0000 2014", 
   "retweet_count": 0, 
   "favorite_count": 1
  }, 
  {
   "text": "Perron takes down Sheppard behind the play and #SJSharks get their first shot on the power play w/ 12 minutes remaining in the 1st.", 
   "label": "O", 
   "id": 451190182570496000, 
   "hashtags": [
    "SJSharks"
   ], 
   "user_mentions": [], 
   "created_at": "Wed Apr 02 02:51:36 +0000 2014", 
   "retweet_count": 5, 
   "favorite_count": 20
  }, 
  {
   "text": "That's a penalty killed for the #SJSharks as Demers is free to return w/ 14:12 left in the 1st. Sharks lead 1-0 and trail shot count 6-2.", 
   "label": "O", 
   "id": 451189445677445120, 
   "hashtags": [
    "SJSharks"
   ], 
   "user_mentions": [], 
   "created_at": "Wed Apr 02 02:48:41 +0000 2014", 
   "retweet_count": 14, 
   "favorite_count": 23
  }, 
  {
   "text": "RT @KirsCoachman: GOOOOOAAAALLL!!! @AndrewDesjardin gets the #SJSharks on the board with an assist from Kennedy! http://t.co/nYrjfzLP0d", 
   "label": "O", 
   "id": 451188799293632512, 
   "hashtags": [
    "SJSharks"
   ], 
   "user_mentions": [
    "KirsCoachman", 
    "AndrewDesjardin"
   ], 
   "created_at": "Wed Apr 02 02:46:07 +0000 2014", 
   "retweet_count": 15, 
   "favorite_count": 0
  }, 
  {
   "text": "Demers will sit two minutes for tripping. #SJSharks PK comes w/ 16:21 to play, just after taking a 1-0 lead.", 
   "label": "O", 
   "id": 451188663859154945, 
   "hashtags": [
    "SJSharks"
   ], 
   "user_mentions": [], 
   "created_at": "Wed Apr 02 02:45:34 +0000 2014", 
   "retweet_count": 5, 
   "favorite_count": 19
  }, 
  {
   "text": "#SJSharks GOAL! Kennedy shot rebounds to the front of the net and Desjardins is there for a Sharks 1-0 lead!", 
   "label": "O", 
   "id": 451188334409166848, 
   "hashtags": [
    "SJSharks"
   ], 
   "user_mentions": [], 
   "created_at": "Wed Apr 02 02:44:16 +0000 2014", 
   "retweet_count": 99, 
   "favorite_count": 101
  }, 
  {
   "text": "@KKurzCSN Yip Yip!", 
   "label": "O", 
   "id": 451187796430954496, 
   "hashtags": [], 
   "user_mentions": [
    "KKurzCSN"
   ], 
   "created_at": "Wed Apr 02 02:42:07 +0000 2014", 
   "retweet_count": 5, 
   "favorite_count": 17
  }, 
  {
   "text": "First thing to end up in the back of the #Oilers net is an Edmonton defenseman. That's not a goal, but action early in the 1st. #SJSharks", 
   "label": "O", 
   "id": 451187635638124544, 
   "hashtags": [
    "Oilers", 
    "SJSharks"
   ], 
   "user_mentions": [], 
   "created_at": "Wed Apr 02 02:41:29 +0000 2014", 
   "retweet_count": 13, 
   "favorite_count": 37
  }, 
  {
   "text": "We're underway in San Jose. Tune in to CSN-CA or CSN-CA+ or KFOX 98.5/102.1 or w/ our official app. So many ways to enjoy #SJSharks hockey!", 
   "label": "O", 
   "id": 451186966969597952, 
   "hashtags": [
    "SJSharks"
   ], 
   "user_mentions": [], 
   "created_at": "Wed Apr 02 02:38:50 +0000 2014", 
   "retweet_count": 9, 
   "favorite_count": 20
  }, 
  {
   "text": "RT @OwenNolan11: At the Tank waiting for the @SanJoseSharks game to start! #win", 
   "label": "O", 
   "id": 451186331058597888, 
   "hashtags": [
    "win"
   ], 
   "user_mentions": [
    "OwenNolan11", 
    "SanJoseSharks"
   ], 
   "created_at": "Wed Apr 02 02:36:18 +0000 2014", 
   "retweet_count": 18, 
   "favorite_count": 0
  }, 
  {
   "text": "In the nets: #SJSharks Antti Niemi (36-15-7, 2.35, .914) vs #Oilers Ben Scrivens (14-14-4, 2.47, .924)", 
   "label": "O", 
   "id": 451185315638554625, 
   "hashtags": [
    "SJSharks", 
    "Oilers"
   ], 
   "user_mentions": [], 
   "created_at": "Wed Apr 02 02:32:16 +0000 2014", 
   "retweet_count": 9, 
   "favorite_count": 28
  }, 
  {
   "text": "#SJSharks STARTERS:\nMarleau-Couture-Nieto,\nVlasic-Demers,\nNiemi.\nSCRATCHES: Hannan, Burish", 
   "label": "O", 
   "id": 451184803472109569, 
   "hashtags": [
    "SJSharks"
   ], 
   "user_mentions": [], 
   "created_at": "Wed Apr 02 02:30:14 +0000 2014", 
   "retweet_count": 27, 
   "favorite_count": 47
  }, 
  {
   "text": "Congrats to our #SJSharks200k winner! RT @KirsCoachman: I'm going to be live-tweeting the game tonight at SAP Center! #youvebeenwarned :)", 
   "label": "O", 
   "id": 451181730238459904, 
   "hashtags": [
    "SJSharks200k", 
    "youvebeenwarned"
   ], 
   "user_mentions": [
    "KirsCoachman"
   ], 
   "created_at": "Wed Apr 02 02:18:01 +0000 2014", 
   "retweet_count": 4, 
   "favorite_count": 22
  }, 
  {
   "text": "Tune in tonight on CSN-CA for a chance to win some tickets! We'll ask a question about the broadcast. You'll answer it for a chance to win!", 
   "label": "O", 
   "id": 451178737326120960, 
   "hashtags": [], 
   "user_mentions": [], 
   "created_at": "Wed Apr 02 02:06:08 +0000 2014", 
   "retweet_count": 7, 
   "favorite_count": 19
  }, 
  {
   "text": "#SJSharks pursuit of Pacific Title continues tonight vs. the Oilers. Preview: http://t.co/fwYP1UHnf5", 
   "label": "O", 
   "id": 451174697817112576, 
   "hashtags": [
    "SJSharks"
   ], 
   "user_mentions": [], 
   "created_at": "Wed Apr 02 01:50:05 +0000 2014", 
   "retweet_count": 10, 
   "favorite_count": 20
  }, 
  {
   "text": "One hour until #SJSharks hockey! Tweet your guess for first Sharks goal scorer with the hashtag for a chance to win a signed puck.", 
   "label": "O", 
   "id": 451169886010884096, 
   "hashtags": [
    "SJSharks"
   ], 
   "user_mentions": [], 
   "created_at": "Wed Apr 02 01:30:57 +0000 2014", 
   "retweet_count": 22, 
   "favorite_count": 39
  }, 
  {
   "text": "@dhkeller @brodiebrazilCSN yep!", 
   "label": "O", 
   "id": 451163089887449088, 
   "hashtags": [], 
   "user_mentions": [
    "dhkeller", 
    "brodiebrazilCSN"
   ], 
   "created_at": "Wed Apr 02 01:03:57 +0000 2014", 
   "retweet_count": 0, 
   "favorite_count": 0
  }, 
  {
   "text": "To confirm, tonight's #SJSharks game vs the Oilers will be broadcast on both CSN-CA and CSN-CA+ due to the A's rainout.", 
   "label": "O", 
   "id": 451162887730364416, 
   "hashtags": [
    "SJSharks"
   ], 
   "user_mentions": [], 
   "created_at": "Wed Apr 02 01:03:09 +0000 2014", 
   "retweet_count": 15, 
   "favorite_count": 20
  }, 
  {
   "text": "RT @sharkvoice: Due to the @Athletics rain-out tonight, #SJSharks v Oilers will in fact air on @CSNAuthentic-CA as most games usually do.", 
   "label": "O", 
   "id": 451159151863816192, 
   "hashtags": [
    "SJSharks"
   ], 
   "user_mentions": [
    "sharkvoice", 
    "Athletics", 
    "CSNAuthentic"
   ], 
   "created_at": "Wed Apr 02 00:48:18 +0000 2014", 
   "retweet_count": 12, 
   "favorite_count": 23
  }, 
  {
   "text": "VIDEO: #SJSharks broadcaster @DanRusanowsky has all you need to know about tonight's game vs the #Oilers. http://t.co/dEIt5n7D7E", 
   "label": "O", 
   "id": 451154733924114433, 
   "hashtags": [
    "SJSharks", 
    "Oilers"
   ], 
   "user_mentions": [
    "DanRusanowsky"
   ], 
   "created_at": "Wed Apr 02 00:30:45 +0000 2014", 
   "retweet_count": 4, 
   "favorite_count": 12
  }, 
  {
   "text": "RT @Bakes_Jamie13: RAM Trucks 3 Keys for Edmonton   @SanJoseSharks   @DanRusanowsky http://t.co/PHRbzsjiWz", 
   "label": "O", 
   "id": 451151858417930240, 
   "hashtags": [], 
   "user_mentions": [
    "Bakes_Jamie13", 
    "SanJoseSharks", 
    "DanRusanowsky"
   ], 
   "created_at": "Wed Apr 02 00:19:19 +0000 2014", 
   "retweet_count": 8, 
   "favorite_count": 0
  }, 
  {
   "text": "VIDEO: \"We've been playing pretty good as a line and hopefully it's going to continue.\" - Havlat #SJSharks http://t.co/IK4nv4ayWB", 
   "label": "O", 
   "id": 451147225318817792, 
   "hashtags": [
    "SJSharks"
   ], 
   "user_mentions": [], 
   "created_at": "Wed Apr 02 00:00:55 +0000 2014", 
   "retweet_count": 2, 
   "favorite_count": 13
  }, 
  {
   "text": "VIDEO: \"I don't really read stuff, I just go. I leave that to Pav and Jumbo.\" -@Burnzie88 #SJSharks http://t.co/sqST20zCl9", 
   "label": "O", 
   "id": 451144576674574336, 
   "hashtags": [
    "SJSharks"
   ], 
   "user_mentions": [
    "Burnzie88"
   ], 
   "created_at": "Tue Apr 01 23:50:23 +0000 2014", 
   "retweet_count": 11, 
   "favorite_count": 31
  }, 
  {
   "text": "VIDEO: \"There's some attention to detail that we have to zero in on as we prepare for playoffs.\" - McLellan. http://t.co/3CDT0dexwD", 
   "label": "O", 
   "id": 451140806444085248, 
   "hashtags": [], 
   "user_mentions": [], 
   "created_at": "Tue Apr 01 23:35:24 +0000 2014", 
   "retweet_count": 5, 
   "favorite_count": 16
  }, 
  {
   "text": "VIDEO: \"It's pretty incredible to see him get back to the player we all know he can be.\" @logancouture on Sheppard. http://t.co/iuBN25xCSa", 
   "label": "O", 
   "id": 451138202582413312, 
   "hashtags": [], 
   "user_mentions": [
    "Logancouture"
   ], 
   "created_at": "Tue Apr 01 23:25:03 +0000 2014", 
   "retweet_count": 13, 
   "favorite_count": 34
  }, 
  {
   "text": "VIDEO: @JasonDemers5 gets a #BurishBomb from \"it can't be Pavelski...too big for Pavelski.\" http://t.co/UtZd26UylR http://t.co/L8JEdc0oIo", 
   "label": "O", 
   "id": 451133730619273216, 
   "hashtags": [
    "BurishBomb"
   ], 
   "user_mentions": [
    "jasondemers5"
   ], 
   "created_at": "Tue Apr 01 23:07:17 +0000 2014", 
   "retweet_count": 24, 
   "favorite_count": 96
  }, 
  {
   "text": "RT @WorcesterSharks: .@25mueller ready to make professional debut tonite for #WorSharks. http://t.co/DfMwscvN9a", 
   "label": "O", 
   "id": 451126577758076930, 
   "hashtags": [
    "WorSharks"
   ], 
   "user_mentions": [
    "WorcesterSharks", 
    "25mueller"
   ], 
   "created_at": "Tue Apr 01 22:38:52 +0000 2014", 
   "retweet_count": 58, 
   "favorite_count": 0
  }, 
  {
   "text": "#SJSharks reassign defenseman @25mueller to the @WorcesterSharks of the #AHL. http://t.co/PiI2otByO2", 
   "label": "O", 
   "id": 451102360212099072, 
   "hashtags": [
    "SJSharks", 
    "AHL"
   ], 
   "user_mentions": [
    "25mueller", 
    "WorcesterSharks"
   ], 
   "created_at": "Tue Apr 01 21:02:38 +0000 2014", 
   "retweet_count": 17, 
   "favorite_count": 26
  }, 
  {
   "text": "RT @sharkvoice: Due to a conflict with @Athletics game TNT, @SanJoseSharks v @EdmontonOilers will be on @CSNAuthentic California PLUS http:\u2026", 
   "label": "O", 
   "id": 451080364031635456, 
   "hashtags": [], 
   "user_mentions": [
    "sharkvoice", 
    "Athletics", 
    "SanJoseSharks", 
    "EdmontonOilers", 
    "CSNAuthentic"
   ], 
   "created_at": "Tue Apr 01 19:35:14 +0000 2014", 
   "retweet_count": 16, 
   "favorite_count": 0
  }, 
  {
   "text": "What does everyone think of @Stalock32's new mask? It blends Minnesota &amp; California. http://t.co/Fh7z3uYbIZ", 
   "label": "O", 
   "id": 451067334044553216, 
   "hashtags": [], 
   "user_mentions": [
    "Stalock32"
   ], 
   "created_at": "Tue Apr 01 18:43:27 +0000 2014", 
   "retweet_count": 206, 
   "favorite_count": 386
  }, 
  {
   "text": "Congrats to @jimmysheppard15 for being named the @BRCDcomm \"#SJSharks Player of the Month\" for February &amp; March. http://t.co/glEYBwApGK", 
   "label": "O", 
   "id": 451060988604080128, 
   "hashtags": [
    "SJSharks"
   ], 
   "user_mentions": [
    "jimmysheppard15", 
    "BRCDcomm"
   ], 
   "created_at": "Tue Apr 01 18:18:14 +0000 2014", 
   "retweet_count": 51, 
   "favorite_count": 84
  }, 
  {
   "text": "@LadyStanley This link should now be up to date: http://t.co/q2NjRFZc29", 
   "label": "O", 
   "id": 451046671145660416, 
   "hashtags": [], 
   "user_mentions": [
    "LadyStanley"
   ], 
   "created_at": "Tue Apr 01 17:21:21 +0000 2014", 
   "retweet_count": 0, 
   "favorite_count": 0
  }, 
  {
   "text": "@Traceytag1 Make sure you use offer code: SJSTW", 
   "label": "O", 
   "id": 451043658142191616, 
   "hashtags": [], 
   "user_mentions": [
    "Traceytag1"
   ], 
   "created_at": "Tue Apr 01 17:09:22 +0000 2014", 
   "retweet_count": 0, 
   "favorite_count": 0
  }, 
  {
   "text": "A limited presale for the 1st Round of #SJSharks playoffs is on sale now. Use SJSTW at http://t.co/nWAp9Hz55A", 
   "label": "O", 
   "id": 451043246911680512, 
   "hashtags": [
    "SJSharks"
   ], 
   "user_mentions": [], 
   "created_at": "Tue Apr 01 17:07:44 +0000 2014", 
   "retweet_count": 15, 
   "favorite_count": 31
  }, 
  {
   "text": "GAMEDAY: #SJSharks vs Oilers. Tonight's game will be broadcast on CSN-CA+. Channel Listings: http://t.co/q2NjRFZc29 http://t.co/SLPYmE3toA", 
   "label": "O", 
   "id": 451019584900849664, 
   "hashtags": [
    "SJSharks"
   ], 
   "user_mentions": [], 
   "created_at": "Tue Apr 01 15:33:43 +0000 2014", 
   "retweet_count": 59, 
   "favorite_count": 92
  }
 ]
}