{
 "num_road_team_goals": "7", 
 "home_team": "Philadelphia Flyers", 
 "num_home_team_goals": "3", 
 "summary_url": "http://www.flyershistory.com/cgi-bin/poboxscore.cgi?H20130889", 
 "result": "W", 
 "road_team": "San Jose Sharks", 
 "date": "2014-02-27", 
 "goals": [
  {
   "season_index": "1", 
   "strength": "(EV)", 
   "time": "4:25", 
   "period": "1", 
   "player": "R.Torres", 
   "assists": "(A.Desjardins, J.Demers)", 
   "game_index": "1", 
   "team": "S.J"
  }, 
  {
   "season_index": "5", 
   "strength": "(EV)", 
   "time": "10:36", 
   "period": "1", 
   "player": "Andrej Meszaros", 
   "assists": "(Steve Downie, Matt Read)", 
   "game_index": "2", 
   "team": "PHI"
  }, 
  {
   "season_index": "16", 
   "strength": "(EV)", 
   "time": "10:58", 
   "period": "1", 
   "player": "Brayden Schenn", 
   "assists": "(Vincent Lecavalier, Wayne Simmonds)", 
   "game_index": "3", 
   "team": "PHI"
  }, 
  {
   "season_index": "30", 
   "strength": "(PP)", 
   "time": "4:23", 
   "period": "2", 
   "player": "J.Pavelski", 
   "assists": "(P.Marleau, D.Boyle)", 
   "game_index": "4", 
   "team": "S.J"
  }, 
  {
   "season_index": "31", 
   "strength": "(EV)", 
   "time": "10:12", 
   "period": "2", 
   "player": "J.Pavelski", 
   "assists": "(M.Vlasic)", 
   "game_index": "5", 
   "team": "S.J"
  }, 
  {
   "season_index": "15", 
   "strength": "(EV)", 
   "time": "10:47", 
   "period": "2", 
   "player": "L.Couture", 
   "assists": "(P.Marleau, J.Demers)", 
   "game_index": "6", 
   "team": "S.J"
  }, 
  {
   "season_index": "32", 
   "strength": "(EV)", 
   "time": "14:10", 
   "period": "2", 
   "player": "J.Pavelski", 
   "assists": "(M.Irwin, J.Thornton)", 
   "game_index": "7", 
   "team": "S.J"
  }, 
  {
   "season_index": "2", 
   "strength": "(EV)", 
   "time": "19:57", 
   "period": "2", 
   "player": "R.Torres", 
   "assists": "(M.Brown, A.Desjardins)", 
   "game_index": "8", 
   "team": "S.J"
  }, 
  {
   "season_index": "16", 
   "strength": "(SH)", 
   "time": "4:50", 
   "period": "3", 
   "player": "L.Couture", 
   "assists": "(T.Wingels)", 
   "game_index": "9", 
   "team": "S.J"
  }, 
  {
   "season_index": "16", 
   "strength": "(EV)", 
   "time": "12:12", 
   "period": "3", 
   "player": "Matt Read", 
   "assists": "(Sean Couturier, Nicklas Grossmann)", 
   "game_index": "10", 
   "team": "PHI"
  }
 ], 
 "tweets": [
  {
   "text": "Recap, highlights and postgame interviews now on http://t.co/cmmf7HEQb2 RT @PhoKingGuy: #TealGoesForGoals #SharksHeadline", 
   "label": "O", 
   "id": 439262223802703872, 
   "hashtags": [
    "TealGoesForGoals", 
    "SharksHeadline"
   ], 
   "user_mentions": [
    "PhoKingGuy"
   ], 
   "created_at": "Fri Feb 28 04:54:09 +0000 2014", 
   "retweet_count": 3, 
   "favorite_count": 11
  }, 
  {
   "text": "Tonight's 3 Stars:\n1) Pavs (3G, 2nd Hatty of Year)\n2) Couture (2G, Video Review)\n3) Torres (2G, Season Debut)", 
   "label": "O", 
   "id": 439238284749701121, 
   "hashtags": [], 
   "user_mentions": [], 
   "created_at": "Fri Feb 28 03:19:02 +0000 2014", 
   "retweet_count": 143, 
   "favorite_count": 209
  }, 
  {
   "text": "Don't miss these guys when they return home! Tix avail. for 3/4 &amp; all in attendance receive a SJS Olympian poster. http://t.co/nWAp9Hz55A", 
   "label": "O", 
   "id": 439234546823725056, 
   "hashtags": [], 
   "user_mentions": [], 
   "created_at": "Fri Feb 28 03:04:11 +0000 2014", 
   "retweet_count": 15, 
   "favorite_count": 48
  }, 
  {
   "text": "Check it out, we've got allllll of the #SJSharks highlights in one spot, including the Couture no-goal call. http://t.co/87TXLK9OrP", 
   "label": "O", 
   "id": 439232992272064512, 
   "hashtags": [
    "SJSharks"
   ], 
   "user_mentions": [], 
   "created_at": "Fri Feb 28 02:58:00 +0000 2014", 
   "retweet_count": 13, 
   "favorite_count": 22
  }, 
  {
   "text": "Pavs http://t.co/pLUxDtubHC", 
   "label": "O", 
   "id": 439231758865678336, 
   "hashtags": [], 
   "user_mentions": [], 
   "created_at": "Fri Feb 28 02:53:06 +0000 2014", 
   "retweet_count": 100, 
   "favorite_count": 301
  }, 
  {
   "text": "Time to write that headline for http://t.co/cmmf7HEQb2. Tweet using #SharksHeadline for a chance to be featured on the homepage.", 
   "label": "O", 
   "id": 439231247156404225, 
   "hashtags": [
    "SharksHeadline"
   ], 
   "user_mentions": [], 
   "created_at": "Fri Feb 28 02:51:04 +0000 2014", 
   "retweet_count": 6, 
   "favorite_count": 13
  }, 
  {
   "text": "#SJSharks WIN! Pavelski with three, Torres with two and Couture with thr.. err two. Sharks win big in Philly!!! http://t.co/Uw9yKy12CO", 
   "label": "O", 
   "id": 439230797942251520, 
   "hashtags": [
    "SJSharks"
   ], 
   "user_mentions": [], 
   "created_at": "Fri Feb 28 02:49:17 +0000 2014", 
   "retweet_count": 448, 
   "favorite_count": 349
  }, 
  {
   "text": "http://t.co/87TXLK9OrP is updated with @logancouture's 2nd goal of the game.", 
   "label": "O", 
   "id": 439227742169468929, 
   "hashtags": [], 
   "user_mentions": [
    "Logancouture"
   ], 
   "created_at": "Fri Feb 28 02:37:08 +0000 2014", 
   "retweet_count": 4, 
   "favorite_count": 29
  }, 
  {
   "text": "For a chance to win tix to a #SJSharks game, tweet which player Drew Remenda interviewed during the 1st intermission w/ #SJSharksonCSN.", 
   "label": "O", 
   "id": 439227380305903617, 
   "hashtags": [
    "SJSharks", 
    "SJSharksonCSN"
   ], 
   "user_mentions": [], 
   "created_at": "Fri Feb 28 02:35:42 +0000 2014", 
   "retweet_count": 4, 
   "favorite_count": 22
  }, 
  {
   "text": "Flyers score and #SJSharks lead is now 7-3 w/ 7:35 to play in the 3rd.", 
   "label": "O", 
   "id": 439226678405918720, 
   "hashtags": [
    "SJSharks"
   ], 
   "user_mentions": [], 
   "created_at": "Fri Feb 28 02:32:55 +0000 2014", 
   "retweet_count": 18, 
   "favorite_count": 54
  }, 
  {
   "text": "Steve Mason is back in the net for the Flyers.", 
   "label": "O", 
   "id": 439226173759823872, 
   "hashtags": [], 
   "user_mentions": [], 
   "created_at": "Fri Feb 28 02:30:54 +0000 2014", 
   "retweet_count": 9, 
   "favorite_count": 30
  }, 
  {
   "text": "Stalock with another solid stop. #SJSharks lead Flyers 7-2 w/ under 10 minutes to play.", 
   "label": "O", 
   "id": 439225678437703680, 
   "hashtags": [
    "SJSharks"
   ], 
   "user_mentions": [], 
   "created_at": "Fri Feb 28 02:28:56 +0000 2014", 
   "retweet_count": 25, 
   "favorite_count": 51
  }, 
  {
   "text": "No goal. Apparently they're not Couture fans.", 
   "label": "O", 
   "id": 439225069626089473, 
   "hashtags": [], 
   "user_mentions": [], 
   "created_at": "Fri Feb 28 02:26:31 +0000 2014", 
   "retweet_count": 201, 
   "favorite_count": 287
  }, 
  {
   "text": "...", 
   "label": "O", 
   "id": 439224634148282368, 
   "hashtags": [], 
   "user_mentions": [], 
   "created_at": "Fri Feb 28 02:24:47 +0000 2014", 
   "retweet_count": 82, 
   "favorite_count": 143
  }, 
  {
   "text": "Couture....", 
   "label": "O", 
   "id": 439223452424101888, 
   "hashtags": [], 
   "user_mentions": [], 
   "created_at": "Fri Feb 28 02:20:06 +0000 2014", 
   "retweet_count": 105, 
   "favorite_count": 213
  }, 
  {
   "text": "RT @Bakes_Jamie13: This is the 2nd time the #SJSharks have score 7 goals in a game.  The last time was game 3 on Oct 8 in a 9-2 win over th\u2026", 
   "label": "O", 
   "id": 439223196361846785, 
   "hashtags": [
    "SJSharks"
   ], 
   "user_mentions": [
    "Bakes_Jamie13"
   ], 
   "created_at": "Fri Feb 28 02:19:05 +0000 2014", 
   "retweet_count": 37, 
   "favorite_count": 0
  }, 
  {
   "text": "#SJSharks GOAL! @Logancouture with a shorty and his 2nd of the game!!! Sharks lead 7-2 in the 3rd.", 
   "label": "O", 
   "id": 439221915605950464, 
   "hashtags": [
    "SJSharks"
   ], 
   "user_mentions": [
    "Logancouture"
   ], 
   "created_at": "Fri Feb 28 02:13:59 +0000 2014", 
   "retweet_count": 164, 
   "favorite_count": 162
  }, 
  {
   "text": "All those #SJSharks goals in the 2nd... we've got them right here for you. Watch and enjoy! http://t.co/87TXLK9OrP", 
   "label": "O", 
   "id": 439221437992169472, 
   "hashtags": [
    "SJSharks"
   ], 
   "user_mentions": [], 
   "created_at": "Fri Feb 28 02:12:05 +0000 2014", 
   "retweet_count": 17, 
   "favorite_count": 35
  }, 
  {
   "text": "Back in action for the 3rd. It was a party in the 2nd. Join the fun on CSNCA and KFOX 98.5/102.1 http://t.co/8MR2lROijl", 
   "label": "O", 
   "id": 439220128987627520, 
   "hashtags": [], 
   "user_mentions": [], 
   "created_at": "Fri Feb 28 02:06:53 +0000 2014", 
   "retweet_count": 27, 
   "favorite_count": 72
  }, 
  {
   "text": "RT @Bakes_Jamie13: Five #SJSharks w/ multiple point games so far:  Pavelski 3-0, Torres 2-0, and Demers, Desjardins and Marleau all have 2 \u2026", 
   "label": "O", 
   "id": 439219035851325440, 
   "hashtags": [
    "SJSharks"
   ], 
   "user_mentions": [
    "Bakes_Jamie13"
   ], 
   "created_at": "Fri Feb 28 02:02:33 +0000 2014", 
   "retweet_count": 21, 
   "favorite_count": 0
  }, 
  {
   "text": "We know it's like picking your favorite child, but what's been best so far?\nPavelski hat trick?\nTorres two goals?\nCouture scoring?", 
   "label": "O", 
   "id": 439216940213469184, 
   "hashtags": [], 
   "user_mentions": [], 
   "created_at": "Fri Feb 28 01:54:13 +0000 2014", 
   "retweet_count": 70, 
   "favorite_count": 123
  }, 
  {
   "text": "WHAT. A. PERIOD.\nPavs scored three times. Torres scored his 2nd of the game and Couture got on the board. #SJSharks lead 6-2 after two.", 
   "label": "O", 
   "id": 439215476887924736, 
   "hashtags": [
    "SJSharks"
   ], 
   "user_mentions": [], 
   "created_at": "Fri Feb 28 01:48:24 +0000 2014", 
   "retweet_count": 229, 
   "favorite_count": 230
  }, 
  {
   "text": "#SJSharks GOAL! Raffi Torres collects his second goal of the game! 6-2 Sharks in the 2nd!", 
   "label": "O", 
   "id": 439215096653291520, 
   "hashtags": [
    "SJSharks"
   ], 
   "user_mentions": [], 
   "created_at": "Fri Feb 28 01:46:53 +0000 2014", 
   "retweet_count": 139, 
   "favorite_count": 169
  }, 
  {
   "text": "#TheBigPavelstrick", 
   "label": "O", 
   "id": 439212713693020160, 
   "hashtags": [
    "TheBigPavelstrick"
   ], 
   "user_mentions": [], 
   "created_at": "Fri Feb 28 01:37:25 +0000 2014", 
   "retweet_count": 310, 
   "favorite_count": 255
  }, 
  {
   "text": "#SJSharks GOAL! Wherever you are, throw your hat right now! Pavelski with his 2nd hatty of the year!", 
   "label": "O", 
   "id": 439212522973822976, 
   "hashtags": [
    "SJSharks"
   ], 
   "user_mentions": [], 
   "created_at": "Fri Feb 28 01:36:40 +0000 2014", 
   "retweet_count": 342, 
   "favorite_count": 268
  }, 
  {
   "text": "Couture's score puts the #SJSharks up 4-2 in the 2nd and swaps Flyers' Mason for Emery in the net.", 
   "label": "O", 
   "id": 439210821281783808, 
   "hashtags": [
    "SJSharks"
   ], 
   "user_mentions": [], 
   "created_at": "Fri Feb 28 01:29:54 +0000 2014", 
   "retweet_count": 46, 
   "favorite_count": 82
  }, 
  {
   "text": "#SJSharks GOAL! Welcome back @Logancouture!!!!!!!!!!!!!!!", 
   "label": "O", 
   "id": 439210427671535616, 
   "hashtags": [
    "SJSharks"
   ], 
   "user_mentions": [
    "Logancouture"
   ], 
   "created_at": "Fri Feb 28 01:28:20 +0000 2014", 
   "retweet_count": 212, 
   "favorite_count": 244
  }, 
  {
   "text": "That's a career-high 31st goal of the year by Pavs. Assist from Vlasic as Canada &amp; USA continue to rekindle their Teal colors.", 
   "label": "O", 
   "id": 439210172930482176, 
   "hashtags": [], 
   "user_mentions": [], 
   "created_at": "Fri Feb 28 01:27:20 +0000 2014", 
   "retweet_count": 36, 
   "favorite_count": 81
  }, 
  {
   "text": "#SJSharks GOAL! #TheBigPavelski tips in a Vlasic shot and he has two as the Sharks lead 3-2.", 
   "label": "O", 
   "id": 439209441326399488, 
   "hashtags": [
    "SJSharks", 
    "TheBigPavelski"
   ], 
   "user_mentions": [], 
   "created_at": "Fri Feb 28 01:24:25 +0000 2014", 
   "retweet_count": 111, 
   "favorite_count": 136
  }, 
  {
   "text": "RT @Bakes_Jamie13: The Desjardins, Brown and Torres line has been effective and is not fun to play against.  #SJSharks", 
   "label": "O", 
   "id": 439208901087469568, 
   "hashtags": [
    "SJSharks"
   ], 
   "user_mentions": [
    "Bakes_Jamie13"
   ], 
   "created_at": "Fri Feb 28 01:22:16 +0000 2014", 
   "retweet_count": 17, 
   "favorite_count": 0
  }, 
  {
   "text": "#TheBigPavelski scored his team-leading 30th goal of the year, the 2nd career time he's reached the 30 mark.", 
   "label": "O", 
   "id": 439208484978962432, 
   "hashtags": [
    "TheBigPavelski"
   ], 
   "user_mentions": [], 
   "created_at": "Fri Feb 28 01:20:37 +0000 2014", 
   "retweet_count": 37, 
   "favorite_count": 74
  }, 
  {
   "text": "Marleau and Pavelski as teammates again is a fun sight to see. Boyler picks up the other assist, fresh out of the penalty box.", 
   "label": "O", 
   "id": 439207771116814336, 
   "hashtags": [], 
   "user_mentions": [], 
   "created_at": "Fri Feb 28 01:17:47 +0000 2014", 
   "retweet_count": 29, 
   "favorite_count": 65
  }, 
  {
   "text": "#SJSharks GOAL! #TheBigPavelski ties things up on the power play! It's 2-2 in the 2nd.", 
   "label": "O", 
   "id": 439206936613900289, 
   "hashtags": [
    "SJSharks", 
    "TheBigPavelski"
   ], 
   "user_mentions": [], 
   "created_at": "Fri Feb 28 01:14:28 +0000 2014", 
   "retweet_count": 105, 
   "favorite_count": 122
  }, 
  {
   "text": "@hOnEyXbEe @rickmeyers28 gamecenter video only available to those outside of CSNCA range. Listen live should work fine too.", 
   "label": "O", 
   "id": 439206684792086528, 
   "hashtags": [], 
   "user_mentions": [
    "hOnEyXbEe", 
    "rickmeyers28"
   ], 
   "created_at": "Fri Feb 28 01:13:28 +0000 2014", 
   "retweet_count": 0, 
   "favorite_count": 2
  }, 
  {
   "text": "Just before Boyle's penalty expires, Raffl gets a tripping call for a short bit of 4-on-4, then #SJSharks power play.", 
   "label": "O", 
   "id": 439206592123117568, 
   "hashtags": [
    "SJSharks"
   ], 
   "user_mentions": [], 
   "created_at": "Fri Feb 28 01:13:06 +0000 2014", 
   "retweet_count": 5, 
   "favorite_count": 12
  }, 
  {
   "text": "Boyle off for hooking and #SJSharks defend on the PK once more.", 
   "label": "O", 
   "id": 439205882836971520, 
   "hashtags": [
    "SJSharks"
   ], 
   "user_mentions": [], 
   "created_at": "Fri Feb 28 01:10:17 +0000 2014", 
   "retweet_count": 4, 
   "favorite_count": 16
  }, 
  {
   "text": "Stalock with a big save as Burish exits the box after his penalty expired. #SJSharks", 
   "label": "O", 
   "id": 439205196481040385, 
   "hashtags": [
    "SJSharks"
   ], 
   "user_mentions": [], 
   "created_at": "Fri Feb 28 01:07:33 +0000 2014", 
   "retweet_count": 4, 
   "favorite_count": 21
  }, 
  {
   "text": "Alright, time for a comeback in the 2nd. Catch the action on CSNCA, KFOX and our app (new this year).", 
   "label": "O", 
   "id": 439204937658933248, 
   "hashtags": [], 
   "user_mentions": [], 
   "created_at": "Fri Feb 28 01:06:31 +0000 2014", 
   "retweet_count": 4, 
   "favorite_count": 16
  }, 
  {
   "text": "Can't watch the game on TV? Download the #SJSharks official app: \niTunes: http://t.co/UcLlntWUFI  \nGoogle: http://t.co/IrTY0DkA5i", 
   "label": "O", 
   "id": 439203982775316480, 
   "hashtags": [
    "SJSharks"
   ], 
   "user_mentions": [], 
   "created_at": "Fri Feb 28 01:02:44 +0000 2014", 
   "retweet_count": 3, 
   "favorite_count": 12
  }, 
  {
   "text": "VIDEO: Torres is rewarded after working hard to the front of the net and scores his 1st of the year. http://t.co/87TXLK9OrP", 
   "label": "O", 
   "id": 439202366005321728, 
   "hashtags": [], 
   "user_mentions": [], 
   "created_at": "Fri Feb 28 00:56:18 +0000 2014", 
   "retweet_count": 8, 
   "favorite_count": 28
  }, 
  {
   "text": "#SJSharks trail 2-1 after 20 minutes. Torres scores in his season debut. Shots are 10-4, PHI.", 
   "label": "O", 
   "id": 439200526178484224, 
   "hashtags": [
    "SJSharks"
   ], 
   "user_mentions": [], 
   "created_at": "Fri Feb 28 00:49:00 +0000 2014", 
   "retweet_count": 9, 
   "favorite_count": 23
  }, 
  {
   "text": "Under two minutes to play in the 1st, Burish is picked for roughing. #SJSharks on the penalty kill, down a goal.", 
   "label": "O", 
   "id": 439199908776534016, 
   "hashtags": [
    "SJSharks"
   ], 
   "user_mentions": [], 
   "created_at": "Fri Feb 28 00:46:32 +0000 2014", 
   "retweet_count": 8, 
   "favorite_count": 14
  }, 
  {
   "text": "Flyers tie it up and grab another  quick score off the following rush. #SJSharks find themselves down 2-1 in the 1st.", 
   "label": "O", 
   "id": 439196014482714625, 
   "hashtags": [
    "SJSharks"
   ], 
   "user_mentions": [], 
   "created_at": "Fri Feb 28 00:31:04 +0000 2014", 
   "retweet_count": 11, 
   "favorite_count": 15
  }, 
  {
   "text": "Nothing on the power play, but Torres' first of the year from Demers &amp; Brown has #SJSharks w/ a 1-0 lead in the 1st.", 
   "label": "O", 
   "id": 439193814981300224, 
   "hashtags": [
    "SJSharks"
   ], 
   "user_mentions": [], 
   "created_at": "Fri Feb 28 00:22:19 +0000 2014", 
   "retweet_count": 26, 
   "favorite_count": 40
  }, 
  {
   "text": "Fresh after taking a 1-0 lead. Flyers Streit exits for the high stick and #SJSharks are on the power play. 15:16 left in the 1st.", 
   "label": "O", 
   "id": 439193106412355584, 
   "hashtags": [
    "SJSharks"
   ], 
   "user_mentions": [], 
   "created_at": "Fri Feb 28 00:19:31 +0000 2014", 
   "retweet_count": 17, 
   "favorite_count": 33
  }, 
  {
   "text": "#SJSharks GOAL! Welcome back Raffi Torres!!!!!!!!!!!!!!!!!!!", 
   "label": "O", 
   "id": 439192739905671169, 
   "hashtags": [
    "SJSharks"
   ], 
   "user_mentions": [], 
   "created_at": "Fri Feb 28 00:18:03 +0000 2014", 
   "retweet_count": 293, 
   "favorite_count": 274
  }, 
  {
   "text": "#SJSharks PAIRS:\nVlasic-Boyle,\nIrwin-Braun,\nHannan-Demers", 
   "label": "O", 
   "id": 439191340123832320, 
   "hashtags": [
    "SJSharks"
   ], 
   "user_mentions": [], 
   "created_at": "Fri Feb 28 00:12:29 +0000 2014", 
   "retweet_count": 10, 
   "favorite_count": 23
  }, 
  {
   "text": "#SJSharks LINES: \nPavelski-Thornton-Burns,\nMarleau-Couture-Havlat,\nNieto-Burish-Wingels,\nTorres-Desjardins-Brown", 
   "label": "O", 
   "id": 439191246238543873, 
   "hashtags": [
    "SJSharks"
   ], 
   "user_mentions": [], 
   "created_at": "Fri Feb 28 00:12:07 +0000 2014", 
   "retweet_count": 28, 
   "favorite_count": 44
  }, 
  {
   "text": "No more wait. You get to watch #SJSharks hockey, right now! Just tune in to CSNCA. Listen on KFOX 98.5/102.1", 
   "label": "O", 
   "id": 439190427644600320, 
   "hashtags": [
    "SJSharks"
   ], 
   "user_mentions": [], 
   "created_at": "Fri Feb 28 00:08:52 +0000 2014", 
   "retweet_count": 23, 
   "favorite_count": 35
  }, 
  {
   "text": "Nearly game time. Tune in now to CSNCA. We'll give away some #SJSharks tickets based on trivia from the broadcast.", 
   "label": "O", 
   "id": 439188073566314496, 
   "hashtags": [
    "SJSharks"
   ], 
   "user_mentions": [], 
   "created_at": "Thu Feb 27 23:59:31 +0000 2014", 
   "retweet_count": 10, 
   "favorite_count": 20
  }, 
  {
   "text": "In the nets: #SJSharks Alex Stalock (8-4-0, 1.67, .938) vs #Flyers Steve Mason (23-14-5, 2.49, .918)", 
   "label": "O", 
   "id": 439187409909985280, 
   "hashtags": [
    "SJSharks", 
    "Flyers"
   ], 
   "user_mentions": [], 
   "created_at": "Thu Feb 27 23:56:52 +0000 2014", 
   "retweet_count": 19, 
   "favorite_count": 33
  }, 
  {
   "text": "#SJSharks STARTERS:\nMarleau-Couture-Havlat,\nVlasic-Boyle,\nStalock.\nSCRATCHES: Sheppard, Tennyson, Kennedy", 
   "label": "O", 
   "id": 439186920883499008, 
   "hashtags": [
    "SJSharks"
   ], 
   "user_mentions": [], 
   "created_at": "Thu Feb 27 23:54:56 +0000 2014", 
   "retweet_count": 41, 
   "favorite_count": 52
  }, 
  {
   "text": "RT @Bakes_Jamie13: RAM Trucks 3 Keys for Philadelphia #SJSharks http://t.co/7KT4jeZMst", 
   "label": "O", 
   "id": 439183228273188864, 
   "hashtags": [
    "SJSharks"
   ], 
   "user_mentions": [
    "Bakes_Jamie13"
   ], 
   "created_at": "Thu Feb 27 23:40:15 +0000 2014", 
   "retweet_count": 8, 
   "favorite_count": 19
  }, 
  {
   "text": "Teal takes the ice in Philly for warmups. #BeattheFlyers #SJSharks http://t.co/CW3nDFnQYU", 
   "label": "O", 
   "id": 439182016949415936, 
   "hashtags": [
    "BeattheFlyers", 
    "SJSharks"
   ], 
   "user_mentions": [], 
   "created_at": "Thu Feb 27 23:35:27 +0000 2014", 
   "retweet_count": 71, 
   "favorite_count": 146
  }, 
  {
   "text": "#SJSharks, #Flyers ready to return from the break. Preview: http://t.co/YIOZNWYbFC", 
   "label": "O", 
   "id": 439178174241701888, 
   "hashtags": [
    "SJSharks", 
    "Flyers"
   ], 
   "user_mentions": [], 
   "created_at": "Thu Feb 27 23:20:10 +0000 2014", 
   "retweet_count": 9, 
   "favorite_count": 9
  }, 
  {
   "text": "One hour until #SJSharks hockey in Philly! Tweet your guess for 1st Sharks goal scorer with the hashtag for a chance to win a signed puck.", 
   "label": "O", 
   "id": 439173184450203648, 
   "hashtags": [
    "SJSharks"
   ], 
   "user_mentions": [], 
   "created_at": "Thu Feb 27 23:00:21 +0000 2014", 
   "retweet_count": 13, 
   "favorite_count": 37
  }, 
  {
   "text": "VIDEO: Hockey is back. Couture &amp; Torres return to action as the #SJSharks face the #Flyers. @DanRusanowsky previews. http://t.co/vZyNMLVjXm", 
   "label": "O", 
   "id": 439166820323692544, 
   "hashtags": [
    "SJSharks", 
    "Flyers"
   ], 
   "user_mentions": [
    "DanRusanowsky"
   ], 
   "created_at": "Thu Feb 27 22:35:03 +0000 2014", 
   "retweet_count": 25, 
   "favorite_count": 34
  }, 
  {
   "text": "VIDEO: Jumbo spoke 8's on his wings and the return of Cooch and Torres vs the Flyers. #SJSharks #BeattheFlyers http://t.co/gRf6SOoT3K", 
   "label": "O", 
   "id": 439156815017041921, 
   "hashtags": [
    "SJSharks", 
    "BeattheFlyers"
   ], 
   "user_mentions": [], 
   "created_at": "Thu Feb 27 21:55:18 +0000 2014", 
   "retweet_count": 7, 
   "favorite_count": 16
  }, 
  {
   "text": "VIDEO: More from @TomHertl on his road to recovery &amp; initial skate this morning. http://t.co/xS3b7BWnO2", 
   "label": "O", 
   "id": 439146776365654016, 
   "hashtags": [], 
   "user_mentions": [
    "TomHertl"
   ], 
   "created_at": "Thu Feb 27 21:15:25 +0000 2014", 
   "retweet_count": 23, 
   "favorite_count": 27
  }, 
  {
   "text": "VIDEO: \"I'm hoping I can jump right in and everything will go well.\" - @Logancouture  http://t.co/zLk13j6498", 
   "label": "O", 
   "id": 439129142920245248, 
   "hashtags": [], 
   "user_mentions": [
    "Logancouture"
   ], 
   "created_at": "Thu Feb 27 20:05:20 +0000 2014", 
   "retweet_count": 14, 
   "favorite_count": 32
  }, 
  {
   "text": "VIDEO: \"I've got the jitters inside and feel very blessed to be able to come back at this pace.\" -Torres http://t.co/455Ib46oIJ", 
   "label": "O", 
   "id": 439121085087625216, 
   "hashtags": [], 
   "user_mentions": [], 
   "created_at": "Thu Feb 27 19:33:19 +0000 2014", 
   "retweet_count": 13, 
   "favorite_count": 36
  }, 
  {
   "text": "VIDEO: McLellan discussed a decision to give Stalock a chance in lineup tonight vs PHI, among other lineup moves. http://t.co/D7Ut037GVp", 
   "label": "O", 
   "id": 439114810522099712, 
   "hashtags": [], 
   "user_mentions": [], 
   "created_at": "Thu Feb 27 19:08:23 +0000 2014", 
   "retweet_count": 11, 
   "favorite_count": 17
  }, 
  {
   "text": "@helloRow preseason.", 
   "label": "O", 
   "id": 439091902135017473, 
   "hashtags": [], 
   "user_mentions": [
    "helloRow"
   ], 
   "created_at": "Thu Feb 27 17:37:22 +0000 2014", 
   "retweet_count": 0, 
   "favorite_count": 0
  }, 
  {
   "text": "Coach says we can expect to see these two in the #SJSharks lineup tonight. #BeattheFlyers http://t.co/7p5Tyi87pz", 
   "label": "O", 
   "id": 439090568941932544, 
   "hashtags": [
    "SJSharks", 
    "BeattheFlyers"
   ], 
   "user_mentions": [], 
   "created_at": "Thu Feb 27 17:32:04 +0000 2014", 
   "retweet_count": 202, 
   "favorite_count": 201
  }, 
  {
   "text": "\"I am very happy because long time no skating and it felt good.\" - @TomHertl provided an update this AM. http://t.co/F6Lb9XmdwW", 
   "label": "O", 
   "id": 439085928846348289, 
   "hashtags": [], 
   "user_mentions": [
    "TomHertl"
   ], 
   "created_at": "Thu Feb 27 17:13:37 +0000 2014", 
   "retweet_count": 166, 
   "favorite_count": 239
  }, 
  {
   "text": "Go out and hug a friend today... #SJSharks hockey is back! \n\nPreview: http://t.co/a5TJhkM5Vl http://t.co/hSkNCmC7rp", 
   "label": "O", 
   "id": 439070012708376576, 
   "hashtags": [
    "SJSharks"
   ], 
   "user_mentions": [], 
   "created_at": "Thu Feb 27 16:10:23 +0000 2014", 
   "retweet_count": 179, 
   "favorite_count": 152
  }
 ]
}