{
 "num_road_team_goals": "0", 
 "home_team": "Edmonton Oilers", 
 "num_home_team_goals": "3", 
 "summary_url": "http://www.flyershistory.com/cgi-bin/poboxscore.cgi?H20130807", 
 "result": "L", 
 "road_team": "San Jose Sharks", 
 "date": "2014-01-29", 
 "goals": [
  {
   "season_index": "7", 
   "strength": "(EV)", 
   "time": "10:51", 
   "period": "1", 
   "player": "J.Schultz", 
   "assists": "(N.Schultz, T.Hall)", 
   "game_index": "1", 
   "team": "EDM"
  }, 
  {
   "season_index": "19", 
   "strength": "(EV)", 
   "time": "6:10", 
   "period": "3", 
   "player": "T.Hall", 
   "assists": "(J.Eberle, R.Nugent-Hopkins)", 
   "game_index": "2", 
   "team": "EDM"
  }, 
  {
   "season_index": "19", 
   "strength": "(PP)", 
   "time": "18:40", 
   "period": "3", 
   "player": "J.Eberle", 
   "assists": "(R.Nugent-Hopkins, T.Hall)", 
   "game_index": "3", 
   "team": "EDM"
  }
 ], 
 "tweets": [
  {
   "text": "Belov sent to the penalty box for cross-checking. #SJSharks have a chance on the power play with less than 9 minutes to go.", 
   "label": "O", 
   "id": 428753258857779200, 
   "hashtags": [
    "SJSharks"
   ], 
   "user_mentions": [], 
   "created_at": "Thu Jan 30 04:55:17 +0000 2014", 
   "retweet_count": 8, 
   "favorite_count": 11
  }, 
  {
   "text": "For a chance to win tickets to a #SJSharks game, tweet the color of shirt @SharkVoice is wearing tonight with #SJSharksonCSN.", 
   "label": "O", 
   "id": 428751814343663616, 
   "hashtags": [
    "SJSharks", 
    "SJSharksonCSN"
   ], 
   "user_mentions": [
    "sharkvoice"
   ], 
   "created_at": "Thu Jan 30 04:49:33 +0000 2014", 
   "retweet_count": 6, 
   "favorite_count": 18
  }, 
  {
   "text": "Taylor Hall makes it 2-0 for the Oilers. 13:45 to go in the third.", 
   "label": "O", 
   "id": 428750054002675713, 
   "hashtags": [], 
   "user_mentions": [], 
   "created_at": "Thu Jan 30 04:42:33 +0000 2014", 
   "retweet_count": 14, 
   "favorite_count": 12
  }, 
  {
   "text": "3rd period underway. Tune in now to CSN-CA &amp; KFOX 98.5/102.1", 
   "label": "O", 
   "id": 428747945253433344, 
   "hashtags": [], 
   "user_mentions": [], 
   "created_at": "Thu Jan 30 04:34:10 +0000 2014", 
   "retweet_count": 6, 
   "favorite_count": 8
  }, 
  {
   "text": "Can't watch the game on TV? Download the #SJSharks official app:\niTunes: http://t.co/hdlyNt4eM0  \nGoogle: http://t.co/bqz7ryMjzC", 
   "label": "O", 
   "id": 428747252203417600, 
   "hashtags": [
    "SJSharks"
   ], 
   "user_mentions": [], 
   "created_at": "Thu Jan 30 04:31:25 +0000 2014", 
   "retweet_count": 7, 
   "favorite_count": 14
  }, 
  {
   "text": "2nd period ends. Scrivens and the post stop 42 shots after 40 minutes. #SJSharks 0, Oilers 1", 
   "label": "O", 
   "id": 428744018671837184, 
   "hashtags": [
    "SJSharks"
   ], 
   "user_mentions": [], 
   "created_at": "Thu Jan 30 04:18:34 +0000 2014", 
   "retweet_count": 22, 
   "favorite_count": 12
  }, 
  {
   "text": "RT @Bakes_Jamie13: Scrivens stops Marleau on shorthanded breakaway. Then Scrivens stops Marleau on a 2-1 chance after the penalty expired -\u2026", 
   "label": "O", 
   "id": 428741898346323968, 
   "hashtags": [], 
   "user_mentions": [
    "Bakes_Jamie13"
   ], 
   "created_at": "Thu Jan 30 04:10:08 +0000 2014", 
   "retweet_count": 10, 
   "favorite_count": 0
  }, 
  {
   "text": "#SJSharks on their first penalty kill of the night after Vlasic gets called for hooking.", 
   "label": "O", 
   "id": 428741177228013568, 
   "hashtags": [
    "SJSharks"
   ], 
   "user_mentions": [], 
   "created_at": "Thu Jan 30 04:07:16 +0000 2014", 
   "retweet_count": 8, 
   "favorite_count": 13
  }, 
  {
   "text": "Now Thornton hits the post. 5 minutes remain in the second.", 
   "label": "O", 
   "id": 428740446647357440, 
   "hashtags": [], 
   "user_mentions": [], 
   "created_at": "Thu Jan 30 04:04:22 +0000 2014", 
   "retweet_count": 9, 
   "favorite_count": 16
  }, 
  {
   "text": "RT @Bakes_Jamie13: Havlat with a great feed to Wingels who rifles one off the crossbar.", 
   "label": "O", 
   "id": 428739567147966464, 
   "hashtags": [], 
   "user_mentions": [
    "Bakes_Jamie13"
   ], 
   "created_at": "Thu Jan 30 04:00:53 +0000 2014", 
   "retweet_count": 8, 
   "favorite_count": 0
  }, 
  {
   "text": "Great chances by @bracken66 and @jasondemers5 but Scrivens stops both. Sharks with 34 shots on goal so far tonight.", 
   "label": "O", 
   "id": 428737936247357442, 
   "hashtags": [], 
   "user_mentions": [
    "bracken66", 
    "jasondemers5"
   ], 
   "created_at": "Thu Jan 30 03:54:24 +0000 2014", 
   "retweet_count": 6, 
   "favorite_count": 19
  }, 
  {
   "text": "VIDEO: Hendricks learns not to mess with Brown. http://t.co/87TXLJRFdH", 
   "label": "O", 
   "id": 428736068897079296, 
   "hashtags": [], 
   "user_mentions": [], 
   "created_at": "Thu Jan 30 03:46:59 +0000 2014", 
   "retweet_count": 38, 
   "favorite_count": 23
  }, 
  {
   "text": "2nd period underway. Tune in now to CSN-CA &amp; KFOX 98.5/102.1", 
   "label": "O", 
   "id": 428733809417129985, 
   "hashtags": [], 
   "user_mentions": [], 
   "created_at": "Thu Jan 30 03:38:00 +0000 2014", 
   "retweet_count": 7, 
   "favorite_count": 11
  }, 
  {
   "text": "@MMArtinitus Yep! Since this season. Download here:\n\niTunes: http://t.co/hdlyNt4eM0  \nGoogle: http://t.co/bqz7ryMjzC", 
   "label": "O", 
   "id": 428730245135355904, 
   "hashtags": [], 
   "user_mentions": [
    "MMArtinitus"
   ], 
   "created_at": "Thu Jan 30 03:23:50 +0000 2014", 
   "retweet_count": 0, 
   "favorite_count": 2
  }, 
  {
   "text": "First period ends as #SJSharks lead shots on goal 20-7, yet trail the Oilers 1-0.", 
   "label": "O", 
   "id": 428729431578783744, 
   "hashtags": [
    "SJSharks"
   ], 
   "user_mentions": [], 
   "created_at": "Thu Jan 30 03:20:36 +0000 2014", 
   "retweet_count": 11, 
   "favorite_count": 14
  }, 
  {
   "text": "Less than a minute to go in the first and Brown and Hendricks drop the gloves.", 
   "label": "O", 
   "id": 428728776038432768, 
   "hashtags": [], 
   "user_mentions": [], 
   "created_at": "Thu Jan 30 03:18:00 +0000 2014", 
   "retweet_count": 21, 
   "favorite_count": 34
  }, 
  {
   "text": "Justin Schultz gets one past Niemi and gives the Oilers a 1-0 lead.", 
   "label": "O", 
   "id": 428725149257302016, 
   "hashtags": [], 
   "user_mentions": [], 
   "created_at": "Thu Jan 30 03:03:35 +0000 2014", 
   "retweet_count": 11, 
   "favorite_count": 10
  }, 
  {
   "text": "#SJSharks with lots of chances on the power play but now back to even numbers. Less than 10 minutes remain in the 1st period.", 
   "label": "O", 
   "id": 428724451849428992, 
   "hashtags": [
    "SJSharks"
   ], 
   "user_mentions": [], 
   "created_at": "Thu Jan 30 03:00:49 +0000 2014", 
   "retweet_count": 6, 
   "favorite_count": 7
  }, 
  {
   "text": "Oilers Gagner called for tripping. #SJSharks on the power play.", 
   "label": "O", 
   "id": 428723273031892992, 
   "hashtags": [
    "SJSharks"
   ], 
   "user_mentions": [], 
   "created_at": "Thu Jan 30 02:56:08 +0000 2014", 
   "retweet_count": 7, 
   "favorite_count": 10
  }, 
  {
   "text": "#SJSharks are pacing with 9 shots to Oilers' 2. It's scoreless in the 1st. 13:21 to play in the 1st.", 
   "label": "O", 
   "id": 428722122580455424, 
   "hashtags": [
    "SJSharks"
   ], 
   "user_mentions": [], 
   "created_at": "Thu Jan 30 02:51:33 +0000 2014", 
   "retweet_count": 8, 
   "favorite_count": 11
  }, 
  {
   "text": "RT @Bakes_Jamie13: Niemi with a breakaway save on Jones and then Scrivens with a nice save on Marleau as he and Thornton were on a 2-1.  En\u2026", 
   "label": "O", 
   "id": 428721193781170176, 
   "hashtags": [], 
   "user_mentions": [
    "Bakes_Jamie13"
   ], 
   "created_at": "Thu Jan 30 02:47:52 +0000 2014", 
   "retweet_count": 6, 
   "favorite_count": 0
  }, 
  {
   "text": "Scramble in front of the Oilers net draws a hooking call. #SJSharks go on the game's first power play.", 
   "label": "O", 
   "id": 428720493256904704, 
   "hashtags": [
    "SJSharks"
   ], 
   "user_mentions": [], 
   "created_at": "Thu Jan 30 02:45:05 +0000 2014", 
   "retweet_count": 5, 
   "favorite_count": 15
  }, 
  {
   "text": "We're undereway in Edmonton. Tune in to CSN-CA &amp; KFOX 98.5/102.1", 
   "label": "O", 
   "id": 428719077410893824, 
   "hashtags": [], 
   "user_mentions": [], 
   "created_at": "Thu Jan 30 02:39:27 +0000 2014", 
   "retweet_count": 7, 
   "favorite_count": 15
  }, 
  {
   "text": "RT @EdmontonOilers: Honouring both #Oilers and #SJSharks headed to Olympics! Belov, Hemsky, Marincin, Vlasic, Marleau, Pavelski, Niemi. htt\u2026", 
   "label": "O", 
   "id": 428718337980239872, 
   "hashtags": [
    "Oilers", 
    "SJSharks"
   ], 
   "user_mentions": [
    "EdmontonOilers"
   ], 
   "created_at": "Thu Jan 30 02:36:31 +0000 2014", 
   "retweet_count": 141, 
   "favorite_count": 0
  }, 
  {
   "text": "Tune in now to CSN-CA. We'll be quizzing you on tonight's broadcast for a chance to win #SJSharks tickets.", 
   "label": "O", 
   "id": 428716873404788736, 
   "hashtags": [
    "SJSharks"
   ], 
   "user_mentions": [], 
   "created_at": "Thu Jan 30 02:30:42 +0000 2014", 
   "retweet_count": 5, 
   "favorite_count": 14
  }, 
  {
   "text": "#SJSharks STARTERS:\nWingels-Marleau-Nieto,\nVlasic-Demers,\nNiemi.\nSCRATCHES: Sheppard, McCarthy, Irwin", 
   "label": "O", 
   "id": 428716235509870592, 
   "hashtags": [
    "SJSharks"
   ], 
   "user_mentions": [], 
   "created_at": "Thu Jan 30 02:28:10 +0000 2014", 
   "retweet_count": 28, 
   "favorite_count": 38
  }, 
  {
   "text": "RT @Bakes_Jamie13: RAM Trucks 3 Keys for Edmonton #SJSharks  http://t.co/03IH5JmvK4", 
   "label": "O", 
   "id": 428714188077146112, 
   "hashtags": [
    "SJSharks"
   ], 
   "user_mentions": [
    "Bakes_Jamie13"
   ], 
   "created_at": "Thu Jan 30 02:20:02 +0000 2014", 
   "retweet_count": 6, 
   "favorite_count": 13
  }, 
  {
   "text": "Boys take the ice in Edmonton for warmups. #BeattheOilers http://t.co/BpabZKkNiN", 
   "label": "O", 
   "id": 428713633913122818, 
   "hashtags": [
    "BeattheOilers"
   ], 
   "user_mentions": [], 
   "created_at": "Thu Jan 30 02:17:50 +0000 2014", 
   "retweet_count": 43, 
   "favorite_count": 86
  }, 
  {
   "text": "#SJSharks begin first of back-to-backs in Alberta, tonight against Oilers. Preview: http://t.co/heeYANEm8x", 
   "label": "O", 
   "id": 428711688016523265, 
   "hashtags": [
    "SJSharks"
   ], 
   "user_mentions": [], 
   "created_at": "Thu Jan 30 02:10:06 +0000 2014", 
   "retweet_count": 8, 
   "favorite_count": 9
  }, 
  {
   "text": "RT @sharkvoice: Check out my new blog entry on Great White Bites. http://t.co/wJpGyjeLZj", 
   "label": "O", 
   "id": 428702631771402241, 
   "hashtags": [], 
   "user_mentions": [
    "sharkvoice"
   ], 
   "created_at": "Thu Jan 30 01:34:06 +0000 2014", 
   "retweet_count": 3, 
   "favorite_count": 0
  }, 
  {
   "text": "One hour until puck drop in Edmonton! Tweet your guess for first Sharks goal scorer using #SJSharks for a chance to win a signed puck.", 
   "label": "O", 
   "id": 428701859847864320, 
   "hashtags": [
    "SJSharks"
   ], 
   "user_mentions": [], 
   "created_at": "Thu Jan 30 01:31:02 +0000 2014", 
   "retweet_count": 8, 
   "favorite_count": 27
  }, 
  {
   "text": "VIDEO: #SJSharks look to rebound after Monday and distribute scoring vs #Oilers tonight. @DanRusanowsky previews: http://t.co/wx5CGMIGUm", 
   "label": "O", 
   "id": 428697917034364928, 
   "hashtags": [
    "SJSharks", 
    "Oilers"
   ], 
   "user_mentions": [
    "DanRusanowsky"
   ], 
   "created_at": "Thu Jan 30 01:15:22 +0000 2014", 
   "retweet_count": 1, 
   "favorite_count": 9
  }, 
  {
   "text": "RT @Sharks_Ice: The @SanJoseSharks play at 6:30pm tonight - you still have time to make it down to @Stanleys_Bar for happy hour and away ga\u2026", 
   "label": "O", 
   "id": 428696941677924352, 
   "hashtags": [], 
   "user_mentions": [
    "Sharks_Ice", 
    "SanJoseSharks", 
    "Stanleys_Bar"
   ], 
   "created_at": "Thu Jan 30 01:11:30 +0000 2014", 
   "retweet_count": 6, 
   "favorite_count": 0
  }, 
  {
   "text": "VIDEO: \"It's going to be a good challenge for us tonight to get our game going on the road.\" - Marleau http://t.co/nlPA2gAXmO", 
   "label": "O", 
   "id": 428689144081305600, 
   "hashtags": [], 
   "user_mentions": [], 
   "created_at": "Thu Jan 30 00:40:31 +0000 2014", 
   "retweet_count": 1, 
   "favorite_count": 8
  }, 
  {
   "text": "VIDEO: @matt_nieto talks stitches and limiting the #SJSharks turnovers tonight against the #Oilers. http://t.co/jcD7vuc4ua", 
   "label": "O", 
   "id": 428681536859545600, 
   "hashtags": [
    "SJSharks", 
    "Oilers"
   ], 
   "user_mentions": [
    "matt_nieto"
   ], 
   "created_at": "Thu Jan 30 00:10:17 +0000 2014", 
   "retweet_count": 5, 
   "favorite_count": 15
  }, 
  {
   "text": "VIDEO: #SJSharks head coach Todd McLellan discusses the team's string of injuries and players who've stepped up. http://t.co/CKCt3peuVw", 
   "label": "O", 
   "id": 428675212830588928, 
   "hashtags": [
    "SJSharks"
   ], 
   "user_mentions": [], 
   "created_at": "Wed Jan 29 23:45:09 +0000 2014", 
   "retweet_count": 4, 
   "favorite_count": 5
  }, 
  {
   "text": "VIDEO: \"We're aging gracefully and our young guys are really playing well.\" - Jumbo on the team's continuous success http://t.co/sZZUgxslJf", 
   "label": "O", 
   "id": 428666396646838272, 
   "hashtags": [], 
   "user_mentions": [], 
   "created_at": "Wed Jan 29 23:10:07 +0000 2014", 
   "retweet_count": 10, 
   "favorite_count": 22
  }, 
  {
   "text": "#SJSharks announce roster moves.  http://t.co/o1PAOW8sdb", 
   "label": "O", 
   "id": 428652720409808896, 
   "hashtags": [
    "SJSharks"
   ], 
   "user_mentions": [], 
   "created_at": "Wed Jan 29 22:15:47 +0000 2014", 
   "retweet_count": 9, 
   "favorite_count": 17
  }, 
  {
   "text": "VIDEO: @SharkVoice breaks down a solid week of #SJSharks hockey and previews a quick trip through Alberta. http://t.co/8TuquzmNsU", 
   "label": "O", 
   "id": 428581759421538304, 
   "hashtags": [
    "SJSharks"
   ], 
   "user_mentions": [
    "sharkvoice"
   ], 
   "created_at": "Wed Jan 29 17:33:48 +0000 2014", 
   "retweet_count": 4, 
   "favorite_count": 6
  }, 
  {
   "text": "RT @jeffmadams: Up and at 'em @SanJoseSharks fans! It's #SharksAllDay from snowy Edmonton, Alberta. #SJSharks http://t.co/LhRFR3vTmN", 
   "label": "O", 
   "id": 428575336402399232, 
   "hashtags": [
    "SharksAllDay", 
    "SJSharks"
   ], 
   "user_mentions": [
    "jeffmadams", 
    "SanJoseSharks"
   ], 
   "created_at": "Wed Jan 29 17:08:17 +0000 2014", 
   "retweet_count": 28, 
   "favorite_count": 0
  }, 
  {
   "text": "RT @sharkvoice: Good morning from Edmonton! #greatwhitenorth http://t.co/eTEJ8rDphk", 
   "label": "O", 
   "id": 428575031329705984, 
   "hashtags": [
    "greatwhitenorth"
   ], 
   "user_mentions": [
    "sharkvoice"
   ], 
   "created_at": "Wed Jan 29 17:07:04 +0000 2014", 
   "retweet_count": 22, 
   "favorite_count": 68
  }, 
  {
   "text": "GAMEDAY: #SJSharks at Oilers. San Jose plays first of back-to-backs in Alberta.\n\nPreview: http://t.co/GD9DzNNW2f http://t.co/MCcW83nnYS", 
   "label": "O", 
   "id": 428573423044816896, 
   "hashtags": [
    "SJSharks"
   ], 
   "user_mentions": [], 
   "created_at": "Wed Jan 29 17:00:41 +0000 2014", 
   "retweet_count": 54, 
   "favorite_count": 59
  }
 ]
}