{
 "num_road_team_goals": "0", 
 "home_team": "Pittsburgh Penguins", 
 "num_home_team_goals": "2", 
 "summary_url": "http://www.flyershistory.com/cgi-bin/poboxscore.cgi?H20130981", 
 "result": "L", 
 "road_team": "Washington Capitals", 
 "date": "2014-03-11", 
 "goals": [
  {
   "season_index": "17", 
   "strength": "(EV)", 
   "time": "16:41", 
   "period": "1", 
   "player": "J.Jokinen", 
   "assists": "(M.Niskanen, E.Malkin)", 
   "game_index": "1", 
   "team": "PIT"
  }, 
  {
   "season_index": "31", 
   "strength": "(EV)", 
   "time": "14:12", 
   "period": "3", 
   "player": "S.Crosby", 
   "assists": "(L.Stempniak)", 
   "game_index": "2", 
   "team": "PIT"
  }
 ], 
 "tweets": [
  {
   "text": "RT @CapitalsPR: #Caps will be off on Wednesday.  The team will practice on Thurs at 11 am.", 
   "label": "O", 
   "id": 443590551255138304, 
   "hashtags": [
    "Caps"
   ], 
   "user_mentions": [
    "CapitalsPR"
   ], 
   "created_at": "Wed Mar 12 03:33:23 +0000 2014", 
   "retweet_count": 10, 
   "favorite_count": 0
  }, 
  {
   "text": "WATCH: #Caps head coach Adam Oates addresses the media after a 2-0 loss against the Pittsburgh Penguins. #CapsPens http://t.co/HqDIukCh6j", 
   "label": "O", 
   "id": 443583450230972416, 
   "hashtags": [
    "Caps", 
    "CapsPens"
   ], 
   "user_mentions": [], 
   "created_at": "Wed Mar 12 03:05:10 +0000 2014", 
   "retweet_count": 3, 
   "favorite_count": 5
  }, 
  {
   "text": "WATCH: Jay Beagle addresses the media after a 2-0 loss vs. the Pittsburgh Penguins at CONSOL Energy Center. #CapsPens http://t.co/FoU0Aa2kcV", 
   "label": "O", 
   "id": 443582532315906048, 
   "hashtags": [
    "CapsPens"
   ], 
   "user_mentions": [], 
   "created_at": "Wed Mar 12 03:01:31 +0000 2014", 
   "retweet_count": 4, 
   "favorite_count": 8
  }, 
  {
   "text": "WATCH: Jaroslav Halak addresses the media after a 2-0 loss against the Pittsburgh Penguins at CONSOL Energy Center. - http://t.co/1gLypiQxy3", 
   "label": "O", 
   "id": 443581393927274496, 
   "hashtags": [], 
   "user_mentions": [], 
   "created_at": "Wed Mar 12 02:57:00 +0000 2014", 
   "retweet_count": 8, 
   "favorite_count": 12
  }, 
  {
   "text": "WATCH: #Caps forward Troy Brouwer addresses the media after a 2-0 loss against the Pittsburgh Penguins. #CapsPens http://t.co/0ZbsOc58nr", 
   "label": "O", 
   "id": 443579604348178433, 
   "hashtags": [
    "Caps", 
    "CapsPens"
   ], 
   "user_mentions": [], 
   "created_at": "Wed Mar 12 02:49:53 +0000 2014", 
   "retweet_count": 3, 
   "favorite_count": 8
  }, 
  {
   "text": "WATCH: Alex Ovechkin addresses the media after a 2-0 loss against the Pittsburgh Penguins at CONSOL Energy Center. - http://t.co/gCLDNBW1A1", 
   "label": "O", 
   "id": 443578514445697025, 
   "hashtags": [], 
   "user_mentions": [], 
   "created_at": "Wed Mar 12 02:45:33 +0000 2014", 
   "retweet_count": 9, 
   "favorite_count": 7
  }, 
  {
   "text": "The final score tonight: Pens 2, Caps 0. #CapsPens", 
   "label": "O", 
   "id": 443566553406402560, 
   "hashtags": [
    "CapsPens"
   ], 
   "user_mentions": [], 
   "created_at": "Wed Mar 12 01:58:02 +0000 2014", 
   "retweet_count": 28, 
   "favorite_count": 17
  }, 
  {
   "text": "The Caps are unable to score on the power play. Caps trail 2-0 with 2:08 remaining in the third period. #CapsPens", 
   "label": "O", 
   "id": 443565330485768192, 
   "hashtags": [
    "CapsPens"
   ], 
   "user_mentions": [], 
   "created_at": "Wed Mar 12 01:53:10 +0000 2014", 
   "retweet_count": 8, 
   "favorite_count": 5
  }, 
  {
   "text": "Simon Despr\u00e9s to the box and the Caps on the PP, trailing 2-0. #CapsPens", 
   "label": "O", 
   "id": 443564846588915712, 
   "hashtags": [
    "CapsPens"
   ], 
   "user_mentions": [], 
   "created_at": "Wed Mar 12 01:51:15 +0000 2014", 
   "retweet_count": 6, 
   "favorite_count": 5
  }, 
  {
   "text": "Sidney Crosby pots a goal with 5:48 left in the third. Caps trail 2-0. #CapsPens", 
   "label": "O", 
   "id": 443563308256600064, 
   "hashtags": [
    "CapsPens"
   ], 
   "user_mentions": [], 
   "created_at": "Wed Mar 12 01:45:08 +0000 2014", 
   "retweet_count": 15, 
   "favorite_count": 13
  }, 
  {
   "text": "Backstrom out of the box. Teams 5-on-5 with 8:30 remaining in the 3rd period. #Caps trail 1-0. #CapsPens", 
   "label": "O", 
   "id": 443561836693426176, 
   "hashtags": [
    "Caps", 
    "CapsPens"
   ], 
   "user_mentions": [], 
   "created_at": "Wed Mar 12 01:39:17 +0000 2014", 
   "retweet_count": 5, 
   "favorite_count": 16
  }, 
  {
   "text": "Niskanen releases. #Caps to the PK for 1:08. #CapsPens", 
   "label": "O", 
   "id": 443561227416252416, 
   "hashtags": [
    "Caps", 
    "CapsPens"
   ], 
   "user_mentions": [], 
   "created_at": "Wed Mar 12 01:36:52 +0000 2014", 
   "retweet_count": 3, 
   "favorite_count": 6
  }, 
  {
   "text": "Nicklas Backstrom gets two minutes for high sticking. Teams 4-on-4 for 52 seconds. #Caps trail 1-0. #CapsPens", 
   "label": "O", 
   "id": 443560846988673025, 
   "hashtags": [
    "Caps", 
    "CapsPens"
   ], 
   "user_mentions": [], 
   "created_at": "Wed Mar 12 01:35:21 +0000 2014", 
   "retweet_count": 8, 
   "favorite_count": 7
  }, 
  {
   "text": "#Caps will head to the power play at 8:02 of the 3rd period. Matt Niskanen gets two minutes for high sticking. #Caps trail 1-0. #CapsPens", 
   "label": "O", 
   "id": 443560329650667520, 
   "hashtags": [
    "Caps", 
    "Caps", 
    "CapsPens"
   ], 
   "user_mentions": [], 
   "created_at": "Wed Mar 12 01:33:18 +0000 2014", 
   "retweet_count": 7, 
   "favorite_count": 11
  }, 
  {
   "text": "3rd period underway at CONSOL Energy Center. #Caps trail the Pittsburgh Penguins 1-0. #CapsPens", 
   "label": "O", 
   "id": 443556712310898688, 
   "hashtags": [
    "Caps", 
    "CapsPens"
   ], 
   "user_mentions": [], 
   "created_at": "Wed Mar 12 01:18:55 +0000 2014", 
   "retweet_count": 10, 
   "favorite_count": 8
  }, 
  {
   "text": "At the end of the 2nd period, the #Caps trail the Pittsburgh Penguins 1-0. Penguins lead shots on goal 26-12. #CapsPens", 
   "label": "O", 
   "id": 443552047976435712, 
   "hashtags": [
    "Caps", 
    "CapsPens"
   ], 
   "user_mentions": [], 
   "created_at": "Wed Mar 12 01:00:23 +0000 2014", 
   "retweet_count": 13, 
   "favorite_count": 10
  }, 
  {
   "text": "RT @VogsCaps: We've got 92-19-42, 90-83-8, 25-16-43 and 17-48-20. In whatever order you wanna put them. #CapsPens", 
   "label": "O", 
   "id": 443550139329052672, 
   "hashtags": [
    "CapsPens"
   ], 
   "user_mentions": [
    "VogsCaps"
   ], 
   "created_at": "Wed Mar 12 00:52:48 +0000 2014", 
   "retweet_count": 16, 
   "favorite_count": 0
  }, 
  {
   "text": "RT @VogsCaps: Also, 22 shots matches most Pens have had in last five games, and two more than they had in 60 minutes last night. #CapsPens", 
   "label": "O", 
   "id": 443547732893257728, 
   "hashtags": [
    "CapsPens"
   ], 
   "user_mentions": [
    "VogsCaps"
   ], 
   "created_at": "Wed Mar 12 00:43:14 +0000 2014", 
   "retweet_count": 5, 
   "favorite_count": 0
  }, 
  {
   "text": "RT @VogsCaps: With 9:24 left in 2nd, Pens lead 1-0 and 22-6 in shots. That means #Caps still seeking first SOG of 2nd period. #CapsPens", 
   "label": "O", 
   "id": 443547724374614016, 
   "hashtags": [
    "Caps", 
    "CapsPens"
   ], 
   "user_mentions": [
    "VogsCaps"
   ], 
   "created_at": "Wed Mar 12 00:43:12 +0000 2014", 
   "retweet_count": 9, 
   "favorite_count": 0
  }, 
  {
   "text": "RT @VogsCaps: #Caps dodge a couple of bullets in their own end -- one courtesy a strong Halak stop -- after Ovechkin giveaway at the PIT li\u2026", 
   "label": "O", 
   "id": 443547478374510592, 
   "hashtags": [
    "Caps", 
    "CapsPens"
   ], 
   "user_mentions": [
    "VogsCaps"
   ], 
   "created_at": "Wed Mar 12 00:42:14 +0000 2014", 
   "retweet_count": 6, 
   "favorite_count": 0
  }, 
  {
   "text": "WATCH: Andre Burakovsky talks with @VogsCaps during #CapsPens for a @MonumentalNtwrk exclusive http://t.co/uRd801U6td http://t.co/msGFC9mpA7", 
   "label": "O", 
   "id": 443545604287766528, 
   "hashtags": [
    "CapsPens"
   ], 
   "user_mentions": [
    "VogsCaps", 
    "MonumentalNtwrk"
   ], 
   "created_at": "Wed Mar 12 00:34:47 +0000 2014", 
   "retweet_count": 21, 
   "favorite_count": 43
  }, 
  {
   "text": "#Caps kill off the bench minor and the teams are back 5-on-5 with 14:35 remaining in the 2nd. #Caps trail the Penguins 1-0. #CapsPens", 
   "label": "O", 
   "id": 443545284430561281, 
   "hashtags": [
    "Caps", 
    "Caps", 
    "CapsPens"
   ], 
   "user_mentions": [], 
   "created_at": "Wed Mar 12 00:33:31 +0000 2014", 
   "retweet_count": 9, 
   "favorite_count": 13
  }, 
  {
   "text": "#Caps will head to the PK at 3:25 of the 2nd period. Bench minor for too many men on the ice. #Caps trail 1-0. #CapsPens", 
   "label": "O", 
   "id": 443544599764955136, 
   "hashtags": [
    "Caps", 
    "Caps", 
    "CapsPens"
   ], 
   "user_mentions": [], 
   "created_at": "Wed Mar 12 00:30:47 +0000 2014", 
   "retweet_count": 4, 
   "favorite_count": 4
  }, 
  {
   "text": "RT @VogsCaps: Kuznetsov on with Backstrom and Ovechkin here really in the second. #capsPens", 
   "label": "O", 
   "id": 443544300706869248, 
   "hashtags": [
    "capsPens"
   ], 
   "user_mentions": [
    "VogsCaps"
   ], 
   "created_at": "Wed Mar 12 00:29:36 +0000 2014", 
   "retweet_count": 29, 
   "favorite_count": 0
  }, 
  {
   "text": "2nd period is underway from CONSOL Energy Center. #Caps trail the Pittsburgh Penguins 1-0. #CapsPens", 
   "label": "O", 
   "id": 443543473095192576, 
   "hashtags": [
    "Caps", 
    "CapsPens"
   ], 
   "user_mentions": [], 
   "created_at": "Wed Mar 12 00:26:19 +0000 2014", 
   "retweet_count": 8, 
   "favorite_count": 5
  }, 
  {
   "text": "RT @CapitalsPR: #Caps re-assign Patrick Wey to @TheHersheyBears", 
   "label": "O", 
   "id": 443541881109352448, 
   "hashtags": [
    "Caps"
   ], 
   "user_mentions": [
    "CapitalsPR", 
    "TheHersheyBears"
   ], 
   "created_at": "Wed Mar 12 00:19:59 +0000 2014", 
   "retweet_count": 7, 
   "favorite_count": 0
  }, 
  {
   "text": "At the end of the 1st period, the #Caps trail the Pittsburgh Penguins 1-0. Penguins lead shots on goal 13-6. #CapsPens", 
   "label": "O", 
   "id": 443538837592371200, 
   "hashtags": [
    "Caps", 
    "CapsPens"
   ], 
   "user_mentions": [], 
   "created_at": "Wed Mar 12 00:07:54 +0000 2014", 
   "retweet_count": 13, 
   "favorite_count": 6
  }, 
  {
   "text": "Jussi Jokinen scores for Pittsburgh. #Caps trail 1-0 at 16:41 of the 1st period. #CapsPens", 
   "label": "O", 
   "id": 443537126748356609, 
   "hashtags": [
    "Caps", 
    "CapsPens"
   ], 
   "user_mentions": [], 
   "created_at": "Wed Mar 12 00:01:06 +0000 2014", 
   "retweet_count": 7, 
   "favorite_count": 9
  }, 
  {
   "text": "RT @WaltonCaps: That may have been the longest stretch without a whistle I've ever seen. 13:45 without a stop. Oxygen, please. #CapsPens", 
   "label": "O", 
   "id": 443536098665713665, 
   "hashtags": [
    "CapsPens"
   ], 
   "user_mentions": [
    "WaltonCaps"
   ], 
   "created_at": "Tue Mar 11 23:57:01 +0000 2014", 
   "retweet_count": 47, 
   "favorite_count": 0
  }, 
  {
   "text": "RT @VogsCaps: Breakneck pace here in the Burgh. Just went 13:45 between whistles. Still scoreless. #CapsPens", 
   "label": "O", 
   "id": 443535932944564224, 
   "hashtags": [
    "CapsPens"
   ], 
   "user_mentions": [
    "VogsCaps"
   ], 
   "created_at": "Tue Mar 11 23:56:21 +0000 2014", 
   "retweet_count": 20, 
   "favorite_count": 0
  }, 
  {
   "text": "Incredible pace to start the game. Only one whistle in 14:24 of play. No score at CONSOL Energy Center. #CapsPen", 
   "label": "O", 
   "id": 443535913898221568, 
   "hashtags": [
    "CapsPen"
   ], 
   "user_mentions": [], 
   "created_at": "Tue Mar 11 23:56:17 +0000 2014", 
   "retweet_count": 25, 
   "favorite_count": 23
  }, 
  {
   "text": "#Caps and Pittsburgh Penguins are underway from CONSOL Energy Center. #Caps starters: Chimera, Fehr, Ward, Carlson, Alzner, Halak. #CapsPens", 
   "label": "O", 
   "id": 443531999526256640, 
   "hashtags": [
    "Caps", 
    "Caps", 
    "CapsPens"
   ], 
   "user_mentions": [], 
   "created_at": "Tue Mar 11 23:40:43 +0000 2014", 
   "retweet_count": 25, 
   "favorite_count": 21
  }, 
  {
   "text": "RT @VogsCaps: Kuznetsov's EL contract with #Caps carries a salary cap hit of $900,000 per season; $810,000 in base salary and $90,000 in si\u2026", 
   "label": "O", 
   "id": 443530916074618880, 
   "hashtags": [
    "Caps"
   ], 
   "user_mentions": [
    "VogsCaps"
   ], 
   "created_at": "Tue Mar 11 23:36:25 +0000 2014", 
   "retweet_count": 12, 
   "favorite_count": 0
  }, 
  {
   "text": "RT @NHLonNBCSports: LIVESTREAM: @washcaps vs Pittsburgh @penguins on @NBCSN. Watch on LiveExtra: http://t.co/793JTHi19L", 
   "label": "O", 
   "id": 443530655084052480, 
   "hashtags": [], 
   "user_mentions": [
    "NHLonNBCSports", 
    "washcaps", 
    "penguins", 
    "NBCSN"
   ], 
   "created_at": "Tue Mar 11 23:35:23 +0000 2014", 
   "retweet_count": 21, 
   "favorite_count": 0
  }, 
  {
   "text": "Halak starts the 2nd of back-2-back games tonight in Pittsburgh. For more on Halak's career back-2-back numbers read: http://t.co/eB1ENn5HZg", 
   "label": "O", 
   "id": 443529740138610688, 
   "hashtags": [], 
   "user_mentions": [], 
   "created_at": "Tue Mar 11 23:31:45 +0000 2014", 
   "retweet_count": 7, 
   "favorite_count": 6
  }, 
  {
   "text": "RT @VogsCaps: BLOG UPDATE: #Caps Go Back to Halak -- Veteran goaltender has strong career numbers in 2nd of back-to-backs: http://t.co/KcAX\u2026", 
   "label": "O", 
   "id": 443529349342699520, 
   "hashtags": [
    "Caps"
   ], 
   "user_mentions": [
    "VogsCaps"
   ], 
   "created_at": "Tue Mar 11 23:30:11 +0000 2014", 
   "retweet_count": 4, 
   "favorite_count": 0
  }, 
  {
   "text": "15 mins til #CapsPens puck drop from CONSOL Energy Center. Get your Two-Man preview now with @VogsCaps &amp; @WaltonCaps. http://t.co/XAwgQE8MV5", 
   "label": "O", 
   "id": 443525862202552320, 
   "hashtags": [
    "CapsPens"
   ], 
   "user_mentions": [
    "VogsCaps", 
    "WaltonCaps"
   ], 
   "created_at": "Tue Mar 11 23:16:20 +0000 2014", 
   "retweet_count": 2, 
   "favorite_count": 6
  }, 
  {
   "text": "Here's your #Caps Minute for Tues., as WSH looks to rebound in PIT tonight after a 3-2 loss at home Monday. http://t.co/KcPGyWvG9p #CapsPens", 
   "label": "O", 
   "id": 443524904584220673, 
   "hashtags": [
    "Caps", 
    "CapsPens"
   ], 
   "user_mentions": [], 
   "created_at": "Tue Mar 11 23:12:32 +0000 2014", 
   "retweet_count": 2, 
   "favorite_count": 3
  }, 
  {
   "text": "Wellman, 26, has registered three points (2 goals, 1 assist) in 10 games with the #Caps this season. More: http://t.co/3QEdIvoqTA #CapsPens", 
   "label": "O", 
   "id": 443524140268802048, 
   "hashtags": [
    "Caps", 
    "CapsPens"
   ], 
   "user_mentions": [], 
   "created_at": "Tue Mar 11 23:09:29 +0000 2014", 
   "retweet_count": 0, 
   "favorite_count": 9
  }, 
  {
   "text": "RT @WaltonCaps: Patrick Wey taking warmups, but defensive pairs look to be remaining the same tonight. 27-74, 81-52, 38-58. #CapsPens", 
   "label": "O", 
   "id": 443523909636591616, 
   "hashtags": [
    "CapsPens"
   ], 
   "user_mentions": [
    "WaltonCaps"
   ], 
   "created_at": "Tue Mar 11 23:08:35 +0000 2014", 
   "retweet_count": 6, 
   "favorite_count": 0
  }, 
  {
   "text": "Casey Wellman looks to be in the lineup tonight, centering a line with @Kuzya92 on the left, @tom_wilso on the right. #CapsPens #Caps", 
   "label": "O", 
   "id": 443523749766512641, 
   "hashtags": [
    "CapsPens", 
    "Caps"
   ], 
   "user_mentions": [
    "Kuzya92", 
    "tom_wilso"
   ], 
   "created_at": "Tue Mar 11 23:07:56 +0000 2014", 
   "retweet_count": 7, 
   "favorite_count": 16
  }, 
  {
   "text": "RT @VogsCaps: #Caps lines tonight: 90-19-8, 17-83-20, 25-16-42, 92-48-43. Defense: 27-74, 81-52, 38-58. Halak vs. Fleury. #CapsPens", 
   "label": "O", 
   "id": 443523621169168384, 
   "hashtags": [
    "Caps", 
    "CapsPens"
   ], 
   "user_mentions": [
    "VogsCaps"
   ], 
   "created_at": "Tue Mar 11 23:07:26 +0000 2014", 
   "retweet_count": 25, 
   "favorite_count": 0
  }, 
  {
   "text": "The #Caps with 7 defenseman on the ice for warmups including Patrick Wey. Earlier, Wey spoke to the media: http://t.co/Pjxg5JTbo0 #CapsPens", 
   "label": "O", 
   "id": 443522562375811072, 
   "hashtags": [
    "Caps", 
    "CapsPens"
   ], 
   "user_mentions": [], 
   "created_at": "Tue Mar 11 23:03:13 +0000 2014", 
   "retweet_count": 3, 
   "favorite_count": 10
  }, 
  {
   "text": "Halak leads the #Caps out on the ice for warmups at the CONSOL Energey Center. He starts in net for Washington. More: http://t.co/iYssqcNUgD", 
   "label": "O", 
   "id": 443522075240960000, 
   "hashtags": [
    "Caps"
   ], 
   "user_mentions": [], 
   "created_at": "Tue Mar 11 23:01:17 +0000 2014", 
   "retweet_count": 11, 
   "favorite_count": 7
  }, 
  {
   "text": "Jason Chimera earned his career-high 22nd assist of the season on Monday against Pittsburgh. More: http://t.co/5XFxjQFnvU #Caps #CapsPens", 
   "label": "O", 
   "id": 443521594963808256, 
   "hashtags": [
    "Caps", 
    "CapsPens"
   ], 
   "user_mentions": [], 
   "created_at": "Tue Mar 11 22:59:23 +0000 2014", 
   "retweet_count": 6, 
   "favorite_count": 6
  }, 
  {
   "text": "#CapsPens meet again at 7:30 p.m on NBCSN! http://t.co/8nNNsJuagJ", 
   "label": "O", 
   "id": 443520397720707072, 
   "hashtags": [
    "CapsPens"
   ], 
   "user_mentions": [], 
   "created_at": "Tue Mar 11 22:54:37 +0000 2014", 
   "retweet_count": 66, 
   "favorite_count": 61
  }, 
  {
   "text": "#CapsPens | Oates: http://t.co/iYssqcNUgD | Alzner: http://t.co/QTUJ3FKiEe | Chimera: http://t.co/79yLwDv9Up | Wey: http://t.co/Pjxg5JTbo0", 
   "label": "O", 
   "id": 443504500624850945, 
   "hashtags": [
    "CapsPens"
   ], 
   "user_mentions": [], 
   "created_at": "Tue Mar 11 21:51:27 +0000 2014", 
   "retweet_count": 4, 
   "favorite_count": 6
  }, 
  {
   "text": "WATCH: Jason Chimera addresses the media prior to tonight's game vs. the Pittsburgh Penguins at CONSOL Energy Center. http://t.co/79yLwDv9Up", 
   "label": "O", 
   "id": 443468069017747456, 
   "hashtags": [], 
   "user_mentions": [], 
   "created_at": "Tue Mar 11 19:26:41 +0000 2014", 
   "retweet_count": 8, 
   "favorite_count": 10
  }, 
  {
   "text": "WATCH: @VogsCaps and @WaltonCaps with the Two-Man Advantage previewing tonight's game vs. the Pittsburgh Penguins. http://t.co/XAwgQE8MV5", 
   "label": "O", 
   "id": 443441563142991873, 
   "hashtags": [], 
   "user_mentions": [
    "VogsCaps", 
    "WaltonCaps"
   ], 
   "created_at": "Tue Mar 11 17:41:22 +0000 2014", 
   "retweet_count": 2, 
   "favorite_count": 7
  }, 
  {
   "text": "WATCH: #Caps defenseman Karl Alzner addresses the media prior to tonight's game against the Pittsburgh Penguins. - http://t.co/QTUJ3FKiEe", 
   "label": "O", 
   "id": 443438934153236480, 
   "hashtags": [
    "Caps"
   ], 
   "user_mentions": [], 
   "created_at": "Tue Mar 11 17:30:55 +0000 2014", 
   "retweet_count": 3, 
   "favorite_count": 9
  }, 
  {
   "text": "Halak starts in goal tonight for #CapsPens. Hear that and more lineup news from #Caps head coach Adam Oates here: http://t.co/iYssqcNUgD", 
   "label": "O", 
   "id": 443437124793417728, 
   "hashtags": [
    "CapsPens", 
    "Caps"
   ], 
   "user_mentions": [], 
   "created_at": "Tue Mar 11 17:23:43 +0000 2014", 
   "retweet_count": 21, 
   "favorite_count": 21
  }, 
  {
   "text": "WATCH: #Caps head coach Adam Oates addresses the media prior to tonight's game vs. the Pittsburgh Penguins. #CapsPens http://t.co/iYssqcNUgD", 
   "label": "O", 
   "id": 443435572879966208, 
   "hashtags": [
    "Caps", 
    "CapsPens"
   ], 
   "user_mentions": [], 
   "created_at": "Tue Mar 11 17:17:33 +0000 2014", 
   "retweet_count": 5, 
   "favorite_count": 5
  }, 
  {
   "text": "RT @VogsCaps: Third straight start in total for Halak, bit obviously both ends of the home-and-home against the Pens. #Caps", 
   "label": "O", 
   "id": 443427069486456832, 
   "hashtags": [
    "Caps"
   ], 
   "user_mentions": [
    "VogsCaps"
   ], 
   "created_at": "Tue Mar 11 16:43:46 +0000 2014", 
   "retweet_count": 8, 
   "favorite_count": 0
  }, 
  {
   "text": "RT @VogsCaps: Jaroslav Halak gets a second straight start against the Pens tonight. #CapsPens", 
   "label": "O", 
   "id": 443427058795175937, 
   "hashtags": [
    "CapsPens"
   ], 
   "user_mentions": [
    "VogsCaps"
   ], 
   "created_at": "Tue Mar 11 16:43:43 +0000 2014", 
   "retweet_count": 34, 
   "favorite_count": 0
  }, 
  {
   "text": "RT @VogsCaps: Laich did not make the trip to Pittsburgh; Wellman will draw into the lineup tonight. No word on line combos yet. #CapsPens", 
   "label": "O", 
   "id": 443423317807337472, 
   "hashtags": [
    "CapsPens"
   ], 
   "user_mentions": [
    "VogsCaps"
   ], 
   "created_at": "Tue Mar 11 16:28:52 +0000 2014", 
   "retweet_count": 34, 
   "favorite_count": 0
  }, 
  {
   "text": "Get your tix here: http://t.co/JczNKpEDfM RT @MSEFndn Last chance to get your @washcaps Casino Night tickets... We stop selling at 5pm today", 
   "label": "O", 
   "id": 443404392486936576, 
   "hashtags": [], 
   "user_mentions": [
    "MSEFndn", 
    "washcaps"
   ], 
   "created_at": "Tue Mar 11 15:13:39 +0000 2014", 
   "retweet_count": 6, 
   "favorite_count": 4
  }, 
  {
   "text": "RT @CapitalsPR: RELEASE: #Caps recall Casey Wellman and Patrick Wey from Hershey (AHL) http://t.co/01ezyFh84n", 
   "label": "O", 
   "id": 443388781035790336, 
   "hashtags": [
    "Caps"
   ], 
   "user_mentions": [
    "CapitalsPR"
   ], 
   "created_at": "Tue Mar 11 14:11:37 +0000 2014", 
   "retweet_count": 12, 
   "favorite_count": 0
  }, 
  {
   "text": "NEWS: #Caps Recall Wellman and Wey from Hershey - http://t.co/3QEdIvoqTA #CapsPens #HBH", 
   "label": "O", 
   "id": 443385853797494784, 
   "hashtags": [
    "Caps", 
    "CapsPens", 
    "HBH"
   ], 
   "user_mentions": [], 
   "created_at": "Tue Mar 11 13:59:59 +0000 2014", 
   "retweet_count": 11, 
   "favorite_count": 13
  }, 
  {
   "text": "RT @VogsCaps: #Caps have recalled C Casey Wellman and D Patrick Wey from AHL Hershey. Wey is a native of Pittsburgh. Both will join team th\u2026", 
   "label": "O", 
   "id": 443384308053848064, 
   "hashtags": [
    "Caps"
   ], 
   "user_mentions": [
    "VogsCaps"
   ], 
   "created_at": "Tue Mar 11 13:53:51 +0000 2014", 
   "retweet_count": 21, 
   "favorite_count": 0
  }, 
  {
   "text": "RT @CapitalsPR: Jason Chimera earned career-high 22nd assist of the season Mon. vs. PIT. For more on tonight's game read #CAPS TODAY: http:\u2026", 
   "label": "O", 
   "id": 443383362544472064, 
   "hashtags": [
    "CAPS"
   ], 
   "user_mentions": [
    "CapitalsPR"
   ], 
   "created_at": "Tue Mar 11 13:50:06 +0000 2014", 
   "retweet_count": 4, 
   "favorite_count": 0
  }, 
  {
   "text": "READ: Preview tonight's game against the Pittsburgh Penguins. Puck drop at 7:30 p.m. from CONSOL Energy Center. http://t.co/d0yaAu39vC #Caps", 
   "label": "O", 
   "id": 443355866776236032, 
   "hashtags": [
    "Caps"
   ], 
   "user_mentions": [], 
   "created_at": "Tue Mar 11 12:00:50 +0000 2014", 
   "retweet_count": 8, 
   "favorite_count": 9
  }, 
  {
   "text": "RT @VogsCaps: GAME PREVIEW: #Caps Close Out Season's Series vs Pens in PIttsburgh -- http://t.co/SHEL9cj2Ld", 
   "label": "O", 
   "id": 443354463441788928, 
   "hashtags": [
    "Caps"
   ], 
   "user_mentions": [
    "VogsCaps"
   ], 
   "created_at": "Tue Mar 11 11:55:15 +0000 2014", 
   "retweet_count": 1, 
   "favorite_count": 0
  }, 
  {
   "text": "READ: Mike Vogel's (@VogsCaps) Recap &amp; Postgame Notebook from last night's 3-2 loss against the Pittsburgh Penguins. http://t.co/kJB49pNIpI", 
   "label": "O", 
   "id": 443351733172187136, 
   "hashtags": [], 
   "user_mentions": [
    "VogsCaps"
   ], 
   "created_at": "Tue Mar 11 11:44:24 +0000 2014", 
   "retweet_count": 2, 
   "favorite_count": 3
  }, 
  {
   "text": "RT @VogsCaps: GAME RECAP/NOTEBOOK: Pittsburgh Prevails Over #Caps, 3-2 -- http://t.co/QzZtogoykM", 
   "label": "O", 
   "id": 443351510542741504, 
   "hashtags": [
    "Caps"
   ], 
   "user_mentions": [
    "VogsCaps"
   ], 
   "created_at": "Tue Mar 11 11:43:31 +0000 2014", 
   "retweet_count": 3, 
   "favorite_count": 0
  }, 
  {
   "text": "RT @WaltonCaps: On the ground in Pittsburgh, here\u2019s your Capitals Minute as Pens and Caps meet again here tonight at 7:30. http://t.co/Qfl9\u2026", 
   "label": "O", 
   "id": 443241931519557633, 
   "hashtags": [], 
   "user_mentions": [
    "WaltonCaps"
   ], 
   "created_at": "Tue Mar 11 04:28:06 +0000 2014", 
   "retweet_count": 3, 
   "favorite_count": 0
  }
 ]
}