{
 "num_road_team_goals": "2", 
 "home_team": "Columbus Blue Jackets", 
 "num_home_team_goals": "5", 
 "summary_url": "http://www.flyershistory.com/cgi-bin/poboxscore.cgi?H20130811", 
 "result": "L", 
 "road_team": "Washington Capitals", 
 "date": "2014-01-30", 
 "goals": [
  {
   "season_index": "6", 
   "strength": "(SH)", 
   "time": "12:18", 
   "period": "1", 
   "player": "D.MacKenzie", 
   "assists": "(R.Umberger, F.Tyutin)", 
   "game_index": "1", 
   "team": "CBJ"
  }, 
  {
   "season_index": "20", 
   "strength": "(EV)", 
   "time": "16:56", 
   "period": "1", 
   "player": "R.Johansen", 
   "assists": "(B.Jenner, C.Atkinson)", 
   "game_index": "2", 
   "team": "CBJ"
  }, 
  {
   "season_index": "12", 
   "strength": "(EV)", 
   "time": "0:24", 
   "period": "2", 
   "player": "B.Dubinsky", 
   "assists": "(R.Murray)", 
   "game_index": "3", 
   "team": "CBJ"
  }, 
  {
   "season_index": "21", 
   "strength": "(EV)", 
   "time": "12:14", 
   "period": "2", 
   "player": "R.Johansen", 
   "assists": "(J.Johnson, F.Tyutin)", 
   "game_index": "4", 
   "team": "CBJ"
  }, 
  {
   "season_index": "14", 
   "strength": "(SH)", 
   "time": "18:19", 
   "period": "2", 
   "player": "J.Ward", 
   "assists": "(J.Carlson, B.Holtby)", 
   "game_index": "5", 
   "team": "WSH"
  }, 
  {
   "season_index": "9", 
   "strength": "(EV)", 
   "time": "3:18", 
   "period": "3", 
   "player": "E.Fehr", 
   "assists": "(D.Orlov, T.Wilson)", 
   "game_index": "6", 
   "team": "WSH"
  }, 
  {
   "season_index": "17", 
   "strength": "(EV)", 
   "time": "4:22", 
   "period": "3", 
   "player": "C.Atkinson", 
   "assists": "(M.Calvert, B.Dubinsky)", 
   "game_index": "7", 
   "team": "CBJ"
  }
 ], 
 "tweets": [
  {
   "text": "RT @CapitalsPR: Friday:  #Caps will hold an optional morning skate at 11:30 at Joe Louis Arena with media availability to follow.", 
   "label": "O", 
   "id": 429104011287867392, 
   "hashtags": [
    "Caps"
   ], 
   "user_mentions": [
    "CapitalsPR"
   ], 
   "created_at": "Fri Jan 31 04:09:03 +0000 2014", 
   "retweet_count": 3, 
   "favorite_count": 0
  }, 
  {
   "text": "WATCH: Adam Oates addresses the media after a 5-2 loss against the Columbus Blue Jackets at Nationwide Arena. - http://t.co/1hvHTd628X", 
   "label": "O", 
   "id": 429099556723122177, 
   "hashtags": [], 
   "user_mentions": [], 
   "created_at": "Fri Jan 31 03:51:21 +0000 2014", 
   "retweet_count": 4, 
   "favorite_count": 6
  }, 
  {
   "text": "WATCH: #Caps defenseman John Carlson addresses the media after a 5-2 loss vs. the Columbus Blue Jackets. #CapsJackets http://t.co/ghwqmpY4YU", 
   "label": "O", 
   "id": 429099244260032512, 
   "hashtags": [
    "Caps", 
    "CapsJackets"
   ], 
   "user_mentions": [], 
   "created_at": "Fri Jan 31 03:50:06 +0000 2014", 
   "retweet_count": 1, 
   "favorite_count": 9
  }, 
  {
   "text": "WATCH: Troy Brouwer addresses the media after a 5-2 loss against the Columbus Blue Jackets at Nationwide Arena. - http://t.co/8pm4JbpkZ5", 
   "label": "O", 
   "id": 429097886798716929, 
   "hashtags": [], 
   "user_mentions": [], 
   "created_at": "Fri Jan 31 03:44:43 +0000 2014", 
   "retweet_count": 0, 
   "favorite_count": 5
  }, 
  {
   "text": "WATCH: #Caps forward Tom Wilson addresses the media after a 5-2 loss against the Columbus Blue Jackets. #CapsJackets http://t.co/I7U55aPMcJ", 
   "label": "O", 
   "id": 429095888481308672, 
   "hashtags": [
    "Caps", 
    "CapsJackets"
   ], 
   "user_mentions": [], 
   "created_at": "Fri Jan 31 03:36:46 +0000 2014", 
   "retweet_count": 2, 
   "favorite_count": 10
  }, 
  {
   "text": "RT @VogsCaps: Oates: \"We were terrible. It was probably the worst period that I've seen the boys play in over a year. The first period.\"", 
   "label": "O", 
   "id": 429094287112826880, 
   "hashtags": [], 
   "user_mentions": [
    "VogsCaps"
   ], 
   "created_at": "Fri Jan 31 03:30:24 +0000 2014", 
   "retweet_count": 37, 
   "favorite_count": 0
  }, 
  {
   "text": "WATCH: Alex Ovechkin addresses the media after a 5-2 loss against the Columbus Blue Jackets at Nationwide Arena. - http://t.co/kOcFJd5pZn", 
   "label": "O", 
   "id": 429093943926472705, 
   "hashtags": [], 
   "user_mentions": [], 
   "created_at": "Fri Jan 31 03:29:03 +0000 2014", 
   "retweet_count": 0, 
   "favorite_count": 9
  }, 
  {
   "text": "The final score in Columbus: Blue Jackets 5, Caps 2. #CapsJackets", 
   "label": "O", 
   "id": 429081830554214402, 
   "hashtags": [
    "CapsJackets"
   ], 
   "user_mentions": [], 
   "created_at": "Fri Jan 31 02:40:55 +0000 2014", 
   "retweet_count": 13, 
   "favorite_count": 13
  }, 
  {
   "text": "The Caps are unable to convert on the PP and the game returns to even strength. Caps trail 5-2 with 3:53 left in the 3rd #CapsJackets", 
   "label": "O", 
   "id": 429080199804616704, 
   "hashtags": [
    "CapsJackets"
   ], 
   "user_mentions": [], 
   "created_at": "Fri Jan 31 02:34:26 +0000 2014", 
   "retweet_count": 0, 
   "favorite_count": 6
  }, 
  {
   "text": "Corey Tropp to the box for hooking at 13:40 and the Caps go to the power play. #CapsJackets", 
   "label": "O", 
   "id": 429079726292877312, 
   "hashtags": [
    "CapsJackets"
   ], 
   "user_mentions": [], 
   "created_at": "Fri Jan 31 02:32:33 +0000 2014", 
   "retweet_count": 2, 
   "favorite_count": 6
  }, 
  {
   "text": "The #Caps kill off the penalty to Erskine. #Caps trail 5-3 with 7:50 left in the third period. #CapsJackets", 
   "label": "O", 
   "id": 429078279107014657, 
   "hashtags": [
    "Caps", 
    "Caps", 
    "CapsJackets"
   ], 
   "user_mentions": [], 
   "created_at": "Fri Jan 31 02:26:48 +0000 2014", 
   "retweet_count": 6, 
   "favorite_count": 6
  }, 
  {
   "text": "#Caps will head to the PK at 10:09 of the 3rd period. John Erskine to the box. #Caps trail 5-2. #CapsJackets", 
   "label": "O", 
   "id": 429077501520793600, 
   "hashtags": [
    "Caps", 
    "Caps", 
    "CapsJackets"
   ], 
   "user_mentions": [], 
   "created_at": "Fri Jan 31 02:23:42 +0000 2014", 
   "retweet_count": 1, 
   "favorite_count": 1
  }, 
  {
   "text": "Brandon Dubinsky hit with a delay of game call. #Caps with 5-on-3 power play for 18 seconds. #Caps trail 5-2. #CapsJackets", 
   "label": "O", 
   "id": 429075955630751744, 
   "hashtags": [
    "Caps", 
    "Caps", 
    "CapsJackets"
   ], 
   "user_mentions": [], 
   "created_at": "Fri Jan 31 02:17:34 +0000 2014", 
   "retweet_count": 3, 
   "favorite_count": 2
  }, 
  {
   "text": "#Caps to the power play at 5:12 of the 3rd period. #Caps trail 5-2. #CapsJackets", 
   "label": "O", 
   "id": 429075263407026176, 
   "hashtags": [
    "Caps", 
    "Caps", 
    "CapsJackets"
   ], 
   "user_mentions": [], 
   "created_at": "Fri Jan 31 02:14:49 +0000 2014", 
   "retweet_count": 0, 
   "favorite_count": 5
  }, 
  {
   "text": "Blue Jackets score at 4:22 of the 3rd period. #Caps trail 5-2. #CapsJackets", 
   "label": "O", 
   "id": 429074565843918848, 
   "hashtags": [
    "Caps", 
    "CapsJackets"
   ], 
   "user_mentions": [], 
   "created_at": "Fri Jan 31 02:12:02 +0000 2014", 
   "retweet_count": 5, 
   "favorite_count": 5
  }, 
  {
   "text": "Eric Fehr's goal assisted by Dmitry Orlov and Tom Wilson. #CapsJackets", 
   "label": "O", 
   "id": 429074167838027776, 
   "hashtags": [
    "CapsJackets"
   ], 
   "user_mentions": [], 
   "created_at": "Fri Jan 31 02:10:28 +0000 2014", 
   "retweet_count": 8, 
   "favorite_count": 21
  }, 
  {
   "text": "Troy Brouwer and Boone Jenner drop the gloves at 3:25 of the 3rd period. Each get five for fighting. #Caps trail 4-2. #CapsJackets", 
   "label": "O", 
   "id": 429073936475619328, 
   "hashtags": [
    "Caps", 
    "CapsJackets"
   ], 
   "user_mentions": [], 
   "created_at": "Fri Jan 31 02:09:32 +0000 2014", 
   "retweet_count": 13, 
   "favorite_count": 12
  }, 
  {
   "text": "#Caps score with 16:42 remaining in the 3rd period. Eric Fehr makes it a 4-2 game. #CapsJackets", 
   "label": "O", 
   "id": 429073597697904640, 
   "hashtags": [
    "Caps", 
    "CapsJackets"
   ], 
   "user_mentions": [], 
   "created_at": "Fri Jan 31 02:08:12 +0000 2014", 
   "retweet_count": 29, 
   "favorite_count": 30
  }, 
  {
   "text": "#Caps kill off Columbus power play. Teams back even with 18:15 remaining in the 3rd period. #Caps trail 4-1. #CapsJackets", 
   "label": "O", 
   "id": 429073129559048192, 
   "hashtags": [
    "Caps", 
    "Caps", 
    "CapsJackets"
   ], 
   "user_mentions": [], 
   "created_at": "Fri Jan 31 02:06:20 +0000 2014", 
   "retweet_count": 4, 
   "favorite_count": 4
  }, 
  {
   "text": "3rd period underway from Nationwide Arena. #Caps trail the Blue Jackets 4-1. #Caps on the PK for 1:45 to begin the period. #CapsJackets", 
   "label": "O", 
   "id": 429072514002608128, 
   "hashtags": [
    "Caps", 
    "Caps", 
    "CapsJackets"
   ], 
   "user_mentions": [], 
   "created_at": "Fri Jan 31 02:03:53 +0000 2014", 
   "retweet_count": 4, 
   "favorite_count": 4
  }, 
  {
   "text": "RT @CapitalsRadio: AUDIO: Listen to Joel Ward get the Caps' first goal of the night. 4-1 Columbus after 40. http://t.co/1W4nBxEsHV", 
   "label": "O", 
   "id": 429071399001395200, 
   "hashtags": [], 
   "user_mentions": [
    "CapitalsRadio"
   ], 
   "created_at": "Fri Jan 31 01:59:27 +0000 2014", 
   "retweet_count": 3, 
   "favorite_count": 0
  }, 
  {
   "text": "At the end of the 2nd, #Caps trail the Columbus Blue Jackets 4-1. #Caps goal in the 2nd from Joel Ward, his 14th of the year. #CapsJackets", 
   "label": "O", 
   "id": 429067908002902016, 
   "hashtags": [
    "Caps", 
    "Caps", 
    "CapsJackets"
   ], 
   "user_mentions": [], 
   "created_at": "Fri Jan 31 01:45:35 +0000 2014", 
   "retweet_count": 5, 
   "favorite_count": 8
  }, 
  {
   "text": "#Caps will lose John Erskine for 2 minutes with 15.2 remaining in the 2nd period. Erskine called for holding. #Caps trail 4-1. #CapsJackets", 
   "label": "O", 
   "id": 429067749026201600, 
   "hashtags": [
    "Caps", 
    "Caps", 
    "CapsJackets"
   ], 
   "user_mentions": [], 
   "created_at": "Fri Jan 31 01:44:57 +0000 2014", 
   "retweet_count": 3, 
   "favorite_count": 3
  }, 
  {
   "text": "Joel Ward's short-handed goal assisted by John Carlson and Braden Holtby. #CapsJackets", 
   "label": "O", 
   "id": 429067506725425152, 
   "hashtags": [
    "CapsJackets"
   ], 
   "user_mentions": [], 
   "created_at": "Fri Jan 31 01:43:59 +0000 2014", 
   "retweet_count": 21, 
   "favorite_count": 22
  }, 
  {
   "text": "#Caps get on the board. Joel Ward with a short-handed goal at 18:19 of the 2nd period. #CapsJackets", 
   "label": "O", 
   "id": 429067144928964608, 
   "hashtags": [
    "Caps", 
    "CapsJackets"
   ], 
   "user_mentions": [], 
   "created_at": "Fri Jan 31 01:42:33 +0000 2014", 
   "retweet_count": 24, 
   "favorite_count": 27
  }, 
  {
   "text": "#Caps will head to the PK at 17:25 of the 2nd period. Jason Chimera will sit for two minutes. #Caps trail 4-0. #CapsJackets", 
   "label": "O", 
   "id": 429066821195816960, 
   "hashtags": [
    "Caps", 
    "Caps", 
    "CapsJackets"
   ], 
   "user_mentions": [], 
   "created_at": "Fri Jan 31 01:41:16 +0000 2014", 
   "retweet_count": 0, 
   "favorite_count": 4
  }, 
  {
   "text": "#Caps unable to score on the power play. Teams back at even strength with 3:34 remaining in the 2nd period. #Caps trail 4-0. #CapsJackets", 
   "label": "O", 
   "id": 429066369129529344, 
   "hashtags": [
    "Caps", 
    "Caps", 
    "CapsJackets"
   ], 
   "user_mentions": [], 
   "created_at": "Fri Jan 31 01:39:28 +0000 2014", 
   "retweet_count": 2, 
   "favorite_count": 6
  }, 
  {
   "text": "#Caps will head to the power play. Matt Calvert gets two minutes for hooking. #Caps trail 4-0. #CapsJackets", 
   "label": "O", 
   "id": 429065742345338880, 
   "hashtags": [
    "Caps", 
    "Caps", 
    "CapsJackets"
   ], 
   "user_mentions": [], 
   "created_at": "Fri Jan 31 01:36:59 +0000 2014", 
   "retweet_count": 0, 
   "favorite_count": 3
  }, 
  {
   "text": "Columbus again at 12:14 of the 2nd period. #Caps trail 4-0. #CapsJackets", 
   "label": "O", 
   "id": 429063957584687107, 
   "hashtags": [
    "Caps", 
    "CapsJackets"
   ], 
   "user_mentions": [], 
   "created_at": "Fri Jan 31 01:29:53 +0000 2014", 
   "retweet_count": 4, 
   "favorite_count": 5
  }, 
  {
   "text": "#Caps kill off Brooks Laich's minor. Teams 5-on-5 with 9:00 remaining in the 2nd period. #Caps trail 3-0. #CapsJackets", 
   "label": "O", 
   "id": 429063580269301761, 
   "hashtags": [
    "Caps", 
    "Caps", 
    "CapsJackets"
   ], 
   "user_mentions": [], 
   "created_at": "Fri Jan 31 01:28:23 +0000 2014", 
   "retweet_count": 0, 
   "favorite_count": 3
  }, 
  {
   "text": "#Caps head back to the PK at 8:42 of the 2nd period. Brooks Laich gets two minutes for hooking. #Caps trail 3-0. #CapsJackets", 
   "label": "O", 
   "id": 429062853522620416, 
   "hashtags": [
    "Caps", 
    "Caps", 
    "CapsJackets"
   ], 
   "user_mentions": [], 
   "created_at": "Fri Jan 31 01:25:30 +0000 2014", 
   "retweet_count": 3, 
   "favorite_count": 2
  }, 
  {
   "text": "#Caps kill off Troy Brouwer's minor for roughing. Teams back even with 16:00 remaining in the 2nd period. #Caps trail 3-0. #CapsJackets", 
   "label": "O", 
   "id": 429060815334162432, 
   "hashtags": [
    "Caps", 
    "Caps", 
    "CapsJackets"
   ], 
   "user_mentions": [], 
   "created_at": "Fri Jan 31 01:17:24 +0000 2014", 
   "retweet_count": 3, 
   "favorite_count": 1
  }, 
  {
   "text": "#Caps head to the PK at 1:10 of the 2nd period. Troy Brouwer to the penalty box. #Caps trail 3-0. #CapsJackets", 
   "label": "O", 
   "id": 429060016071376896, 
   "hashtags": [
    "Caps", 
    "Caps", 
    "CapsJackets"
   ], 
   "user_mentions": [], 
   "created_at": "Fri Jan 31 01:14:14 +0000 2014", 
   "retweet_count": 3, 
   "favorite_count": 4
  }, 
  {
   "text": "24 seconds into the 2nd period, Columbus adds to their lead. 3-0 Blue Jackets. #CapsJackets", 
   "label": "O", 
   "id": 429059373865115648, 
   "hashtags": [
    "CapsJackets"
   ], 
   "user_mentions": [], 
   "created_at": "Fri Jan 31 01:11:40 +0000 2014", 
   "retweet_count": 3, 
   "favorite_count": 4
  }, 
  {
   "text": "2nd period underway from Nationwide Arena. #Caps trail the Columbus Blue Jackets 2-0. #CapsJackets", 
   "label": "O", 
   "id": 429059270269992960, 
   "hashtags": [
    "Caps", 
    "CapsJackets"
   ], 
   "user_mentions": [], 
   "created_at": "Fri Jan 31 01:11:16 +0000 2014", 
   "retweet_count": 2, 
   "favorite_count": 3
  }, 
  {
   "text": "RT @CapitalsPR: #Caps Mike Green (upper body) return to tonight's game is questionable.", 
   "label": "O", 
   "id": 429056770611625984, 
   "hashtags": [
    "Caps"
   ], 
   "user_mentions": [
    "CapitalsPR"
   ], 
   "created_at": "Fri Jan 31 01:01:20 +0000 2014", 
   "retweet_count": 30, 
   "favorite_count": 0
  }, 
  {
   "text": "At the end of the 1st period, the #Caps trail the Columbus Blue Jackets 2-0 at Nationwide Arena. #CapsJackets", 
   "label": "O", 
   "id": 429054626977939456, 
   "hashtags": [
    "Caps", 
    "CapsJackets"
   ], 
   "user_mentions": [], 
   "created_at": "Fri Jan 31 00:52:49 +0000 2014", 
   "retweet_count": 8, 
   "favorite_count": 3
  }, 
  {
   "text": "Backstrom will get two for slashing right off the o-zone draw. Teams 4-on-4 for 1:55. #CapsJackets", 
   "label": "O", 
   "id": 429054283137298432, 
   "hashtags": [
    "CapsJackets"
   ], 
   "user_mentions": [], 
   "created_at": "Fri Jan 31 00:51:27 +0000 2014", 
   "retweet_count": 7, 
   "favorite_count": 5
  }, 
  {
   "text": "#Caps will head to the power play with 1:05 remaining in the 1st. Fedor Tyutin gets two minutes for holding. #Caps trail 2-0. #CapsJackets", 
   "label": "O", 
   "id": 429054085753761792, 
   "hashtags": [
    "Caps", 
    "Caps", 
    "CapsJackets"
   ], 
   "user_mentions": [], 
   "created_at": "Fri Jan 31 00:50:40 +0000 2014", 
   "retweet_count": 3, 
   "favorite_count": 6
  }, 
  {
   "text": "Ryan Johansen gets his 20th goal of the season. #Caps trail 2-0 with 3:04 remaining in the 1st period. #CapsJackets", 
   "label": "O", 
   "id": 429052998971453440, 
   "hashtags": [
    "Caps", 
    "CapsJackets"
   ], 
   "user_mentions": [], 
   "created_at": "Fri Jan 31 00:46:21 +0000 2014", 
   "retweet_count": 8, 
   "favorite_count": 10
  }, 
  {
   "text": "RT @VogsCaps: Jackets score on their second shorthanded breakaway of the period, MacKenzie with great deke and finish, 1-0. #CapsJackets", 
   "label": "O", 
   "id": 429049949758971905, 
   "hashtags": [
    "CapsJackets"
   ], 
   "user_mentions": [
    "VogsCaps"
   ], 
   "created_at": "Fri Jan 31 00:34:14 +0000 2014", 
   "retweet_count": 2, 
   "favorite_count": 0
  }, 
  {
   "text": "Columbus scores a shorty. #Caps trail 1-0 at 12:18 of the 1st. #CapsJackets", 
   "label": "O", 
   "id": 429049806133411840, 
   "hashtags": [
    "Caps", 
    "CapsJackets"
   ], 
   "user_mentions": [], 
   "created_at": "Fri Jan 31 00:33:39 +0000 2014", 
   "retweet_count": 6, 
   "favorite_count": 5
  }, 
  {
   "text": "Nick Foligno gets an extra minor for instigating and a 10-minute misconduct. #Caps to the power play at 10:19 of the 1st. #CapsJackets", 
   "label": "O", 
   "id": 429049060130291713, 
   "hashtags": [
    "Caps", 
    "CapsJackets"
   ], 
   "user_mentions": [], 
   "created_at": "Fri Jan 31 00:30:41 +0000 2014", 
   "retweet_count": 7, 
   "favorite_count": 11
  }, 
  {
   "text": "Tom Wilson and Nick Foligno drop the gloves at 10:19 of the 1st period. Each get five for fighting. No score. #CapsJackets", 
   "label": "O", 
   "id": 429048417663205376, 
   "hashtags": [
    "CapsJackets"
   ], 
   "user_mentions": [], 
   "created_at": "Fri Jan 31 00:28:08 +0000 2014", 
   "retweet_count": 30, 
   "favorite_count": 42
  }, 
  {
   "text": "Ovechkin releases. Teams back 5-on-5 with 10:15 remaining in the 1st period. No score in Columbus. #CapsJackets", 
   "label": "O", 
   "id": 429048100851056640, 
   "hashtags": [
    "CapsJackets"
   ], 
   "user_mentions": [], 
   "created_at": "Fri Jan 31 00:26:53 +0000 2014", 
   "retweet_count": 6, 
   "favorite_count": 9
  }, 
  {
   "text": "Boone Jenner releases. #Caps to the PK for 55 seconds. #CapsJackets", 
   "label": "O", 
   "id": 429047844679712768, 
   "hashtags": [
    "Caps", 
    "CapsJackets"
   ], 
   "user_mentions": [], 
   "created_at": "Fri Jan 31 00:25:52 +0000 2014", 
   "retweet_count": 3, 
   "favorite_count": 5
  }, 
  {
   "text": "#Caps give up a short-handed breakaway to the Blue Jackets. Ovechkin trips Anisimov. 4-on-4 hockey for 1:05. #CapsJackets", 
   "label": "O", 
   "id": 429047500671287296, 
   "hashtags": [
    "Caps", 
    "CapsJackets"
   ], 
   "user_mentions": [], 
   "created_at": "Fri Jan 31 00:24:30 +0000 2014", 
   "retweet_count": 2, 
   "favorite_count": 4
  }, 
  {
   "text": "#Caps will head to the power play at 6:41 of the 1st. Boone Jenner gets two minutes for goaltender interference. No score. #CapsJackets", 
   "label": "O", 
   "id": 429046698976219136, 
   "hashtags": [
    "Caps", 
    "CapsJackets"
   ], 
   "user_mentions": [], 
   "created_at": "Fri Jan 31 00:21:19 +0000 2014", 
   "retweet_count": 8, 
   "favorite_count": 10
  }, 
  {
   "text": "RT @WashWizards: Retweet to congratulate @John_Wall on his selection to the 2014 NBA All-Star team! #WallStar http://t.co/1Y81v7nLqp", 
   "label": "O", 
   "id": 429043759049752576, 
   "hashtags": [
    "WallStar"
   ], 
   "user_mentions": [
    "WashWizards", 
    "John_Wall"
   ], 
   "created_at": "Fri Jan 31 00:09:38 +0000 2014", 
   "retweet_count": 1294, 
   "favorite_count": 0
  }, 
  {
   "text": "The #Caps and Blue Jackets are underway from Nationwide Arena. #Caps starters: Erat, Laich, Brouwer, Green, Orlov, Holtby. #CapsJackets", 
   "label": "O", 
   "id": 429043616082714624, 
   "hashtags": [
    "Caps", 
    "Caps", 
    "CapsJackets"
   ], 
   "user_mentions": [], 
   "created_at": "Fri Jan 31 00:09:03 +0000 2014", 
   "retweet_count": 17, 
   "favorite_count": 17
  }, 
  {
   "text": "Just a few minutes away from puck drop at Nationwide Arena. Preview #CapsJackets with @VogsCaps and @WaltonCaps here: http://t.co/Kmu2TLLXsR", 
   "label": "O", 
   "id": 429039280905027584, 
   "hashtags": [
    "CapsJackets"
   ], 
   "user_mentions": [
    "VogsCaps", 
    "WaltonCaps"
   ], 
   "created_at": "Thu Jan 30 23:51:50 +0000 2014", 
   "retweet_count": 5, 
   "favorite_count": 8
  }, 
  {
   "text": "RT @WaltonCaps: It's go time from Ohio, pregame on @CapitalsRadio starts now on 106.7 The Fan and 1500 AM, fourth game of a five-game roady\u2026", 
   "label": "O", 
   "id": 429038560478384128, 
   "hashtags": [], 
   "user_mentions": [
    "WaltonCaps", 
    "CapitalsRadio"
   ], 
   "created_at": "Thu Jan 30 23:48:58 +0000 2014", 
   "retweet_count": 3, 
   "favorite_count": 0
  }, 
  {
   "text": "RT @MonumentalNtwrk: Last game\u2019s hero, @GreenLife52, provides today\u2019s Rinkside Update in our #CapsJackets preview. http://t.co/P39KoaoyM1 h\u2026", 
   "label": "O", 
   "id": 429031673024368640, 
   "hashtags": [
    "CapsJackets"
   ], 
   "user_mentions": [
    "MonumentalNtwrk", 
    "GreenLife52"
   ], 
   "created_at": "Thu Jan 30 23:21:36 +0000 2014", 
   "retweet_count": 8, 
   "favorite_count": 0
  }, 
  {
   "text": ".@GreenLife52 has the hashtag for us tonight! #CapsJackets starts at 7 p.m. on CSN. Let's go Caps! http://t.co/vsaQZb5x3y", 
   "label": "O", 
   "id": 429027620332662784, 
   "hashtags": [
    "CapsJackets"
   ], 
   "user_mentions": [
    "GreenLife52"
   ], 
   "created_at": "Thu Jan 30 23:05:30 +0000 2014", 
   "retweet_count": 74, 
   "favorite_count": 104
  }, 
  {
   "text": "RT @Kenna_Schmehl: Capitals are back in Ohio at good old nationwide! Good luck caps! @washcaps http://t.co/HBZ2adYD4j", 
   "label": "O", 
   "id": 429018601517903872, 
   "hashtags": [], 
   "user_mentions": [
    "Kenna_Schmehl", 
    "washcaps"
   ], 
   "created_at": "Thu Jan 30 22:29:40 +0000 2014", 
   "retweet_count": 9, 
   "favorite_count": 0
  }, 
  {
   "text": "#CapsJackets | Oates: http://t.co/742lukso1T | Holts: http://t.co/IEHB2vQ4sU | Green: http://t.co/F3YwXnQG5x | 2-Man: http://t.co/k9e4XM1QAF", 
   "label": "O", 
   "id": 429004100856868864, 
   "hashtags": [
    "CapsJackets"
   ], 
   "user_mentions": [], 
   "created_at": "Thu Jan 30 21:32:02 +0000 2014", 
   "retweet_count": 5, 
   "favorite_count": 7
  }, 
  {
   "text": "READ: Alex Ovechkin sits 36 points shy of passing Peter Bondra (825) as the team\u2019s all-time points leader. - http://t.co/loUFz9nctL", 
   "label": "O", 
   "id": 429002546045538306, 
   "hashtags": [], 
   "user_mentions": [], 
   "created_at": "Thu Jan 30 21:25:52 +0000 2014", 
   "retweet_count": 28, 
   "favorite_count": 16
  }, 
  {
   "text": "RT @MonumentalNtwrk: How @Redskins great Ken Harvey (@Transition57) fell in love w/ the #Caps &amp; the game of hockey. http://t.co/eMADRN2lr0 \u2026", 
   "label": "O", 
   "id": 428993269314646016, 
   "hashtags": [
    "Caps"
   ], 
   "user_mentions": [
    "MonumentalNtwrk", 
    "Redskins", 
    "transition57"
   ], 
   "created_at": "Thu Jan 30 20:49:00 +0000 2014", 
   "retweet_count": 10, 
   "favorite_count": 0
  }, 
  {
   "text": "WATCH: Mike Green talks #CapsJackets with @VogsCaps from Nationwide Arena in a @MonumentalNtwrk exclusive interview. http://t.co/YIXAdsMf3v", 
   "label": "O", 
   "id": 428977755221680128, 
   "hashtags": [
    "CapsJackets"
   ], 
   "user_mentions": [
    "VogsCaps", 
    "MonumentalNtwrk"
   ], 
   "created_at": "Thu Jan 30 19:47:21 +0000 2014", 
   "retweet_count": 4, 
   "favorite_count": 11
  }, 
  {
   "text": "WATCH: @VogsCaps and @WaltonCaps with the Two-Man Advantage previewing tonight's game vs. the Columbus Blue Jackets. http://t.co/Kmu2TLLXsR", 
   "label": "O", 
   "id": 428966311038046208, 
   "hashtags": [], 
   "user_mentions": [
    "VogsCaps", 
    "WaltonCaps"
   ], 
   "created_at": "Thu Jan 30 19:01:53 +0000 2014", 
   "retweet_count": 2, 
   "favorite_count": 6
  }, 
  {
   "text": "RT @MonumentalNtwrk: Host @MayHockeyCSN filming X's and O's for Tuesday's new episode of #Capsredline. http://t.co/WzqhP5WMgZ", 
   "label": "O", 
   "id": 428966229077164032, 
   "hashtags": [
    "Capsredline"
   ], 
   "user_mentions": [
    "MonumentalNtwrk", 
    "MayHockeyCSN"
   ], 
   "created_at": "Thu Jan 30 19:01:33 +0000 2014", 
   "retweet_count": 5, 
   "favorite_count": 0
  }, 
  {
   "text": "WATCH: Braden Holtby talks with the media about starting in goal tonight vs. the Columbus Blue Jackets. #CapsJackets http://t.co/oQpfJIDAzP", 
   "label": "O", 
   "id": 428962756679974913, 
   "hashtags": [
    "CapsJackets"
   ], 
   "user_mentions": [], 
   "created_at": "Thu Jan 30 18:47:45 +0000 2014", 
   "retweet_count": 5, 
   "favorite_count": 15
  }, 
  {
   "text": "WATCH: Adam Oates addresses the media prior to tonight's game against the Columbus Blue Jackets at Nationwide Arena. http://t.co/742lukso1T", 
   "label": "O", 
   "id": 428955017735716864, 
   "hashtags": [], 
   "user_mentions": [], 
   "created_at": "Thu Jan 30 18:17:00 +0000 2014", 
   "retweet_count": 1, 
   "favorite_count": 5
  }, 
  {
   "text": "RT @MonumentalNtwrk: .@ovi8 can score goals, but can he stop them? He tried on @mneuvirth30 pads to find out. http://t.co/dpVlFoYKsT http:/\u2026", 
   "label": "O", 
   "id": 428954953785147393, 
   "hashtags": [], 
   "user_mentions": [
    "MonumentalNtwrk", 
    "ovi8", 
    "mneuvirth30"
   ], 
   "created_at": "Thu Jan 30 18:16:45 +0000 2014", 
   "retweet_count": 60, 
   "favorite_count": 0
  }, 
  {
   "text": "RT @CapitalsPR: Alex Ovechkin leads the NHL in goals, power-play goals, multi-goal games and shots. For more, read #CAPS TODAY: http://t.co\u2026", 
   "label": "O", 
   "id": 428945713339170816, 
   "hashtags": [
    "CAPS"
   ], 
   "user_mentions": [
    "CapitalsPR"
   ], 
   "created_at": "Thu Jan 30 17:40:02 +0000 2014", 
   "retweet_count": 64, 
   "favorite_count": 0
  }, 
  {
   "text": "RT @VogsCaps: #Caps line rushes at am skate: 90-19-8, 10-21-20, 25-83-43, 16-48-42. #CapsJackets", 
   "label": "O", 
   "id": 428945663691194368, 
   "hashtags": [
    "Caps", 
    "CapsJackets"
   ], 
   "user_mentions": [
    "VogsCaps"
   ], 
   "created_at": "Thu Jan 30 17:39:50 +0000 2014", 
   "retweet_count": 23, 
   "favorite_count": 0
  }, 
  {
   "text": "RT @VogsCaps: Braden Holtby gets the net tonight for the #Caps in Columbus, making Michal Neuvirth the \"likely\" starter in DET on Friday. #\u2026", 
   "label": "O", 
   "id": 428945575833137153, 
   "hashtags": [
    "Caps", 
    "CapsJackets"
   ], 
   "user_mentions": [
    "VogsCaps"
   ], 
   "created_at": "Thu Jan 30 17:39:29 +0000 2014", 
   "retweet_count": 39, 
   "favorite_count": 0
  }, 
  {
   "text": "Come cheer on the Caps tonight with fellow fans during #CapsJackets at Crystal City Sports Pub http://t.co/7WRu7S00qe", 
   "label": "O", 
   "id": 428943533933076480, 
   "hashtags": [
    "CapsJackets"
   ], 
   "user_mentions": [], 
   "created_at": "Thu Jan 30 17:31:22 +0000 2014", 
   "retweet_count": 4, 
   "favorite_count": 3
  }, 
  {
   "text": "RT @capsredrockers: Join Ashton &amp; Christine for tonight's official #Caps viewing party at Crystal City Sports Pub! #CapsJackets is at 7pm h\u2026", 
   "label": "O", 
   "id": 428904766711017472, 
   "hashtags": [
    "Caps", 
    "CapsJackets"
   ], 
   "user_mentions": [
    "capsredrockers"
   ], 
   "created_at": "Thu Jan 30 14:57:19 +0000 2014", 
   "retweet_count": 9, 
   "favorite_count": 0
  }, 
  {
   "text": "READ: Preview tonight's game against the Columbus Blue Jackets. Puck drop at 7 pm from Nationwide Arena. #CapsJackets http://t.co/UwHg7uTVPZ", 
   "label": "O", 
   "id": 428897383854780416, 
   "hashtags": [
    "CapsJackets"
   ], 
   "user_mentions": [], 
   "created_at": "Thu Jan 30 14:27:59 +0000 2014", 
   "retweet_count": 7, 
   "favorite_count": 6
  }, 
  {
   "text": "RT @VogsCaps: GAME PREVIEW: #Caps visit Columbus for Meaningful Metro Match - Caps seek third straight win, third straight on road: http://\u2026", 
   "label": "O", 
   "id": 428765032780800000, 
   "hashtags": [
    "Caps"
   ], 
   "user_mentions": [
    "VogsCaps"
   ], 
   "created_at": "Thu Jan 30 05:42:04 +0000 2014", 
   "retweet_count": 4, 
   "favorite_count": 0
  }
 ]
}