{
 "num_road_team_goals": "3", 
 "home_team": "Washington Capitals", 
 "num_home_team_goals": "4", 
 "summary_url": "http://www.flyershistory.com/cgi-bin/poboxscore.cgi?H20130997", 
 "result": "W", 
 "road_team": "Vancouver Canucks", 
 "date": "2014-03-14", 
 "goals": [
  {
   "season_index": "19", 
   "strength": "(EV)", 
   "time": "8:17", 
   "period": "1", 
   "player": "J.Ward", 
   "assists": "(E.Fehr, J.Chimera)", 
   "game_index": "1", 
   "team": "WSH"
  }, 
  {
   "season_index": "3", 
   "strength": "(EV)", 
   "time": "11:41", 
   "period": "1", 
   "player": "J.Schroeder", 
   "assists": "(Z.Kassian)", 
   "game_index": "2", 
   "team": "VAN"
  }, 
  {
   "season_index": "45", 
   "strength": "(PP)", 
   "time": "8:28", 
   "period": "2", 
   "player": "A.Ovechkin", 
   "assists": "(J.Carlson, E.Kuznetsov)", 
   "game_index": "3", 
   "team": "WSH"
  }, 
  {
   "season_index": "3", 
   "strength": "(EV)", 
   "time": "12:35", 
   "period": "2", 
   "player": "T.Wilson", 
   "assists": "(E.Kuznetsov, J.Beagle)", 
   "game_index": "4", 
   "team": "WSH"
  }, 
  {
   "season_index": "10", 
   "strength": "(EV)", 
   "time": "4:28", 
   "period": "3", 
   "player": "S.Matthias", 
   "assists": "(C.Higgins, C.Tanev)", 
   "game_index": "5", 
   "team": "VAN"
  }, 
  {
   "season_index": "1", 
   "strength": "(EV)", 
   "time": "7:34", 
   "period": "3", 
   "player": "N.Jensen", 
   "assists": "(C.Higgins, C.Tanev)", 
   "game_index": "6", 
   "team": "VAN"
  }, 
  {
   "season_index": "9", 
   "strength": "(EV)", 
   "time": "10:19", 
   "period": "3", 
   "player": "M.Green", 
   "assists": "(N.Backstrom, E.Kuznetsov)", 
   "game_index": "7", 
   "team": "WSH"
  }
 ], 
 "tweets": [
  {
   "text": "Game winning goal. @GreenLife52. #CapsNucks http://t.co/nTr4WVPgbS", 
   "label": "O", 
   "id": 444671278855634945, 
   "hashtags": [
    "CapsNucks"
   ], 
   "user_mentions": [
    "GreenLife52"
   ], 
   "created_at": "Sat Mar 15 03:07:49 +0000 2014", 
   "retweet_count": 187, 
   "favorite_count": 230
  }, 
  {
   "text": "RT @tom_wilso: Big win!! Congrats to @Kuzya92 on his first 3 points, DC is gonna love this kid.", 
   "label": "O", 
   "id": 444671159880388608, 
   "hashtags": [], 
   "user_mentions": [
    "tom_wilso", 
    "Kuzya92"
   ], 
   "created_at": "Sat Mar 15 03:07:20 +0000 2014", 
   "retweet_count": 282, 
   "favorite_count": 0
  }, 
  {
   "text": "John Tortorella: http://t.co/FvDTvjtREx | Sedin, Jensen, Matthias and Lack: http://t.co/H5o5ZwZtE2 talk after a 4-3 loss against the #Caps.", 
   "label": "O", 
   "id": 444670465978941440, 
   "hashtags": [
    "Caps"
   ], 
   "user_mentions": [], 
   "created_at": "Sat Mar 15 03:04:35 +0000 2014", 
   "retweet_count": 0, 
   "favorite_count": 1
  }, 
  {
   "text": "Your first star of the game: @Kuzya92. RT to congratulate Kuznetsov on his first three NHL points (3a). #CapsNucks http://t.co/9QklpV0oz2", 
   "label": "O", 
   "id": 444668020707688448, 
   "hashtags": [
    "CapsNucks"
   ], 
   "user_mentions": [
    "Kuzya92"
   ], 
   "created_at": "Sat Mar 15 02:54:52 +0000 2014", 
   "retweet_count": 313, 
   "favorite_count": 229
  }, 
  {
   "text": "WATCH: #Caps head coach Adam Oates addresses the media after a 4-3 win against the Vancouver Canucks. #CapsNucks http://t.co/QK54BfzaJi", 
   "label": "O", 
   "id": 444667424378744832, 
   "hashtags": [
    "Caps", 
    "CapsNucks"
   ], 
   "user_mentions": [], 
   "created_at": "Sat Mar 15 02:52:30 +0000 2014", 
   "retweet_count": 3, 
   "favorite_count": 8
  }, 
  {
   "text": "In his postgame comments, Nicklas Backstrom also speaks about the decision of the IOC to award him a silver medal. - http://t.co/Z8LCQJ53Tc", 
   "label": "O", 
   "id": 444667010430275584, 
   "hashtags": [], 
   "user_mentions": [], 
   "created_at": "Sat Mar 15 02:50:51 +0000 2014", 
   "retweet_count": 7, 
   "favorite_count": 16
  }, 
  {
   "text": "WATCH: #Caps forward Nicklas Backstrom addresses the media after a 4-3 win against the Vancouver Canucks. #CapsNucks http://t.co/Z8LCQJ53Tc", 
   "label": "O", 
   "id": 444666444291538946, 
   "hashtags": [
    "Caps", 
    "CapsNucks"
   ], 
   "user_mentions": [], 
   "created_at": "Sat Mar 15 02:48:36 +0000 2014", 
   "retweet_count": 10, 
   "favorite_count": 16
  }, 
  {
   "text": "WATCH: #Caps goalie Jaroslav Halak addresses the media after a 4-3 win against the Vancouver Canucks. #CapsNucks http://t.co/pAeEVlYTqu", 
   "label": "O", 
   "id": 444664680066613248, 
   "hashtags": [
    "Caps", 
    "CapsNucks"
   ], 
   "user_mentions": [], 
   "created_at": "Sat Mar 15 02:41:35 +0000 2014", 
   "retweet_count": 8, 
   "favorite_count": 9
  }, 
  {
   "text": "WATCH: #Caps forward Jay Beagle addresses the media after a 4-3 win against the Vancouver Canucks at Verizon Center. http://t.co/YToMQYgHKc", 
   "label": "O", 
   "id": 444663406965309440, 
   "hashtags": [
    "Caps"
   ], 
   "user_mentions": [], 
   "created_at": "Sat Mar 15 02:36:32 +0000 2014", 
   "retweet_count": 7, 
   "favorite_count": 9
  }, 
  {
   "text": "RT @CapitalsPR: For postgame notes, stats and quotes from tonight's #Caps win, visit: http://t.co/nhUizILkrK", 
   "label": "O", 
   "id": 444661741914693632, 
   "hashtags": [
    "Caps"
   ], 
   "user_mentions": [
    "CapitalsPR"
   ], 
   "created_at": "Sat Mar 15 02:29:55 +0000 2014", 
   "retweet_count": 2, 
   "favorite_count": 0
  }, 
  {
   "text": "WATCH: #Caps forward Tom Wilson addresses the media after scoring a goal in tonight's 4-3 win against the Canucks. - http://t.co/QealdEljUD", 
   "label": "O", 
   "id": 444660939619827712, 
   "hashtags": [
    "Caps"
   ], 
   "user_mentions": [], 
   "created_at": "Sat Mar 15 02:26:44 +0000 2014", 
   "retweet_count": 13, 
   "favorite_count": 22
  }, 
  {
   "text": "RT @CapitalsPR: #Caps will practice at 11 am on Saturday at KCI", 
   "label": "O", 
   "id": 444660840613289984, 
   "hashtags": [
    "Caps"
   ], 
   "user_mentions": [
    "CapitalsPR"
   ], 
   "created_at": "Sat Mar 15 02:26:20 +0000 2014", 
   "retweet_count": 4, 
   "favorite_count": 0
  }, 
  {
   "text": "RT @CapitalsPR: The #Caps improved to 22-8-3 this season when scoring first and 19-0-3 this season when leading after two periods.", 
   "label": "O", 
   "id": 444660813664886784, 
   "hashtags": [
    "Caps"
   ], 
   "user_mentions": [
    "CapitalsPR"
   ], 
   "created_at": "Sat Mar 15 02:26:14 +0000 2014", 
   "retweet_count": 6, 
   "favorite_count": 0
  }, 
  {
   "text": "WATCH: Evgeny Kuznetsov addresses the media after registering his first three NHL points (3a) in tonight's 4-3 win. - http://t.co/cZ1dxd7Uqb", 
   "label": "O", 
   "id": 444658124893736960, 
   "hashtags": [], 
   "user_mentions": [], 
   "created_at": "Sat Mar 15 02:15:32 +0000 2014", 
   "retweet_count": 13, 
   "favorite_count": 25
  }, 
  {
   "text": "RT @VogsCaps: Kuznetsov is 1st #Caps rookie to earn 3 assists in game since Backstrom on 3/3/08.", 
   "label": "O", 
   "id": 444657279691128832, 
   "hashtags": [
    "Caps"
   ], 
   "user_mentions": [
    "VogsCaps"
   ], 
   "created_at": "Sat Mar 15 02:12:11 +0000 2014", 
   "retweet_count": 105, 
   "favorite_count": 0
  }, 
  {
   "text": "RT @CapitalsPR: #Caps Evgeny Kuznetsov with the puck from his first NHL point http://t.co/dPqK9jFKPW", 
   "label": "O", 
   "id": 444656100160593920, 
   "hashtags": [
    "Caps"
   ], 
   "user_mentions": [
    "CapitalsPR"
   ], 
   "created_at": "Sat Mar 15 02:07:30 +0000 2014", 
   "retweet_count": 237, 
   "favorite_count": 0
  }, 
  {
   "text": ".@tom_wilso speaks to a few reporters after #CapsNucks. http://t.co/myw7DoKEcP", 
   "label": "O", 
   "id": 444652251261714432, 
   "hashtags": [
    "CapsNucks"
   ], 
   "user_mentions": [
    "tom_wilso"
   ], 
   "created_at": "Sat Mar 15 01:52:12 +0000 2014", 
   "retweet_count": 41, 
   "favorite_count": 116
  }, 
  {
   "text": "#CapsNucks http://t.co/ft4nfiA3TZ", 
   "label": "O", 
   "id": 444651403286306816, 
   "hashtags": [
    "CapsNucks"
   ], 
   "user_mentions": [], 
   "created_at": "Sat Mar 15 01:48:50 +0000 2014", 
   "retweet_count": 135, 
   "favorite_count": 200
  }, 
  {
   "text": "Watch all three of @Kuzya92's three assists vs. Vancouver tonight:\nhttp://t.co/7Z0GUx2jox #CapsNucks", 
   "label": "O", 
   "id": 444649217068654592, 
   "hashtags": [
    "CapsNucks"
   ], 
   "user_mentions": [
    "Kuzya92"
   ], 
   "created_at": "Sat Mar 15 01:40:09 +0000 2014", 
   "retweet_count": 30, 
   "favorite_count": 33
  }, 
  {
   "text": "The Caps defeat the Canucks with a final score of 4-3. #CapsNucks", 
   "label": "O", 
   "id": 444648639206809600, 
   "hashtags": [
    "CapsNucks"
   ], 
   "user_mentions": [], 
   "created_at": "Sat Mar 15 01:37:51 +0000 2014", 
   "retweet_count": 206, 
   "favorite_count": 151
  }, 
  {
   "text": "Vancouver calls a timeout with 1:08 left in the third. Caps lead 4-3. #CapsNucks", 
   "label": "O", 
   "id": 444647682884526080, 
   "hashtags": [
    "CapsNucks"
   ], 
   "user_mentions": [], 
   "created_at": "Sat Mar 15 01:34:03 +0000 2014", 
   "retweet_count": 8, 
   "favorite_count": 11
  }, 
  {
   "text": "LISTEN: Mike Green gives the Caps a 4-3 lead in the third and Evgeny Kuznetsov earns his third helper of the night.\nhttp://t.co/tAv4UiU80z", 
   "label": "O", 
   "id": 444646827959537664, 
   "hashtags": [], 
   "user_mentions": [], 
   "created_at": "Sat Mar 15 01:30:39 +0000 2014", 
   "retweet_count": 7, 
   "favorite_count": 20
  }, 
  {
   "text": "The Caps kill off the penalty to Backstrom. Caps lead 4-3 with 4:22 left in the third. #CapsNucks", 
   "label": "O", 
   "id": 444646036259491840, 
   "hashtags": [
    "CapsNucks"
   ], 
   "user_mentions": [], 
   "created_at": "Sat Mar 15 01:27:30 +0000 2014", 
   "retweet_count": 9, 
   "favorite_count": 19
  }, 
  {
   "text": "Chimera joins Backstrom in the box with 4:23 left in the third but Alexander Burrows receives a matching roughing penalty. #CapsNucks", 
   "label": "O", 
   "id": 444645986674425857, 
   "hashtags": [
    "CapsNucks"
   ], 
   "user_mentions": [], 
   "created_at": "Sat Mar 15 01:27:19 +0000 2014", 
   "retweet_count": 3, 
   "favorite_count": 10
  }, 
  {
   "text": "Backstrom goes to the box for holding at 13:38 of the third. Caps headed to the PK with a one-goal lead. #CapsNucks", 
   "label": "O", 
   "id": 444644999763070976, 
   "hashtags": [
    "CapsNucks"
   ], 
   "user_mentions": [], 
   "created_at": "Sat Mar 15 01:23:23 +0000 2014", 
   "retweet_count": 7, 
   "favorite_count": 6
  }, 
  {
   "text": "Mike Green's goal assisted by Nicklas Backstrom (52) and Evgeny Kuznetsov (3). #CapsNucks", 
   "label": "O", 
   "id": 444643704088064000, 
   "hashtags": [
    "CapsNucks"
   ], 
   "user_mentions": [], 
   "created_at": "Sat Mar 15 01:18:14 +0000 2014", 
   "retweet_count": 32, 
   "favorite_count": 57
  }, 
  {
   "text": "#Caps answer! Mike Green with his 9th of the season. 4-3 Washington. #CapsNucks", 
   "label": "O", 
   "id": 444642749665779713, 
   "hashtags": [
    "Caps", 
    "CapsNucks"
   ], 
   "user_mentions": [], 
   "created_at": "Sat Mar 15 01:14:27 +0000 2014", 
   "retweet_count": 79, 
   "favorite_count": 91
  }, 
  {
   "text": "Canucks tie it up. 12:26 remaining in the 3rd period. #CapsNucks", 
   "label": "O", 
   "id": 444641257714102272, 
   "hashtags": [
    "CapsNucks"
   ], 
   "user_mentions": [], 
   "created_at": "Sat Mar 15 01:08:31 +0000 2014", 
   "retweet_count": 4, 
   "favorite_count": 6
  }, 
  {
   "text": "Canucks score at 4:28 of the 3rd period. #Caps lead cut. 3-2 Washington at Verizon Center. #CapsNucks", 
   "label": "O", 
   "id": 444640180872679424, 
   "hashtags": [
    "Caps", 
    "CapsNucks"
   ], 
   "user_mentions": [], 
   "created_at": "Sat Mar 15 01:04:14 +0000 2014", 
   "retweet_count": 10, 
   "favorite_count": 12
  }, 
  {
   "text": "3rd period underway from the Verizon Center. #Caps lead the Vancouver Canucks 3-1. #CapsNucks", 
   "label": "O", 
   "id": 444638648596967425, 
   "hashtags": [
    "Caps", 
    "CapsNucks"
   ], 
   "user_mentions": [], 
   "created_at": "Sat Mar 15 00:58:09 +0000 2014", 
   "retweet_count": 15, 
   "favorite_count": 17
  }, 
  {
   "text": "RT @MonumentalNtwrk: Kuznetsov: A man on a mission. #CapsNucks http://t.co/ry95yQrc2w", 
   "label": "O", 
   "id": 444637913025085440, 
   "hashtags": [
    "CapsNucks"
   ], 
   "user_mentions": [
    "MonumentalNtwrk"
   ], 
   "created_at": "Sat Mar 15 00:55:14 +0000 2014", 
   "retweet_count": 36, 
   "favorite_count": 0
  }, 
  {
   "text": "Kuznetsov with his 1st two career points in the 2nd. Here was one: http://t.co/ghTfYEqjmT | and the other: http://t.co/IfHfaAsxLu #CapsNucks", 
   "label": "O", 
   "id": 444634321362898944, 
   "hashtags": [
    "CapsNucks"
   ], 
   "user_mentions": [], 
   "created_at": "Sat Mar 15 00:40:57 +0000 2014", 
   "retweet_count": 15, 
   "favorite_count": 28
  }, 
  {
   "text": "At the end of the 2nd period the #Caps lead the Vancouver Canucks 3-1. #Caps goals in the 2nd from Ovechkin (45) and Wilson (3). #CapsNucks", 
   "label": "O", 
   "id": 444633935692447744, 
   "hashtags": [
    "Caps", 
    "Caps", 
    "CapsNucks"
   ], 
   "user_mentions": [], 
   "created_at": "Sat Mar 15 00:39:25 +0000 2014", 
   "retweet_count": 34, 
   "favorite_count": 23
  }, 
  {
   "text": "RT @WaltonCaps: Listen to Tom Wilson's third goal of the year, Kuznetsov's second NHL point, 3-1 Caps late 2nd http://t.co/wiC0UXbrht", 
   "label": "O", 
   "id": 444633843958824960, 
   "hashtags": [], 
   "user_mentions": [
    "WaltonCaps"
   ], 
   "created_at": "Sat Mar 15 00:39:03 +0000 2014", 
   "retweet_count": 18, 
   "favorite_count": 0
  }, 
  {
   "text": "#Caps use their timeout with a 3-1 lead at 15:37 of the 2nd period. #CapsNucks", 
   "label": "O", 
   "id": 444631875932659712, 
   "hashtags": [
    "Caps", 
    "CapsNucks"
   ], 
   "user_mentions": [], 
   "created_at": "Sat Mar 15 00:31:14 +0000 2014", 
   "retweet_count": 19, 
   "favorite_count": 11
  }, 
  {
   "text": "RT @CapitalsPR: #Caps defenseman John Carlson has tallied seven assists in his last nine games (2/27-3/14).", 
   "label": "O", 
   "id": 444630884512460800, 
   "hashtags": [
    "Caps"
   ], 
   "user_mentions": [
    "CapitalsPR"
   ], 
   "created_at": "Sat Mar 15 00:27:18 +0000 2014", 
   "retweet_count": 6, 
   "favorite_count": 0
  }, 
  {
   "text": "Tom Wilson's 3rd goal of the season assisted by Evgeny Kuznetsov (2) and Jay Beagle (5). #CapsNucks", 
   "label": "O", 
   "id": 444630841231437825, 
   "hashtags": [
    "CapsNucks"
   ], 
   "user_mentions": [], 
   "created_at": "Sat Mar 15 00:27:08 +0000 2014", 
   "retweet_count": 67, 
   "favorite_count": 73
  }, 
  {
   "text": "RT @WaltonCaps: Listen to Alex Ovechkin's league-leading 45th goal, Kuznetsov's first NHL point to make it 2-1. http://t.co/Sg51WcbIf1", 
   "label": "O", 
   "id": 444630638017413120, 
   "hashtags": [], 
   "user_mentions": [
    "WaltonCaps"
   ], 
   "created_at": "Sat Mar 15 00:26:19 +0000 2014", 
   "retweet_count": 10, 
   "favorite_count": 0
  }, 
  {
   "text": "What a look! The slap pass from Evgeny Kuznetsov to Tom Wilson who roofs it past Eddie Lack. 3-1 #Caps at 12:35 of the 2nd. #CapsNucks", 
   "label": "O", 
   "id": 444630521533198337, 
   "hashtags": [
    "Caps", 
    "CapsNucks"
   ], 
   "user_mentions": [], 
   "created_at": "Sat Mar 15 00:25:51 +0000 2014", 
   "retweet_count": 89, 
   "favorite_count": 61
  }, 
  {
   "text": "\"Who scored the #Caps first goal of the night?\"\n@JRandalWard42: \"I did!\"\nHear it: http://t.co/Zz44Ctc3lc #CapsNucks http://t.co/enrUKdidiW", 
   "label": "O", 
   "id": 444629460768157696, 
   "hashtags": [
    "Caps", 
    "CapsNucks"
   ], 
   "user_mentions": [
    "JRandalWard42"
   ], 
   "created_at": "Sat Mar 15 00:21:38 +0000 2014", 
   "retweet_count": 24, 
   "favorite_count": 42
  }, 
  {
   "text": "Alex Ovechkin's PPG, his 45th goal of the year, assisted by John Carlson (20) and Evgney Kuznetsov (1). #CapsNucks", 
   "label": "O", 
   "id": 444628880331374592, 
   "hashtags": [
    "CapsNucks"
   ], 
   "user_mentions": [], 
   "created_at": "Sat Mar 15 00:19:20 +0000 2014", 
   "retweet_count": 71, 
   "favorite_count": 72
  }, 
  {
   "text": "#Caps score! Alex Ovechkin with his 45th goal of the year. #Caps lead 2-1. Kuznetsov with his first career NHL point. #CapsNucks", 
   "label": "O", 
   "id": 444628601829588992, 
   "hashtags": [
    "Caps", 
    "Caps", 
    "CapsNucks"
   ], 
   "user_mentions": [], 
   "created_at": "Sat Mar 15 00:18:14 +0000 2014", 
   "retweet_count": 163, 
   "favorite_count": 122
  }, 
  {
   "text": "The #Caps will head to the power play at 7:02 of the 2nd period. Sestito gets two minutes for hooking. Game tied 1-1. #CapsNucks", 
   "label": "O", 
   "id": 444627870103916544, 
   "hashtags": [
    "Caps", 
    "CapsNucks"
   ], 
   "user_mentions": [], 
   "created_at": "Sat Mar 15 00:15:19 +0000 2014", 
   "retweet_count": 4, 
   "favorite_count": 2
  }, 
  {
   "text": "2nd period underway from Verizon Center. #Caps and Vancouver Canucks tied 1-1. #CapsNucks", 
   "label": "O", 
   "id": 444625897816334336, 
   "hashtags": [
    "Caps", 
    "CapsNucks"
   ], 
   "user_mentions": [], 
   "created_at": "Sat Mar 15 00:07:29 +0000 2014", 
   "retweet_count": 7, 
   "favorite_count": 5
  }, 
  {
   "text": "At the end of the 1st, the #Caps and Vancouver Canucks are tied 1-1. #Caps goal in the 1st from Joel Ward, his 19th of the year. #CapsNucks", 
   "label": "O", 
   "id": 444620533892935680, 
   "hashtags": [
    "Caps", 
    "Caps", 
    "CapsNucks"
   ], 
   "user_mentions": [], 
   "created_at": "Fri Mar 14 23:46:10 +0000 2014", 
   "retweet_count": 11, 
   "favorite_count": 12
  }, 
  {
   "text": "Zac Dalpe gets 2 minutes for goaltender interference, Sestito 2 for roughing, Beagle 2 for roughing. #Caps to the PP at 18:11. #CapsNucks", 
   "label": "O", 
   "id": 444620049534685185, 
   "hashtags": [
    "Caps", 
    "CapsNucks"
   ], 
   "user_mentions": [], 
   "created_at": "Fri Mar 14 23:44:15 +0000 2014", 
   "retweet_count": 2, 
   "favorite_count": 6
  }, 
  {
   "text": "#Caps kill off the Vancouver power play. Teams back even with 3:15 remaining in the 1st period. Game tied 1-1. #CapsNucks", 
   "label": "O", 
   "id": 444619059335020544, 
   "hashtags": [
    "Caps", 
    "CapsNucks"
   ], 
   "user_mentions": [], 
   "created_at": "Fri Mar 14 23:40:19 +0000 2014", 
   "retweet_count": 4, 
   "favorite_count": 10
  }, 
  {
   "text": "#Caps will head to the PK at 14:31 of the 1st period. Alex Ovechkin gets two minutes for slashing. Game tied 1-1. #CapsNucks", 
   "label": "O", 
   "id": 444618447159586816, 
   "hashtags": [
    "Caps", 
    "CapsNucks"
   ], 
   "user_mentions": [], 
   "created_at": "Fri Mar 14 23:37:53 +0000 2014", 
   "retweet_count": 6, 
   "favorite_count": 8
  }, 
  {
   "text": "RT @WaltonCaps: Listen to Joel Ward score his 19th goal of the season, now 1-1 with Vancouver late in the first period http://t.co/83vP2Z2i\u2026", 
   "label": "O", 
   "id": 444618108029128704, 
   "hashtags": [], 
   "user_mentions": [
    "WaltonCaps"
   ], 
   "created_at": "Fri Mar 14 23:36:32 +0000 2014", 
   "retweet_count": 5, 
   "favorite_count": 0
  }, 
  {
   "text": "RT @CapitalsPR: #Caps Jason Chimera has tallied an assist in six of his last eight games (3/1-3/14).", 
   "label": "O", 
   "id": 444616836341309440, 
   "hashtags": [
    "Caps"
   ], 
   "user_mentions": [
    "CapitalsPR"
   ], 
   "created_at": "Fri Mar 14 23:31:29 +0000 2014", 
   "retweet_count": 5, 
   "favorite_count": 0
  }, 
  {
   "text": "Vancouver ties it up. 1-1 with 8:19 remaining in the 1st. #CapsNucks", 
   "label": "O", 
   "id": 444616050991435777, 
   "hashtags": [
    "CapsNucks"
   ], 
   "user_mentions": [], 
   "created_at": "Fri Mar 14 23:28:21 +0000 2014", 
   "retweet_count": 7, 
   "favorite_count": 5
  }, 
  {
   "text": "#Caps kill off the Vancouver power play. Teams back even with 8:45 remaining in the 1st period. #Caps lead 1-0. #CapsNucks", 
   "label": "O", 
   "id": 444615909916016640, 
   "hashtags": [
    "Caps", 
    "Caps", 
    "CapsNucks"
   ], 
   "user_mentions": [], 
   "created_at": "Fri Mar 14 23:27:48 +0000 2014", 
   "retweet_count": 5, 
   "favorite_count": 8
  }, 
  {
   "text": "#Caps will head to the PK at 9:06 of the 1st period. Jay Beagle gets two minutes for tripping. #Caps lead 1-0. #CapsNucks", 
   "label": "O", 
   "id": 444615140726820864, 
   "hashtags": [
    "Caps", 
    "Caps", 
    "CapsNucks"
   ], 
   "user_mentions": [], 
   "created_at": "Fri Mar 14 23:24:44 +0000 2014", 
   "retweet_count": 5, 
   "favorite_count": 8
  }, 
  {
   "text": "Joel Ward's goal assisted by Eric Fehr (14) and Jason Chimera (23). #CapsNucks", 
   "label": "O", 
   "id": 444614987458572289, 
   "hashtags": [
    "CapsNucks"
   ], 
   "user_mentions": [], 
   "created_at": "Fri Mar 14 23:24:08 +0000 2014", 
   "retweet_count": 23, 
   "favorite_count": 24
  }, 
  {
   "text": "RT @VogsCaps: Amazing pass from Chimera, Fehr's shot missed, Ward a swing and a miss, then a lil dribbler from 42 gets in. #Caps up 1-0 at \u2026", 
   "label": "O", 
   "id": 444614935268851712, 
   "hashtags": [
    "Caps"
   ], 
   "user_mentions": [
    "VogsCaps"
   ], 
   "created_at": "Fri Mar 14 23:23:55 +0000 2014", 
   "retweet_count": 6, 
   "favorite_count": 0
  }, 
  {
   "text": "#Caps score! Joel Ward in the right spot and he puts in his 19th of the year. 1-0 #Caps. #CapsNucks", 
   "label": "O", 
   "id": 444614635329568768, 
   "hashtags": [
    "Caps", 
    "Caps", 
    "CapsNucks"
   ], 
   "user_mentions": [], 
   "created_at": "Fri Mar 14 23:22:44 +0000 2014", 
   "retweet_count": 47, 
   "favorite_count": 47
  }, 
  {
   "text": "RT @VogsCaps: Solid -- and much needed -- o-zone shift from #caps fourth line there. #capsNucks", 
   "label": "O", 
   "id": 444614272807866368, 
   "hashtags": [
    "caps", 
    "capsNucks"
   ], 
   "user_mentions": [
    "VogsCaps"
   ], 
   "created_at": "Fri Mar 14 23:21:17 +0000 2014", 
   "retweet_count": 3, 
   "favorite_count": 0
  }, 
  {
   "text": "#Caps and Vancouver Canucks are underway from Verizon Center. #Caps starters: Penner, Johansson, Brouwer, Green, Hillen, Halak. #CapsNucks", 
   "label": "O", 
   "id": 444611097019297792, 
   "hashtags": [
    "Caps", 
    "Caps", 
    "CapsNucks"
   ], 
   "user_mentions": [], 
   "created_at": "Fri Mar 14 23:08:40 +0000 2014", 
   "retweet_count": 17, 
   "favorite_count": 28
  }, 
  {
   "text": "RT @WaltonCaps: Bringing the noise on @CapitalsRadio 106.7 The Fan in Washington. Caps/Canucks drop the puck in minutes.Hear here: http://t\u2026", 
   "label": "O", 
   "id": 444610842605395968, 
   "hashtags": [], 
   "user_mentions": [
    "WaltonCaps", 
    "CapitalsRadio"
   ], 
   "created_at": "Fri Mar 14 23:07:40 +0000 2014", 
   "retweet_count": 2, 
   "favorite_count": 0
  }, 
  {
   "text": "RT @MonumentalNtwrk: Home cooking! #CapsNucks http://t.co/dsP3qe3qsG", 
   "label": "O", 
   "id": 444610823999086592, 
   "hashtags": [
    "CapsNucks"
   ], 
   "user_mentions": [
    "MonumentalNtwrk"
   ], 
   "created_at": "Fri Mar 14 23:07:35 +0000 2014", 
   "retweet_count": 14, 
   "favorite_count": 0
  }, 
  {
   "text": "It's #CapsNucks at 7 p.m. tonight on CSN+. Orlov and the boys are set for some Friday night hockey. http://t.co/MePTrA9hjG", 
   "label": "O", 
   "id": 444596442603061248, 
   "hashtags": [
    "CapsNucks"
   ], 
   "user_mentions": [], 
   "created_at": "Fri Mar 14 22:10:26 +0000 2014", 
   "retweet_count": 27, 
   "favorite_count": 55
  }, 
  {
   "text": "RT @CapitalsPR: Read: #Caps @Holts170 and @connorcarrick Skate with Canada Israel Hockey School Children: http://t.co/yIxwdz5r9G http://t.c\u2026", 
   "label": "O", 
   "id": 444570867847417856, 
   "hashtags": [
    "Caps"
   ], 
   "user_mentions": [
    "CapitalsPR", 
    "Holts170", 
    "connorcarrick"
   ], 
   "created_at": "Fri Mar 14 20:28:49 +0000 2014", 
   "retweet_count": 10, 
   "favorite_count": 0
  }, 
  {
   "text": "#CapsNucks PREGAME VIDEOS | Adam Oates: http://t.co/hMRHsTIUOv | Jay Beagle: http://t.co/7IUYtsFuXq | Two-Man: http://t.co/NJjE8KoO6t", 
   "label": "O", 
   "id": 444560635209478144, 
   "hashtags": [
    "CapsNucks"
   ], 
   "user_mentions": [], 
   "created_at": "Fri Mar 14 19:48:09 +0000 2014", 
   "retweet_count": 2, 
   "favorite_count": 4
  }, 
  {
   "text": "RT @CapitalsPR: #Caps Casino Night raised more than $300,000 for @MSEFndn Story: http://t.co/i8Egt5M7og Video: http://t.co/h4qOBLjcIX http:\u2026", 
   "label": "O", 
   "id": 444543352001011712, 
   "hashtags": [
    "Caps"
   ], 
   "user_mentions": [
    "CapitalsPR", 
    "MSEFndn"
   ], 
   "created_at": "Fri Mar 14 18:39:29 +0000 2014", 
   "retweet_count": 18, 
   "favorite_count": 0
  }, 
  {
   "text": "RT @MSEFndn: Watch the @washcaps Casino Night presented by @SalamanderVA recap. It raised more than $300K for charity!   \nhttp://t.co/PkrfH\u2026", 
   "label": "O", 
   "id": 444542587597500416, 
   "hashtags": [], 
   "user_mentions": [
    "MSEFndn", 
    "washcaps", 
    "SalamanderVA"
   ], 
   "created_at": "Fri Mar 14 18:36:26 +0000 2014", 
   "retweet_count": 3, 
   "favorite_count": 0
  }, 
  {
   "text": "ICYMI: Check out the @ShopTysons Hockey Clinic hosted by @KarlAlzner! http://t.co/45Qwjuo6p5", 
   "label": "O", 
   "id": 444537306951991296, 
   "hashtags": [], 
   "user_mentions": [
    "ShopTysons", 
    "KarlAlzner"
   ], 
   "created_at": "Fri Mar 14 18:15:27 +0000 2014", 
   "retweet_count": 5, 
   "favorite_count": 4
  }, 
  {
   "text": "NEWS: Nicklas Backstrom learned this afternoon that he will receive a silver medal for the 2014 Games in Sochi. #Caps http://t.co/7g8m2x67NQ", 
   "label": "O", 
   "id": 444530858729701376, 
   "hashtags": [
    "Caps"
   ], 
   "user_mentions": [], 
   "created_at": "Fri Mar 14 17:49:50 +0000 2014", 
   "retweet_count": 106, 
   "favorite_count": 122
  }, 
  {
   "text": "RT @VogsCaps: BLOG UPDATE: #Caps C Nicklas Backstrom learned this afternoon that he will receive silver medal from '14 Games: http://t.co/X\u2026", 
   "label": "O", 
   "id": 444530286655967232, 
   "hashtags": [
    "Caps"
   ], 
   "user_mentions": [
    "VogsCaps"
   ], 
   "created_at": "Fri Mar 14 17:47:34 +0000 2014", 
   "retweet_count": 57, 
   "favorite_count": 0
  }, 
  {
   "text": "RT @CapitalsPR: Watch @nbcwashington at 5 p.m. for @NBCdianna's story on the Canada Israel Hockey School skate with the #Caps http://t.co/6\u2026", 
   "label": "O", 
   "id": 444519953547689984, 
   "hashtags": [
    "Caps"
   ], 
   "user_mentions": [
    "CapitalsPR", 
    "nbcwashington", 
    "NBCdianna"
   ], 
   "created_at": "Fri Mar 14 17:06:30 +0000 2014", 
   "retweet_count": 17, 
   "favorite_count": 0
  }, 
  {
   "text": "WATCH: @VogsCaps and @WaltonCaps with the Two-Man Advantage previewing tonight's game against the Vancouver Canucks. http://t.co/NJjE8KoO6t", 
   "label": "O", 
   "id": 444512210208182272, 
   "hashtags": [], 
   "user_mentions": [
    "VogsCaps", 
    "WaltonCaps"
   ], 
   "created_at": "Fri Mar 14 16:35:44 +0000 2014", 
   "retweet_count": 6, 
   "favorite_count": 2
  }, 
  {
   "text": "WATCH: Jay Beagle talks #CapsNucks with @VogsCaps in a @MonumentalNtwrk exclusive from the locker room at KCI. http://t.co/7IUYtsFuXq #Caps", 
   "label": "O", 
   "id": 444509528957415424, 
   "hashtags": [
    "CapsNucks", 
    "Caps"
   ], 
   "user_mentions": [
    "VogsCaps", 
    "MonumentalNtwrk"
   ], 
   "created_at": "Fri Mar 14 16:25:04 +0000 2014", 
   "retweet_count": 4, 
   "favorite_count": 5
  }, 
  {
   "text": "Be at Verizon Center tonight for #CapsNucks. It's time to get loud: http://t.co/PUPRWuNAj3 http://t.co/qkY7G8Tnyf", 
   "label": "O", 
   "id": 444507854087524352, 
   "hashtags": [
    "CapsNucks"
   ], 
   "user_mentions": [], 
   "created_at": "Fri Mar 14 16:18:25 +0000 2014", 
   "retweet_count": 26, 
   "favorite_count": 34
  }, 
  {
   "text": "RT @VogsCaps: BLOG UPDATE: #Caps Seek to Shore up Sagging Game; With one win in last six, 10 in last 29, it's now or never time: http://t.c\u2026", 
   "label": "O", 
   "id": 444504168666234880, 
   "hashtags": [
    "Caps"
   ], 
   "user_mentions": [
    "VogsCaps"
   ], 
   "created_at": "Fri Mar 14 16:03:46 +0000 2014", 
   "retweet_count": 6, 
   "favorite_count": 0
  }, 
  {
   "text": "The #Caps have posted a 6-3-2 record in Friday games this season and have outscored opponents 31-26. More: http://t.co/UEPjYHOh88 #CapsNucks", 
   "label": "O", 
   "id": 444502999663398913, 
   "hashtags": [
    "Caps", 
    "CapsNucks"
   ], 
   "user_mentions": [], 
   "created_at": "Fri Mar 14 15:59:08 +0000 2014", 
   "retweet_count": 6, 
   "favorite_count": 4
  }, 
  {
   "text": "WATCH: Adam Oates addresses the media prior to tonight's game against the Vancouver Canucks at the Verizon Center. - http://t.co/hMRHsTIUOv", 
   "label": "O", 
   "id": 444500091173609472, 
   "hashtags": [], 
   "user_mentions": [], 
   "created_at": "Fri Mar 14 15:47:34 +0000 2014", 
   "retweet_count": 4, 
   "favorite_count": 4
  }, 
  {
   "text": "Jaroslav Halak first off the ice for Washington. He'll start in goal tonight for the #Caps. #CapsNucks", 
   "label": "O", 
   "id": 444484474357960704, 
   "hashtags": [
    "Caps", 
    "CapsNucks"
   ], 
   "user_mentions": [], 
   "created_at": "Fri Mar 14 14:45:31 +0000 2014", 
   "retweet_count": 52, 
   "favorite_count": 40
  }, 
  {
   "text": "Here's your Friday Capitals Minute, as the Caps play host to Vancouver tonight at Verizon Center.  http://t.co/RZ7AYjDZbZ #Caps #CapsNucks", 
   "label": "O", 
   "id": 444469936849973248, 
   "hashtags": [
    "Caps", 
    "CapsNucks"
   ], 
   "user_mentions": [], 
   "created_at": "Fri Mar 14 13:47:45 +0000 2014", 
   "retweet_count": 9, 
   "favorite_count": 4
  }, 
  {
   "text": "RT @VogsCaps: Grabovski and Laich on ice at Kettlet along with strength and conditioning coach Mark Nemish ahead of today's morning skate. \u2026", 
   "label": "O", 
   "id": 444469544732876800, 
   "hashtags": [
    "Caps"
   ], 
   "user_mentions": [
    "VogsCaps"
   ], 
   "created_at": "Fri Mar 14 13:46:12 +0000 2014", 
   "retweet_count": 17, 
   "favorite_count": 0
  }, 
  {
   "text": "READ: Preview tonight's game against the Vancouver Canucks. Puck drop at 7 p.m. from Verizon Center. #CapsNucks http://t.co/1HQP73GHhC #Caps", 
   "label": "O", 
   "id": 444461376892055552, 
   "hashtags": [
    "CapsNucks", 
    "Caps"
   ], 
   "user_mentions": [], 
   "created_at": "Fri Mar 14 13:13:44 +0000 2014", 
   "retweet_count": 9, 
   "favorite_count": 6
  }
 ]
}