{
 "num_road_team_goals": "5", 
 "home_team": "Washington Capitals", 
 "num_home_team_goals": "0", 
 "summary_url": "http://www.flyershistory.com/cgi-bin/poboxscore.cgi?H20131133", 
 "result": "L", 
 "road_team": "Dallas Stars", 
 "date": "2014-04-01", 
 "goals": [
  {
   "season_index": "33", 
   "strength": "(EV)", 
   "time": "15:08", 
   "period": "1", 
   "player": "T.Seguin", 
   "assists": "(J.Benn)", 
   "game_index": "1", 
   "team": "DAL"
  }, 
  {
   "season_index": "9", 
   "strength": "(EV)", 
   "time": "9:16", 
   "period": "2", 
   "player": "R.Whitney", 
   "assists": "(A.Chiasson, A.Goligoski)", 
   "game_index": "2", 
   "team": "DAL"
  }, 
  {
   "season_index": "1", 
   "strength": "(EV)", 
   "time": "9:50", 
   "period": "2", 
   "player": "D.Jeffrey", 
   "assists": "(A.Chiasson, T.Daley)", 
   "game_index": "3", 
   "team": "DAL"
  }, 
  {
   "season_index": "2", 
   "strength": "(EV)", 
   "time": "9:55", 
   "period": "3", 
   "player": "D.Jeffrey", 
   "assists": "(R.Whitney, A.Chiasson)", 
   "game_index": "4", 
   "team": "DAL"
  }, 
  {
   "season_index": "16", 
   "strength": "(SH)", 
   "time": "14:50", 
   "period": "3", 
   "player": "R.Garbutt", 
   "assists": "(V.Fiddler)", 
   "game_index": "5", 
   "team": "DAL"
  }
 ], 
 "tweets": [
  {
   "text": "Lindy Ruff: http://t.co/cRyqacRQYF | Alex Chiasson, Kari Lehtonen and Dustin Jeffrey: http://t.co/npJNtZfQfP talk after #CapsStars. #Caps", 
   "label": "O", 
   "id": 451186455440683008, 
   "hashtags": [
    "CapsStars", 
    "Caps"
   ], 
   "user_mentions": [], 
   "created_at": "Wed Apr 02 02:36:48 +0000 2014", 
   "retweet_count": 0, 
   "favorite_count": 3
  }, 
  {
   "text": "WATCH: #Caps defenseman John Carlson addresses the media after a 5-0 loss against the Dallas Stars at Verizon Center. http://t.co/ig9fsUKJTa", 
   "label": "O", 
   "id": 451184319302995969, 
   "hashtags": [
    "Caps"
   ], 
   "user_mentions": [], 
   "created_at": "Wed Apr 02 02:28:18 +0000 2014", 
   "retweet_count": 1, 
   "favorite_count": 8
  }, 
  {
   "text": "RT @CapitalsPR: For postgame notes, stats and quotes from tonight's #Caps game, visit: http://t.co/9Zse6WQO5p", 
   "label": "O", 
   "id": 451183875172347904, 
   "hashtags": [
    "Caps"
   ], 
   "user_mentions": [
    "CapitalsPR"
   ], 
   "created_at": "Wed Apr 02 02:26:33 +0000 2014", 
   "retweet_count": 1, 
   "favorite_count": 0
  }, 
  {
   "text": "WATCH: #Caps defenseman Karl Alzner addresses the media after a 5-0 loss against the Dallas Stars at Verizon Center. http://t.co/pITSWnm317", 
   "label": "O", 
   "id": 451182921622519808, 
   "hashtags": [
    "Caps"
   ], 
   "user_mentions": [], 
   "created_at": "Wed Apr 02 02:22:45 +0000 2014", 
   "retweet_count": 1, 
   "favorite_count": 3
  }, 
  {
   "text": "WATCH: #Caps forward Eric Fehr addresses the media after a 5-0 loss against the Dallas Stars at Verizon Center. - http://t.co/6eWbuE0VV2", 
   "label": "O", 
   "id": 451181654649094145, 
   "hashtags": [
    "Caps"
   ], 
   "user_mentions": [], 
   "created_at": "Wed Apr 02 02:17:43 +0000 2014", 
   "retweet_count": 1, 
   "favorite_count": 4
  }, 
  {
   "text": "WATCH: #Caps head coach Adam Oates addresses the media after a 5-0 loss against the Dallas Stars at Verizon Center. - http://t.co/RbZ8uQEpFV", 
   "label": "O", 
   "id": 451179114737975297, 
   "hashtags": [
    "Caps"
   ], 
   "user_mentions": [], 
   "created_at": "Wed Apr 02 02:07:38 +0000 2014", 
   "retweet_count": 3, 
   "favorite_count": 6
  }, 
  {
   "text": "WATCH: #Caps captain Alex Ovechkin addresses the media after a 5-0 loss against the Dallas Stars at Verizon Center. - http://t.co/P9Ufl5Rtx8", 
   "label": "O", 
   "id": 451177469262176256, 
   "hashtags": [
    "Caps"
   ], 
   "user_mentions": [], 
   "created_at": "Wed Apr 02 02:01:05 +0000 2014", 
   "retweet_count": 6, 
   "favorite_count": 12
  }, 
  {
   "text": "RT @CapitalsPR: #Caps will practice on Wednesday at 11 am at KCI", 
   "label": "O", 
   "id": 451177444486447104, 
   "hashtags": [
    "Caps"
   ], 
   "user_mentions": [
    "CapitalsPR"
   ], 
   "created_at": "Wed Apr 02 02:00:59 +0000 2014", 
   "retweet_count": 1, 
   "favorite_count": 0
  }, 
  {
   "text": "The Caps are shutout by the Stars, 5-0. #CapsStars", 
   "label": "O", 
   "id": 451170561969127424, 
   "hashtags": [
    "CapsStars"
   ], 
   "user_mentions": [], 
   "created_at": "Wed Apr 02 01:33:39 +0000 2014", 
   "retweet_count": 37, 
   "favorite_count": 26
  }, 
  {
   "text": "Eric Fehr to the box at 1:17 of the third for holding. 4-on-4 for 1:01. #CapsStars", 
   "label": "O", 
   "id": 451170246070915072, 
   "hashtags": [
    "CapsStars"
   ], 
   "user_mentions": [], 
   "created_at": "Wed Apr 02 01:32:23 +0000 2014", 
   "retweet_count": 2, 
   "favorite_count": 4
  }, 
  {
   "text": "Chiasson releases, Caps have 1:29 left on the PP #CapsStars", 
   "label": "O", 
   "id": 451169974972084224, 
   "hashtags": [
    "CapsStars"
   ], 
   "user_mentions": [], 
   "created_at": "Wed Apr 02 01:31:19 +0000 2014", 
   "retweet_count": 1, 
   "favorite_count": 4
  }, 
  {
   "text": "Another Star to the box and Washington gets a 5-on-3 advantage for 0:31 seconds. #CapsStars", 
   "label": "O", 
   "id": 451169818868457472, 
   "hashtags": [
    "CapsStars"
   ], 
   "user_mentions": [], 
   "created_at": "Wed Apr 02 01:30:41 +0000 2014", 
   "retweet_count": 1, 
   "favorite_count": 8
  }, 
  {
   "text": "Alex Chiasson goes to the box for high sticking with 3:45 left in the third. #CapsStars", 
   "label": "O", 
   "id": 451168926454779904, 
   "hashtags": [
    "CapsStars"
   ], 
   "user_mentions": [], 
   "created_at": "Wed Apr 02 01:27:09 +0000 2014", 
   "retweet_count": 2, 
   "favorite_count": 2
  }, 
  {
   "text": "Dillon releases. Caps trail 5-0 with 4:05 left in the third. #CapsStars", 
   "label": "O", 
   "id": 451168444260843521, 
   "hashtags": [
    "CapsStars"
   ], 
   "user_mentions": [], 
   "created_at": "Wed Apr 02 01:25:14 +0000 2014", 
   "retweet_count": 4, 
   "favorite_count": 3
  }, 
  {
   "text": "The Stars' Ryan Garbutt notches a SHG with 5:10 left in the third. Caps trail 5-0. #CapsStars", 
   "label": "O", 
   "id": 451168160553914368, 
   "hashtags": [
    "CapsStars"
   ], 
   "user_mentions": [], 
   "created_at": "Wed Apr 02 01:24:06 +0000 2014", 
   "retweet_count": 9, 
   "favorite_count": 10
  }, 
  {
   "text": "Caps going on the PP with 6:06 left in the third as Brendan Dillon gets two for high sticking. #CapsStars", 
   "label": "O", 
   "id": 451167731086548992, 
   "hashtags": [
    "CapsStars"
   ], 
   "user_mentions": [], 
   "created_at": "Wed Apr 02 01:22:24 +0000 2014", 
   "retweet_count": 0, 
   "favorite_count": 9
  }, 
  {
   "text": "The Stars make it 4-0 with a goal from Dustin Jeffrey. 10:05 remaining in the third period. #CapsStars", 
   "label": "O", 
   "id": 451165611826356226, 
   "hashtags": [
    "CapsStars"
   ], 
   "user_mentions": [], 
   "created_at": "Wed Apr 02 01:13:58 +0000 2014", 
   "retweet_count": 8, 
   "favorite_count": 8
  }, 
  {
   "text": "#Caps unable to score on the power play. Eakin out of the box and back on the ice. #Caps trail 3-0 with 19:00 left in the 3rd. #CapsStars", 
   "label": "O", 
   "id": 451162275861512192, 
   "hashtags": [
    "Caps", 
    "Caps", 
    "CapsStars"
   ], 
   "user_mentions": [], 
   "created_at": "Wed Apr 02 01:00:43 +0000 2014", 
   "retweet_count": 4, 
   "favorite_count": 3
  }, 
  {
   "text": "3rd period underway from Verizon Center. #Caps on the power play for 0:38 to begin the period. #Caps trail the Stars 3-0. #CapsStars", 
   "label": "O", 
   "id": 451161954561064960, 
   "hashtags": [
    "Caps", 
    "Caps", 
    "CapsStars"
   ], 
   "user_mentions": [], 
   "created_at": "Wed Apr 02 00:59:26 +0000 2014", 
   "retweet_count": 6, 
   "favorite_count": 3
  }, 
  {
   "text": "At the end of the 2nd period, the #Caps trail the Dallas Stars 3-0. #CapsStars", 
   "label": "O", 
   "id": 451157259062874112, 
   "hashtags": [
    "Caps", 
    "CapsStars"
   ], 
   "user_mentions": [], 
   "created_at": "Wed Apr 02 00:40:47 +0000 2014", 
   "retweet_count": 8, 
   "favorite_count": 10
  }, 
  {
   "text": "#Caps will head to the power play at 18:38 of the 2nd period. Cody Eakin gets two minutes for hooking. #Caps trail 3-0. #CapsStars", 
   "label": "O", 
   "id": 451156340845862912, 
   "hashtags": [
    "Caps", 
    "Caps", 
    "CapsStars"
   ], 
   "user_mentions": [], 
   "created_at": "Wed Apr 02 00:37:08 +0000 2014", 
   "retweet_count": 8, 
   "favorite_count": 4
  }, 
  {
   "text": "#Caps will head to the PK at 10:47 of the 2nd period. Joel Ward gets two minutes for slashing. #Caps trail 3-0. #CapsStars", 
   "label": "O", 
   "id": 451152501459660800, 
   "hashtags": [
    "Caps", 
    "Caps", 
    "CapsStars"
   ], 
   "user_mentions": [], 
   "created_at": "Wed Apr 02 00:21:53 +0000 2014", 
   "retweet_count": 2, 
   "favorite_count": 2
  }, 
  {
   "text": "Braden Holtby replaces Jaroslav Halak in goal for Washington. #CapsStars", 
   "label": "O", 
   "id": 451152038144278528, 
   "hashtags": [
    "CapsStars"
   ], 
   "user_mentions": [], 
   "created_at": "Wed Apr 02 00:20:02 +0000 2014", 
   "retweet_count": 35, 
   "favorite_count": 36
  }, 
  {
   "text": "Dallas again. #Caps trail 3-0. 10:10 remaining in the 2nd period. #CapsStars", 
   "label": "O", 
   "id": 451151940593131520, 
   "hashtags": [
    "Caps", 
    "CapsStars"
   ], 
   "user_mentions": [], 
   "created_at": "Wed Apr 02 00:19:39 +0000 2014", 
   "retweet_count": 12, 
   "favorite_count": 6
  }, 
  {
   "text": "Another goal for Dallas. #Caps trail 2-0. Ray Whitney with his 9th goal of the season. #CapsStars", 
   "label": "O", 
   "id": 451151701245165568, 
   "hashtags": [
    "Caps", 
    "CapsStars"
   ], 
   "user_mentions": [], 
   "created_at": "Wed Apr 02 00:18:42 +0000 2014", 
   "retweet_count": 9, 
   "favorite_count": 8
  }, 
  {
   "text": "#Caps kill off the Dallas power play. Teams back even with 16:38 remaining in the 2nd period. #Caps trail 1-0. #CapsStars", 
   "label": "O", 
   "id": 451149261519208448, 
   "hashtags": [
    "Caps", 
    "Caps", 
    "CapsStars"
   ], 
   "user_mentions": [], 
   "created_at": "Wed Apr 02 00:09:00 +0000 2014", 
   "retweet_count": 3, 
   "favorite_count": 3
  }, 
  {
   "text": "#Caps will head to the PK just 59 seconds into the 2nd period. Mike Green gets two minutes for hooking. #Caps trail 1-0. #CapsStars", 
   "label": "O", 
   "id": 451148620545662978, 
   "hashtags": [
    "Caps", 
    "Caps", 
    "CapsStars"
   ], 
   "user_mentions": [], 
   "created_at": "Wed Apr 02 00:06:27 +0000 2014", 
   "retweet_count": 1, 
   "favorite_count": 4
  }, 
  {
   "text": "2nd period underway from Verizon Center. #Caps trail the Dallas Stars 1-0. #CapsStars", 
   "label": "O", 
   "id": 451148126733500416, 
   "hashtags": [
    "Caps", 
    "CapsStars"
   ], 
   "user_mentions": [], 
   "created_at": "Wed Apr 02 00:04:30 +0000 2014", 
   "retweet_count": 7, 
   "favorite_count": 4
  }, 
  {
   "text": "ICYMI: @usahockey's @juliechu13 presents @MSEFndn with a $10,000 check for @CapsYouthHockey. http://t.co/khBoQiTIKY http://t.co/98iw3JNNVE", 
   "label": "O", 
   "id": 451147113036922882, 
   "hashtags": [], 
   "user_mentions": [
    "usahockey", 
    "juliechu13", 
    "MSEFndn", 
    "CapsYouthHockey"
   ], 
   "created_at": "Wed Apr 02 00:00:28 +0000 2014", 
   "retweet_count": 11, 
   "favorite_count": 18
  }, 
  {
   "text": "At the end of the 1st period, the #Caps trail the Dallas Stars 1-0. #CapsStars", 
   "label": "O", 
   "id": 451143473992052736, 
   "hashtags": [
    "Caps", 
    "CapsStars"
   ], 
   "user_mentions": [], 
   "created_at": "Tue Apr 01 23:46:00 +0000 2014", 
   "retweet_count": 5, 
   "favorite_count": 5
  }, 
  {
   "text": "RT @Hilary_Knight: Soo excited to be @washcaps game #rockTheRed #goCAPS", 
   "label": "O", 
   "id": 451142292062367744, 
   "hashtags": [
    "rockTheRed", 
    "goCAPS"
   ], 
   "user_mentions": [
    "Hilary_Knight", 
    "washcaps"
   ], 
   "created_at": "Tue Apr 01 23:41:18 +0000 2014", 
   "retweet_count": 67, 
   "favorite_count": 0
  }, 
  {
   "text": "RT @MonumentalNtwrk: Huge ovation and chants of \"USA!\" for women's @usahockey in the house tonight! #CapsStars http://t.co/RzWF2b9SBY", 
   "label": "O", 
   "id": 451142158385684480, 
   "hashtags": [
    "CapsStars"
   ], 
   "user_mentions": [
    "MonumentalNtwrk", 
    "usahockey"
   ], 
   "created_at": "Tue Apr 01 23:40:47 +0000 2014", 
   "retweet_count": 44, 
   "favorite_count": 0
  }, 
  {
   "text": "Dallas strikes first. #Caps trail 1-0 at 15:08 of the 1st period. Tyler Seguin gets the Stars on the board. #CapsStars", 
   "label": "O", 
   "id": 451141491311013888, 
   "hashtags": [
    "Caps", 
    "CapsStars"
   ], 
   "user_mentions": [], 
   "created_at": "Tue Apr 01 23:38:07 +0000 2014", 
   "retweet_count": 9, 
   "favorite_count": 9
  }, 
  {
   "text": "Carlson back on the ice. Teams back 5-on-5. 8:30 remaining in the 1st period. No score. #CapsStars", 
   "label": "O", 
   "id": 451138923943985152, 
   "hashtags": [
    "CapsStars"
   ], 
   "user_mentions": [], 
   "created_at": "Tue Apr 01 23:27:55 +0000 2014", 
   "retweet_count": 3, 
   "favorite_count": 13
  }, 
  {
   "text": "RT @CapitalsPR: #Caps Dustin Penner is out for tonight's game due to illness.", 
   "label": "O", 
   "id": 451138605055221760, 
   "hashtags": [
    "Caps"
   ], 
   "user_mentions": [
    "CapitalsPR"
   ], 
   "created_at": "Tue Apr 01 23:26:39 +0000 2014", 
   "retweet_count": 12, 
   "favorite_count": 0
  }, 
  {
   "text": "Trevor Daley releases, #Caps to the PK for 32 seconds. #CapsStars", 
   "label": "O", 
   "id": 451138583064485888, 
   "hashtags": [
    "Caps", 
    "CapsStars"
   ], 
   "user_mentions": [], 
   "created_at": "Tue Apr 01 23:26:34 +0000 2014", 
   "retweet_count": 0, 
   "favorite_count": 4
  }, 
  {
   "text": "John Carlson will head off for slashing at 9:11. Teams 4-on-4 for 1:28. No score. #CapsStars", 
   "label": "O", 
   "id": 451137536640188416, 
   "hashtags": [
    "CapsStars"
   ], 
   "user_mentions": [], 
   "created_at": "Tue Apr 01 23:22:25 +0000 2014", 
   "retweet_count": 5, 
   "favorite_count": 10
  }, 
  {
   "text": "#Caps will head to the power play at 8:39 of the 1st period. Trevor Daley gets two minutes for holding. No score. #CapsStars", 
   "label": "O", 
   "id": 451136867141181440, 
   "hashtags": [
    "Caps", 
    "CapsStars"
   ], 
   "user_mentions": [], 
   "created_at": "Tue Apr 01 23:19:45 +0000 2014", 
   "retweet_count": 8, 
   "favorite_count": 17
  }, 
  {
   "text": "WATCH: @juliechu13 of @usahockey presents a $10,000 check to @MSEFndn on behalf of @Easton_Hockey for youth programs. http://t.co/8342R1rjD3", 
   "label": "O", 
   "id": 451135152954286080, 
   "hashtags": [], 
   "user_mentions": [
    "juliechu13", 
    "usahockey", 
    "MSEFndn", 
    "Easton_Hockey"
   ], 
   "created_at": "Tue Apr 01 23:12:56 +0000 2014", 
   "retweet_count": 4, 
   "favorite_count": 11
  }, 
  {
   "text": "The #Caps and Dallas Stars are underway from Verizon Center. #Caps starters: Grabovski, Beagle, Ovechkin, Green, Orlov, Halak. #CapsStars", 
   "label": "O", 
   "id": 451134361954693121, 
   "hashtags": [
    "Caps", 
    "Caps", 
    "CapsStars"
   ], 
   "user_mentions": [], 
   "created_at": "Tue Apr 01 23:09:48 +0000 2014", 
   "retweet_count": 17, 
   "favorite_count": 27
  }, 
  {
   "text": "No April Fools here... #CapsStars starts at 7 p.m. on CSN! cc: @tom_wilso http://t.co/wHXwqDX7xf", 
   "label": "O", 
   "id": 451122284439543809, 
   "hashtags": [
    "CapsStars"
   ], 
   "user_mentions": [
    "tom_wilso"
   ], 
   "created_at": "Tue Apr 01 22:21:48 +0000 2014", 
   "retweet_count": 95, 
   "favorite_count": 185
  }, 
  {
   "text": "RT @MonumentalNtwrk: \u201cGood morning, good afternoon\u2026good evening?\u201d #CapsStars pregame locker room &amp; shenanigans. http://t.co/xb4rVEgp0A http\u2026", 
   "label": "O", 
   "id": 451118106778542080, 
   "hashtags": [
    "CapsStars"
   ], 
   "user_mentions": [
    "MonumentalNtwrk"
   ], 
   "created_at": "Tue Apr 01 22:05:12 +0000 2014", 
   "retweet_count": 15, 
   "favorite_count": 0
  }, 
  {
   "text": "1st 50 fans to buy @CoorsLightCrnr outside Sec 103 tonight btw 6-6:45pm win a free Coors Light Prize + chance to win autographed Caps items!", 
   "label": "O", 
   "id": 451114383104802816, 
   "hashtags": [], 
   "user_mentions": [], 
   "created_at": "Tue Apr 01 21:50:24 +0000 2014", 
   "retweet_count": 8, 
   "favorite_count": 6
  }, 
  {
   "text": "RT @MonumentalNtwrk: No new #CapsRedLine today (booo!), but we\u2019re counting down our fav Cruisin\u2019 moments (yesss!) http://t.co/Vb36zfTY3u ht\u2026", 
   "label": "O", 
   "id": 451113696212054016, 
   "hashtags": [
    "CapsRedLine"
   ], 
   "user_mentions": [
    "MonumentalNtwrk"
   ], 
   "created_at": "Tue Apr 01 21:47:41 +0000 2014", 
   "retweet_count": 5, 
   "favorite_count": 0
  }, 
  {
   "text": "Are you the Caps biggest fan? Prove it here http://t.co/VELrBUZvV5 for a chance to win a Caps jersey directly from a player! #CapsFanWeek", 
   "label": "O", 
   "id": 451108556331573248, 
   "hashtags": [
    "CapsFanWeek"
   ], 
   "user_mentions": [], 
   "created_at": "Tue Apr 01 21:27:15 +0000 2014", 
   "retweet_count": 4, 
   "favorite_count": 18
  }, 
  {
   "text": "Get everything you need to know about #CapsStars from the experts. Watch today's Two-Man here: http://t.co/DlHJQ1REXm http://t.co/0VVTfw3vEh", 
   "label": "O", 
   "id": 451094015358676992, 
   "hashtags": [
    "CapsStars"
   ], 
   "user_mentions": [], 
   "created_at": "Tue Apr 01 20:29:28 +0000 2014", 
   "retweet_count": 52, 
   "favorite_count": 86
  }, 
  {
   "text": "#CapsStars | Oates: http://t.co/M9Mg3dLIIM | Green: http://t.co/XmD7WFjwLw | Mojo: http://t.co/HX4rEi3KOH | Brouwer: http://t.co/9tqIUFQETV", 
   "label": "O", 
   "id": 451083611140534272, 
   "hashtags": [
    "CapsStars"
   ], 
   "user_mentions": [], 
   "created_at": "Tue Apr 01 19:48:08 +0000 2014", 
   "retweet_count": 2, 
   "favorite_count": 9
  }, 
  {
   "text": "Looking for #CapsStars tickets for tonight? A few extras were just released on Ticketmaster: http://t.co/9h4kmfK7BN http://t.co/nsB5MbmJtd", 
   "label": "O", 
   "id": 451059570224267264, 
   "hashtags": [
    "CapsStars"
   ], 
   "user_mentions": [], 
   "created_at": "Tue Apr 01 18:12:36 +0000 2014", 
   "retweet_count": 12, 
   "favorite_count": 34
  }, 
  {
   "text": "WATCH: Troy Brouwer talks #CapsStars with @VogsCaps in a @MonumentalNtwrk exclusive from the locker room at KCI. http://t.co/9tqIUFQETV", 
   "label": "O", 
   "id": 451054666554834944, 
   "hashtags": [
    "CapsStars"
   ], 
   "user_mentions": [
    "VogsCaps", 
    "MonumentalNtwrk"
   ], 
   "created_at": "Tue Apr 01 17:53:07 +0000 2014", 
   "retweet_count": 6, 
   "favorite_count": 11
  }, 
  {
   "text": "WATCH: #Caps defenseman Mike Green talks with Mike Vogel prior to tonight's game against the Dallas Stars. #CapsStars http://t.co/XmD7WFjwLw", 
   "label": "O", 
   "id": 451045097254424577, 
   "hashtags": [
    "Caps", 
    "CapsStars"
   ], 
   "user_mentions": [], 
   "created_at": "Tue Apr 01 17:15:05 +0000 2014", 
   "retweet_count": 3, 
   "favorite_count": 8
  }, 
  {
   "text": "RT @WaltonCaps: Here's today's Two-Man Advantage. But I have to tell you, I didn't feel like myself for this one today. #CapsStars http://t\u2026", 
   "label": "O", 
   "id": 451042033751564288, 
   "hashtags": [
    "CapsStars"
   ], 
   "user_mentions": [
    "WaltonCaps"
   ], 
   "created_at": "Tue Apr 01 17:02:55 +0000 2014", 
   "retweet_count": 6, 
   "favorite_count": 0
  }, 
  {
   "text": "WATCH: #Caps forward Marcus Johansson addresses the media prior to tonight's game vs. the Dallas Stars. #CapsStars http://t.co/HX4rEi3KOH", 
   "label": "O", 
   "id": 451041485694443520, 
   "hashtags": [
    "Caps", 
    "CapsStars"
   ], 
   "user_mentions": [], 
   "created_at": "Tue Apr 01 17:00:44 +0000 2014", 
   "retweet_count": 2, 
   "favorite_count": 5
  }, 
  {
   "text": "RT @tom_wilso: These guys kill me #CapsStars http://t.co/bykMfIqAwH", 
   "label": "O", 
   "id": 451036076640321536, 
   "hashtags": [
    "CapsStars"
   ], 
   "user_mentions": [
    "tom_wilso"
   ], 
   "created_at": "Tue Apr 01 16:39:15 +0000 2014", 
   "retweet_count": 48, 
   "favorite_count": 0
  }, 
  {
   "text": "RT @EricFehr: This is well done! RT @washcaps WATCH: @VogsCaps and @WaltonCaps with the Two-Man Advantage previewing tonig\u2026 http://t.co/bx1\u2026", 
   "label": "O", 
   "id": 451036064913063936, 
   "hashtags": [], 
   "user_mentions": [
    "EricFehr", 
    "washcaps", 
    "VogsCaps", 
    "WaltonCaps"
   ], 
   "created_at": "Tue Apr 01 16:39:12 +0000 2014", 
   "retweet_count": 6, 
   "favorite_count": 0
  }, 
  {
   "text": "WATCH: #Caps head coach Adam Oates addresses the media prior to tonight's game vs the Dallas Stars at Verizon Center. http://t.co/M9Mg3dLIIM", 
   "label": "O", 
   "id": 451033139650240512, 
   "hashtags": [
    "Caps"
   ], 
   "user_mentions": [], 
   "created_at": "Tue Apr 01 16:27:34 +0000 2014", 
   "retweet_count": 5, 
   "favorite_count": 11
  }, 
  {
   "text": "WATCH: @VogsCaps and @WaltonCaps with the Two-Man Advantage previewing tonight's game vs the Dallas Stars. #CapsStars http://t.co/63tcARvBgi", 
   "label": "O", 
   "id": 451014723379949568, 
   "hashtags": [
    "CapsStars"
   ], 
   "user_mentions": [
    "VogsCaps", 
    "WaltonCaps"
   ], 
   "created_at": "Tue Apr 01 15:14:24 +0000 2014", 
   "retweet_count": 15, 
   "favorite_count": 9
  }, 
  {
   "text": "RT @CapitalsPR: RELEASE: #Caps recall Chris Brown from Hershey (AHL) http://t.co/OOOMsIBAFG", 
   "label": "O", 
   "id": 450998113302757376, 
   "hashtags": [
    "Caps"
   ], 
   "user_mentions": [
    "CapitalsPR"
   ], 
   "created_at": "Tue Apr 01 14:08:24 +0000 2014", 
   "retweet_count": 8, 
   "favorite_count": 0
  }, 
  {
   "text": "RT @CapitalsPR: Alex Ovechkin has recorded 67 points (36g, 31a) in 48 career games in the month of April. For more, read #CAPS TODAY: http:\u2026", 
   "label": "O", 
   "id": 450998102179446785, 
   "hashtags": [
    "CAPS"
   ], 
   "user_mentions": [
    "CapitalsPR"
   ], 
   "created_at": "Tue Apr 01 14:08:21 +0000 2014", 
   "retweet_count": 13, 
   "favorite_count": 0
  }, 
  {
   "text": "RT @WaltonCaps: Game day in D.C. as Dallas comes to call tonight. Hear tonight's preview here with your Capitals Minute. http://t.co/AFnIno\u2026", 
   "label": "O", 
   "id": 450991668096143360, 
   "hashtags": [], 
   "user_mentions": [
    "WaltonCaps"
   ], 
   "created_at": "Tue Apr 01 13:42:47 +0000 2014", 
   "retweet_count": 8, 
   "favorite_count": 0
  }, 
  {
   "text": "READ: Preview tonight's game against the Dallas Stars. Puck drop at 7 p.m. from Verizon Center. #CapsStars http://t.co/7iZZRrrSnm", 
   "label": "O", 
   "id": 450987588208570369, 
   "hashtags": [
    "CapsStars"
   ], 
   "user_mentions": [], 
   "created_at": "Tue Apr 01 13:26:34 +0000 2014", 
   "retweet_count": 7, 
   "favorite_count": 7
  }
 ]
}