{
 "num_road_team_goals": "1", 
 "home_team": "Ottawa Senators", 
 "num_home_team_goals": "2", 
 "summary_url": "http://www.flyershistory.com/cgi-bin/poboxscore.cgi?H20131197", 
 "result": "W (SO)", 
 "road_team": "New Jersey Devils", 
 "date": "2014-04-10", 
 "goals": [
  {
   "season_index": "3", 
   "strength": "(EV)", 
   "time": "11:20", 
   "period": "2", 
   "player": "M.Hoffman", 
   "assists": "(M.Zibanejad, C.Ceci)", 
   "game_index": "1", 
   "team": "OTT"
  }, 
  {
   "season_index": "18", 
   "strength": "(EV)", 
   "time": "17:26", 
   "period": "2", 
   "player": "M.Ryder", 
   "assists": "(A.Volchenkov, T.Sestito)", 
   "game_index": "2", 
   "team": "N.J"
  }
 ], 
 "tweets": [
  {
   "text": "RT @Cqtheresa: #SensSayThanks Thank you @Senators for making me a fan!! One live game changed it all! http://t.co/6l2HGULug1", 
   "label": "O", 
   "id": 454467862678085633, 
   "hashtags": [
    "SensSayThanks"
   ], 
   "user_mentions": [
    "Cqtheresa", 
    "Senators"
   ], 
   "created_at": "Fri Apr 11 03:55:56 +0000 2014", 
   "retweet_count": 4, 
   "favorite_count": 0
  }, 
  {
   "text": "VIDEO:#Sens TV post-game video on tonights 2-1 victory vs the Devils -  Robin Lehner and Coach Maclean: http://t.co/SD5TW8OkUh", 
   "label": "O", 
   "id": 454463832409530370, 
   "hashtags": [
    "Sens"
   ], 
   "user_mentions": [], 
   "created_at": "Fri Apr 11 03:39:55 +0000 2014", 
   "retweet_count": 5, 
   "favorite_count": 10
  }, 
  {
   "text": ".@BrianJKemp, @Tyler109998 and Sarah (our FB winner) show off their jerseys off their #SensSayThanks winning jerseys http://t.co/31dDz9Fgh2", 
   "label": "O", 
   "id": 454448973961756672, 
   "hashtags": [
    "SensSayThanks"
   ], 
   "user_mentions": [
    "BrianJKemp", 
    "Tyler109998"
   ], 
   "created_at": "Fri Apr 11 02:40:53 +0000 2014", 
   "retweet_count": 10, 
   "favorite_count": 45
  }, 
  {
   "text": "Great group shot on the ice of all our \"Jerseys Off Our Backs\" winners tonight! #SensDayThanks http://t.co/53y5aMn7mA", 
   "label": "O", 
   "id": 454445952590708736, 
   "hashtags": [
    "SensDayThanks"
   ], 
   "user_mentions": [], 
   "created_at": "Fri Apr 11 02:28:52 +0000 2014", 
   "retweet_count": 18, 
   "favorite_count": 55
  }, 
  {
   "text": "The #Sens are presenting tonight's jersey winners as we tweet! #SensSayThanks http://t.co/zHH2mPUDdv", 
   "label": "O", 
   "id": 454442657834467329, 
   "hashtags": [
    "Sens", 
    "SensSayThanks"
   ], 
   "user_mentions": [], 
   "created_at": "Fri Apr 11 02:15:47 +0000 2014", 
   "retweet_count": 11, 
   "favorite_count": 47
  }, 
  {
   "text": "Behind 38 saves from @RobinLehner, the #Sens win a 2-1 shootout over the Devils! http://t.co/D8kPexEsg8", 
   "label": "O", 
   "id": 454441224779608064, 
   "hashtags": [
    "Sens"
   ], 
   "user_mentions": [
    "RobinLehner"
   ], 
   "created_at": "Fri Apr 11 02:10:05 +0000 2014", 
   "retweet_count": 66, 
   "favorite_count": 120
  }, 
  {
   "text": "The Three Stars at @CdnTireCtr: 1) Robin Lehner 2) Cory Schneider 3) Erik Karlsson", 
   "label": "O", 
   "id": 454441146073497601, 
   "hashtags": [], 
   "user_mentions": [
    "CdnTireCtr"
   ], 
   "created_at": "Fri Apr 11 02:09:46 +0000 2014", 
   "retweet_count": 32, 
   "favorite_count": 74
  }, 
  {
   "text": "SENS WIN! SENS WIN! SENS WIN!", 
   "label": "O", 
   "id": 454440677808824320, 
   "hashtags": [], 
   "user_mentions": [], 
   "created_at": "Fri Apr 11 02:07:55 +0000 2014", 
   "retweet_count": 236, 
   "favorite_count": 261
  }, 
  {
   "text": "MISSES!", 
   "label": "O", 
   "id": 454440642866053121, 
   "hashtags": [], 
   "user_mentions": [], 
   "created_at": "Fri Apr 11 02:07:47 +0000 2014", 
   "retweet_count": 8, 
   "favorite_count": 17
  }, 
  {
   "text": "SCORES! Zubrus up for the Devils...", 
   "label": "O", 
   "id": 454440581847322624, 
   "hashtags": [], 
   "user_mentions": [], 
   "created_at": "Fri Apr 11 02:07:32 +0000 2014", 
   "retweet_count": 17, 
   "favorite_count": 43
  }, 
  {
   "text": "STOPPED! Karlsson up for the #Sens...", 
   "label": "O", 
   "id": 454440460564828160, 
   "hashtags": [
    "Sens"
   ], 
   "user_mentions": [], 
   "created_at": "Fri Apr 11 02:07:03 +0000 2014", 
   "retweet_count": 19, 
   "favorite_count": 49
  }, 
  {
   "text": "Stopped. Jagr up for the Devils...", 
   "label": "O", 
   "id": 454440313126658048, 
   "hashtags": [], 
   "user_mentions": [], 
   "created_at": "Fri Apr 11 02:06:28 +0000 2014", 
   "retweet_count": 2, 
   "favorite_count": 15
  }, 
  {
   "text": "STOPPED BY THE LEHNER! Michalek up for the #Sens...", 
   "label": "O", 
   "id": 454440242209366016, 
   "hashtags": [
    "Sens"
   ], 
   "user_mentions": [], 
   "created_at": "Fri Apr 11 02:06:11 +0000 2014", 
   "retweet_count": 5, 
   "favorite_count": 18
  }, 
  {
   "text": "Stopped. Larsson up for the Devils...", 
   "label": "O", 
   "id": 454440136731004929, 
   "hashtags": [], 
   "user_mentions": [], 
   "created_at": "Fri Apr 11 02:05:46 +0000 2014", 
   "retweet_count": 2, 
   "favorite_count": 13
  }, 
  {
   "text": "STOPPED! Spezza up for the #Sens...", 
   "label": "O", 
   "id": 454440022759206912, 
   "hashtags": [
    "Sens"
   ], 
   "user_mentions": [], 
   "created_at": "Fri Apr 11 02:05:19 +0000 2014", 
   "retweet_count": 6, 
   "favorite_count": 14
  }, 
  {
   "text": "Misses. Zajac up for the Devils...", 
   "label": "O", 
   "id": 454439932921405440, 
   "hashtags": [], 
   "user_mentions": [], 
   "created_at": "Fri Apr 11 02:04:57 +0000 2014", 
   "retweet_count": 2, 
   "favorite_count": 9
  }, 
  {
   "text": "Turris up first to shoot for the #Sens...", 
   "label": "O", 
   "id": 454439853380628480, 
   "hashtags": [
    "Sens"
   ], 
   "user_mentions": [], 
   "created_at": "Fri Apr 11 02:04:38 +0000 2014", 
   "retweet_count": 6, 
   "favorite_count": 11
  }, 
  {
   "text": "Horn sounds, we're off to the skills competition. #GoSENSGo", 
   "label": "O", 
   "id": 454439124167299072, 
   "hashtags": [
    "GoSENSGo"
   ], 
   "user_mentions": [], 
   "created_at": "Fri Apr 11 02:01:44 +0000 2014", 
   "retweet_count": 18, 
   "favorite_count": 29
  }, 
  {
   "text": "Robin stops Jagr on a breakaway with less than a minute to play and the #Sens earn a PP shortly thereafter. #ReleaseTheLehner", 
   "label": "O", 
   "id": 454438689847136256, 
   "hashtags": [
    "Sens", 
    "ReleaseTheLehner"
   ], 
   "user_mentions": [], 
   "created_at": "Fri Apr 11 02:00:01 +0000 2014", 
   "retweet_count": 7, 
   "favorite_count": 14
  }, 
  {
   "text": "THE LEHNER!", 
   "label": "O", 
   "id": 454438542115348481, 
   "hashtags": [], 
   "user_mentions": [], 
   "created_at": "Fri Apr 11 01:59:26 +0000 2014", 
   "retweet_count": 28, 
   "favorite_count": 63
  }, 
  {
   "text": "Our jerseys off the back winners are all set with 2 minutes left in OT! http://t.co/iboPBb7XB4", 
   "label": "O", 
   "id": 454438111418658816, 
   "hashtags": [], 
   "user_mentions": [], 
   "created_at": "Fri Apr 11 01:57:43 +0000 2014", 
   "retweet_count": 6, 
   "favorite_count": 31
  }, 
  {
   "text": "A big thank you to our partners tonight. With their help we gave away $192,000 worth of prizes! #SensSayThanks", 
   "label": "O", 
   "id": 454437070027902976, 
   "hashtags": [
    "SensSayThanks"
   ], 
   "user_mentions": [], 
   "created_at": "Fri Apr 11 01:53:35 +0000 2014", 
   "retweet_count": 8, 
   "favorite_count": 22
  }, 
  {
   "text": "Horn sounds, we're off to OT. #GoSENSGo #FreeHockey", 
   "label": "O", 
   "id": 454436843988455424, 
   "hashtags": [
    "GoSENSGo", 
    "FreeHockey"
   ], 
   "user_mentions": [], 
   "created_at": "Fri Apr 11 01:52:41 +0000 2014", 
   "retweet_count": 10, 
   "favorite_count": 19
  }, 
  {
   "text": "@kathjorda Kevin should be pretty easy to spot. If you see him, holler for a ride.", 
   "label": "O", 
   "id": 454435045080461312, 
   "hashtags": [], 
   "user_mentions": [
    "kathjorda"
   ], 
   "created_at": "Fri Apr 11 01:45:32 +0000 2014", 
   "retweet_count": 0, 
   "favorite_count": 2
  }, 
  {
   "text": "@hoppinpoppies he's an international icon", 
   "label": "O", 
   "id": 454434569467748352, 
   "hashtags": [], 
   "user_mentions": [
    "hoppinpoppies"
   ], 
   "created_at": "Fri Apr 11 01:43:39 +0000 2014", 
   "retweet_count": 0, 
   "favorite_count": 0
  }, 
  {
   "text": "@sarahdodds_xo #RIPWave", 
   "label": "O", 
   "id": 454433847950594048, 
   "hashtags": [
    "RIPWave"
   ], 
   "user_mentions": [
    "sarahdodds_xo"
   ], 
   "created_at": "Fri Apr 11 01:40:46 +0000 2014", 
   "retweet_count": 1, 
   "favorite_count": 0
  }, 
  {
   "text": "@kathjorda the passenger just becomes captain for the drive is all", 
   "label": "O", 
   "id": 454433777725362176, 
   "hashtags": [], 
   "user_mentions": [
    "kathjorda"
   ], 
   "created_at": "Fri Apr 11 01:40:30 +0000 2014", 
   "retweet_count": 1, 
   "favorite_count": 0
  }, 
  {
   "text": "Another big ovation in house for @Sportsnet on the occasion of their last local #Sens broadcast. #SensSayThanks", 
   "label": "O", 
   "id": 454433625388638208, 
   "hashtags": [
    "Sens", 
    "SensSayThanks"
   ], 
   "user_mentions": [
    "Sportsnet"
   ], 
   "created_at": "Fri Apr 11 01:39:53 +0000 2014", 
   "retweet_count": 10, 
   "favorite_count": 30
  }, 
  {
   "text": "@meiamat he said he's going to play until he's 50! Not quite there yet. :)", 
   "label": "O", 
   "id": 454431474557521920, 
   "hashtags": [], 
   "user_mentions": [
    "meiamat"
   ], 
   "created_at": "Fri Apr 11 01:31:21 +0000 2014", 
   "retweet_count": 0, 
   "favorite_count": 1
  }, 
  {
   "text": "@BonksMullet we pride ourselves on subtlety", 
   "label": "O", 
   "id": 454431314092257280, 
   "hashtags": [], 
   "user_mentions": [
    "BonksMullet"
   ], 
   "created_at": "Fri Apr 11 01:30:42 +0000 2014", 
   "retweet_count": 2, 
   "favorite_count": 15
  }, 
  {
   "text": "@slowhnds yes", 
   "label": "O", 
   "id": 454431246442311680, 
   "hashtags": [], 
   "user_mentions": [
    "slowhnds"
   ], 
   "created_at": "Fri Apr 11 01:30:26 +0000 2014", 
   "retweet_count": 0, 
   "favorite_count": 0
  }, 
  {
   "text": "VIDEO: Check out some familiar faces as the #Sens say thank you to @Sportsnet for 16 great years together:http://t.co/SxHPbkbGkX", 
   "label": "O", 
   "id": 454431025230516224, 
   "hashtags": [
    "Sens"
   ], 
   "user_mentions": [
    "Sportsnet"
   ], 
   "created_at": "Fri Apr 11 01:29:33 +0000 2014", 
   "retweet_count": 4, 
   "favorite_count": 6
  }, 
  {
   "text": "Congrats to Kevin Plate who won the Dodge #Sens Brigade truck tonight! #SensSayThanks http://t.co/HDuyf9ykOL", 
   "label": "O", 
   "id": 454430150931664896, 
   "hashtags": [
    "Sens", 
    "SensSayThanks"
   ], 
   "user_mentions": [], 
   "created_at": "Fri Apr 11 01:26:05 +0000 2014", 
   "retweet_count": 10, 
   "favorite_count": 33
  }, 
  {
   "text": "We're underway in the third! #GoSENSGo", 
   "label": "O", 
   "id": 454428773455527937, 
   "hashtags": [
    "GoSENSGo"
   ], 
   "user_mentions": [], 
   "created_at": "Fri Apr 11 01:20:37 +0000 2014", 
   "retweet_count": 6, 
   "favorite_count": 9
  }, 
  {
   "text": "It's fan appreciation night! A big thank-you to all members of #Sens Army for your support this season! http://t.co/IrY2GKau3O", 
   "label": "O", 
   "id": 454426026211569664, 
   "hashtags": [
    "Sens"
   ], 
   "user_mentions": [], 
   "created_at": "Fri Apr 11 01:09:42 +0000 2014", 
   "retweet_count": 5, 
   "favorite_count": 13
  }, 
  {
   "text": "End of two periods, #Sens and Devils are tied at 1. #GoSENSGo #SensSayThanks", 
   "label": "O", 
   "id": 454424040699363328, 
   "hashtags": [
    "Sens", 
    "GoSENSGo", 
    "SensSayThanks"
   ], 
   "user_mentions": [], 
   "created_at": "Fri Apr 11 01:01:48 +0000 2014", 
   "retweet_count": 11, 
   "favorite_count": 12
  }, 
  {
   "text": "Ryder scores for New Jersey, #Sens and Devils are tied at 1. #GoSENSGo", 
   "label": "O", 
   "id": 454422794999435264, 
   "hashtags": [
    "Sens", 
    "GoSENSGo"
   ], 
   "user_mentions": [], 
   "created_at": "Fri Apr 11 00:56:51 +0000 2014", 
   "retweet_count": 2, 
   "favorite_count": 2
  }, 
  {
   "text": "With Hoff's goal, everyone at @CdnTireCtr gets a free slice of pizza courtesy of our pals at @PizzaPizzaLtd!", 
   "label": "O", 
   "id": 454421181022879744, 
   "hashtags": [], 
   "user_mentions": [
    "CdnTireCtr", 
    "PizzaPizzaLtd"
   ], 
   "created_at": "Fri Apr 11 00:50:26 +0000 2014", 
   "retweet_count": 24, 
   "favorite_count": 36
  }, 
  {
   "text": "Mika takes the puck below the red line and centres for Hoff who buries it. #Sens lead 1-0. #GoSENSGo #SensSayThanks", 
   "label": "O", 
   "id": 454420560106516481, 
   "hashtags": [
    "Sens", 
    "GoSENSGo", 
    "SensSayThanks"
   ], 
   "user_mentions": [], 
   "created_at": "Fri Apr 11 00:47:58 +0000 2014", 
   "retweet_count": 13, 
   "favorite_count": 20
  }, 
  {
   "text": "GOAL! HOFFMAN!", 
   "label": "O", 
   "id": 454420303045984256, 
   "hashtags": [], 
   "user_mentions": [], 
   "created_at": "Fri Apr 11 00:46:57 +0000 2014", 
   "retweet_count": 47, 
   "favorite_count": 81
  }, 
  {
   "text": "Stopped by Schneider. Faceoff coming up in the Devils zone.", 
   "label": "O", 
   "id": 454420056655798272, 
   "hashtags": [], 
   "user_mentions": [], 
   "created_at": "Fri Apr 11 00:45:58 +0000 2014", 
   "retweet_count": 3, 
   "favorite_count": 3
  }, 
  {
   "text": "Hemsky is hooked in on Schneider, he'll have a penalty shot to try and score...", 
   "label": "O", 
   "id": 454419936228941824, 
   "hashtags": [], 
   "user_mentions": [], 
   "created_at": "Fri Apr 11 00:45:30 +0000 2014", 
   "retweet_count": 6, 
   "favorite_count": 10
  }, 
  {
   "text": "PENALTY SHOT!", 
   "label": "O", 
   "id": 454419816213151744, 
   "hashtags": [], 
   "user_mentions": [], 
   "created_at": "Fri Apr 11 00:45:01 +0000 2014", 
   "retweet_count": 8, 
   "favorite_count": 18
  }, 
  {
   "text": "@Lowenberger04 #bestfans", 
   "label": "O", 
   "id": 454418555866718208, 
   "hashtags": [
    "bestfans"
   ], 
   "user_mentions": [
    "Lowenberger04"
   ], 
   "created_at": "Fri Apr 11 00:40:01 +0000 2014", 
   "retweet_count": 0, 
   "favorite_count": 1
  }, 
  {
   "text": "@ginnyb3 hey... wait...", 
   "label": "O", 
   "id": 454418109450170368, 
   "hashtags": [], 
   "user_mentions": [
    "ginnyb3"
   ], 
   "created_at": "Fri Apr 11 00:38:14 +0000 2014", 
   "retweet_count": 0, 
   "favorite_count": 0
  }, 
  {
   "text": "We're underway in the second. #GoSENSGo #SensSayThanks", 
   "label": "O", 
   "id": 454416239956197377, 
   "hashtags": [
    "GoSENSGo", 
    "SensSayThanks"
   ], 
   "user_mentions": [], 
   "created_at": "Fri Apr 11 00:30:48 +0000 2014", 
   "retweet_count": 9, 
   "favorite_count": 17
  }, 
  {
   "text": "The #Sens Army is out in full force tonight during fan appreciation night! #BestFansEver http://t.co/lhx7jCieDA", 
   "label": "O", 
   "id": 454415777358426112, 
   "hashtags": [
    "Sens", 
    "BestFansEver"
   ], 
   "user_mentions": [], 
   "created_at": "Fri Apr 11 00:28:58 +0000 2014", 
   "retweet_count": 6, 
   "favorite_count": 12
  }, 
  {
   "text": "@TeamHoman The pleasure was all ours! Great having you here tonight, please come back any time! #SensArmyLovesYou", 
   "label": "O", 
   "id": 454414104938049536, 
   "hashtags": [
    "SensArmyLovesYou"
   ], 
   "user_mentions": [
    "TeamHoman"
   ], 
   "created_at": "Fri Apr 11 00:22:19 +0000 2014", 
   "retweet_count": 0, 
   "favorite_count": 2
  }, 
  {
   "text": "VIDEO: The Sens say \"Thank You!\" to all members of #SensArmy for their support this season! #ThankYouFans:http://t.co/RbEusXzfUE", 
   "label": "O", 
   "id": 454413218736128000, 
   "hashtags": [
    "SensArmy", 
    "ThankYouFans"
   ], 
   "user_mentions": [], 
   "created_at": "Fri Apr 11 00:18:48 +0000 2014", 
   "retweet_count": 15, 
   "favorite_count": 31
  }, 
  {
   "text": "End of a period, #Sens and Devils are scoreless. #GoSENSGo #SensSayThanks", 
   "label": "O", 
   "id": 454411590855839745, 
   "hashtags": [
    "Sens", 
    "GoSENSGo", 
    "SensSayThanks"
   ], 
   "user_mentions": [], 
   "created_at": "Fri Apr 11 00:12:20 +0000 2014", 
   "retweet_count": 5, 
   "favorite_count": 14
  }, 
  {
   "text": "@eocons &lt;3", 
   "label": "O", 
   "id": 454411007666831360, 
   "hashtags": [], 
   "user_mentions": [
    "eocons"
   ], 
   "created_at": "Fri Apr 11 00:10:01 +0000 2014", 
   "retweet_count": 3, 
   "favorite_count": 0
  }, 
  {
   "text": "@ShawnFarrell1 words to live by", 
   "label": "O", 
   "id": 454410152737636352, 
   "hashtags": [], 
   "user_mentions": [
    "ShawnFarrell1"
   ], 
   "created_at": "Fri Apr 11 00:06:37 +0000 2014", 
   "retweet_count": 0, 
   "favorite_count": 0
  }, 
  {
   "text": "Another nice ovation here as Ottawa's @TeamHoman is in the house. #HometownHeroes", 
   "label": "O", 
   "id": 454410050908729344, 
   "hashtags": [
    "HometownHeroes"
   ], 
   "user_mentions": [
    "TeamHoman"
   ], 
   "created_at": "Fri Apr 11 00:06:13 +0000 2014", 
   "retweet_count": 10, 
   "favorite_count": 24
  }, 
  {
   "text": "@iancmclaren forever and ever", 
   "label": "O", 
   "id": 454409231563644928, 
   "hashtags": [], 
   "user_mentions": [
    "iancmclaren"
   ], 
   "created_at": "Fri Apr 11 00:02:57 +0000 2014", 
   "retweet_count": 0, 
   "favorite_count": 1
  }, 
  {
   "text": "A very warm welcome at tonight's game for Brianne Jenner of Canada's Olympic champion women's hockey team! #AllTheGold", 
   "label": "O", 
   "id": 454408016314781696, 
   "hashtags": [
    "AllTheGold"
   ], 
   "user_mentions": [], 
   "created_at": "Thu Apr 10 23:58:08 +0000 2014", 
   "retweet_count": 3, 
   "favorite_count": 26
  }, 
  {
   "text": "@JakeOlivious we're big fans of his", 
   "label": "O", 
   "id": 454406988253134848, 
   "hashtags": [], 
   "user_mentions": [
    "JakeOlivious"
   ], 
   "created_at": "Thu Apr 10 23:54:03 +0000 2014", 
   "retweet_count": 0, 
   "favorite_count": 0
  }, 
  {
   "text": "@annabbrason welcome!", 
   "label": "O", 
   "id": 454405356295180288, 
   "hashtags": [], 
   "user_mentions": [
    "annabbrason"
   ], 
   "created_at": "Thu Apr 10 23:47:34 +0000 2014", 
   "retweet_count": 0, 
   "favorite_count": 0
  }, 
  {
   "text": "@BCor_2 thanks for being a fan!", 
   "label": "O", 
   "id": 454405310950547456, 
   "hashtags": [], 
   "user_mentions": [
    "BCor_2"
   ], 
   "created_at": "Thu Apr 10 23:47:23 +0000 2014", 
   "retweet_count": 2, 
   "favorite_count": 2
  }, 
  {
   "text": "@ckanal it's very pretty", 
   "label": "O", 
   "id": 454405201349185536, 
   "hashtags": [], 
   "user_mentions": [
    "ckanal"
   ], 
   "created_at": "Thu Apr 10 23:46:57 +0000 2014", 
   "retweet_count": 0, 
   "favorite_count": 1
  }, 
  {
   "text": "We're underway at @CdnTireCtr! #GoSENSGo #SensSayThanks", 
   "label": "O", 
   "id": 454403158442520576, 
   "hashtags": [
    "GoSENSGo", 
    "SensSayThanks"
   ], 
   "user_mentions": [
    "CdnTireCtr"
   ], 
   "created_at": "Thu Apr 10 23:38:50 +0000 2014", 
   "retweet_count": 8, 
   "favorite_count": 12
  }, 
  {
   "text": "GAME TIME! http://t.co/moSF5XI1xM", 
   "label": "O", 
   "id": 454402782070841344, 
   "hashtags": [], 
   "user_mentions": [], 
   "created_at": "Thu Apr 10 23:37:20 +0000 2014", 
   "retweet_count": 35, 
   "favorite_count": 92
  }, 
  {
   "text": "Warmup Pic: @RobinLehner has 3 wins in his last 4 starts, and goes for 3 Ws in a row tonight! #ReleaseTheLehner http://t.co/3HniqEzCPa", 
   "label": "O", 
   "id": 454401716163981312, 
   "hashtags": [
    "ReleaseTheLehner"
   ], 
   "user_mentions": [
    "RobinLehner"
   ], 
   "created_at": "Thu Apr 10 23:33:06 +0000 2014", 
   "retweet_count": 9, 
   "favorite_count": 23
  }, 
  {
   "text": "Tonight's #Sens starters: \nGreening - Smith - Condra\nWiercioch - Gryba \n\nThe Lehner. \n#GoSENSGo", 
   "label": "O", 
   "id": 454401290555371521, 
   "hashtags": [
    "Sens", 
    "GoSENSGo"
   ], 
   "user_mentions": [], 
   "created_at": "Thu Apr 10 23:31:24 +0000 2014", 
   "retweet_count": 13, 
   "favorite_count": 24
  }, 
  {
   "text": "@BrianJKemp enjoy! See you after the game!", 
   "label": "O", 
   "id": 454400682410258432, 
   "hashtags": [], 
   "user_mentions": [
    "BrianJKemp"
   ], 
   "created_at": "Thu Apr 10 23:28:59 +0000 2014", 
   "retweet_count": 0, 
   "favorite_count": 0
  }, 
  {
   "text": "Warmup Pic: With 6 points in his last 5 games, Spezza &amp; the #Sens look to take it to the Devils tonight! http://t.co/CHtocUVYs7", 
   "label": "O", 
   "id": 454400616451043328, 
   "hashtags": [
    "Sens"
   ], 
   "user_mentions": [], 
   "created_at": "Thu Apr 10 23:28:43 +0000 2014", 
   "retweet_count": 13, 
   "favorite_count": 24
  }, 
  {
   "text": "Still time to play #lastfanstanding tonight! Use the code TOEDRAG and instantly win! http://t.co/d4D8RQZOpa", 
   "label": "O", 
   "id": 454396393726046208, 
   "hashtags": [
    "lastfanstanding"
   ], 
   "user_mentions": [], 
   "created_at": "Thu Apr 10 23:11:57 +0000 2014", 
   "retweet_count": 3, 
   "favorite_count": 6
  }, 
  {
   "text": "RT @MelnykEugene: Fan Appreciation Night at tonight's @Senators game.\u00a0Thank you #SensArmy for your passion and loyalty.\u00a0Best fans in the wo\u2026", 
   "label": "O", 
   "id": 454394332057845760, 
   "hashtags": [
    "SensArmy", 
    "No1Fans"
   ], 
   "user_mentions": [
    "MelnykEugene", 
    "Senators"
   ], 
   "created_at": "Thu Apr 10 23:03:45 +0000 2014", 
   "retweet_count": 47, 
   "favorite_count": 0
  }, 
  {
   "text": "Pierre Hofstatter of @CanadianTire announces that @SportChek is picking up dinner for everyone at Chek Point! http://t.co/7IlW0XoCMk", 
   "label": "O", 
   "id": 454393711502192640, 
   "hashtags": [], 
   "user_mentions": [
    "CanadianTire", 
    "SportChek"
   ], 
   "created_at": "Thu Apr 10 23:01:17 +0000 2014", 
   "retweet_count": 9, 
   "favorite_count": 11
  }, 
  {
   "text": "Game #80: Thursday, April 10, 2014. New Jersey Devils. Fan Appreciation Night! #UnitedInRed http://t.co/rs0tWgQn9f", 
   "label": "O", 
   "id": 454389042847973377, 
   "hashtags": [
    "UnitedInRed"
   ], 
   "user_mentions": [], 
   "created_at": "Thu Apr 10 22:42:44 +0000 2014", 
   "retweet_count": 5, 
   "favorite_count": 17
  }, 
  {
   "text": "Our friends @CanadianTire are picking up the tab for fan concessions at ByTown Grill as part of #SensSayThanks! http://t.co/6JCfZuhwyw", 
   "label": "O", 
   "id": 454386389606342656, 
   "hashtags": [
    "SensSayThanks"
   ], 
   "user_mentions": [
    "CanadianTire"
   ], 
   "created_at": "Thu Apr 10 22:32:12 +0000 2014", 
   "retweet_count": 6, 
   "favorite_count": 8
  }, 
  {
   "text": "Get caught up on everything from #SensSayThanks Day: http://t.co/Ts9cgk2xQr", 
   "label": "O", 
   "id": 454383343866744832, 
   "hashtags": [
    "SensSayThanks"
   ], 
   "user_mentions": [], 
   "created_at": "Thu Apr 10 22:20:05 +0000 2014", 
   "retweet_count": 5, 
   "favorite_count": 4
  }, 
  {
   "text": "Get set for puck drop with #Sens TV. http://t.co/HdDMpugpeu #SensSayThanks", 
   "label": "O", 
   "id": 454374530883276800, 
   "hashtags": [
    "Sens", 
    "SensSayThanks"
   ], 
   "user_mentions": [], 
   "created_at": "Thu Apr 10 21:45:04 +0000 2014", 
   "retweet_count": 1, 
   "favorite_count": 5
  }, 
  {
   "text": "Today's Gameday Goodie talks to @grybes02 about his new venture, Capital Waterfowling. http://t.co/B61G7fmp9F http://t.co/pH5ZtAo1mn", 
   "label": "O", 
   "id": 454366985212928000, 
   "hashtags": [], 
   "user_mentions": [
    "grybes02"
   ], 
   "created_at": "Thu Apr 10 21:15:05 +0000 2014", 
   "retweet_count": 6, 
   "favorite_count": 12
  }, 
  {
   "text": "Here are tonight's projected lineups for the #Sens and Devils. http://t.co/8m9D4qfzoj http://t.co/nVoOgdXxfv", 
   "label": "O", 
   "id": 454363226583879681, 
   "hashtags": [
    "Sens"
   ], 
   "user_mentions": [], 
   "created_at": "Thu Apr 10 21:00:09 +0000 2014", 
   "retweet_count": 9, 
   "favorite_count": 12
  }, 
  {
   "text": "The #Sens will #ReleaseTheLehner in goal tonight. http://t.co/E2y5arqhXJ", 
   "label": "O", 
   "id": 454358144811302912, 
   "hashtags": [
    "Sens", 
    "ReleaseTheLehner"
   ], 
   "user_mentions": [], 
   "created_at": "Thu Apr 10 20:39:57 +0000 2014", 
   "retweet_count": 23, 
   "favorite_count": 22
  }, 
  {
   "text": "Thank you to all of our fans who entered today. Your stories are why we truly have the best fans. #SensSayThanks", 
   "label": "O", 
   "id": 454344341272547328, 
   "hashtags": [
    "SensSayThanks"
   ], 
   "user_mentions": [], 
   "created_at": "Thu Apr 10 19:45:06 +0000 2014", 
   "retweet_count": 12, 
   "favorite_count": 30
  }, 
  {
   "text": ".@BrianJKemp and @Tyler109998 \u2014 you'll be getting a pair of tickets and a jersey off the back of a Sen tonight. Check your DMs! #congrats", 
   "label": "O", 
   "id": 454342355093835776, 
   "hashtags": [
    "congrats"
   ], 
   "user_mentions": [
    "BrianJKemp", 
    "Tyler109998"
   ], 
   "created_at": "Thu Apr 10 19:37:13 +0000 2014", 
   "retweet_count": 10, 
   "favorite_count": 25
  }, 
  {
   "text": "So, because the #SensArmy came out in full force once again for this, we've made the decision to name two winners. They are... *drumroll*", 
   "label": "O", 
   "id": 454341951513714689, 
   "hashtags": [
    "SensArmy"
   ], 
   "user_mentions": [], 
   "created_at": "Thu Apr 10 19:35:37 +0000 2014", 
   "retweet_count": 4, 
   "favorite_count": 30
  }, 
  {
   "text": "Thanks to everyone who entered our #SensSayThanks contest, we'll be contacting the winner at 3:30! #bestfans #trending", 
   "label": "O", 
   "id": 454333657113972736, 
   "hashtags": [
    "SensSayThanks", 
    "bestfans", 
    "trending"
   ], 
   "user_mentions": [], 
   "created_at": "Thu Apr 10 19:02:39 +0000 2014", 
   "retweet_count": 8, 
   "favorite_count": 31
  }, 
  {
   "text": "10 minutes to get your #SensSayThanks entries in...", 
   "label": "O", 
   "id": 454330581858676737, 
   "hashtags": [
    "SensSayThanks"
   ], 
   "user_mentions": [], 
   "created_at": "Thu Apr 10 18:50:26 +0000 2014", 
   "retweet_count": 4, 
   "favorite_count": 14
  }, 
  {
   "text": "Congrats to #Sens forward @MHoffy68 who was named an AHL first team all-star. He sits 6th in AHL scoring despite his NHL recall on Feb. 23", 
   "label": "O", 
   "id": 454325462400258048, 
   "hashtags": [
    "Sens"
   ], 
   "user_mentions": [
    "MHoffy68"
   ], 
   "created_at": "Thu Apr 10 18:30:05 +0000 2014", 
   "retweet_count": 20, 
   "favorite_count": 42
  }, 
  {
   "text": "There's one hour left to tell us why you're the biggest #Sens fan out there. Win tickets &amp; a jersey off a player's back! Tag #SensSayThanks", 
   "label": "O", 
   "id": 454317930583719937, 
   "hashtags": [
    "Sens", 
    "SensSayThanks"
   ], 
   "user_mentions": [], 
   "created_at": "Thu Apr 10 18:00:10 +0000 2014", 
   "retweet_count": 9, 
   "favorite_count": 13
  }, 
  {
   "text": "RT @MelnykEugene: A big thanks to our friends at Sportsnet. 16 amazing years as #Sens regional broadcast partner.\u00a0Lots\u00a0of great hockey memo\u2026", 
   "label": "O", 
   "id": 454304359472308225, 
   "hashtags": [
    "Sens"
   ], 
   "user_mentions": [
    "MelnykEugene"
   ], 
   "created_at": "Thu Apr 10 17:06:14 +0000 2014", 
   "retweet_count": 25, 
   "favorite_count": 0
  }, 
  {
   "text": "Coach MacLean thanks @Sportsnet for 16 years and offers his pre-game updates here: http://t.co/smeQxrXljp #SensSayThanks", 
   "label": "O", 
   "id": 454302831500361728, 
   "hashtags": [
    "SensSayThanks"
   ], 
   "user_mentions": [
    "Sportsnet"
   ], 
   "created_at": "Thu Apr 10 17:00:10 +0000 2014", 
   "retweet_count": 9, 
   "favorite_count": 15
  }, 
  {
   "text": "If you haven't entered our giveaway yet, there's still time! Tell us why you're the #Sens' biggest fan and tag #SensSayThanks", 
   "label": "O", 
   "id": 454287769654018048, 
   "hashtags": [
    "Sens", 
    "SensSayThanks"
   ], 
   "user_mentions": [], 
   "created_at": "Thu Apr 10 16:00:19 +0000 2014", 
   "retweet_count": 5, 
   "favorite_count": 16
  }, 
  {
   "text": "#Sens morning skate is wrapping up, ahead of tonight's game vs the Devils. Fan appreciation night! http://t.co/7YDKGV2BwQ", 
   "label": "O", 
   "id": 454267409038606336, 
   "hashtags": [
    "Sens"
   ], 
   "user_mentions": [], 
   "created_at": "Thu Apr 10 14:39:24 +0000 2014", 
   "retweet_count": 7, 
   "favorite_count": 11
  }, 
  {
   "text": "Our Gameday Journal presented by Monarch Homes is live! http://t.co/Ts9cgk2xQr #SensSayThanks http://t.co/BPRf0eQtQs", 
   "label": "O", 
   "id": 454265080730116096, 
   "hashtags": [
    "SensSayThanks"
   ], 
   "user_mentions": [], 
   "created_at": "Thu Apr 10 14:30:09 +0000 2014", 
   "retweet_count": 8, 
   "favorite_count": 16
  }, 
  {
   "text": "At the #Sens game tonight, keep your eyes peeled for the $2,000 #Sens Mystery Prize! http://t.co/mZ56OTlDzY http://t.co/2lvozIT0td", 
   "label": "O", 
   "id": 454257525727440897, 
   "hashtags": [
    "Sens", 
    "Sens"
   ], 
   "user_mentions": [], 
   "created_at": "Thu Apr 10 14:00:08 +0000 2014", 
   "retweet_count": 13, 
   "favorite_count": 14
  }, 
  {
   "text": "Don't forget to tag your replies with #SensSayThanks or #sensvousremercient to be entered!", 
   "label": "O", 
   "id": 454253896987594752, 
   "hashtags": [
    "SensSayThanks", 
    "sensvousremercient"
   ], 
   "user_mentions": [], 
   "created_at": "Thu Apr 10 13:45:43 +0000 2014", 
   "retweet_count": 7, 
   "favorite_count": 11
  }, 
  {
   "text": "@KyleMedeiros33 Feel free to do both :)", 
   "label": "O", 
   "id": 454253365699293184, 
   "hashtags": [], 
   "user_mentions": [
    "KyleMedeiros33"
   ], 
   "created_at": "Thu Apr 10 13:43:36 +0000 2014", 
   "retweet_count": 1, 
   "favorite_count": 1
  }, 
  {
   "text": "Le gagnant m\u00e9ritera une paire de billets pour le match de ce soir ET recevra sur la glace un chandail port\u00e9 par un joueur apr\u00e8s la rencontre", 
   "label": "O", 
   "id": 454253024085823488, 
   "hashtags": [], 
   "user_mentions": [], 
   "created_at": "Thu Apr 10 13:42:15 +0000 2014", 
   "retweet_count": 5, 
   "favorite_count": 2
  }, 
  {
   "text": "Dites-nous pourquoi vous \u00eatre le plus grand partisan des #Sens en utilisant #sensvousremercient d\u2019ici 15h. Prix \u00e0 gagner. Tirage \u00e0 15h30.", 
   "label": "O", 
   "id": 454252951633412096, 
   "hashtags": [
    "Sens", 
    "sensvousremercient"
   ], 
   "user_mentions": [], 
   "created_at": "Thu Apr 10 13:41:57 +0000 2014", 
   "retweet_count": 6, 
   "favorite_count": 2
  }, 
  {
   "text": "Good luck!", 
   "label": "O", 
   "id": 454252791763333120, 
   "hashtags": [], 
   "user_mentions": [], 
   "created_at": "Thu Apr 10 13:41:19 +0000 2014", 
   "retweet_count": 3, 
   "favorite_count": 15
  }, 
  {
   "text": "Tell us why you're the biggest #Sens fan out there using #SensSayThanks by 3:00 PM today and you could be the winner we pick at 3:30.", 
   "label": "O", 
   "id": 454252655540731904, 
   "hashtags": [
    "Sens", 
    "SensSayThanks"
   ], 
   "user_mentions": [], 
   "created_at": "Thu Apr 10 13:40:47 +0000 2014", 
   "retweet_count": 29, 
   "favorite_count": 36
  }, 
  {
   "text": "This is not a drill.", 
   "label": "O", 
   "id": 454252178342166528, 
   "hashtags": [], 
   "user_mentions": [], 
   "created_at": "Thu Apr 10 13:38:53 +0000 2014", 
   "retweet_count": 18, 
   "favorite_count": 42
  }, 
  {
   "text": "Not only will our winner get pair of tickets to tonight's game, they'll head to the ice to get a jersey off a player's back after the game.", 
   "label": "O", 
   "id": 454252093881454592, 
   "hashtags": [], 
   "user_mentions": [], 
   "created_at": "Thu Apr 10 13:38:33 +0000 2014", 
   "retweet_count": 22, 
   "favorite_count": 44
  }, 
  {
   "text": "We'll be giving away a pair of tonight's tickets to the fan who tells us why they're the BIGGEST #Sens fan out there, with a twist...", 
   "label": "O", 
   "id": 454251868123037696, 
   "hashtags": [
    "Sens"
   ], 
   "user_mentions": [], 
   "created_at": "Thu Apr 10 13:37:39 +0000 2014", 
   "retweet_count": 14, 
   "favorite_count": 28
  }, 
  {
   "text": "Alright #Sens fans, we wanted to say thank you to our most loyal and engaged fans, so here's what's happening today... #SensSayThanks", 
   "label": "O", 
   "id": 454251440916410368, 
   "hashtags": [
    "Sens", 
    "SensSayThanks"
   ], 
   "user_mentions": [], 
   "created_at": "Thu Apr 10 13:35:57 +0000 2014", 
   "retweet_count": 17, 
   "favorite_count": 45
  }, 
  {
   "text": "@cadetheather Stay tuned!", 
   "label": "O", 
   "id": 454233548203892736, 
   "hashtags": [], 
   "user_mentions": [
    "cadetheather"
   ], 
   "created_at": "Thu Apr 10 12:24:51 +0000 2014", 
   "retweet_count": 0, 
   "favorite_count": 1
  }, 
  {
   "text": "@cadetheather We are too, Heather!", 
   "label": "O", 
   "id": 454232437250220033, 
   "hashtags": [], 
   "user_mentions": [
    "cadetheather"
   ], 
   "created_at": "Thu Apr 10 12:20:26 +0000 2014", 
   "retweet_count": 0, 
   "favorite_count": 1
  }, 
  {
   "text": "@Leafs_Suck_Bro See you tonight! #SensSayThanks", 
   "label": "O", 
   "id": 454232393994338305, 
   "hashtags": [
    "SensSayThanks"
   ], 
   "user_mentions": [
    "Leafs_Suck_Bro"
   ], 
   "created_at": "Thu Apr 10 12:20:16 +0000 2014", 
   "retweet_count": 2, 
   "favorite_count": 2
  }, 
  {
   "text": "@KadriSens Stay tuned, maybe more than that? #Sens", 
   "label": "O", 
   "id": 454232301832925184, 
   "hashtags": [
    "Sens"
   ], 
   "user_mentions": [
    "KadriSens"
   ], 
   "created_at": "Thu Apr 10 12:19:54 +0000 2014", 
   "retweet_count": 0, 
   "favorite_count": 1
  }, 
  {
   "text": "It's #SensSayThanks Day! Ottawa takes on @NHLDevils at 7:30 p.m.!#GoSensGo", 
   "label": "O", 
   "id": 454227839630323712, 
   "hashtags": [
    "SensSayThanks", 
    "GoSensGo"
   ], 
   "user_mentions": [
    "NHLDevils"
   ], 
   "created_at": "Thu Apr 10 12:02:10 +0000 2014", 
   "retweet_count": 41, 
   "favorite_count": 40
  }
 ]
}