{
 "num_road_team_goals": "0", 
 "home_team": "St.Louis Blues", 
 "num_home_team_goals": "3", 
 "summary_url": "http://www.flyershistory.com/cgi-bin/poboxscore.cgi?H20130801", 
 "result": "L", 
 "road_team": "New Jersey Devils", 
 "date": "2014-01-28", 
 "goals": [
  {
   "season_index": "27", 
   "strength": "(EV)", 
   "time": "3:25", 
   "period": "1", 
   "player": "A.Steen", 
   "assists": "(J.Schwartz, D.Backes)", 
   "game_index": "1", 
   "team": "STL"
  }, 
  {
   "season_index": "8", 
   "strength": "(PP)", 
   "time": "9:42", 
   "period": "3", 
   "player": "B.Morrow", 
   "assists": "(J.Bouwmeester, P.Berglund)", 
   "game_index": "2", 
   "team": "STL"
  }, 
  {
   "season_index": "7", 
   "strength": "(EV-EN)", 
   "time": "17:52", 
   "period": "3", 
   "player": "M.Lapierre", 
   "assists": "(M.Paajarvi, P.Berglund)", 
   "game_index": "3", 
   "team": "STL"
  }
 ], 
 "tweets": [
  {
   "text": "#NJDevils are back in action Thursday, when the road trip continues in Dallas.", 
   "label": "O", 
   "id": 428385148799692800, 
   "hashtags": [
    "NJDevils"
   ], 
   "user_mentions": [], 
   "created_at": "Wed Jan 29 04:32:33 +0000 2014", 
   "retweet_count": 8, 
   "favorite_count": 9
  }, 
  {
   "text": "Schneider: \"I thought we played a pretty solid road game. \u2026 Right now, solid isn't good enough against the elite teams in the league.\"", 
   "label": "O", 
   "id": 428379109249388544, 
   "hashtags": [], 
   "user_mentions": [], 
   "created_at": "Wed Jan 29 04:08:33 +0000 2014", 
   "retweet_count": 17, 
   "favorite_count": 20
  }, 
  {
   "text": "Coach DeBoer: \"There's not many silver linings this time of year. We're in the homestretch here, we've got to find a way to get points.\"", 
   "label": "O", 
   "id": 428376697126150145, 
   "hashtags": [], 
   "user_mentions": [], 
   "created_at": "Wed Jan 29 03:58:58 +0000 2014", 
   "retweet_count": 22, 
   "favorite_count": 15
  }, 
  {
   "text": "Cory Schneider registered 22 saves in the defeat. #NJDvsSTL", 
   "label": "O", 
   "id": 428370794574794752, 
   "hashtags": [
    "NJDvsSTL"
   ], 
   "user_mentions": [], 
   "created_at": "Wed Jan 29 03:35:30 +0000 2014", 
   "retweet_count": 6, 
   "favorite_count": 14
  }, 
  {
   "text": "The final horn sounds as #NJDevils suffer a setback against the Blues, falling to St. Louis 3-0. #NJDvsSTL", 
   "label": "O", 
   "id": 428370352600002560, 
   "hashtags": [
    "NJDevils", 
    "NJDvsSTL"
   ], 
   "user_mentions": [], 
   "created_at": "Wed Jan 29 03:33:45 +0000 2014", 
   "retweet_count": 6, 
   "favorite_count": 6
  }, 
  {
   "text": "One minute remains in regulation. #NJDvsSTL", 
   "label": "O", 
   "id": 428369543871074304, 
   "hashtags": [
    "NJDvsSTL"
   ], 
   "user_mentions": [], 
   "created_at": "Wed Jan 29 03:30:32 +0000 2014", 
   "retweet_count": 3, 
   "favorite_count": 4
  }, 
  {
   "text": "Clowe and Polak each drop the gloves and will both receive 5 minute majors. #NJDvsSTL", 
   "label": "O", 
   "id": 428369376065384448, 
   "hashtags": [
    "NJDvsSTL"
   ], 
   "user_mentions": [], 
   "created_at": "Wed Jan 29 03:29:52 +0000 2014", 
   "retweet_count": 6, 
   "favorite_count": 13
  }, 
  {
   "text": "Lapierre tallies an empty-netter with 2:08 remaining. Blues lead 3-0. #NJDvsSTL", 
   "label": "O", 
   "id": 428369179851653120, 
   "hashtags": [
    "NJDvsSTL"
   ], 
   "user_mentions": [], 
   "created_at": "Wed Jan 29 03:29:05 +0000 2014", 
   "retweet_count": 3, 
   "favorite_count": 3
  }, 
  {
   "text": "Schneider heads to the bench for the extra-skater with 2:30 remaining. #NJDvsSTL", 
   "label": "O", 
   "id": 428368721842012160, 
   "hashtags": [
    "NJDvsSTL"
   ], 
   "user_mentions": [], 
   "created_at": "Wed Jan 29 03:27:16 +0000 2014", 
   "retweet_count": 2, 
   "favorite_count": 4
  }, 
  {
   "text": "#NJDevils kill off the penalty and will get back to full strength with 3:49 remaining in regulation. #NJDvsSTL", 
   "label": "O", 
   "id": 428368081069809664, 
   "hashtags": [
    "NJDevils", 
    "NJDvsSTL"
   ], 
   "user_mentions": [], 
   "created_at": "Wed Jan 29 03:24:43 +0000 2014", 
   "retweet_count": 1, 
   "favorite_count": 8
  }, 
  {
   "text": "Brunner is called for tripping Polak at 14:11 and the #NJDevils PK will go back to work. #NJDvsSTL", 
   "label": "O", 
   "id": 428367633898274816, 
   "hashtags": [
    "NJDevils", 
    "NJDvsSTL"
   ], 
   "user_mentions": [], 
   "created_at": "Wed Jan 29 03:22:57 +0000 2014", 
   "retweet_count": 1, 
   "favorite_count": 4
  }, 
  {
   "text": "Morrow beats Schneider on a redirection with 10:18 remaining in the 3rd period. #NJDevils trail the Blues 2-0. #NJDvsSTL", 
   "label": "O", 
   "id": 428365203068424192, 
   "hashtags": [
    "NJDevils", 
    "NJDvsSTL"
   ], 
   "user_mentions": [], 
   "created_at": "Wed Jan 29 03:13:17 +0000 2014", 
   "retweet_count": 2, 
   "favorite_count": 3
  }, 
  {
   "text": "Salvador is called for tripping at 8:00 in the 3rd. #NJDevils look to remain perfect on the PK tonight. #NJDvsSTL", 
   "label": "O", 
   "id": 428364433585610752, 
   "hashtags": [
    "NJDevils", 
    "NJDvsSTL"
   ], 
   "user_mentions": [], 
   "created_at": "Wed Jan 29 03:10:14 +0000 2014", 
   "retweet_count": 1, 
   "favorite_count": 6
  }, 
  {
   "text": "Jagr wraps around the net with a backhand shot but is denied by Halak. #NJDvsSTL", 
   "label": "O", 
   "id": 428362840698011650, 
   "hashtags": [
    "NJDvsSTL"
   ], 
   "user_mentions": [], 
   "created_at": "Wed Jan 29 03:03:54 +0000 2014", 
   "retweet_count": 2, 
   "favorite_count": 8
  }, 
  {
   "text": "Back to 5-on-5 as Oshie leaves the box for St. Louis. #NJDvsSTL", 
   "label": "O", 
   "id": 428362366510972928, 
   "hashtags": [
    "NJDvsSTL"
   ], 
   "user_mentions": [], 
   "created_at": "Wed Jan 29 03:02:01 +0000 2014", 
   "retweet_count": 1, 
   "favorite_count": 6
  }, 
  {
   "text": "Brunner with a great chance but Halak was just able to deflect the puck away with a kick-save. #NJDvsSTL", 
   "label": "O", 
   "id": 428362007411449856, 
   "hashtags": [
    "NJDvsSTL"
   ], 
   "user_mentions": [], 
   "created_at": "Wed Jan 29 03:00:35 +0000 2014", 
   "retweet_count": 1, 
   "favorite_count": 5
  }, 
  {
   "text": "Coshie is called for hooking at 1:21 and #NJDevils will look for the equalizer on the PP! #NJDvsSTL", 
   "label": "O", 
   "id": 428361721238274048, 
   "hashtags": [
    "NJDevils", 
    "NJDvsSTL"
   ], 
   "user_mentions": [], 
   "created_at": "Wed Jan 29 02:59:27 +0000 2014", 
   "retweet_count": 6, 
   "favorite_count": 10
  }, 
  {
   "text": "The third period is now underway! #LetsGoDevils! #NJDvsSTL", 
   "label": "O", 
   "id": 428361015211065344, 
   "hashtags": [
    "LetsGoDevils", 
    "NJDvsSTL"
   ], 
   "user_mentions": [], 
   "created_at": "Wed Jan 29 02:56:39 +0000 2014", 
   "retweet_count": 9, 
   "favorite_count": 14
  }, 
  {
   "text": "What are the keys to igniting a comeback in the 3rd period? #NJDvsSTL", 
   "label": "O", 
   "id": 428358863612821504, 
   "hashtags": [
    "NJDvsSTL"
   ], 
   "user_mentions": [], 
   "created_at": "Wed Jan 29 02:48:06 +0000 2014", 
   "retweet_count": 4, 
   "favorite_count": 8
  }, 
  {
   "text": "Travis Zajac has been dominating in the face-off circle, winning 7/8 FO's (88%) after 40 minutes of play. #NJDvsSTL", 
   "label": "O", 
   "id": 428358181056942081, 
   "hashtags": [
    "NJDvsSTL"
   ], 
   "user_mentions": [], 
   "created_at": "Wed Jan 29 02:45:23 +0000 2014", 
   "retweet_count": 8, 
   "favorite_count": 14
  }, 
  {
   "text": "Eric Gelinas leads #JerseysTeam with 4 SOG. #NJDvsSTL", 
   "label": "O", 
   "id": 428357758124314624, 
   "hashtags": [
    "JerseysTeam", 
    "NJDvsSTL"
   ], 
   "user_mentions": [], 
   "created_at": "Wed Jan 29 02:43:42 +0000 2014", 
   "retweet_count": 4, 
   "favorite_count": 13
  }, 
  {
   "text": "#NJDevils doubled the Blue shots in the second frame, outshooting St. Louis 10-5. #NJDevils lead in total SOG 18-14. #NJDvsSTL", 
   "label": "O", 
   "id": 428357520600866816, 
   "hashtags": [
    "NJDevils", 
    "NJDevils", 
    "NJDvsSTL"
   ], 
   "user_mentions": [], 
   "created_at": "Wed Jan 29 02:42:46 +0000 2014", 
   "retweet_count": 5, 
   "favorite_count": 5
  }, 
  {
   "text": "@ashleyrae_xo Hope you have a speedy recovery! #LetsGoDevils", 
   "label": "O", 
   "id": 428356994446393344, 
   "hashtags": [
    "LetsGoDevils"
   ], 
   "user_mentions": [
    "ashleyrae_xo"
   ], 
   "created_at": "Wed Jan 29 02:40:40 +0000 2014", 
   "retweet_count": 1, 
   "favorite_count": 1
  }, 
  {
   "text": "Jagr's one-timer goes wide of the net as we've reached the end of the 2nd period in St. Louis. #NJDvsSTL", 
   "label": "O", 
   "id": 428356447446249472, 
   "hashtags": [
    "NJDvsSTL"
   ], 
   "user_mentions": [], 
   "created_at": "Wed Jan 29 02:38:30 +0000 2014", 
   "retweet_count": 4, 
   "favorite_count": 6
  }, 
  {
   "text": "One minute remains in the 2nd period. #NJDvsSTL", 
   "label": "O", 
   "id": 428355919303692288, 
   "hashtags": [
    "NJDvsSTL"
   ], 
   "user_mentions": [], 
   "created_at": "Wed Jan 29 02:36:24 +0000 2014", 
   "retweet_count": 4, 
   "favorite_count": 7
  }, 
  {
   "text": "Clowe leaves the box and #JerseysTeam will take over with 1:54 remaining on the PP. #NJDvsSTL", 
   "label": "O", 
   "id": 428355541661134848, 
   "hashtags": [
    "JerseysTeam", 
    "NJDvsSTL"
   ], 
   "user_mentions": [], 
   "created_at": "Wed Jan 29 02:34:54 +0000 2014", 
   "retweet_count": 1, 
   "favorite_count": 9
  }, 
  {
   "text": "Gionta with a scoring chance and is tripped in front of the net by Pietrangelo. He will serve a 2 minute penalty. #NJDvsSTL", 
   "label": "O", 
   "id": 428355396873760770, 
   "hashtags": [
    "NJDvsSTL"
   ], 
   "user_mentions": [], 
   "created_at": "Wed Jan 29 02:34:19 +0000 2014", 
   "retweet_count": 3, 
   "favorite_count": 9
  }, 
  {
   "text": "Ryane Clowe is called for hooking at 15:55. #NJDevils are 1/1 so far on the PK. #NJDvsSTL", 
   "label": "O", 
   "id": 428354937261928448, 
   "hashtags": [
    "NJDevils", 
    "NJDvsSTL"
   ], 
   "user_mentions": [], 
   "created_at": "Wed Jan 29 02:32:30 +0000 2014", 
   "retweet_count": 3, 
   "favorite_count": 7
  }, 
  {
   "text": "Gelinas fires a shot on net from the blue line but Halak makes the kick save. #NJDvsSTL", 
   "label": "O", 
   "id": 428352856710975488, 
   "hashtags": [
    "NJDvsSTL"
   ], 
   "user_mentions": [], 
   "created_at": "Wed Jan 29 02:24:14 +0000 2014", 
   "retweet_count": 2, 
   "favorite_count": 6
  }, 
  {
   "text": "Greene and Zubrus doing their part in the defensive end, leading #JerseysTeam with 3 blocked shots each. #NJDvsSTL", 
   "label": "O", 
   "id": 428352421023465472, 
   "hashtags": [
    "JerseysTeam", 
    "NJDvsSTL"
   ], 
   "user_mentions": [], 
   "created_at": "Wed Jan 29 02:22:30 +0000 2014", 
   "retweet_count": 3, 
   "favorite_count": 9
  }, 
  {
   "text": "#NJDevils still trail 1-0 at the midway point of the 2nd period. #NJDvsSTL", 
   "label": "O", 
   "id": 428351308266217472, 
   "hashtags": [
    "NJDevils", 
    "NJDvsSTL"
   ], 
   "user_mentions": [], 
   "created_at": "Wed Jan 29 02:18:04 +0000 2014", 
   "retweet_count": 2, 
   "favorite_count": 6
  }, 
  {
   "text": "RT @WindestHarbor: @NHLDevils Schneider with a beautiful reverse Butterfly, Wow that was a close one!", 
   "label": "O", 
   "id": 428349713348571136, 
   "hashtags": [], 
   "user_mentions": [
    "WindestHarbor", 
    "NHLDevils"
   ], 
   "created_at": "Wed Jan 29 02:11:44 +0000 2014", 
   "retweet_count": 7, 
   "favorite_count": 0
  }, 
  {
   "text": "Steen with a scoring chance but is denied by Schneider with 13:25 to play in the 2nd period. #NJDvsSTL", 
   "label": "O", 
   "id": 428349668243030016, 
   "hashtags": [
    "NJDvsSTL"
   ], 
   "user_mentions": [], 
   "created_at": "Wed Jan 29 02:11:33 +0000 2014", 
   "retweet_count": 6, 
   "favorite_count": 8
  }, 
  {
   "text": "The second period is underway as #NJDevils look to erase the Blues one goal lead. #NJDvsSTL", 
   "label": "O", 
   "id": 428347270535610368, 
   "hashtags": [
    "NJDevils", 
    "NJDvsSTL"
   ], 
   "user_mentions": [], 
   "created_at": "Wed Jan 29 02:02:02 +0000 2014", 
   "retweet_count": 5, 
   "favorite_count": 9
  }, 
  {
   "text": "RT @NHLDevilsPR: Shots are 9-8 St. Louis. \u2026 Both teams 0/1 on PP. \u2026 Gelinas leads #NJDevils with 2 shots. \u2026 Greene 3 blocked shots. \u2026 Josef\u2026", 
   "label": "O", 
   "id": 428346024454000640, 
   "hashtags": [
    "NJDevils"
   ], 
   "user_mentions": [
    "NHLDevilsPR"
   ], 
   "created_at": "Wed Jan 29 01:57:05 +0000 2014", 
   "retweet_count": 5, 
   "favorite_count": 0
  }, 
  {
   "text": "@beckythetechie Sandwiches and #NJDevils hockey, sounds like good medicine to us!", 
   "label": "O", 
   "id": 428344677772038144, 
   "hashtags": [
    "NJDevils"
   ], 
   "user_mentions": [
    "beckythetechie"
   ], 
   "created_at": "Wed Jan 29 01:51:44 +0000 2014", 
   "retweet_count": 3, 
   "favorite_count": 1
  }, 
  {
   "text": "Which line will light the lamp for #JerseysTeam in the second period? #NJDvsSTL", 
   "label": "O", 
   "id": 428344224954974208, 
   "hashtags": [
    "JerseysTeam", 
    "NJDvsSTL"
   ], 
   "user_mentions": [], 
   "created_at": "Wed Jan 29 01:49:56 +0000 2014", 
   "retweet_count": 4, 
   "favorite_count": 3
  }, 
  {
   "text": "@7jpelton97 Don\u2019t worry, we\u2019ll keep you up to date!", 
   "label": "O", 
   "id": 428343278770348032, 
   "hashtags": [], 
   "user_mentions": [
    "7jpelton97"
   ], 
   "created_at": "Wed Jan 29 01:46:10 +0000 2014", 
   "retweet_count": 2, 
   "favorite_count": 9
  }, 
  {
   "text": "The first period comes to an end as #NJDevils trail the Blues 1-0. #NJDvsSTL", 
   "label": "O", 
   "id": 428342844919922688, 
   "hashtags": [
    "NJDevils", 
    "NJDvsSTL"
   ], 
   "user_mentions": [], 
   "created_at": "Wed Jan 29 01:44:27 +0000 2014", 
   "retweet_count": 3, 
   "favorite_count": 7
  }, 
  {
   "text": "#NJDevils kill off the penalty and are back to full strength. #NJDvsSTL", 
   "label": "O", 
   "id": 428342528086392833, 
   "hashtags": [
    "NJDevils", 
    "NJDvsSTL"
   ], 
   "user_mentions": [], 
   "created_at": "Wed Jan 29 01:43:11 +0000 2014", 
   "retweet_count": 2, 
   "favorite_count": 10
  }, 
  {
   "text": "Volchenkov is called for hooking at 17:12 and the #NJDevils PK will take the ice for the first time tonight. #NJDvsSTL", 
   "label": "O", 
   "id": 428341628584349698, 
   "hashtags": [
    "NJDevils", 
    "NJDvsSTL"
   ], 
   "user_mentions": [], 
   "created_at": "Wed Jan 29 01:39:37 +0000 2014", 
   "retweet_count": 4, 
   "favorite_count": 8
  }, 
  {
   "text": "Big save by Schneider on a slap shot from Sobotka. Each team has registered 4 SOG. #NJDvsSTL", 
   "label": "O", 
   "id": 428337606439735296, 
   "hashtags": [
    "NJDvsSTL"
   ], 
   "user_mentions": [], 
   "created_at": "Wed Jan 29 01:23:38 +0000 2014", 
   "retweet_count": 3, 
   "favorite_count": 12
  }, 
  {
   "text": "Steen beats Schneider from the slot at 3:25. Blues lead 1-0. #NJDvsSTL", 
   "label": "O", 
   "id": 428335093011472384, 
   "hashtags": [
    "NJDvsSTL"
   ], 
   "user_mentions": [], 
   "created_at": "Wed Jan 29 01:13:38 +0000 2014", 
   "retweet_count": 5, 
   "favorite_count": 7
  }, 
  {
   "text": "Polak leaves the box and we are back to 5-on-5 hockey. #NJDvsSTL", 
   "label": "O", 
   "id": 428334616085532672, 
   "hashtags": [
    "NJDvsSTL"
   ], 
   "user_mentions": [], 
   "created_at": "Wed Jan 29 01:11:45 +0000 2014", 
   "retweet_count": 1, 
   "favorite_count": 3
  }, 
  {
   "text": "#NJDevils will start the first PP of the night just 9 seconds into the game as Polak is sent to the box for hi-sticking. #NJDvsSTL", 
   "label": "O", 
   "id": 428334172927967232, 
   "hashtags": [
    "NJDevils", 
    "NJDvsSTL"
   ], 
   "user_mentions": [], 
   "created_at": "Wed Jan 29 01:09:59 +0000 2014", 
   "retweet_count": 5, 
   "favorite_count": 7
  }, 
  {
   "text": "The puck has dropped and #NJDvsSTL is underway! #LetsGoDevils!", 
   "label": "O", 
   "id": 428333800087887873, 
   "hashtags": [
    "NJDvsSTL", 
    "LetsGoDevils"
   ], 
   "user_mentions": [], 
   "created_at": "Wed Jan 29 01:08:30 +0000 2014", 
   "retweet_count": 14, 
   "favorite_count": 29
  }, 
  {
   "text": "@nhlexxx Thanks, that means a lot coming from you.", 
   "label": "O", 
   "id": 428333747424219136, 
   "hashtags": [], 
   "user_mentions": [], 
   "created_at": "Wed Jan 29 01:08:18 +0000 2014", 
   "retweet_count": 0, 
   "favorite_count": 1
  }, 
  {
   "text": "Starting for your #NJDevils tonight will be Carter-Gionta-Bernier, Salvador-Zidlicky and Schneider. #NJDvsSTL", 
   "label": "O", 
   "id": 428331734783258624, 
   "hashtags": [
    "NJDevils", 
    "NJDvsSTL"
   ], 
   "user_mentions": [], 
   "created_at": "Wed Jan 29 01:00:18 +0000 2014", 
   "retweet_count": 11, 
   "favorite_count": 19
  }, 
  {
   "text": "Tonight's starting goaltender matchup features Cory Schneider vs. Jaroslav Halak. #NJDvsSTL", 
   "label": "O", 
   "id": 428328896954920960, 
   "hashtags": [
    "NJDvsSTL"
   ], 
   "user_mentions": [], 
   "created_at": "Wed Jan 29 00:49:01 +0000 2014", 
   "retweet_count": 9, 
   "favorite_count": 22
  }, 
  {
   "text": "#DevilsFacts: #NJDevils are 147/169 (87.0%) on the PK this season, which ranks second in the NHL.", 
   "label": "O", 
   "id": 428324564851240960, 
   "hashtags": [
    "DevilsFacts", 
    "NJDevils"
   ], 
   "user_mentions": [], 
   "created_at": "Wed Jan 29 00:31:48 +0000 2014", 
   "retweet_count": 19, 
   "favorite_count": 24
  }, 
  {
   "text": "#DevilsFacts: Travis Zajac posted his 300th career point on Sunday. He has points in three straight games for the third time this season.", 
   "label": "O", 
   "id": 428317223569358848, 
   "hashtags": [
    "DevilsFacts"
   ], 
   "user_mentions": [], 
   "created_at": "Wed Jan 29 00:02:38 +0000 2014", 
   "retweet_count": 13, 
   "favorite_count": 23
  }, 
  {
   "text": "#DevilsFacts: Patrik Elias ranks second on the #NJDevils with 29pts (9g-20a) this season.", 
   "label": "O", 
   "id": 428309087919828992, 
   "hashtags": [
    "DevilsFacts", 
    "NJDevils"
   ], 
   "user_mentions": [], 
   "created_at": "Tue Jan 28 23:30:18 +0000 2014", 
   "retweet_count": 13, 
   "favorite_count": 21
  }, 
  {
   "text": "#DevilsFacts: #NJDevils lead the season series vs. STL 1-0-0 after a 7-1 win Jan. 21 at @PruCenter. Brunner &amp; Gelinas each had 1g-2a-3pts.", 
   "label": "O", 
   "id": 428302211664609280, 
   "hashtags": [
    "DevilsFacts", 
    "NJDevils"
   ], 
   "user_mentions": [
    "PruCenter"
   ], 
   "created_at": "Tue Jan 28 23:02:59 +0000 2014", 
   "retweet_count": 7, 
   "favorite_count": 17
  }, 
  {
   "text": "#DevilsFacts: Tonight\u2019s contest vs. the Blues opens a three-game road trip, all vs. Western Conference opponents.", 
   "label": "O", 
   "id": 428294137495158784, 
   "hashtags": [
    "DevilsFacts"
   ], 
   "user_mentions": [], 
   "created_at": "Tue Jan 28 22:30:54 +0000 2014", 
   "retweet_count": 7, 
   "favorite_count": 12
  }, 
  {
   "text": "#DevilsFacts: #NJDevils are making their first visit to St. Louis since Nov. 20, 2010.", 
   "label": "O", 
   "id": 428286861271138304, 
   "hashtags": [
    "DevilsFacts", 
    "NJDevils"
   ], 
   "user_mentions": [], 
   "created_at": "Tue Jan 28 22:01:59 +0000 2014", 
   "retweet_count": 9, 
   "favorite_count": 20
  }, 
  {
   "text": "VIDEO: #NJDevils make their #SB48 predictions as the @PruCenter is taken over by the #NFL and #SBMediaDay! http://t.co/HZmNuT4x7W", 
   "label": "O", 
   "id": 428271488169672704, 
   "hashtags": [
    "NJDevils", 
    "SB48", 
    "NFL", 
    "SBMediaDay"
   ], 
   "user_mentions": [
    "PruCenter"
   ], 
   "created_at": "Tue Jan 28 21:00:54 +0000 2014", 
   "retweet_count": 12, 
   "favorite_count": 15
  }, 
  {
   "text": "#NJDevils kick off a three-game road trip tonight vs. the St. Louis Blues! Puck drops at 8 p.m. Preview: http://t.co/C09XzBMOrU", 
   "label": "O", 
   "id": 428256960438616065, 
   "hashtags": [
    "NJDevils"
   ], 
   "user_mentions": [], 
   "created_at": "Tue Jan 28 20:03:10 +0000 2014", 
   "retweet_count": 16, 
   "favorite_count": 22
  }, 
  {
   "text": "#NJDevils &amp; @PruCenter CEO @ScottONeil with @SI_PeterKing at today's #SBMediaDay at @PruCenter. http://t.co/cSDJuPZksG", 
   "label": "O", 
   "id": 428248576628912128, 
   "hashtags": [
    "NJDevils", 
    "SBMediaDay"
   ], 
   "user_mentions": [
    "PruCenter", 
    "ScottONeil", 
    "SI_PeterKing", 
    "PruCenter"
   ], 
   "created_at": "Tue Jan 28 19:29:51 +0000 2014", 
   "retweet_count": 5, 
   "favorite_count": 7
  }, 
  {
   "text": "#CaptionThis! Create a funny or creative caption for this photo of Patrik Elias and Eric Gelinas! http://t.co/7z1kECnJKD", 
   "label": "O", 
   "id": 428226066499383296, 
   "hashtags": [
    "CaptionThis"
   ], 
   "user_mentions": [], 
   "created_at": "Tue Jan 28 18:00:25 +0000 2014", 
   "retweet_count": 9, 
   "favorite_count": 37
  }, 
  {
   "text": "Save $50+ w/ the UFC169/NJDevils Package! Lower level tix to #UFC169 on 2/1 &amp; NJDvsEDM on 2/7. Use promo code UFCDEV http://t.co/XTHZ85C3VL", 
   "label": "O", 
   "id": 428206533399568384, 
   "hashtags": [
    "UFC169"
   ], 
   "user_mentions": [], 
   "created_at": "Tue Jan 28 16:42:47 +0000 2014", 
   "retweet_count": 8, 
   "favorite_count": 11
  }
 ]
}