{
 "num_road_team_goals": "4", 
 "home_team": "New Jersey Devils", 
 "num_home_team_goals": "2", 
 "summary_url": "http://www.flyershistory.com/cgi-bin/poboxscore.cgi?H20131026", 
 "result": "L", 
 "road_team": "Boston Bruins", 
 "date": "2014-03-18", 
 "goals": [
  {
   "season_index": "20", 
   "strength": "(EV)", 
   "time": "14:33", 
   "period": "1", 
   "player": "P.Bergeron", 
   "assists": "(R.Smith, Andrej Meszaros)", 
   "game_index": "1", 
   "team": "BOS"
  }, 
  {
   "season_index": "16", 
   "strength": "(PP)", 
   "time": "0:29", 
   "period": "2", 
   "player": "P.Elias", 
   "assists": "(T.Zajac, M.Ryder)", 
   "game_index": "2", 
   "team": "N.J"
  }, 
  {
   "season_index": "22", 
   "strength": "(SH)", 
   "time": "1:23", 
   "period": "2", 
   "player": "B.Marchand", 
   "assists": "(P.Bergeron, Z.Chara)", 
   "game_index": "3", 
   "team": "BOS"
  }, 
  {
   "season_index": "26", 
   "strength": "(EV)", 
   "time": "2:22", 
   "period": "2", 
   "player": "J.Iginla", 
   "assists": "(D.Krejci, T.Krug)", 
   "game_index": "4", 
   "team": "BOS"
  }, 
  {
   "season_index": "8", 
   "strength": "(EV)", 
   "time": "7:11", 
   "period": "3", 
   "player": "C.Kelly", 
   "assists": "(C.Soderberg, L.Eriksson)", 
   "game_index": "5", 
   "team": "BOS"
  }, 
  {
   "season_index": "13", 
   "strength": "(EV)", 
   "time": "9:13", 
   "period": "3", 
   "player": "T.Zajac", 
   "assists": "(E.Gelinas, J.Jagr)", 
   "game_index": "6", 
   "team": "N.J"
  }
 ], 
 "tweets": [
  {
   "text": "Recap and highlights from Tuesday's homestand opener vs. Boston: http://t.co/jp0N7LT4yg", 
   "label": "O", 
   "id": 446129479879237632, 
   "hashtags": [], 
   "user_mentions": [], 
   "created_at": "Wed Mar 19 03:42:11 +0000 2014", 
   "retweet_count": 5, 
   "favorite_count": 8
  }, 
  {
   "text": "VIDEO: Tuesday's postgame reactions from Martin Brodeur, Patrik Elias, Ryane Clowe and Coach Peter DeBoer http://t.co/q6Z0GbFKHa", 
   "label": "O", 
   "id": 446128847701147648, 
   "hashtags": [], 
   "user_mentions": [], 
   "created_at": "Wed Mar 19 03:39:40 +0000 2014", 
   "retweet_count": 2, 
   "favorite_count": 6
  }, 
  {
   "text": "The game comes to an end as the #NJDevils fall to the Bruins 4-2. #NJDvsBOS", 
   "label": "O", 
   "id": 446097585787645953, 
   "hashtags": [
    "NJDevils", 
    "NJDvsBOS"
   ], 
   "user_mentions": [], 
   "created_at": "Wed Mar 19 01:35:27 +0000 2014", 
   "retweet_count": 10, 
   "favorite_count": 11
  }, 
  {
   "text": "Glad you enjoyed it! Hope to see you back at #PruCenter soon! RT @EricLeGrand52: @NHLDevils @PruCenter had a great time thanks for having me", 
   "label": "O", 
   "id": 446097452878544896, 
   "hashtags": [
    "PruCenter"
   ], 
   "user_mentions": [
    "EricLeGrand52", 
    "NHLDevils", 
    "PruCenter"
   ], 
   "created_at": "Wed Mar 19 01:34:55 +0000 2014", 
   "retweet_count": 2, 
   "favorite_count": 11
  }, 
  {
   "text": "Miller is called for tripping at 13.6 seconds left. #NJDevils will go on the PP. #NJDvsBOS", 
   "label": "O", 
   "id": 446097234757951488, 
   "hashtags": [
    "NJDevils", 
    "NJDvsBOS"
   ], 
   "user_mentions": [], 
   "created_at": "Wed Mar 19 01:34:03 +0000 2014", 
   "retweet_count": 0, 
   "favorite_count": 8
  }, 
  {
   "text": "#NJDevils call a timeout with 55.6 left in the third period. #NJDvsBOS", 
   "label": "O", 
   "id": 446096620351143937, 
   "hashtags": [
    "NJDevils", 
    "NJDvsBOS"
   ], 
   "user_mentions": [], 
   "created_at": "Wed Mar 19 01:31:37 +0000 2014", 
   "retweet_count": 1, 
   "favorite_count": 5
  }, 
  {
   "text": "One minute remains in regulation. #NJDvsBOS", 
   "label": "O", 
   "id": 446096404583559168, 
   "hashtags": [
    "NJDvsBOS"
   ], 
   "user_mentions": [], 
   "created_at": "Wed Mar 19 01:30:45 +0000 2014", 
   "retweet_count": 0, 
   "favorite_count": 11
  }, 
  {
   "text": "Brodeur heads to the bench at 2:25 for the extra skater. #NJDvsBOS", 
   "label": "O", 
   "id": 446095639295037440, 
   "hashtags": [
    "NJDvsBOS"
   ], 
   "user_mentions": [], 
   "created_at": "Wed Mar 19 01:27:43 +0000 2014", 
   "retweet_count": 3, 
   "favorite_count": 10
  }, 
  {
   "text": "Gelinas fires a shot from the top of the left circle but is denied by Johnson at the five minute mark in the 3rd period. #NJDvsBOS", 
   "label": "O", 
   "id": 446094391850307584, 
   "hashtags": [
    "NJDvsBOS"
   ], 
   "user_mentions": [], 
   "created_at": "Wed Mar 19 01:22:45 +0000 2014", 
   "retweet_count": 2, 
   "favorite_count": 7
  }, 
  {
   "text": "Successful PK by the #NJDevils as Greene leaves the box. #NJDvsBOS", 
   "label": "O", 
   "id": 446092762933637120, 
   "hashtags": [
    "NJDevils", 
    "NJDvsBOS"
   ], 
   "user_mentions": [], 
   "created_at": "Wed Mar 19 01:16:17 +0000 2014", 
   "retweet_count": 1, 
   "favorite_count": 14
  }, 
  {
   "text": "Andy Greene is called for hooking at 9:45 as #JerseysTeam will go on the PK. #NJDvsBOS", 
   "label": "O", 
   "id": 446092640011161602, 
   "hashtags": [
    "JerseysTeam", 
    "NJDvsBOS"
   ], 
   "user_mentions": [], 
   "created_at": "Wed Mar 19 01:15:48 +0000 2014", 
   "retweet_count": 1, 
   "favorite_count": 7
  }, 
  {
   "text": "#NJDevils now trail the Bruins 4-2 with 9 minutes remaining in regulation. #NJDvsBOS", 
   "label": "O", 
   "id": 446092407592218624, 
   "hashtags": [
    "NJDevils", 
    "NJDvsBOS"
   ], 
   "user_mentions": [], 
   "created_at": "Wed Mar 19 01:14:52 +0000 2014", 
   "retweet_count": 5, 
   "favorite_count": 10
  }, 
  {
   "text": "Zajac beats Johnson, picking up his 13th tally of the season! Gelinas and Jagr pick up the helpers at 9:13 in the 3rd period. #NJDvsBOS", 
   "label": "O", 
   "id": 446092265292046336, 
   "hashtags": [
    "NJDvsBOS"
   ], 
   "user_mentions": [], 
   "created_at": "Wed Mar 19 01:14:18 +0000 2014", 
   "retweet_count": 14, 
   "favorite_count": 24
  }, 
  {
   "text": "Kelly extends the Bruins lead to 4-1 at 7:11 in the 3rd period. #NJDvsBOS", 
   "label": "O", 
   "id": 446090983575683074, 
   "hashtags": [
    "NJDvsBOS"
   ], 
   "user_mentions": [], 
   "created_at": "Wed Mar 19 01:09:13 +0000 2014", 
   "retweet_count": 1, 
   "favorite_count": 4
  }, 
  {
   "text": "Gelinas exits the box as #JerseysTeam gets back to full strength. #NJDvsBOS", 
   "label": "O", 
   "id": 446089277957742592, 
   "hashtags": [
    "JerseysTeam", 
    "NJDvsBOS"
   ], 
   "user_mentions": [], 
   "created_at": "Wed Mar 19 01:02:26 +0000 2014", 
   "retweet_count": 4, 
   "favorite_count": 8
  }, 
  {
   "text": "Brodeur flashes the leather on a Hamilton one-timer off the face-off. #NJDvsBOS", 
   "label": "O", 
   "id": 446089091663532033, 
   "hashtags": [
    "NJDvsBOS"
   ], 
   "user_mentions": [], 
   "created_at": "Wed Mar 19 01:01:42 +0000 2014", 
   "retweet_count": 4, 
   "favorite_count": 13
  }, 
  {
   "text": "Hamilton leaves the box as #JerseysTeam will go on the PK for the next 45 seconds. #NJDvsBOS", 
   "label": "O", 
   "id": 446088911782428672, 
   "hashtags": [
    "JerseysTeam", 
    "NJDvsBOS"
   ], 
   "user_mentions": [], 
   "created_at": "Wed Mar 19 01:00:59 +0000 2014", 
   "retweet_count": 1, 
   "favorite_count": 2
  }, 
  {
   "text": "Gelinas is called for slashing with 18:22 remaining in the 3rd. We will have 4-on-4 hockey for the next 1:15. #NJDvsBOS", 
   "label": "O", 
   "id": 446088561465769984, 
   "hashtags": [
    "NJDvsBOS"
   ], 
   "user_mentions": [], 
   "created_at": "Wed Mar 19 00:59:35 +0000 2014", 
   "retweet_count": 2, 
   "favorite_count": 6
  }, 
  {
   "text": "Hamilton is called for hooking Elias as the #NJDevils will go on the PP at :52. #NJDvsBOS", 
   "label": "O", 
   "id": 446088208502505472, 
   "hashtags": [
    "NJDevils", 
    "NJDvsBOS"
   ], 
   "user_mentions": [], 
   "created_at": "Wed Mar 19 00:58:11 +0000 2014", 
   "retweet_count": 4, 
   "favorite_count": 3
  }, 
  {
   "text": "The third period is underway as the #NJDevils look to erase the two goal deficit. #NJDvsBOS", 
   "label": "O", 
   "id": 446087859427368960, 
   "hashtags": [
    "NJDevils", 
    "NJDvsBOS"
   ], 
   "user_mentions": [], 
   "created_at": "Wed Mar 19 00:56:48 +0000 2014", 
   "retweet_count": 6, 
   "favorite_count": 8
  }, 
  {
   "text": "RT @hughweber1: Today's #STH_Spotlight feat. Barry &amp; Elizabeth from West Orange, NJ! They're 4 year @NHLDevils season ticket holders! http:\u2026", 
   "label": "O", 
   "id": 446085953384628224, 
   "hashtags": [
    "STH_Spotlight"
   ], 
   "user_mentions": [
    "hughweber1", 
    "NHLDevils"
   ], 
   "created_at": "Wed Mar 19 00:49:13 +0000 2014", 
   "retweet_count": 1, 
   "favorite_count": 0
  }, 
  {
   "text": "Woodbridge, NJ native and #NJDevils honorary captain @EricLeGrand52 was acknowledged pregame at @PruCenter! #NJDvsBOS http://t.co/s36vlxtzPA", 
   "label": "O", 
   "id": 446084037191290881, 
   "hashtags": [
    "NJDevils", 
    "NJDvsBOS"
   ], 
   "user_mentions": [
    "EricLeGrand52", 
    "PruCenter"
   ], 
   "created_at": "Wed Mar 19 00:41:37 +0000 2014", 
   "retweet_count": 148, 
   "favorite_count": 220
  }, 
  {
   "text": "The 2nd period comes to an end as the #NJDevils have fallen behind the Bruins, 3-1. #NJDvsBOS", 
   "label": "O", 
   "id": 446083033717047296, 
   "hashtags": [
    "NJDevils", 
    "NJDvsBOS"
   ], 
   "user_mentions": [], 
   "created_at": "Wed Mar 19 00:37:37 +0000 2014", 
   "retweet_count": 3, 
   "favorite_count": 7
  }, 
  {
   "text": "One minute remains in the 2nd period. #NJDvsBOS", 
   "label": "O", 
   "id": 446082766082678784, 
   "hashtags": [
    "NJDvsBOS"
   ], 
   "user_mentions": [], 
   "created_at": "Wed Mar 19 00:36:33 +0000 2014", 
   "retweet_count": 3, 
   "favorite_count": 9
  }, 
  {
   "text": "Tim Sestito leads the #NJDevils with 4 hits. #NJDvsBOS", 
   "label": "O", 
   "id": 446078889123938305, 
   "hashtags": [
    "NJDevils", 
    "NJDvsBOS"
   ], 
   "user_mentions": [], 
   "created_at": "Wed Mar 19 00:21:09 +0000 2014", 
   "retweet_count": 12, 
   "favorite_count": 14
  }, 
  {
   "text": "Iginla beats Brodeur, making it 3-1 at 2:22 in the 2nd period. #NJDvsBOS", 
   "label": "O", 
   "id": 446076131020902400, 
   "hashtags": [
    "NJDvsBOS"
   ], 
   "user_mentions": [], 
   "created_at": "Wed Mar 19 00:10:11 +0000 2014", 
   "retweet_count": 4, 
   "favorite_count": 6
  }, 
  {
   "text": "Credit Zajac and Ryder with the assists on Elias' goal at :29 in the 2nd period. #NJDvsBOS", 
   "label": "O", 
   "id": 446075821951049729, 
   "hashtags": [
    "NJDvsBOS"
   ], 
   "user_mentions": [], 
   "created_at": "Wed Mar 19 00:08:58 +0000 2014", 
   "retweet_count": 2, 
   "favorite_count": 14
  }, 
  {
   "text": "Marchand answers with a SHG, giving the Bruins a 2-1 lead. #NJDvsBOS", 
   "label": "O", 
   "id": 446075627943510016, 
   "hashtags": [
    "NJDvsBOS"
   ], 
   "user_mentions": [], 
   "created_at": "Wed Mar 19 00:08:12 +0000 2014", 
   "retweet_count": 3, 
   "favorite_count": 3
  }, 
  {
   "text": "The #NJDevils will now have a 5-on-4 PP. #NJDvsBOS", 
   "label": "O", 
   "id": 446075225609076736, 
   "hashtags": [
    "NJDevils", 
    "NJDvsBOS"
   ], 
   "user_mentions": [], 
   "created_at": "Wed Mar 19 00:06:36 +0000 2014", 
   "retweet_count": 3, 
   "favorite_count": 12
  }, 
  {
   "text": "GOAL! Elias ties the game for #JerseysTeam with a 5-on-3 PPG! #NJDvsBOS", 
   "label": "O", 
   "id": 446075086773420033, 
   "hashtags": [
    "JerseysTeam", 
    "NJDvsBOS"
   ], 
   "user_mentions": [], 
   "created_at": "Wed Mar 19 00:06:03 +0000 2014", 
   "retweet_count": 52, 
   "favorite_count": 72
  }, 
  {
   "text": "The second period is underway. #NJDvsBOS", 
   "label": "O", 
   "id": 446074964220059648, 
   "hashtags": [
    "NJDvsBOS"
   ], 
   "user_mentions": [], 
   "created_at": "Wed Mar 19 00:05:33 +0000 2014", 
   "retweet_count": 2, 
   "favorite_count": 13
  }, 
  {
   "text": "@ExitDesigns Nice view! #LetsGoDevils", 
   "label": "O", 
   "id": 446073536948756482, 
   "hashtags": [
    "LetsGoDevils"
   ], 
   "user_mentions": [
    "ExitDesigns"
   ], 
   "created_at": "Tue Mar 18 23:59:53 +0000 2014", 
   "retweet_count": 2, 
   "favorite_count": 4
  }, 
  {
   "text": "RT @PruCenter: .@NHLDevils organist @PeteCannarozzi plays upcoming #PruPerformer, Foreigner! Can you name that tune? http://t.co/CF7HQv9mvh", 
   "label": "O", 
   "id": 446072569335386112, 
   "hashtags": [
    "PruPerformer"
   ], 
   "user_mentions": [
    "PruCenter", 
    "NHLDevils", 
    "PeteCannarozzi"
   ], 
   "created_at": "Tue Mar 18 23:56:02 +0000 2014", 
   "retweet_count": 6, 
   "favorite_count": 0
  }, 
  {
   "text": "#JerseysTeam will begin the second period with 35 seconds remaining on the 5-on-3. #NJDvsBOS", 
   "label": "O", 
   "id": 446070500742414337, 
   "hashtags": [
    "JerseysTeam", 
    "NJDvsBOS"
   ], 
   "user_mentions": [], 
   "created_at": "Tue Mar 18 23:47:49 +0000 2014", 
   "retweet_count": 8, 
   "favorite_count": 8
  }, 
  {
   "text": "The first period comes to an end as the #NJDevils trail the Bruins 1-0. #NJDvsBOS", 
   "label": "O", 
   "id": 446070374795849728, 
   "hashtags": [
    "NJDevils", 
    "NJDvsBOS"
   ], 
   "user_mentions": [], 
   "created_at": "Tue Mar 18 23:47:19 +0000 2014", 
   "retweet_count": 4, 
   "favorite_count": 4
  }, 
  {
   "text": "Campbell is called for delay of game with 3.9 seconds left in the first period. The #NJDevils will have a 5-on-3 for 39 seconds. #NJDvsBOS", 
   "label": "O", 
   "id": 446070150090215424, 
   "hashtags": [
    "NJDevils", 
    "NJDvsBOS"
   ], 
   "user_mentions": [], 
   "created_at": "Tue Mar 18 23:46:26 +0000 2014", 
   "retweet_count": 9, 
   "favorite_count": 6
  }, 
  {
   "text": "One minute remains in the first period. #NJDvsBOS", 
   "label": "O", 
   "id": 446069785357721600, 
   "hashtags": [
    "NJDvsBOS"
   ], 
   "user_mentions": [], 
   "created_at": "Tue Mar 18 23:44:59 +0000 2014", 
   "retweet_count": 2, 
   "favorite_count": 4
  }, 
  {
   "text": "Hamilton is called for charging. The #NJDevils will go on the first PP of the game with 1:25 remaining in the first period! #NJDvsBOS", 
   "label": "O", 
   "id": 446069723101691904, 
   "hashtags": [
    "NJDevils", 
    "NJDvsBOS"
   ], 
   "user_mentions": [], 
   "created_at": "Tue Mar 18 23:44:44 +0000 2014", 
   "retweet_count": 2, 
   "favorite_count": 4
  }, 
  {
   "text": "Henrique steals the puck from Meszaros in the slot but fires the puck wide of the net. #NJDvsBOS", 
   "label": "O", 
   "id": 446069178764914688, 
   "hashtags": [
    "NJDvsBOS"
   ], 
   "user_mentions": [], 
   "created_at": "Tue Mar 18 23:42:34 +0000 2014", 
   "retweet_count": 2, 
   "favorite_count": 8
  }, 
  {
   "text": "Clowe and Lucic have a \"disagreement\" with 5:03 left in the first as both players drop the gloves. #NJDvsBOS", 
   "label": "O", 
   "id": 446068046139240448, 
   "hashtags": [
    "NJDvsBOS"
   ], 
   "user_mentions": [], 
   "created_at": "Tue Mar 18 23:38:04 +0000 2014", 
   "retweet_count": 28, 
   "favorite_count": 31
  }, 
  {
   "text": "Bergeron beats Brodeur on a backhander with 5:27 remaining in the first period. Boston leads 1-0. #NJDvsBOS", 
   "label": "O", 
   "id": 446067102005608448, 
   "hashtags": [
    "NJDvsBOS"
   ], 
   "user_mentions": [], 
   "created_at": "Tue Mar 18 23:34:19 +0000 2014", 
   "retweet_count": 8, 
   "favorite_count": 8
  }, 
  {
   "text": "Must run in the family! RT @gelly_xo_adv: My ten month old niece claps every time the @NHLDevils have the puck. Such a smart girl already!", 
   "label": "O", 
   "id": 446065705012969472, 
   "hashtags": [], 
   "user_mentions": [
    "gelly_xo_adv", 
    "NHLDevils"
   ], 
   "created_at": "Tue Mar 18 23:28:46 +0000 2014", 
   "retweet_count": 4, 
   "favorite_count": 6
  }, 
  {
   "text": "Brodeur has stopped 10 shots in the first 10:59 of play. #NJDvsBOS", 
   "label": "O", 
   "id": 446065337889746944, 
   "hashtags": [
    "NJDvsBOS"
   ], 
   "user_mentions": [], 
   "created_at": "Tue Mar 18 23:27:18 +0000 2014", 
   "retweet_count": 15, 
   "favorite_count": 23
  }, 
  {
   "text": "Denied! Brodeur comes up with a big save on Lucic's breakaway! #NJDvsBOS", 
   "label": "O", 
   "id": 446062397305135104, 
   "hashtags": [
    "NJDvsBOS"
   ], 
   "user_mentions": [], 
   "created_at": "Tue Mar 18 23:15:37 +0000 2014", 
   "retweet_count": 19, 
   "favorite_count": 41
  }, 
  {
   "text": "The puck has dropped as the #NJDevils and Boston Bruins get underway at @PruCenter! #NJDvsBOS", 
   "label": "O", 
   "id": 446060693620817920, 
   "hashtags": [
    "NJDevils", 
    "NJDvsBOS"
   ], 
   "user_mentions": [
    "PruCenter"
   ], 
   "created_at": "Tue Mar 18 23:08:51 +0000 2014", 
   "retweet_count": 25, 
   "favorite_count": 33
  }, 
  {
   "text": "Tonight's starting goaltender matchup features Martin Brodeur vs. Chad Johnson. #NJDvsBOS", 
   "label": "O", 
   "id": 446058678400339968, 
   "hashtags": [
    "NJDvsBOS"
   ], 
   "user_mentions": [], 
   "created_at": "Tue Mar 18 23:00:50 +0000 2014", 
   "retweet_count": 18, 
   "favorite_count": 35
  }, 
  {
   "text": "Starting for your #NJDevils tonight will be Clowe-Henrique-Ryder, Salvador-Zidlicky and Brodeur. #NJDvsBOS", 
   "label": "O", 
   "id": 446058481041567744, 
   "hashtags": [
    "NJDevils", 
    "NJDvsBOS"
   ], 
   "user_mentions": [], 
   "created_at": "Tue Mar 18 23:00:03 +0000 2014", 
   "retweet_count": 15, 
   "favorite_count": 21
  }, 
  {
   "text": "Eric Gelinas returns to the #NJDevils lineup tonight to take on Bruins. #NJDvsBOS http://t.co/tWyJmmDZOi", 
   "label": "O", 
   "id": 446053422824194048, 
   "hashtags": [
    "NJDevils", 
    "NJDvsBOS"
   ], 
   "user_mentions": [], 
   "created_at": "Tue Mar 18 22:39:57 +0000 2014", 
   "retweet_count": 14, 
   "favorite_count": 28
  }, 
  {
   "text": "Get featured on the #NJDevils scoreboard tonight thanks to @PrudentialBYC! Submit a photo using #DoWhatYouLove! http://t.co/bCl35VMIfY", 
   "label": "O", 
   "id": 446050983047860225, 
   "hashtags": [
    "NJDevils", 
    "DoWhatYouLove"
   ], 
   "user_mentions": [
    "PrudentialBYC"
   ], 
   "created_at": "Tue Mar 18 22:30:16 +0000 2014", 
   "retweet_count": 4, 
   "favorite_count": 7
  }, 
  {
   "text": "#DevilsFacts: Jaromir Jagr has 5g-4a, including two GWGs, in the last nine games.", 
   "label": "O", 
   "id": 446043932896800769, 
   "hashtags": [
    "DevilsFacts"
   ], 
   "user_mentions": [], 
   "created_at": "Tue Mar 18 22:02:15 +0000 2014", 
   "retweet_count": 18, 
   "favorite_count": 37
  }, 
  {
   "text": "Woodbridge, NJ will be honored at @PruCenter tonight as part of the My Town series with native @EricLeGrand52 as honorary #NJDevils captain!", 
   "label": "O", 
   "id": 446035870056214529, 
   "hashtags": [
    "NJDevils"
   ], 
   "user_mentions": [
    "PruCenter", 
    "EricLeGrand52"
   ], 
   "created_at": "Tue Mar 18 21:30:13 +0000 2014", 
   "retweet_count": 81, 
   "favorite_count": 85
  }, 
  {
   "text": "#DevilsFacts: Martin Brodeur\u2019s 1st #NHL win came on 3/26/92, which was the last time the #NJDevils wore red, white &amp; green vs. the Bruins.", 
   "label": "O", 
   "id": 446028806407872512, 
   "hashtags": [
    "DevilsFacts", 
    "NHL", 
    "NJDevils"
   ], 
   "user_mentions": [], 
   "created_at": "Tue Mar 18 21:02:08 +0000 2014", 
   "retweet_count": 95, 
   "favorite_count": 95
  }, 
  {
   "text": "Only 17 days remain in the 30 Days of Prizes! Renew or purchase your season tickets now for your chance to win: http://t.co/lPw9iPNHCJ", 
   "label": "O", 
   "id": 446020792124735488, 
   "hashtags": [], 
   "user_mentions": [], 
   "created_at": "Tue Mar 18 20:30:18 +0000 2014", 
   "retweet_count": 5, 
   "favorite_count": 7
  }, 
  {
   "text": "RT @NJDevil00: Cant wait to wear my awesome @NHLDevils retro hockey pant shell tonight at the game for retro night..... http://t.co/2b1w1FA\u2026", 
   "label": "O", 
   "id": 446020726429339648, 
   "hashtags": [], 
   "user_mentions": [
    "NJDevil00", 
    "NHLDevils"
   ], 
   "created_at": "Tue Mar 18 20:30:02 +0000 2014", 
   "retweet_count": 13, 
   "favorite_count": 0
  }, 
  {
   "text": "RT @NJDevil00: Who do you think will score the #NJDevilsGWG on Retro Night? Submit your prediction between 6-7 p.m.! http://t.co/bkwtCoXXY3", 
   "label": "O", 
   "id": 446014940785414145, 
   "hashtags": [
    "NJDevilsGWG"
   ], 
   "user_mentions": [
    "NJDevil00"
   ], 
   "created_at": "Tue Mar 18 20:07:03 +0000 2014", 
   "retweet_count": 6, 
   "favorite_count": 0
  }, 
  {
   "text": "#DevilsFacts: Travis Zajac has recorded 3g-3a over the last six games.", 
   "label": "O", 
   "id": 446013237809917952, 
   "hashtags": [
    "DevilsFacts"
   ], 
   "user_mentions": [], 
   "created_at": "Tue Mar 18 20:00:17 +0000 2014", 
   "retweet_count": 10, 
   "favorite_count": 29
  }, 
  {
   "text": "#DevilsFacts: Eric Gelinas returns to the lineup tonight for Anton Volchenkov.", 
   "label": "O", 
   "id": 445998794749259776, 
   "hashtags": [
    "DevilsFacts"
   ], 
   "user_mentions": [], 
   "created_at": "Tue Mar 18 19:02:53 +0000 2014", 
   "retweet_count": 31, 
   "favorite_count": 58
  }, 
  {
   "text": "#NJDevils open their five-game homestand tonight against the Boston Bruins on Retro Night! Puck drops at 7p. Preview: http://t.co/wWqWhukdwL", 
   "label": "O", 
   "id": 445990947911139329, 
   "hashtags": [
    "NJDevils"
   ], 
   "user_mentions": [], 
   "created_at": "Tue Mar 18 18:31:42 +0000 2014", 
   "retweet_count": 22, 
   "favorite_count": 22
  }, 
  {
   "text": "#DevilsFacts: Tim Sestito has been recalled from Albany; Ryan Carter is day-to-day.", 
   "label": "O", 
   "id": 445983479705391104, 
   "hashtags": [
    "DevilsFacts"
   ], 
   "user_mentions": [], 
   "created_at": "Tue Mar 18 18:02:02 +0000 2014", 
   "retweet_count": 12, 
   "favorite_count": 19
  }, 
  {
   "text": ".@PruCenter will be red &amp; green tonight for #NJDevils Retro Night!  Girls/Guys Night Out ticket packages available: http://t.co/FjdeCHEfxD", 
   "label": "O", 
   "id": 445979307270496256, 
   "hashtags": [
    "NJDevils"
   ], 
   "user_mentions": [
    "PruCenter"
   ], 
   "created_at": "Tue Mar 18 17:45:27 +0000 2014", 
   "retweet_count": 14, 
   "favorite_count": 23
  }, 
  {
   "text": "#RetroRewind: Watch John MacLean score an OT winner to clinch the #NJDevils first playoff berth in 1988! http://t.co/jSb7CowMhr", 
   "label": "O", 
   "id": 445968883561037825, 
   "hashtags": [
    "RetroRewind", 
    "NJDevils"
   ], 
   "user_mentions": [], 
   "created_at": "Tue Mar 18 17:04:02 +0000 2014", 
   "retweet_count": 17, 
   "favorite_count": 17
  }, 
  {
   "text": "#CaptionThis photo of Dainius Zubrus &amp; Bryce Salvador from the last time they wore the retro uniforms at @PruCenter! http://t.co/PurmpR7DIZ", 
   "label": "O", 
   "id": 445960008229216256, 
   "hashtags": [
    "CaptionThis"
   ], 
   "user_mentions": [
    "PruCenter"
   ], 
   "created_at": "Tue Mar 18 16:28:46 +0000 2014", 
   "retweet_count": 18, 
   "favorite_count": 63
  }, 
  {
   "text": "RT @hughweber1: Send me your question about the @NHLDevils or @PruCenter. I\u2019ll host a Q&amp;A tomorrow at 2:30! Ask your questions using #AskMy\u2026", 
   "label": "O", 
   "id": 445953362782343168, 
   "hashtags": [
    "AskMyDevs"
   ], 
   "user_mentions": [
    "hughweber1", 
    "NHLDevils", 
    "PruCenter"
   ], 
   "created_at": "Tue Mar 18 16:02:21 +0000 2014", 
   "retweet_count": 8, 
   "favorite_count": 0
  }, 
  {
   "text": "RT @nhldevilspr: #NJDevils have recalled forward Tim Sestito from @AlbanyDevils.", 
   "label": "O", 
   "id": 445945039404163072, 
   "hashtags": [
    "NJDevils"
   ], 
   "user_mentions": [
    "NHLDevilsPR", 
    "AlbanyDevils"
   ], 
   "created_at": "Tue Mar 18 15:29:17 +0000 2014", 
   "retweet_count": 14, 
   "favorite_count": 14
  }, 
  {
   "text": "Quick look in at today's morning skate, which is underway at Prudential Center http://t.co/e2IYluHYTi", 
   "label": "O", 
   "id": 445932019793805312, 
   "hashtags": [], 
   "user_mentions": [], 
   "created_at": "Tue Mar 18 14:37:33 +0000 2014", 
   "retweet_count": 8, 
   "favorite_count": 7
  }, 
  {
   "text": "Hey @AmericanExpress Card Members, grab last minute tickets to #NJDvsBOS at @PruCenter! Expires today 5:30p EST. http://t.co/QfdkNsu0Ve", 
   "label": "O", 
   "id": 445921088212852736, 
   "hashtags": [
    "NJDvsBOS"
   ], 
   "user_mentions": [
    "AmericanExpress", 
    "PruCenter"
   ], 
   "created_at": "Tue Mar 18 13:54:06 +0000 2014", 
   "retweet_count": 9, 
   "favorite_count": 7
  }, 
  {
   "text": "MT @EricLeGrand52: Can't wait to head out to the @NHLDevils game! 1st hockey game of the year, should be great", 
   "label": "O", 
   "id": 445918016816316416, 
   "hashtags": [], 
   "user_mentions": [
    "EricLeGrand52", 
    "NHLDevils"
   ], 
   "created_at": "Tue Mar 18 13:41:54 +0000 2014", 
   "retweet_count": 25, 
   "favorite_count": 50
  }
 ]
}