{
 "num_road_team_goals": "3", 
 "home_team": "New Jersey Devils", 
 "num_home_team_goals": "2", 
 "summary_url": "http://www.flyershistory.com/cgi-bin/poboxscore.cgi?H20131208", 
 "result": "L (SO)", 
 "road_team": "New York Islanders", 
 "date": "2014-04-11", 
 "goals": [
  {
   "season_index": "7", 
   "strength": "(EV)", 
   "time": "10:04", 
   "period": "1", 
   "player": "A.Lee", 
   "assists": "(F.Nielsen)", 
   "game_index": "1", 
   "team": "NYI"
  }, 
  {
   "season_index": "7", 
   "strength": "(EV)", 
   "time": "11:03", 
   "period": "1", 
   "player": "R.Carter", 
   "assists": "(S.Bernier, S.Gionta)", 
   "game_index": "2", 
   "team": "N.J"
  }, 
  {
   "season_index": "18", 
   "strength": "(EV)", 
   "time": "19:51", 
   "period": "1", 
   "player": "P.Elias", 
   "assists": "(T.Zajac, J.Jagr)", 
   "game_index": "3", 
   "team": "N.J"
  }, 
  {
   "season_index": "7", 
   "strength": "(PP)", 
   "time": "0:19", 
   "period": "3", 
   "player": "R.Strome", 
   "assists": "(F.Nielsen, M.Donovan)", 
   "game_index": "4", 
   "team": "NYI"
  }
 ], 
 "tweets": [
  {
   "text": "Don't forget it's Fireworks Night presented by @TheNJLottery! Check out the show at Championship Plaza.", 
   "label": "O", 
   "id": 454808307543592960, 
   "hashtags": [], 
   "user_mentions": [
    "TheNJLottery"
   ], 
   "created_at": "Sat Apr 12 02:28:45 +0000 2014", 
   "retweet_count": 7, 
   "favorite_count": 12
  }, 
  {
   "text": "Strome scores and the #NJDevils fall to the Islanders 3-2 in a shootout. #NJDvsNYI", 
   "label": "O", 
   "id": 454805765371752448, 
   "hashtags": [
    "NJDevils", 
    "NJDvsNYI"
   ], 
   "user_mentions": [], 
   "created_at": "Sat Apr 12 02:18:39 +0000 2014", 
   "retweet_count": 15, 
   "favorite_count": 14
  }, 
  {
   "text": "Jagr shoots but loses control of the puck. Isles still lead 2-1. #NJDvsNYI", 
   "label": "O", 
   "id": 454805252953604096, 
   "hashtags": [
    "NJDvsNYI"
   ], 
   "user_mentions": [], 
   "created_at": "Sat Apr 12 02:16:36 +0000 2014", 
   "retweet_count": 2, 
   "favorite_count": 4
  }, 
  {
   "text": "Jagr is next to shoot for the #NJDevils. #NJDvsNYI", 
   "label": "O", 
   "id": 454805063761166336, 
   "hashtags": [
    "NJDevils", 
    "NJDvsNYI"
   ], 
   "user_mentions": [], 
   "created_at": "Sat Apr 12 02:15:51 +0000 2014", 
   "retweet_count": 3, 
   "favorite_count": 7
  }, 
  {
   "text": "Bailey scores on a spin-around shot. 2-1 Isles. #NJDvsNYI", 
   "label": "O", 
   "id": 454804979917008896, 
   "hashtags": [
    "NJDvsNYI"
   ], 
   "user_mentions": [], 
   "created_at": "Sat Apr 12 02:15:31 +0000 2014", 
   "retweet_count": 3, 
   "favorite_count": 5
  }, 
  {
   "text": "Brunner with a great deke and he scores! 1-1. #NJDvsNYI", 
   "label": "O", 
   "id": 454804843811852288, 
   "hashtags": [
    "NJDvsNYI"
   ], 
   "user_mentions": [], 
   "created_at": "Sat Apr 12 02:14:59 +0000 2014", 
   "retweet_count": 11, 
   "favorite_count": 23
  }, 
  {
   "text": "Nielsen Is first to shoot for the Isles and he beats Brodeur. 1-0 Isles in the shootout. #NJDvsNYI", 
   "label": "O", 
   "id": 454804734164340736, 
   "hashtags": [
    "NJDvsNYI"
   ], 
   "user_mentions": [], 
   "created_at": "Sat Apr 12 02:14:33 +0000 2014", 
   "retweet_count": 3, 
   "favorite_count": 3
  }, 
  {
   "text": "OT comes to an end and the #NJDevils and Islanders are headed to a SO. #NJDvsNYI", 
   "label": "O", 
   "id": 454803720329781248, 
   "hashtags": [
    "NJDevils", 
    "NJDvsNYI"
   ], 
   "user_mentions": [], 
   "created_at": "Sat Apr 12 02:10:31 +0000 2014", 
   "retweet_count": 15, 
   "favorite_count": 16
  }, 
  {
   "text": "Coach DeBoer  calls timeout with 39.5 left in OT. #NJDvsNYI", 
   "label": "O", 
   "id": 454803241034072064, 
   "hashtags": [
    "NJDvsNYI"
   ], 
   "user_mentions": [], 
   "created_at": "Sat Apr 12 02:08:37 +0000 2014", 
   "retweet_count": 3, 
   "favorite_count": 9
  }, 
  {
   "text": "Merrill leaves the box and we're back to 4-on-4. #NJDvsNYI", 
   "label": "O", 
   "id": 454803135996129280, 
   "hashtags": [
    "NJDvsNYI"
   ], 
   "user_mentions": [], 
   "created_at": "Sat Apr 12 02:08:12 +0000 2014", 
   "retweet_count": 1, 
   "favorite_count": 10
  }, 
  {
   "text": "One minute remains in OT. #NJDvsNYI", 
   "label": "O", 
   "id": 454803072494346240, 
   "hashtags": [
    "NJDvsNYI"
   ], 
   "user_mentions": [], 
   "created_at": "Sat Apr 12 02:07:56 +0000 2014", 
   "retweet_count": 1, 
   "favorite_count": 10
  }, 
  {
   "text": "Brodeur makes another glove save! This time on Josh Bailey. #NJDvsNYI", 
   "label": "O", 
   "id": 454802897927438336, 
   "hashtags": [
    "NJDvsNYI"
   ], 
   "user_mentions": [], 
   "created_at": "Sat Apr 12 02:07:15 +0000 2014", 
   "retweet_count": 9, 
   "favorite_count": 16
  }, 
  {
   "text": "Merrill is called for tripping with 2:52 remaining in OT. #NJDevils will go on their third PK of the night. #NJDvsNYI", 
   "label": "O", 
   "id": 454802275803099136, 
   "hashtags": [
    "NJDevils", 
    "NJDvsNYI"
   ], 
   "user_mentions": [], 
   "created_at": "Sat Apr 12 02:04:47 +0000 2014", 
   "retweet_count": 3, 
   "favorite_count": 4
  }, 
  {
   "text": "Brodeur denies Nelson on a breakaway! Great save! #NJDvsNYI", 
   "label": "O", 
   "id": 454801965659455488, 
   "hashtags": [
    "NJDvsNYI"
   ], 
   "user_mentions": [], 
   "created_at": "Sat Apr 12 02:03:33 +0000 2014", 
   "retweet_count": 10, 
   "favorite_count": 24
  }, 
  {
   "text": "OT is underway! #LetsGoDevils! #NJDvsNYI", 
   "label": "O", 
   "id": 454801577321459712, 
   "hashtags": [
    "LetsGoDevils", 
    "NJDvsNYI"
   ], 
   "user_mentions": [], 
   "created_at": "Sat Apr 12 02:02:00 +0000 2014", 
   "retweet_count": 7, 
   "favorite_count": 16
  }, 
  {
   "text": "After 60 minutes of play the #NJDevils and Isles are tied, 2-2. #NJDevils will head to OT for the second consecutive night. #NJDvsNYI", 
   "label": "O", 
   "id": 454801059840794626, 
   "hashtags": [
    "NJDevils", 
    "NJDevils", 
    "NJDvsNYI"
   ], 
   "user_mentions": [], 
   "created_at": "Sat Apr 12 01:59:57 +0000 2014", 
   "retweet_count": 5, 
   "favorite_count": 11
  }, 
  {
   "text": "RT @NJDevil00: #ThankYouChico! Have a Happy Retirement!", 
   "label": "O", 
   "id": 454800726846615552, 
   "hashtags": [
    "ThankYouChico"
   ], 
   "user_mentions": [
    "NJDevil00"
   ], 
   "created_at": "Sat Apr 12 01:58:37 +0000 2014", 
   "retweet_count": 86, 
   "favorite_count": 0
  }, 
  {
   "text": "Shots are tied 26-26 with 2:00 left to play. #NJDvsNYI", 
   "label": "O", 
   "id": 454800413762801664, 
   "hashtags": [
    "NJDvsNYI"
   ], 
   "user_mentions": [], 
   "created_at": "Sat Apr 12 01:57:23 +0000 2014", 
   "retweet_count": 1, 
   "favorite_count": 4
  }, 
  {
   "text": "RT @NJDevil00: That's what I call precision passing!  #Poise http://t.co/vYbUf6XJ35", 
   "label": "O", 
   "id": 454799391518621696, 
   "hashtags": [
    "Poise"
   ], 
   "user_mentions": [
    "NJDevil00"
   ], 
   "created_at": "Sat Apr 12 01:53:19 +0000 2014", 
   "retweet_count": 3, 
   "favorite_count": 0
  }, 
  {
   "text": "What a glove save by Brodeur! Marty flashes the leather on a one-on-one with McDonald! #NJDvs", 
   "label": "O", 
   "id": 454799138400792576, 
   "hashtags": [
    "NJDvs"
   ], 
   "user_mentions": [], 
   "created_at": "Sat Apr 12 01:52:19 +0000 2014", 
   "retweet_count": 15, 
   "favorite_count": 36
  }, 
  {
   "text": "Jagr with a breakaway as he left the box but is denied by Nilsson. #NJDvsNYI", 
   "label": "O", 
   "id": 454798210918547456, 
   "hashtags": [
    "NJDvsNYI"
   ], 
   "user_mentions": [], 
   "created_at": "Sat Apr 12 01:48:37 +0000 2014", 
   "retweet_count": 4, 
   "favorite_count": 5
  }, 
  {
   "text": "Jaromir Jagr exits the box as #JerseysTeam gets back to full strength! #NJDvsNYI", 
   "label": "O", 
   "id": 454798066034696192, 
   "hashtags": [
    "JerseysTeam", 
    "NJDvsNYI"
   ], 
   "user_mentions": [], 
   "created_at": "Sat Apr 12 01:48:03 +0000 2014", 
   "retweet_count": 3, 
   "favorite_count": 8
  }, 
  {
   "text": "Jaromir Jagr is called for hooking at 10:55 as the #NJDevils will go on their second PK of the night. #NJDvsNYI", 
   "label": "O", 
   "id": 454797199986409472, 
   "hashtags": [
    "NJDevils", 
    "NJDvsNYI"
   ], 
   "user_mentions": [], 
   "created_at": "Sat Apr 12 01:44:36 +0000 2014", 
   "retweet_count": 3, 
   "favorite_count": 4
  }, 
  {
   "text": "Brodeur makes a sprawling save to deny Cizikas of a goal! #NJDvsNYI", 
   "label": "O", 
   "id": 454796906716463104, 
   "hashtags": [
    "NJDvsNYI"
   ], 
   "user_mentions": [], 
   "created_at": "Sat Apr 12 01:43:26 +0000 2014", 
   "retweet_count": 5, 
   "favorite_count": 21
  }, 
  {
   "text": "Midway through the third period the #NJDevils and Isles are locked in a 2-2 tie. #NJDevils lead in SOG 23-22. #NJDvsNYI", 
   "label": "O", 
   "id": 454796571511906304, 
   "hashtags": [
    "NJDevils", 
    "NJDevils", 
    "NJDvsNYI"
   ], 
   "user_mentions": [], 
   "created_at": "Sat Apr 12 01:42:07 +0000 2014", 
   "retweet_count": 1, 
   "favorite_count": 5
  }, 
  {
   "text": "Hamonic leaves the box as the #NJDevils PP comes to an end. #NJDvsNYI", 
   "label": "O", 
   "id": 454795126867783680, 
   "hashtags": [
    "NJDevils", 
    "NJDvsNYI"
   ], 
   "user_mentions": [], 
   "created_at": "Sat Apr 12 01:36:22 +0000 2014", 
   "retweet_count": 1, 
   "favorite_count": 3
  }, 
  {
   "text": "Zidlicky with a PP blast but is denied by Nilsson. #NJDvsNYI", 
   "label": "O", 
   "id": 454794814979342337, 
   "hashtags": [
    "NJDvsNYI"
   ], 
   "user_mentions": [], 
   "created_at": "Sat Apr 12 01:35:08 +0000 2014", 
   "retweet_count": 1, 
   "favorite_count": 3
  }, 
  {
   "text": "Hamonic is called for tripping at 4:41 as the #NJDevils set up on their first PP of the night! #NJDvsNYI", 
   "label": "O", 
   "id": 454794517422829568, 
   "hashtags": [
    "NJDevils", 
    "NJDvsNYI"
   ], 
   "user_mentions": [], 
   "created_at": "Sat Apr 12 01:33:57 +0000 2014", 
   "retweet_count": 2, 
   "favorite_count": 3
  }, 
  {
   "text": "ICYMI: Former #NJDevils goaltender &amp; MSG analyst Glenn \"Chico\" Resch announced his retirement tonight. http://t.co/09wq0Ty0oS #ThankYouChico", 
   "label": "O", 
   "id": 454794076005859328, 
   "hashtags": [
    "NJDevils", 
    "ThankYouChico"
   ], 
   "user_mentions": [], 
   "created_at": "Sat Apr 12 01:32:12 +0000 2014", 
   "retweet_count": 46, 
   "favorite_count": 34
  }, 
  {
   "text": "Strome beats Brodeur on a PPG at :19. #NJDevils and Islanders are tied, 2-2. #NJDvsNYI", 
   "label": "O", 
   "id": 454792764367327232, 
   "hashtags": [
    "NJDevils", 
    "NJDvsNYI"
   ], 
   "user_mentions": [], 
   "created_at": "Sat Apr 12 01:26:59 +0000 2014", 
   "retweet_count": 3, 
   "favorite_count": 6
  }, 
  {
   "text": "The third period is underway as the #NJDevils have 1:33 remaining in the PK. #NJDvsNYI", 
   "label": "O", 
   "id": 454792569491558400, 
   "hashtags": [
    "NJDevils", 
    "NJDvsNYI"
   ], 
   "user_mentions": [], 
   "created_at": "Sat Apr 12 01:26:12 +0000 2014", 
   "retweet_count": 2, 
   "favorite_count": 5
  }, 
  {
   "text": "RT @RDBNJ: Best of Luck on your retirement Chico! You'll be missed. @NHLDevils #NJDevils #CHICO http://t.co/vDNufpnrY3", 
   "label": "O", 
   "id": 454790347127017472, 
   "hashtags": [
    "NJDevils", 
    "CHICO"
   ], 
   "user_mentions": [
    "RDBNJ", 
    "NHLDevils"
   ], 
   "created_at": "Sat Apr 12 01:17:23 +0000 2014", 
   "retweet_count": 24, 
   "favorite_count": 0
  }, 
  {
   "text": "Martin Brodeur stopped all 13 shots that came his way in the second period. #NJDvsNYI", 
   "label": "O", 
   "id": 454789429245513728, 
   "hashtags": [
    "NJDvsNYI"
   ], 
   "user_mentions": [], 
   "created_at": "Sat Apr 12 01:13:44 +0000 2014", 
   "retweet_count": 11, 
   "favorite_count": 37
  }, 
  {
   "text": "What food would he eat? \"RT @DanGraca: How about one last edition of 'Chico Eats' for the great Chico's final @NHLDevils game on Sunday?\"", 
   "label": "O", 
   "id": 454789335939047424, 
   "hashtags": [], 
   "user_mentions": [
    "DanGraca", 
    "NHLDevils"
   ], 
   "created_at": "Sat Apr 12 01:13:21 +0000 2014", 
   "retweet_count": 5, 
   "favorite_count": 11
  }, 
  {
   "text": "The #NJDevils will have 1:33 remaining in Sestito's penalty to start the third period. #NJDvsNYI", 
   "label": "O", 
   "id": 454789105663356928, 
   "hashtags": [
    "NJDevils", 
    "NJDvsNYI"
   ], 
   "user_mentions": [], 
   "created_at": "Sat Apr 12 01:12:27 +0000 2014", 
   "retweet_count": 2, 
   "favorite_count": 1
  }, 
  {
   "text": "It\u2019s impossible to replicate perfection. #ThankYouChico \"RT @slackdogcosta: Sunday should be \"Chico Resch Replica Mustache Giveaway Day\"\"", 
   "label": "O", 
   "id": 454788048325455872, 
   "hashtags": [
    "ThankYouChico"
   ], 
   "user_mentions": [
    "slackdogcosta"
   ], 
   "created_at": "Sat Apr 12 01:08:14 +0000 2014", 
   "retweet_count": 30, 
   "favorite_count": 35
  }, 
  {
   "text": "The second period comes to an end as the #NJDevils lead the Islanders 2-1. #NJDvsNYI", 
   "label": "O", 
   "id": 454787873590755328, 
   "hashtags": [
    "NJDevils", 
    "NJDvsNYI"
   ], 
   "user_mentions": [], 
   "created_at": "Sat Apr 12 01:07:33 +0000 2014", 
   "retweet_count": 10, 
   "favorite_count": 10
  }, 
  {
   "text": "Sestito is called for tripping with 27.1 remaining in the second. #JerseysTeam will go on their first PK of the night. #NJDvsNYI", 
   "label": "O", 
   "id": 454787655340134400, 
   "hashtags": [
    "JerseysTeam", 
    "NJDvsNYI"
   ], 
   "user_mentions": [], 
   "created_at": "Sat Apr 12 01:06:41 +0000 2014", 
   "retweet_count": 2, 
   "favorite_count": 3
  }, 
  {
   "text": "One minute remains in the second period. #NJDvsNYI", 
   "label": "O", 
   "id": 454787433251741696, 
   "hashtags": [
    "NJDvsNYI"
   ], 
   "user_mentions": [], 
   "created_at": "Sat Apr 12 01:05:48 +0000 2014", 
   "retweet_count": 1, 
   "favorite_count": 10
  }, 
  {
   "text": "RT @SiriusXMNHL: All the best to Glenn 'Chico' Resch always a great friend to @SiriusXMNHL he will be missed on the @NHLDevils broadcast. H\u2026", 
   "label": "O", 
   "id": 454782183677624320, 
   "hashtags": [], 
   "user_mentions": [
    "SiriusXMNHL", 
    "SiriusXMNHL", 
    "NHLDevils"
   ], 
   "created_at": "Sat Apr 12 00:44:56 +0000 2014", 
   "retweet_count": 29, 
   "favorite_count": 0
  }, 
  {
   "text": "RT @JakoAndrew: @NHLDevils A true legend. Devils fans everywhere will miss you. Wish you and your family all the best.", 
   "label": "O", 
   "id": 454780788836679680, 
   "hashtags": [], 
   "user_mentions": [
    "JakoAndrew", 
    "NHLDevils"
   ], 
   "created_at": "Sat Apr 12 00:39:24 +0000 2014", 
   "retweet_count": 12, 
   "favorite_count": 0
  }, 
  {
   "text": "Merrill delivers a big hit to McDonald, sending the Islanders player to the ice. #NJDvsNYI", 
   "label": "O", 
   "id": 454780726563835905, 
   "hashtags": [
    "NJDvsNYI"
   ], 
   "user_mentions": [], 
   "created_at": "Sat Apr 12 00:39:09 +0000 2014", 
   "retweet_count": 2, 
   "favorite_count": 13
  }, 
  {
   "text": "RT @MikeDuHaime: Many thanks to Chico Resch as he retires.  He gave me an autograph when I was about 10 or 11.  Been hooked on the @NHLDevi\u2026", 
   "label": "O", 
   "id": 454780414151131136, 
   "hashtags": [], 
   "user_mentions": [
    "MikeDuHaime", 
    "NHLDevils"
   ], 
   "created_at": "Sat Apr 12 00:37:54 +0000 2014", 
   "retweet_count": 12, 
   "favorite_count": 0
  }, 
  {
   "text": "RT @NHLDevilsPR: Press release on Glenn \"Chico\" Resch's retirement from the #NJDevils broadcast booth: http://t.co/z1X4I9Ga5T", 
   "label": "O", 
   "id": 454780333872152576, 
   "hashtags": [
    "NJDevils"
   ], 
   "user_mentions": [
    "NHLDevilsPR"
   ], 
   "created_at": "Sat Apr 12 00:37:35 +0000 2014", 
   "retweet_count": 37, 
   "favorite_count": 0
  }, 
  {
   "text": "RT @MearsyNHL: One of the nicest people in the game. Best wishes! RT\u201c@NHLDevils: Glenn \u201cChico\u201d Resch announced his retirement from the broa\u2026", 
   "label": "O", 
   "id": 454780141764624384, 
   "hashtags": [], 
   "user_mentions": [
    "MearsyNHL", 
    "NHLDevils"
   ], 
   "created_at": "Sat Apr 12 00:36:49 +0000 2014", 
   "retweet_count": 26, 
   "favorite_count": 0
  }, 
  {
   "text": "RT @AlaRegularis: @NHLDevils We're gonna miss you Chico! All the best to you and yours!\n#ThankYouChico", 
   "label": "O", 
   "id": 454779986915127296, 
   "hashtags": [
    "ThankYouChico"
   ], 
   "user_mentions": [
    "AlaRegularis", 
    "NHLDevils"
   ], 
   "created_at": "Sat Apr 12 00:36:12 +0000 2014", 
   "retweet_count": 18, 
   "favorite_count": 0
  }, 
  {
   "text": "The second period is underway as the #NJDevils hold a 2-1 lead over the Isles. #NJDvsNYI", 
   "label": "O", 
   "id": 454779247136362496, 
   "hashtags": [
    "NJDevils", 
    "NJDvsNYI"
   ], 
   "user_mentions": [], 
   "created_at": "Sat Apr 12 00:33:16 +0000 2014", 
   "retweet_count": 8, 
   "favorite_count": 22
  }, 
  {
   "text": "During the first intermission, Glenn \u201cChico\u201d Resch announced his retirement from the broadcast booth. #ThankYouChico http://t.co/NA3pMWLVOI", 
   "label": "O", 
   "id": 454778597442850817, 
   "hashtags": [
    "ThankYouChico"
   ], 
   "user_mentions": [], 
   "created_at": "Sat Apr 12 00:30:41 +0000 2014", 
   "retweet_count": 401, 
   "favorite_count": 294
  }, 
  {
   "text": "RT @NHLDevilsPR: Jagr's 1,048th career assist moves him within one of Gordie Howe for eighth all-time. #NHL", 
   "label": "O", 
   "id": 454775453078016000, 
   "hashtags": [
    "NHL"
   ], 
   "user_mentions": [
    "NHLDevilsPR"
   ], 
   "created_at": "Sat Apr 12 00:18:11 +0000 2014", 
   "retweet_count": 15, 
   "favorite_count": 18
  }, 
  {
   "text": "SOG are 13-4 in favor of #JerseysTeam. Elias and Jagr lead the team with two each. #NJDvsNYI", 
   "label": "O", 
   "id": 454775096851574785, 
   "hashtags": [
    "JerseysTeam", 
    "NJDvsNYI"
   ], 
   "user_mentions": [], 
   "created_at": "Sat Apr 12 00:16:47 +0000 2014", 
   "retweet_count": 5, 
   "favorite_count": 7
  }, 
  {
   "text": "Credit Zajac and Jagr with the assists on Elias' 18th marker of the season at 19:51! #NJDvsNYI", 
   "label": "O", 
   "id": 454774639395610624, 
   "hashtags": [
    "NJDvsNYI"
   ], 
   "user_mentions": [], 
   "created_at": "Sat Apr 12 00:14:57 +0000 2014", 
   "retweet_count": 4, 
   "favorite_count": 14
  }, 
  {
   "text": "The first period comes to a close as the #NJDevils lead the Isles 2-1! #NJDvsNYI", 
   "label": "O", 
   "id": 454774503999279104, 
   "hashtags": [
    "NJDevils", 
    "NJDvsNYI"
   ], 
   "user_mentions": [], 
   "created_at": "Sat Apr 12 00:14:25 +0000 2014", 
   "retweet_count": 17, 
   "favorite_count": 20
  }, 
  {
   "text": "GOAL! Patrik Elias lights the lamp with a wrister from the slot as the #NJDevils take a 2-1 lead with 8.3 left in the 1st period! #NJDvsNYI", 
   "label": "O", 
   "id": 454774399145885697, 
   "hashtags": [
    "NJDevils", 
    "NJDvsNYI"
   ], 
   "user_mentions": [], 
   "created_at": "Sat Apr 12 00:14:00 +0000 2014", 
   "retweet_count": 56, 
   "favorite_count": 57
  }, 
  {
   "text": "RT @heatherorourke7: We got a visit from the NJ Devil tonight. 2 very happy @NHLDevils fans!#GoDevils http://t.co/repFk3eF2A", 
   "label": "O", 
   "id": 454773451681976320, 
   "hashtags": [
    "GoDevils"
   ], 
   "user_mentions": [
    "heatherorourke7", 
    "NHLDevils"
   ], 
   "created_at": "Sat Apr 12 00:10:14 +0000 2014", 
   "retweet_count": 8, 
   "favorite_count": 0
  }, 
  {
   "text": "Credit Bernier and Gionta with the helpers on Carter's tally at 11:03! #NJDvsNYI", 
   "label": "O", 
   "id": 454771088686592000, 
   "hashtags": [
    "NJDvsNYI"
   ], 
   "user_mentions": [], 
   "created_at": "Sat Apr 12 00:00:51 +0000 2014", 
   "retweet_count": 3, 
   "favorite_count": 15
  }, 
  {
   "text": "GOAL! Ryan Carter buries a feed from Steve Bernier as the #NJDevils even the score, 1-1! #NJDvsNYI", 
   "label": "O", 
   "id": 454770802744102912, 
   "hashtags": [
    "NJDevils", 
    "NJDvsNYI"
   ], 
   "user_mentions": [], 
   "created_at": "Fri Apr 11 23:59:43 +0000 2014", 
   "retweet_count": 41, 
   "favorite_count": 49
  }, 
  {
   "text": "Anders Lee gives the Islanders a 1-0 lead at 10:04. #NJDvsNYI", 
   "label": "O", 
   "id": 454769798384484353, 
   "hashtags": [
    "NJDvsNYI"
   ], 
   "user_mentions": [], 
   "created_at": "Fri Apr 11 23:55:43 +0000 2014", 
   "retweet_count": 3, 
   "favorite_count": 5
  }, 
  {
   "text": "Midway through the first period the #NJDevils are outshooting the Islanders 5-1. #NJDvsNYI", 
   "label": "O", 
   "id": 454769583854206976, 
   "hashtags": [
    "NJDevils", 
    "NJDvsNYI"
   ], 
   "user_mentions": [], 
   "created_at": "Fri Apr 11 23:54:52 +0000 2014", 
   "retweet_count": 4, 
   "favorite_count": 10
  }, 
  {
   "text": "Brunner with a chance but is unable to jam the puck home. #NJDvsNYI", 
   "label": "O", 
   "id": 454768983489921025, 
   "hashtags": [
    "NJDvsNYI"
   ], 
   "user_mentions": [], 
   "created_at": "Fri Apr 11 23:52:29 +0000 2014", 
   "retweet_count": 3, 
   "favorite_count": 6
  }, 
  {
   "text": "The puck has dropped as #NJDvsNYI gets underway at @PruCenter!", 
   "label": "O", 
   "id": 454765570068844545, 
   "hashtags": [
    "NJDvsNYI"
   ], 
   "user_mentions": [
    "PruCenter"
   ], 
   "created_at": "Fri Apr 11 23:38:55 +0000 2014", 
   "retweet_count": 8, 
   "favorite_count": 22
  }, 
  {
   "text": "@Sarahloves2run Correct answer.", 
   "label": "O", 
   "id": 454764111424126976, 
   "hashtags": [], 
   "user_mentions": [
    "Sarahloves2run"
   ], 
   "created_at": "Fri Apr 11 23:33:07 +0000 2014", 
   "retweet_count": 0, 
   "favorite_count": 2
  }, 
  {
   "text": "Starting for your #NJDevils tonight will be Elias-Zajac-Jagr, Greene-Fayne and Brodeur! #NJDvsNYI", 
   "label": "O", 
   "id": 454763410363015168, 
   "hashtags": [
    "NJDevils", 
    "NJDvsNYI"
   ], 
   "user_mentions": [], 
   "created_at": "Fri Apr 11 23:30:20 +0000 2014", 
   "retweet_count": 11, 
   "favorite_count": 25
  }, 
  {
   "text": "Tonight's starting goaltender matchup features Martin Brodeur vs. Anders Nilsson. #NJDvsNYI", 
   "label": "O", 
   "id": 454762706768527361, 
   "hashtags": [
    "NJDvsNYI"
   ], 
   "user_mentions": [], 
   "created_at": "Fri Apr 11 23:27:33 +0000 2014", 
   "retweet_count": 10, 
   "favorite_count": 19
  }, 
  {
   "text": "@StarlingPSP359 #NJDvsNYI tonight, but first...", 
   "label": "O", 
   "id": 454758625282887680, 
   "hashtags": [
    "NJDvsNYI"
   ], 
   "user_mentions": [
    "StarlingPSP359"
   ], 
   "created_at": "Fri Apr 11 23:11:19 +0000 2014", 
   "retweet_count": 0, 
   "favorite_count": 0
  }, 
  {
   "text": "#DevilsFacts: The #NJDevils PK went 3/3 last night in Ottawa to remain atop the #NHL (87.3%).", 
   "label": "O", 
   "id": 454756219530792960, 
   "hashtags": [
    "DevilsFacts", 
    "NJDevils", 
    "NHL"
   ], 
   "user_mentions": [], 
   "created_at": "Fri Apr 11 23:01:46 +0000 2014", 
   "retweet_count": 7, 
   "favorite_count": 8
  }, 
  {
   "text": "Martin Brodeur will get the start tonight at @PruCenter for #NJDvsNYI!", 
   "label": "O", 
   "id": 454751211129155585, 
   "hashtags": [
    "NJDvsNYI"
   ], 
   "user_mentions": [
    "PruCenter"
   ], 
   "created_at": "Fri Apr 11 22:41:52 +0000 2014", 
   "retweet_count": 43, 
   "favorite_count": 70
  }, 
  {
   "text": "#NJDevils Fan Fest is in full effect at Championship Plaza! http://t.co/Q701TQsLBF", 
   "label": "O", 
   "id": 454749236517957632, 
   "hashtags": [
    "NJDevils"
   ], 
   "user_mentions": [], 
   "created_at": "Fri Apr 11 22:34:01 +0000 2014", 
   "retweet_count": 14, 
   "favorite_count": 24
  }, 
  {
   "text": "Stop by @BrickCityBG located across the street from The Rock tonight after the conclusion of #NJDvsNYI for the @GoliaVodka post-game party!", 
   "label": "O", 
   "id": 454748278635372545, 
   "hashtags": [
    "NJDvsNYI"
   ], 
   "user_mentions": [
    "BrickCityBG", 
    "GoliaVodka"
   ], 
   "created_at": "Fri Apr 11 22:30:13 +0000 2014", 
   "retweet_count": 4, 
   "favorite_count": 12
  }, 
  {
   "text": "Get featured on the #NJDevils scoreboard TONIGHT thanks to @PrudentialBYC! Submit a photo using #DoWhatYouLove! http://t.co/bCl35VMIfY", 
   "label": "O", 
   "id": 454744580848881664, 
   "hashtags": [
    "NJDevils", 
    "DoWhatYouLove"
   ], 
   "user_mentions": [
    "PrudentialBYC"
   ], 
   "created_at": "Fri Apr 11 22:15:31 +0000 2014", 
   "retweet_count": 4, 
   "favorite_count": 12
  }, 
  {
   "text": "#DevilsFacts: Marek Zidlicky (1g-3a) is tied with Adam Henrique (3g-1a) for the #NJDevils points lead vs. the Isles this season.", 
   "label": "O", 
   "id": 454741029183557632, 
   "hashtags": [
    "DevilsFacts", 
    "NJDevils"
   ], 
   "user_mentions": [], 
   "created_at": "Fri Apr 11 22:01:24 +0000 2014", 
   "retweet_count": 5, 
   "favorite_count": 19
  }, 
  {
   "text": "Thanks to all our fans for entering the contest and your continued support throughout the season! #LetsGoDevils!", 
   "label": "O", 
   "id": 454741018152562691, 
   "hashtags": [
    "LetsGoDevils"
   ], 
   "user_mentions": [], 
   "created_at": "Fri Apr 11 22:01:22 +0000 2014", 
   "retweet_count": 8, 
   "favorite_count": 33
  }, 
  {
   "text": "The winner of the Martin Brodeur Ultimate Pack and final giveaway of the day goes to @QuizGuy66! Congratulations!", 
   "label": "O", 
   "id": 454740755165478912, 
   "hashtags": [], 
   "user_mentions": [
    "QuizGuy66"
   ], 
   "created_at": "Fri Apr 11 22:00:19 +0000 2014", 
   "retweet_count": 3, 
   "favorite_count": 18
  }, 
  {
   "text": "#DevilsFacts: Michael Ryder's goal last night was his 18th of the season, which ranks third on the #NJDevils.", 
   "label": "O", 
   "id": 454726055715422208, 
   "hashtags": [
    "DevilsFacts", 
    "NJDevils"
   ], 
   "user_mentions": [], 
   "created_at": "Fri Apr 11 21:01:54 +0000 2014", 
   "retweet_count": 9, 
   "favorite_count": 25
  }, 
  {
   "text": "Hey @AmericanExpress Card Members, grab last minute tix to #NJDvsBOS at @PruCenter! Expires Sunday at 1:30p EST! Info http://t.co/doSBzCs7Fu", 
   "label": "O", 
   "id": 454718348459532288, 
   "hashtags": [
    "NJDvsBOS"
   ], 
   "user_mentions": [
    "AmericanExpress", 
    "PruCenter"
   ], 
   "created_at": "Fri Apr 11 20:31:17 +0000 2014", 
   "retweet_count": 7, 
   "favorite_count": 18
  }, 
  {
   "text": "RT to WIN the FINAL Ultimate Fan Pack featuring no. 30, Martin Brodeur! #NJDevils http://t.co/VQKyFnmI96", 
   "label": "O", 
   "id": 454714153723518976, 
   "hashtags": [
    "NJDevils"
   ], 
   "user_mentions": [], 
   "created_at": "Fri Apr 11 20:14:37 +0000 2014", 
   "retweet_count": 1857, 
   "favorite_count": 274
  }, 
  {
   "text": "Which #NJDevils player do you want featured in the final Ultimate Fan Pack?", 
   "label": "O", 
   "id": 454712925979435010, 
   "hashtags": [
    "NJDevils"
   ], 
   "user_mentions": [], 
   "created_at": "Fri Apr 11 20:09:44 +0000 2014", 
   "retweet_count": 27, 
   "favorite_count": 50
  }, 
  {
   "text": "Only one #NJDevils Ultimate Fan Pack left! Who wants it?", 
   "label": "O", 
   "id": 454711539212500992, 
   "hashtags": [
    "NJDevils"
   ], 
   "user_mentions": [], 
   "created_at": "Fri Apr 11 20:04:13 +0000 2014", 
   "retweet_count": 158, 
   "favorite_count": 164
  }, 
  {
   "text": "The winner of the Andy Greene Ultimate Fan Prize pack goes to @MrsGinaTaylor! Congratulations!", 
   "label": "O", 
   "id": 454711267471548416, 
   "hashtags": [], 
   "user_mentions": [
    "MrsGinaTaylor"
   ], 
   "created_at": "Fri Apr 11 20:03:08 +0000 2014", 
   "retweet_count": 3, 
   "favorite_count": 19
  }, 
  {
   "text": "#DevilsFacts: #NJDevils enter tonight\u2019s contest against the Isles with a 16-9-4 record vs. the Metropolitan Division, 9-5-1 at @PruCenter.", 
   "label": "O", 
   "id": 454709912472657920, 
   "hashtags": [
    "DevilsFacts", 
    "NJDevils"
   ], 
   "user_mentions": [
    "PruCenter"
   ], 
   "created_at": "Fri Apr 11 19:57:45 +0000 2014", 
   "retweet_count": 5, 
   "favorite_count": 20
  }, 
  {
   "text": "RT @NJDevil00: I love #NJDevils Fan Appreciation Week! Great fun and giveaways for the greatest fans! Pumped to see all my friends at @PruC\u2026", 
   "label": "O", 
   "id": 454701813007405058, 
   "hashtags": [
    "NJDevils"
   ], 
   "user_mentions": [
    "NJDevil00", 
    "PruCenter"
   ], 
   "created_at": "Fri Apr 11 19:25:34 +0000 2014", 
   "retweet_count": 27, 
   "favorite_count": 0
  }, 
  {
   "text": "RT to WIN the next Ultimate Fan Pack featuring the 2013-14 #NJDevils Unsung Hero award winner, Andy Greene! http://t.co/TzprZpS15g", 
   "label": "O", 
   "id": 454699701426987008, 
   "hashtags": [
    "NJDevils"
   ], 
   "user_mentions": [], 
   "created_at": "Fri Apr 11 19:17:11 +0000 2014", 
   "retweet_count": 976, 
   "favorite_count": 106
  }, 
  {
   "text": "Hey @brennaclowney... YOU WON! DM us to claim your Travis Zajac Ultimate Fan Pack!", 
   "label": "O", 
   "id": 454697539007434752, 
   "hashtags": [], 
   "user_mentions": [
    "BrennaClowney"
   ], 
   "created_at": "Fri Apr 11 19:08:35 +0000 2014", 
   "retweet_count": 6, 
   "favorite_count": 24
  }, 
  {
   "text": "Fan Fest today! Come out to Championship Plaza at 5p for music, food, fun and more before #NJDvsNYI at 7:30p!", 
   "label": "O", 
   "id": 454691820480786432, 
   "hashtags": [
    "NJDvsNYI"
   ], 
   "user_mentions": [], 
   "created_at": "Fri Apr 11 18:45:52 +0000 2014", 
   "retweet_count": 16, 
   "favorite_count": 34
  }, 
  {
   "text": "RT to WIN the Travis Zajac Ultimate Fan Pack and autographed puck in honor of #NJDevils Fan Appreciation Week! http://t.co/LMA5vSIfMe", 
   "label": "O", 
   "id": 454683057354973184, 
   "hashtags": [
    "NJDevils"
   ], 
   "user_mentions": [], 
   "created_at": "Fri Apr 11 18:11:03 +0000 2014", 
   "retweet_count": 1169, 
   "favorite_count": 141
  }, 
  {
   "text": "The Bryce Salvador Ultimate Fan Pack goes to @Jmac97l! Congrats! DM us your info. so we can ship you your prize.", 
   "label": "O", 
   "id": 454681305511653376, 
   "hashtags": [], 
   "user_mentions": [
    "Jmac97l"
   ], 
   "created_at": "Fri Apr 11 18:04:05 +0000 2014", 
   "retweet_count": 9, 
   "favorite_count": 16
  }, 
  {
   "text": "#NJDevils open the final homestand of the season when the Islanders visit @PruCenter tonight at 7:30p! Preview: http://t.co/omE4uzBYDg", 
   "label": "O", 
   "id": 454676724861923328, 
   "hashtags": [
    "NJDevils"
   ], 
   "user_mentions": [
    "PruCenter"
   ], 
   "created_at": "Fri Apr 11 17:45:53 +0000 2014", 
   "retweet_count": 11, 
   "favorite_count": 26
  }, 
  {
   "text": "@Bren_Hennessy Funny you should mention that...", 
   "label": "O", 
   "id": 454670830153531392, 
   "hashtags": [], 
   "user_mentions": [
    "Bren_Hennessy"
   ], 
   "created_at": "Fri Apr 11 17:22:27 +0000 2014", 
   "retweet_count": 3, 
   "favorite_count": 14
  }, 
  {
   "text": "RT to WIN a Bryce Salvador Ultimate Fan Pack feat.  signed pucks by Salvador &amp; @NJDevil00, plus more #NJDevils merch! http://t.co/YETinyxJ9P", 
   "label": "O", 
   "id": 454669884497362944, 
   "hashtags": [
    "NJDevils"
   ], 
   "user_mentions": [
    "NJDevil00"
   ], 
   "created_at": "Fri Apr 11 17:18:42 +0000 2014", 
   "retweet_count": 615, 
   "favorite_count": 64
  }, 
  {
   "text": "Congratulations to @mattdonders on winning the Patrik Elias Ultimate Fan Prize Pack! Stay tuned for the next giveaway!", 
   "label": "O", 
   "id": 454667911475773440, 
   "hashtags": [], 
   "user_mentions": [
    "mattdonders"
   ], 
   "created_at": "Fri Apr 11 17:10:52 +0000 2014", 
   "retweet_count": 6, 
   "favorite_count": 22
  }, 
  {
   "text": "RT to win the Patrik Elias Ultimate Fan Prize Pack! #NJDevils http://t.co/WbHgw4dAv7", 
   "label": "O", 
   "id": 454652135339479040, 
   "hashtags": [
    "NJDevils"
   ], 
   "user_mentions": [], 
   "created_at": "Fri Apr 11 16:08:10 +0000 2014", 
   "retweet_count": 1124, 
   "favorite_count": 128
  }, 
  {
   "text": "The first Ultimate Fan Pack includes a #NJDevils t-shirt &amp; hat, Patrik Elias poster &amp; autographed pucks by Elias and @NJDevil00!", 
   "label": "O", 
   "id": 454650003831922688, 
   "hashtags": [
    "NJDevils"
   ], 
   "user_mentions": [
    "NJDevil00"
   ], 
   "created_at": "Fri Apr 11 15:59:42 +0000 2014", 
   "retweet_count": 79, 
   "favorite_count": 78
  }, 
  {
   "text": "In honor of Fan Appreciation Week, the #NJDevils are giving away five Ultimate Fan Packs today! Stay tuned for info! http://t.co/VjlLvGiUxR", 
   "label": "O", 
   "id": 454645474306166784, 
   "hashtags": [
    "NJDevils"
   ], 
   "user_mentions": [], 
   "created_at": "Fri Apr 11 15:41:42 +0000 2014", 
   "retweet_count": 68, 
   "favorite_count": 109
  }, 
  {
   "text": "@ckynus DM us your contact info. We have STH's who are looking for share partners for 2014-15. A Fan Experience rep. will reach out to you.", 
   "label": "O", 
   "id": 454634697470267392, 
   "hashtags": [], 
   "user_mentions": [
    "ckynus"
   ], 
   "created_at": "Fri Apr 11 14:58:53 +0000 2014", 
   "retweet_count": 1, 
   "favorite_count": 3
  }, 
  {
   "text": "#FactFriday! Cory Schneider, who's allowed two goals or less in seven straight starts, has a 1.16 GAA &amp; .952 save-% over that stretch.", 
   "label": "O", 
   "id": 454632434555170816, 
   "hashtags": [
    "FactFriday"
   ], 
   "user_mentions": [], 
   "created_at": "Fri Apr 11 14:49:53 +0000 2014", 
   "retweet_count": 21, 
   "favorite_count": 27
  }, 
  {
   "text": "LAST CHANCE! @AmericanExpress Card Members, grab last minute tix to #NJDvsNYI at @PruCenter! Expires 5:30p EST! Info: http://t.co/Sh63xid8IJ", 
   "label": "O", 
   "id": 454616183644618752, 
   "hashtags": [
    "NJDvsNYI"
   ], 
   "user_mentions": [
    "AmericanExpress", 
    "PruCenter"
   ], 
   "created_at": "Fri Apr 11 13:45:19 +0000 2014", 
   "retweet_count": 3, 
   "favorite_count": 7
  }, 
  {
   "text": "RT @kurtsiegelin: . @NHLDevils finish up the season with home games tonight vs. @NYIslanders &amp; then Sunday vs. @NHLBruins. #FanAppreciation\u2026", 
   "label": "O", 
   "id": 454598138058506240, 
   "hashtags": [
    "FanAppreciationWeek", 
    "njmorningshow"
   ], 
   "user_mentions": [
    "kurtsiegelin", 
    "NHLDevils", 
    "NYIslanders", 
    "NHLBruins"
   ], 
   "created_at": "Fri Apr 11 12:33:36 +0000 2014", 
   "retweet_count": 6, 
   "favorite_count": 0
  }, 
  {
   "text": "Tune in to @News12NJ as #NJDevils President @hughweber1 is ready to go on air with @kurtsiegelin! http://t.co/jAJv5FZiLm", 
   "label": "O", 
   "id": 454594475751653376, 
   "hashtags": [
    "NJDevils"
   ], 
   "user_mentions": [
    "News12NJ", 
    "hughweber1", 
    "kurtsiegelin"
   ], 
   "created_at": "Fri Apr 11 12:19:03 +0000 2014", 
   "retweet_count": 3, 
   "favorite_count": 12
  }, 
  {
   "text": "Missed @NJDevil00 this a.m.? Tune in to @News12NJ to see him thank #NJDevils fans in honor of Fan Appreciation Week! http://t.co/4VcvMM5pXA", 
   "label": "O", 
   "id": 454593687474155520, 
   "hashtags": [
    "NJDevils"
   ], 
   "user_mentions": [
    "NJDevil00", 
    "News12NJ"
   ], 
   "created_at": "Fri Apr 11 12:15:55 +0000 2014", 
   "retweet_count": 38, 
   "favorite_count": 101
  }, 
  {
   "text": "Making your morning commute? Stop by and see members of the #NJDevils staff in Newark Penn Station! http://t.co/2KwxOHdfs3", 
   "label": "O", 
   "id": 454592705797304320, 
   "hashtags": [
    "NJDevils"
   ], 
   "user_mentions": [], 
   "created_at": "Fri Apr 11 12:12:01 +0000 2014", 
   "retweet_count": 21, 
   "favorite_count": 55
  }, 
  {
   "text": "RT @CarissaLawson: What a devlish sight this morning on GSP! RT @NHLDevils: @NJDevil00 posted by 129 on the GSP! http://t.co/gvfp9enKPc #nj\u2026", 
   "label": "O", 
   "id": 454592033794322433, 
   "hashtags": [
    "njmorningshow"
   ], 
   "user_mentions": [
    "CarissaLawson", 
    "NHLDevils", 
    "NJDevil00"
   ], 
   "created_at": "Fri Apr 11 12:09:21 +0000 2014", 
   "retweet_count": 18, 
   "favorite_count": 0
  }, 
  {
   "text": ".@NJDevil00 is posted by exit 129 on the parkway! Honk if you see him! http://t.co/3JTATRvssW", 
   "label": "O", 
   "id": 454588129513857025, 
   "hashtags": [], 
   "user_mentions": [
    "NJDevil00"
   ], 
   "created_at": "Fri Apr 11 11:53:50 +0000 2014", 
   "retweet_count": 64, 
   "favorite_count": 134
  }, 
  {
   "text": "RT @NJDevil00: Thanking #NJDevils fans on their way to work is the best way to start my Friday! Honk if you see! #FanAppreciationWeek", 
   "label": "O", 
   "id": 454583892633456641, 
   "hashtags": [
    "NJDevils", 
    "FanAppreciationWeek"
   ], 
   "user_mentions": [
    "NJDevil00"
   ], 
   "created_at": "Fri Apr 11 11:37:00 +0000 2014", 
   "retweet_count": 8, 
   "favorite_count": 0
  }, 
  {
   "text": "Heading north on the parkway? Keep your eyes out for @NJDevil00 as he continues thanking #NJDevils supporters during Fan Appreciation Week!", 
   "label": "O", 
   "id": 454582839447916545, 
   "hashtags": [
    "NJDevils"
   ], 
   "user_mentions": [
    "NJDevil00"
   ], 
   "created_at": "Fri Apr 11 11:32:49 +0000 2014", 
   "retweet_count": 6, 
   "favorite_count": 20
  }
 ]
}