{
 "num_road_team_goals": "2", 
 "home_team": "Buffalo Sabres", 
 "num_home_team_goals": "3", 
 "summary_url": "http://www.flyershistory.com/cgi-bin/poboxscore.cgi?H20131129", 
 "result": "L (SO)", 
 "road_team": "New Jersey Devils", 
 "date": "2014-04-01", 
 "goals": [
  {
   "season_index": "11", 
   "strength": "(EV)", 
   "time": "8:16", 
   "period": "2", 
   "player": "D.Zubrus", 
   "assists": "(M.Ryder, D.Brunner)", 
   "game_index": "1", 
   "team": "N.J"
  }, 
  {
   "season_index": "20", 
   "strength": "(EV)", 
   "time": "1:39", 
   "period": "3", 
   "player": "T.Ennis", 
   "assists": "(V.Leino, D.Stafford)", 
   "game_index": "2", 
   "team": "BUF"
  }, 
  {
   "season_index": "21", 
   "strength": "(PP)", 
   "time": "4:41", 
   "period": "3", 
   "player": "T.Ennis", 
   "assists": "(C.Hodgson, D.Stafford)", 
   "game_index": "3", 
   "team": "BUF"
  }, 
  {
   "season_index": "7", 
   "strength": "(PP)", 
   "time": "6:58", 
   "period": "3", 
   "player": "T.Ruutu", 
   "assists": "(A.Greene, M.Zidlicky)", 
   "game_index": "4", 
   "team": "N.J"
  }
 ], 
 "tweets": [
  {
   "text": "#NJDevils pick up one point in the shootout loss. #NJDvsBUF", 
   "label": "O", 
   "id": 451176629482815488, 
   "hashtags": [
    "NJDevils", 
    "NJDvsBUF"
   ], 
   "user_mentions": [], 
   "created_at": "Wed Apr 02 01:57:45 +0000 2014", 
   "retweet_count": 13, 
   "favorite_count": 22
  }, 
  {
   "text": "Sislo's attempt is denied by Lieuwen as the #NJDevils fall to Buffalo 3-2 in a shootout. #NJDvsBUF", 
   "label": "O", 
   "id": 451176531386454016, 
   "hashtags": [
    "NJDevils", 
    "NJDvsBUF"
   ], 
   "user_mentions": [], 
   "created_at": "Wed Apr 02 01:57:22 +0000 2014", 
   "retweet_count": 15, 
   "favorite_count": 6
  }, 
  {
   "text": "Leino scores in the 9th round of the shootout. Sislo will shoot for #JerseysTeam. #NJDvsBUF", 
   "label": "O", 
   "id": 451176271851323393, 
   "hashtags": [
    "JerseysTeam", 
    "NJDvsBUF"
   ], 
   "user_mentions": [], 
   "created_at": "Wed Apr 02 01:56:20 +0000 2014", 
   "retweet_count": 8, 
   "favorite_count": 9
  }, 
  {
   "text": "Henrique's backhand try goes wide of the net. #NJDvsBUF", 
   "label": "O", 
   "id": 451176085301235712, 
   "hashtags": [
    "NJDvsBUF"
   ], 
   "user_mentions": [], 
   "created_at": "Wed Apr 02 01:55:35 +0000 2014", 
   "retweet_count": 5, 
   "favorite_count": 10
  }, 
  {
   "text": "Schneider makes the glove save on D'Agostini's shot in the 8th round of the SO. #NJDvsBUF", 
   "label": "O", 
   "id": 451175984763777024, 
   "hashtags": [
    "NJDvsBUF"
   ], 
   "user_mentions": [], 
   "created_at": "Wed Apr 02 01:55:11 +0000 2014", 
   "retweet_count": 7, 
   "favorite_count": 16
  }, 
  {
   "text": "Flynn's shot is denied by a Schneider kick save. Elias' attempt is stopped by Lieuwen. #NJDvsBUF", 
   "label": "O", 
   "id": 451175886403141632, 
   "hashtags": [
    "NJDvsBUF"
   ], 
   "user_mentions": [], 
   "created_at": "Wed Apr 02 01:54:48 +0000 2014", 
   "retweet_count": 6, 
   "favorite_count": 13
  }, 
  {
   "text": "Ruutu's attempt can't find the back of the net. On to the 7th round of the shootout. #NJDvsBUF", 
   "label": "O", 
   "id": 451175686901080064, 
   "hashtags": [
    "NJDvsBUF"
   ], 
   "user_mentions": [], 
   "created_at": "Wed Apr 02 01:54:00 +0000 2014", 
   "retweet_count": 7, 
   "favorite_count": 12
  }, 
  {
   "text": "Pad save by Schneider on Conacher. Ruutu up next. #NJDvsBUF", 
   "label": "O", 
   "id": 451175535964848129, 
   "hashtags": [
    "NJDvsBUF"
   ], 
   "user_mentions": [], 
   "created_at": "Wed Apr 02 01:53:24 +0000 2014", 
   "retweet_count": 5, 
   "favorite_count": 21
  }, 
  {
   "text": "Zajac's try goes off the post! #NJDvsBUF", 
   "label": "O", 
   "id": 451175419652628480, 
   "hashtags": [
    "NJDvsBUF"
   ], 
   "user_mentions": [], 
   "created_at": "Wed Apr 02 01:52:57 +0000 2014", 
   "retweet_count": 6, 
   "favorite_count": 17
  }, 
  {
   "text": "Foligno's shootout attempt flies wide of the net. Zajac up next for #NJDevils. #NJDvsBUF", 
   "label": "O", 
   "id": 451175328594280449, 
   "hashtags": [
    "NJDevils", 
    "NJDvsBUF"
   ], 
   "user_mentions": [], 
   "created_at": "Wed Apr 02 01:52:35 +0000 2014", 
   "retweet_count": 6, 
   "favorite_count": 16
  }, 
  {
   "text": "Jagr keeps it alive! 2-2 in the SO! #NJDvsBUF", 
   "label": "O", 
   "id": 451175167277154304, 
   "hashtags": [
    "NJDvsBUF"
   ], 
   "user_mentions": [], 
   "created_at": "Wed Apr 02 01:51:56 +0000 2014", 
   "retweet_count": 46, 
   "favorite_count": 59
  }, 
  {
   "text": "Stafford beats Schneider giving the Sabres a 2-1 lead in the shootout. Jagr will go next. #NJDvsBUF", 
   "label": "O", 
   "id": 451175067339476992, 
   "hashtags": [
    "NJDvsBUF"
   ], 
   "user_mentions": [], 
   "created_at": "Wed Apr 02 01:51:33 +0000 2014", 
   "retweet_count": 3, 
   "favorite_count": 12
  }, 
  {
   "text": "Zidlicky is denied by Lieuwen as we head to the fourth round of the shootout. #NJDvsBUF", 
   "label": "O", 
   "id": 451174954944716800, 
   "hashtags": [
    "NJDvsBUF"
   ], 
   "user_mentions": [], 
   "created_at": "Wed Apr 02 01:51:06 +0000 2014", 
   "retweet_count": 2, 
   "favorite_count": 8
  }, 
  {
   "text": "Girgensons is denied by a great kick save by Schneider! #NJDvsBUF", 
   "label": "O", 
   "id": 451174818046832641, 
   "hashtags": [
    "NJDvsBUF"
   ], 
   "user_mentions": [], 
   "created_at": "Wed Apr 02 01:50:33 +0000 2014", 
   "retweet_count": 7, 
   "favorite_count": 21
  }, 
  {
   "text": "Brunner's backhand try is stopped by Lieuwen. #NJDvsBUF", 
   "label": "O", 
   "id": 451174677244018688, 
   "hashtags": [
    "NJDvsBUF"
   ], 
   "user_mentions": [], 
   "created_at": "Wed Apr 02 01:50:00 +0000 2014", 
   "retweet_count": 2, 
   "favorite_count": 9
  }, 
  {
   "text": "Hodgson shot is snagged out of the air by Schneider! Brunner will shoot next. #NJDvsBUF", 
   "label": "O", 
   "id": 451174585611067392, 
   "hashtags": [
    "NJDvsBUF"
   ], 
   "user_mentions": [], 
   "created_at": "Wed Apr 02 01:49:38 +0000 2014", 
   "retweet_count": 5, 
   "favorite_count": 15
  }, 
  {
   "text": "Josefson ties the shootout 1-1! #NJDvsBUF", 
   "label": "O", 
   "id": 451174442627248128, 
   "hashtags": [
    "NJDvsBUF"
   ], 
   "user_mentions": [], 
   "created_at": "Wed Apr 02 01:49:04 +0000 2014", 
   "retweet_count": 24, 
   "favorite_count": 59
  }, 
  {
   "text": "Ennis beats Schneider in the first shootout try. 1-0 #NJDvsBUF", 
   "label": "O", 
   "id": 451174328160485378, 
   "hashtags": [
    "NJDvsBUF"
   ], 
   "user_mentions": [], 
   "created_at": "Wed Apr 02 01:48:36 +0000 2014", 
   "retweet_count": 2, 
   "favorite_count": 9
  }, 
  {
   "text": "#LetsGoDevils!", 
   "label": "O", 
   "id": 451173227596120064, 
   "hashtags": [
    "LetsGoDevils"
   ], 
   "user_mentions": [], 
   "created_at": "Wed Apr 02 01:44:14 +0000 2014", 
   "retweet_count": 81, 
   "favorite_count": 68
  }, 
  {
   "text": "The horn sounds and #NJDvsBUF will be decided in a shootout. #NJDvsBUF", 
   "label": "O", 
   "id": 451173133366853632, 
   "hashtags": [
    "NJDvsBUF", 
    "NJDvsBUF"
   ], 
   "user_mentions": [], 
   "created_at": "Wed Apr 02 01:43:52 +0000 2014", 
   "retweet_count": 17, 
   "favorite_count": 23
  }, 
  {
   "text": "Backhand Gelinas try is denied by Lieuwen! Gelinas' scoring chance comes with 1:02 left in OT. #NJDvsBUF", 
   "label": "O", 
   "id": 451172875354255360, 
   "hashtags": [
    "NJDvsBUF"
   ], 
   "user_mentions": [], 
   "created_at": "Wed Apr 02 01:42:50 +0000 2014", 
   "retweet_count": 0, 
   "favorite_count": 11
  }, 
  {
   "text": "Buffalo calls a timeout with 2:40 left in OT. #NJDvsBUF", 
   "label": "O", 
   "id": 451172012661440512, 
   "hashtags": [
    "NJDvsBUF"
   ], 
   "user_mentions": [], 
   "created_at": "Wed Apr 02 01:39:24 +0000 2014", 
   "retweet_count": 0, 
   "favorite_count": 18
  }, 
  {
   "text": "Overtime is underway! #LetsGoDevils! #NJDvsBUF", 
   "label": "O", 
   "id": 451171235159113728, 
   "hashtags": [
    "LetsGoDevils", 
    "NJDvsBUF"
   ], 
   "user_mentions": [], 
   "created_at": "Wed Apr 02 01:36:19 +0000 2014", 
   "retweet_count": 17, 
   "favorite_count": 28
  }, 
  {
   "text": "The third period comes to an end as a winner is yet to be decided. #NJDvsBUF is headed to OT!", 
   "label": "O", 
   "id": 451170931151757312, 
   "hashtags": [
    "NJDvsBUF"
   ], 
   "user_mentions": [], 
   "created_at": "Wed Apr 02 01:35:07 +0000 2014", 
   "retweet_count": 7, 
   "favorite_count": 21
  }, 
  {
   "text": "One minute remains in regulation. #NJDvsBUF", 
   "label": "O", 
   "id": 451170286608867328, 
   "hashtags": [
    "NJDvsBUF"
   ], 
   "user_mentions": [], 
   "created_at": "Wed Apr 02 01:32:33 +0000 2014", 
   "retweet_count": 2, 
   "favorite_count": 12
  }, 
  {
   "text": "RT @DEVIN88MATTERA: Thank you so much @hughweber1 , President of the @NHLDevils for the picture with a handful of us fans! http://t.co/BLoQ\u2026", 
   "label": "O", 
   "id": 451168952090378240, 
   "hashtags": [], 
   "user_mentions": [
    "DEVIN88MATTERA", 
    "hughweber1", 
    "NHLDevils"
   ], 
   "created_at": "Wed Apr 02 01:27:15 +0000 2014", 
   "retweet_count": 6, 
   "favorite_count": 0
  }, 
  {
   "text": "Penalty time is up as #NJDevils are back to full strength. #NJDvsBUF", 
   "label": "O", 
   "id": 451168267626110976, 
   "hashtags": [
    "NJDevils", 
    "NJDvsBUF"
   ], 
   "user_mentions": [], 
   "created_at": "Wed Apr 02 01:24:31 +0000 2014", 
   "retweet_count": 2, 
   "favorite_count": 16
  }, 
  {
   "text": "Jacob Josefson is called for boarding at 12:18. The #NJDevils will go on the PK for the third time tonight. #NJDvsBUF", 
   "label": "O", 
   "id": 451167737981960192, 
   "hashtags": [
    "NJDevils", 
    "NJDvsBUF"
   ], 
   "user_mentions": [], 
   "created_at": "Wed Apr 02 01:22:25 +0000 2014", 
   "retweet_count": 1, 
   "favorite_count": 10
  }, 
  {
   "text": "Midway through the thirf period the #NJDevils and Sabres are tied, 2-2. Shots are 28-18 in favor of #JerseysTeam. #NJDvsBUF", 
   "label": "O", 
   "id": 451166131479658496, 
   "hashtags": [
    "NJDevils", 
    "JerseysTeam", 
    "NJDvsBUF"
   ], 
   "user_mentions": [], 
   "created_at": "Wed Apr 02 01:16:02 +0000 2014", 
   "retweet_count": 10, 
   "favorite_count": 18
  }, 
  {
   "text": "Stat Correction: Tuomo Ruutu is credited with the game-tying goal. Greene and Zidlicky pick up the helpers at 6:58. #NJDvsBUF", 
   "label": "O", 
   "id": 451165566926331904, 
   "hashtags": [
    "NJDvsBUF"
   ], 
   "user_mentions": [], 
   "created_at": "Wed Apr 02 01:13:48 +0000 2014", 
   "retweet_count": 22, 
   "favorite_count": 30
  }, 
  {
   "text": "PPG! Andy Greene blasts the puck past Lieuwen, tying the game for the #NJDevils! #NJDvsBUF", 
   "label": "O", 
   "id": 451164626194296832, 
   "hashtags": [
    "NJDevils", 
    "NJDvsBUF"
   ], 
   "user_mentions": [], 
   "created_at": "Wed Apr 02 01:10:03 +0000 2014", 
   "retweet_count": 50, 
   "favorite_count": 58
  }, 
  {
   "text": "#NJDevils will go on the PP at 7:35 in the 3rd period. Leino will serve a holding penalty. #NJDvsBUF", 
   "label": "O", 
   "id": 451164250741161984, 
   "hashtags": [
    "NJDevils", 
    "NJDvsBUF"
   ], 
   "user_mentions": [], 
   "created_at": "Wed Apr 02 01:08:34 +0000 2014", 
   "retweet_count": 2, 
   "favorite_count": 15
  }, 
  {
   "text": "Ennis scores his second goal of the night. This time on the PP with 15:19 left in regulation. Sabres lead 2-1. #NJDvsBUF", 
   "label": "O", 
   "id": 451162793556078592, 
   "hashtags": [
    "NJDvsBUF"
   ], 
   "user_mentions": [], 
   "created_at": "Wed Apr 02 01:02:46 +0000 2014", 
   "retweet_count": 3, 
   "favorite_count": 8
  }, 
  {
   "text": "#NJDevils will go on the PK for the second time tonight as Bernier is sent to the box for high-sticking at 3:32. #NJDvsBUF", 
   "label": "O", 
   "id": 451162280991137792, 
   "hashtags": [
    "NJDevils", 
    "NJDvsBUF"
   ], 
   "user_mentions": [], 
   "created_at": "Wed Apr 02 01:00:44 +0000 2014", 
   "retweet_count": 3, 
   "favorite_count": 8
  }, 
  {
   "text": "Ennis beats Schneider at 1:39, tying the game 1-1. #NJDvsBUF", 
   "label": "O", 
   "id": 451161581779714048, 
   "hashtags": [
    "NJDvsBUF"
   ], 
   "user_mentions": [], 
   "created_at": "Wed Apr 02 00:57:57 +0000 2014", 
   "retweet_count": 2, 
   "favorite_count": 6
  }, 
  {
   "text": "The third period is underway as the #NJDevils look to protect their one goal lead. #NJDvsBUF", 
   "label": "O", 
   "id": 451160925165604865, 
   "hashtags": [
    "NJDevils", 
    "NJDvsBUF"
   ], 
   "user_mentions": [], 
   "created_at": "Wed Apr 02 00:55:21 +0000 2014", 
   "retweet_count": 5, 
   "favorite_count": 16
  }, 
  {
   "text": "#NJDevils fans celebrate the 1-0 lead with @KenDaneykoMSG at the @DinosaurBQ Viewing Party in Newark, NJ! #NJDvsBUF http://t.co/PYKFc3DjLD", 
   "label": "O", 
   "id": 451159071597813760, 
   "hashtags": [
    "NJDevils", 
    "NJDvsBUF"
   ], 
   "user_mentions": [
    "KenDaneykoMSG", 
    "DinosaurBQ"
   ], 
   "created_at": "Wed Apr 02 00:47:59 +0000 2014", 
   "retweet_count": 10, 
   "favorite_count": 29
  }, 
  {
   "text": "What has impressed you the most through the first 40 minutes of play? #NJDvsBUF", 
   "label": "O", 
   "id": 451157224078200835, 
   "hashtags": [
    "NJDvsBUF"
   ], 
   "user_mentions": [], 
   "created_at": "Wed Apr 02 00:40:38 +0000 2014", 
   "retweet_count": 3, 
   "favorite_count": 12
  }, 
  {
   "text": "The second period comes to an end as the #NJDevils lead the Sabres 1-0. #JerseysTeam outshot Buffalo 11-4 in the second frame. #NJDvsBUF", 
   "label": "O", 
   "id": 451156354326347777, 
   "hashtags": [
    "NJDevils", 
    "JerseysTeam", 
    "NJDvsBUF"
   ], 
   "user_mentions": [], 
   "created_at": "Wed Apr 02 00:37:11 +0000 2014", 
   "retweet_count": 11, 
   "favorite_count": 25
  }, 
  {
   "text": "One minute remains in the second period. #NJDvsBUF", 
   "label": "O", 
   "id": 451155739793711107, 
   "hashtags": [
    "NJDvsBUF"
   ], 
   "user_mentions": [], 
   "created_at": "Wed Apr 02 00:34:45 +0000 2014", 
   "retweet_count": 3, 
   "favorite_count": 15
  }, 
  {
   "text": "#NJDevils leas Buffalo in SOG 16-11 with 6:07 left in the second period. Zubrus has the lone goal and leads the team with 3 hits. #NJDvsBUF", 
   "label": "O", 
   "id": 451153172107911168, 
   "hashtags": [
    "NJDevils", 
    "NJDvsBUF"
   ], 
   "user_mentions": [], 
   "created_at": "Wed Apr 02 00:24:32 +0000 2014", 
   "retweet_count": 5, 
   "favorite_count": 19
  }, 
  {
   "text": "Credit Michael Ryder and Damien Brunner with the assists on Zubrus' 11th of the season at 8:16. #NJDvsBUF", 
   "label": "O", 
   "id": 451151281588277248, 
   "hashtags": [
    "NJDvsBUF"
   ], 
   "user_mentions": [], 
   "created_at": "Wed Apr 02 00:17:02 +0000 2014", 
   "retweet_count": 6, 
   "favorite_count": 24
  }, 
  {
   "text": "GOAL! Dainius Zubrus jams the puck home as the #NJDevils grab a 1-0 lead over the Sabres! #NJDvsBUF", 
   "label": "O", 
   "id": 451150846638977024, 
   "hashtags": [
    "NJDevils", 
    "NJDvsBUF"
   ], 
   "user_mentions": [], 
   "created_at": "Wed Apr 02 00:15:18 +0000 2014", 
   "retweet_count": 83, 
   "favorite_count": 110
  }, 
  {
   "text": "The puck has dropped as the #NJDevils will look to take the lead in the second period. #NJDvsBUF", 
   "label": "O", 
   "id": 451147625266692096, 
   "hashtags": [
    "NJDevils", 
    "NJDvsBUF"
   ], 
   "user_mentions": [], 
   "created_at": "Wed Apr 02 00:02:30 +0000 2014", 
   "retweet_count": 9, 
   "favorite_count": 28
  }, 
  {
   "text": "Jagr and Sislo led the team with 2 shots during the first period. #NJDvsBUF", 
   "label": "O", 
   "id": 451145084504121344, 
   "hashtags": [
    "NJDvsBUF"
   ], 
   "user_mentions": [], 
   "created_at": "Tue Apr 01 23:52:24 +0000 2014", 
   "retweet_count": 3, 
   "favorite_count": 19
  }, 
  {
   "text": "@JohnBetz Some April Fools' jokes go too far...", 
   "label": "O", 
   "id": 451144655263248384, 
   "hashtags": [], 
   "user_mentions": [
    "JohnBetz"
   ], 
   "created_at": "Tue Apr 01 23:50:42 +0000 2014", 
   "retweet_count": 7, 
   "favorite_count": 20
  }, 
  {
   "text": "@kim_vanorman Always a member of #JerseysTeam!  #LetsGoDevils", 
   "label": "O", 
   "id": 451144477550579713, 
   "hashtags": [
    "JerseysTeam", 
    "LetsGoDevils"
   ], 
   "user_mentions": [
    "kim_vanorman"
   ], 
   "created_at": "Tue Apr 01 23:49:59 +0000 2014", 
   "retweet_count": 1, 
   "favorite_count": 2
  }, 
  {
   "text": "No score after 20 minutes of play as #NJDevils and Sabres head to the first intermission. #NJDvsBUF", 
   "label": "O", 
   "id": 451143505008947200, 
   "hashtags": [
    "NJDevils", 
    "NJDvsBUF"
   ], 
   "user_mentions": [], 
   "created_at": "Tue Apr 01 23:46:08 +0000 2014", 
   "retweet_count": 2, 
   "favorite_count": 12
  }, 
  {
   "text": "One minute remains in the first period. #NJDvsBUF", 
   "label": "O", 
   "id": 451142776298942465, 
   "hashtags": [
    "NJDvsBUF"
   ], 
   "user_mentions": [], 
   "created_at": "Tue Apr 01 23:43:14 +0000 2014", 
   "retweet_count": 2, 
   "favorite_count": 14
  }, 
  {
   "text": "#NJDevils lead the Sabres 7-6 in SOG with 3 minutes remaining in the first period. #NJDvsBUF", 
   "label": "O", 
   "id": 451142027238191104, 
   "hashtags": [
    "NJDevils", 
    "NJDvsBUF"
   ], 
   "user_mentions": [], 
   "created_at": "Tue Apr 01 23:40:15 +0000 2014", 
   "retweet_count": 3, 
   "favorite_count": 15
  }, 
  {
   "text": "No damage is done on the #NJDevils PP as Flynn exits the box and we are back to 5-on-5 hockey. #NJDvsBUF", 
   "label": "O", 
   "id": 451138862560337920, 
   "hashtags": [
    "NJDevils", 
    "NJDvsBUF"
   ], 
   "user_mentions": [], 
   "created_at": "Tue Apr 01 23:27:41 +0000 2014", 
   "retweet_count": 2, 
   "favorite_count": 7
  }, 
  {
   "text": "Ruutu and Jagr getting good chances on the PP but can't find the back of the net. #NJDvsBUF", 
   "label": "O", 
   "id": 451138570829713408, 
   "hashtags": [
    "NJDvsBUF"
   ], 
   "user_mentions": [], 
   "created_at": "Tue Apr 01 23:26:31 +0000 2014", 
   "retweet_count": 3, 
   "favorite_count": 14
  }, 
  {
   "text": "#NJDevils will start their first PP of the game as Flynn is called for delay of game at 8:26. #NJDvsBUF", 
   "label": "O", 
   "id": 451138103617781760, 
   "hashtags": [
    "NJDevils", 
    "NJDvsBUF"
   ], 
   "user_mentions": [], 
   "created_at": "Tue Apr 01 23:24:40 +0000 2014", 
   "retweet_count": 1, 
   "favorite_count": 12
  }, 
  {
   "text": "Elias leaves the box as #JerseysTeam is back to full strength. #NJDvsBUF", 
   "label": "O", 
   "id": 451135326212595712, 
   "hashtags": [
    "JerseysTeam", 
    "NJDvsBUF"
   ], 
   "user_mentions": [], 
   "created_at": "Tue Apr 01 23:13:38 +0000 2014", 
   "retweet_count": 0, 
   "favorite_count": 13
  }, 
  {
   "text": "Elias is called for hooking at 1:35 as the #NJDevils PK see's its first action of the night. #NJDvsBUF", 
   "label": "O", 
   "id": 451134963967332353, 
   "hashtags": [
    "NJDevils", 
    "NJDvsBUF"
   ], 
   "user_mentions": [], 
   "created_at": "Tue Apr 01 23:12:11 +0000 2014", 
   "retweet_count": 0, 
   "favorite_count": 4
  }, 
  {
   "text": "Sislo opens up the game with a great scoring chance but is denied by Lieuwen. Sislo was recalled from @AlbanyDevils today. #NJDvsBUF", 
   "label": "O", 
   "id": 451134692205793280, 
   "hashtags": [
    "NJDvsBUF"
   ], 
   "user_mentions": [
    "AlbanyDevils"
   ], 
   "created_at": "Tue Apr 01 23:11:06 +0000 2014", 
   "retweet_count": 1, 
   "favorite_count": 9
  }, 
  {
   "text": "Zajac wins the draw as #NJDvsBUF gets underway! #LetsGoDevils! http://t.co/ZRVdbYleMD", 
   "label": "O", 
   "id": 451134359282913281, 
   "hashtags": [
    "NJDvsBUF", 
    "LetsGoDevils"
   ], 
   "user_mentions": [], 
   "created_at": "Tue Apr 01 23:09:47 +0000 2014", 
   "retweet_count": 19, 
   "favorite_count": 59
  }, 
  {
   "text": "RT @NJDevil00: Only minutes left to get your #NJDevilsGWG predictions in! Submit NOW for a chance to win a #JerseysTeam t-shirt!", 
   "label": "O", 
   "id": 451133373625671680, 
   "hashtags": [
    "NJDevilsGWG", 
    "JerseysTeam"
   ], 
   "user_mentions": [
    "NJDevil00"
   ], 
   "created_at": "Tue Apr 01 23:05:52 +0000 2014", 
   "retweet_count": 1, 
   "favorite_count": 0
  }, 
  {
   "text": "Starting for your #NJDevils tonight will be Ruutu-Zajac-Jagr, Greene-Fayne and Schneider! #NJDvsBUF", 
   "label": "O", 
   "id": 451133124878286848, 
   "hashtags": [
    "NJDevils", 
    "NJDvsBUF"
   ], 
   "user_mentions": [], 
   "created_at": "Tue Apr 01 23:04:53 +0000 2014", 
   "retweet_count": 10, 
   "favorite_count": 22
  }, 
  {
   "text": "Tonight's starting goaltender matchup features Cory Schneider vs. Nathan Lieuwen. #NJDvsBUF", 
   "label": "O", 
   "id": 451132829838348290, 
   "hashtags": [
    "NJDvsBUF"
   ], 
   "user_mentions": [], 
   "created_at": "Tue Apr 01 23:03:42 +0000 2014", 
   "retweet_count": 7, 
   "favorite_count": 22
  }, 
  {
   "text": "@tyjake46 #LetsGoDevils!", 
   "label": "O", 
   "id": 451131780528353280, 
   "hashtags": [
    "LetsGoDevils"
   ], 
   "user_mentions": [
    "tyjake46"
   ], 
   "created_at": "Tue Apr 01 22:59:32 +0000 2014", 
   "retweet_count": 0, 
   "favorite_count": 3
  }, 
  {
   "text": "#DevilsFacts: Cory Schneider, who stopped 13/13 shots in relief last night, is 1-1-0 vs. BUF this season with 0.98 GAA, .946 sv pct &amp; 1 SO.", 
   "label": "O", 
   "id": 451124572973436930, 
   "hashtags": [
    "DevilsFacts"
   ], 
   "user_mentions": [], 
   "created_at": "Tue Apr 01 22:30:54 +0000 2014", 
   "retweet_count": 9, 
   "favorite_count": 14
  }, 
  {
   "text": "Don't forget to stop by @DinosaurBQ in Newark for an official #NJDevils Viewing Party tonight for #NJDvsBUF at 7p! http://t.co/pxOdGlxaYQ", 
   "label": "O", 
   "id": 451120741791322112, 
   "hashtags": [
    "NJDevils", 
    "NJDvsBUF"
   ], 
   "user_mentions": [
    "DinosaurBQ"
   ], 
   "created_at": "Tue Apr 01 22:15:40 +0000 2014", 
   "retweet_count": 6, 
   "favorite_count": 24
  }, 
  {
   "text": "#DevilsFacts: With 17 power-play points, Eric Gelinas (5g-12a) is tied for the #NJDevils lead with Patrik Elias (4g-13a).", 
   "label": "O", 
   "id": 451117195582783488, 
   "hashtags": [
    "DevilsFacts", 
    "NJDevils"
   ], 
   "user_mentions": [], 
   "created_at": "Tue Apr 01 22:01:35 +0000 2014", 
   "retweet_count": 9, 
   "favorite_count": 18
  }, 
  {
   "text": "#DevilsFacts: #NJDevils leading scorer Jaromir Jagr (24g-40a) posted a season-high four-point (1g-3a) effort last night vs. Florida.", 
   "label": "O", 
   "id": 451102235062448130, 
   "hashtags": [
    "DevilsFacts", 
    "NJDevils"
   ], 
   "user_mentions": [], 
   "created_at": "Tue Apr 01 21:02:08 +0000 2014", 
   "retweet_count": 9, 
   "favorite_count": 21
  }, 
  {
   "text": "RT @NHLDevilsPR: #NJDevils have recalled forward Mike Sislo from @AlbanyDevils. Sislo has been assigned No. 9.", 
   "label": "O", 
   "id": 451102060696850432, 
   "hashtags": [
    "NJDevils"
   ], 
   "user_mentions": [
    "NHLDevilsPR", 
    "AlbanyDevils"
   ], 
   "created_at": "Tue Apr 01 21:01:27 +0000 2014", 
   "retweet_count": 11, 
   "favorite_count": 0
  }, 
  {
   "text": "RT @NJDevil00: Correct predictions of tonight's #NJDevilsGWG will give you the chance to win a #JerseysTeam t-shirt! http://t.co/4yDSdkiwyi\u2026", 
   "label": "O", 
   "id": 451101432016814082, 
   "hashtags": [
    "NJDevilsGWG", 
    "JerseysTeam", 
    "NJDvsBUF"
   ], 
   "user_mentions": [
    "NJDevil00"
   ], 
   "created_at": "Tue Apr 01 20:58:57 +0000 2014", 
   "retweet_count": 3, 
   "favorite_count": 0
  }, 
  {
   "text": "#CaptionThis! Share your creative captions for this infrared picture taken by @NHL photographer @Bruce_Bennett! http://t.co/zSa002aFh2", 
   "label": "O", 
   "id": 451094196875976705, 
   "hashtags": [
    "CaptionThis"
   ], 
   "user_mentions": [
    "NHL", 
    "Bruce_Bennett"
   ], 
   "created_at": "Tue Apr 01 20:30:12 +0000 2014", 
   "retweet_count": 7, 
   "favorite_count": 26
  }, 
  {
   "text": "#DevilsFacts: Travis Zajac's goal at 0:12 of the first period last night was the fastest by the #NJDevils to start a game/period this season", 
   "label": "O", 
   "id": 451087143767932928, 
   "hashtags": [
    "DevilsFacts", 
    "NJDevils"
   ], 
   "user_mentions": [], 
   "created_at": "Tue Apr 01 20:02:10 +0000 2014", 
   "retweet_count": 15, 
   "favorite_count": 48
  }, 
  {
   "text": "With points in four straight (2-0-2), the #NJDevils visit Buffalo tonight at 7p. The playoff push is on! Preview: http://t.co/rOg920bsC4", 
   "label": "O", 
   "id": 451067964205580289, 
   "hashtags": [
    "NJDevils"
   ], 
   "user_mentions": [], 
   "created_at": "Tue Apr 01 18:45:57 +0000 2014", 
   "retweet_count": 30, 
   "favorite_count": 55
  }, 
  {
   "text": "Come to @DinosaurBQ Viewing Party in Newark TONIGHT for #NJDvsBUF at 7p! Enjoy the game with @KenDaneykoMSG, @NJDevil00 &amp; @DevilsDancers!", 
   "label": "O", 
   "id": 451049162608762880, 
   "hashtags": [
    "NJDvsBUF"
   ], 
   "user_mentions": [
    "DinosaurBQ", 
    "KenDaneykoMSG", 
    "NJDevil00", 
    "DevilsDancers"
   ], 
   "created_at": "Tue Apr 01 17:31:15 +0000 2014", 
   "retweet_count": 5, 
   "favorite_count": 18
  }, 
  {
   "text": "VIDEO: Jaromir Jagr collected four points last night (1g-3a), including this perfectly placed top-shelf goal: http://t.co/NtCT1dAbce", 
   "label": "O", 
   "id": 451026257325854722, 
   "hashtags": [], 
   "user_mentions": [], 
   "created_at": "Tue Apr 01 16:00:14 +0000 2014", 
   "retweet_count": 15, 
   "favorite_count": 21
  }, 
  {
   "text": "RT @hughweber1: Send me your questions about the @NHLDevils or @PruCenter. I am hosting a Q&amp;A tomorrow at 3:30! Ask your questions using #A\u2026", 
   "label": "O", 
   "id": 451012570733084672, 
   "hashtags": [
    "AskMyDevs"
   ], 
   "user_mentions": [
    "hughweber1", 
    "NHLDevils", 
    "PruCenter"
   ], 
   "created_at": "Tue Apr 01 15:05:50 +0000 2014", 
   "retweet_count": 2, 
   "favorite_count": 0
  }, 
  {
   "text": "@Amandaaaxx2 Sounds like you gave a good speech!  Definitely had the right topic.", 
   "label": "O", 
   "id": 451006016944361472, 
   "hashtags": [], 
   "user_mentions": [
    "Amandaaaxx2"
   ], 
   "created_at": "Tue Apr 01 14:39:48 +0000 2014", 
   "retweet_count": 1, 
   "favorite_count": 3
  }, 
  {
   "text": "Trav Trick! Watch Travis Zajac notch his first career hat trick in last night's win over Florida: http://t.co/pL9JTYtzgv", 
   "label": "O", 
   "id": 451004937187889152, 
   "hashtags": [], 
   "user_mentions": [], 
   "created_at": "Tue Apr 01 14:35:30 +0000 2014", 
   "retweet_count": 33, 
   "favorite_count": 51
  }
 ]
}