{
 "num_road_team_goals": "1", 
 "home_team": "New Jersey Devils", 
 "num_home_team_goals": "0", 
 "summary_url": "http://www.flyershistory.com/cgi-bin/poboxscore.cgi?H20131177", 
 "result": "L", 
 "road_team": "Calgary Flames", 
 "date": "2014-04-07", 
 "goals": [
  {
   "season_index": "14", 
   "strength": "(PP)", 
   "time": "0:23", 
   "period": "3", 
   "player": "M.Giordano", 
   "assists": "(J.Hudler, M.Cammalleri)", 
   "game_index": "1", 
   "team": "CGY"
  }
 ], 
 "tweets": [
  {
   "text": "#NJDevils remain three points out of final wild card spot with three games to play following loss to Calgary. Recap: http://t.co/RKcoRnMkvM", 
   "label": "O", 
   "id": 453372585070592000, 
   "hashtags": [
    "NJDevils"
   ], 
   "user_mentions": [], 
   "created_at": "Tue Apr 08 03:23:42 +0000 2014", 
   "retweet_count": 18, 
   "favorite_count": 12
  }, 
  {
   "text": "VIDEO: Postgame reaction from Jaromir Jagr, Cory Schneider, Ryan Carter, Coach DeBoer http://t.co/1VfcwmsBV3 #NJDvsCGY #NJDevils", 
   "label": "O", 
   "id": 453371117273878528, 
   "hashtags": [
    "NJDvsCGY", 
    "NJDevils"
   ], 
   "user_mentions": [], 
   "created_at": "Tue Apr 08 03:17:52 +0000 2014", 
   "retweet_count": 3, 
   "favorite_count": 7
  }, 
  {
   "text": "Jagr: \"Just keep the faith and I think we're going to get one more chance.\"", 
   "label": "O", 
   "id": 453349131730550785, 
   "hashtags": [], 
   "user_mentions": [], 
   "created_at": "Tue Apr 08 01:50:30 +0000 2014", 
   "retweet_count": 136, 
   "favorite_count": 138
  }, 
  {
   "text": "The #NJDevils fall to the Calgary Flames 1-0 at @PruCenter. #NJDvsCGY", 
   "label": "O", 
   "id": 453344971245236224, 
   "hashtags": [
    "NJDevils", 
    "NJDvsCGY"
   ], 
   "user_mentions": [
    "PruCenter"
   ], 
   "created_at": "Tue Apr 08 01:33:58 +0000 2014", 
   "retweet_count": 34, 
   "favorite_count": 22
  }, 
  {
   "text": "One minute remains in the third period. #NJDvsCGY", 
   "label": "O", 
   "id": 453344578029236224, 
   "hashtags": [
    "NJDvsCGY"
   ], 
   "user_mentions": [], 
   "created_at": "Tue Apr 08 01:32:24 +0000 2014", 
   "retweet_count": 4, 
   "favorite_count": 7
  }, 
  {
   "text": "Schneider heads to the bench with 1:20 remaining. #NJDvsCGY", 
   "label": "O", 
   "id": 453344459628244992, 
   "hashtags": [
    "NJDvsCGY"
   ], 
   "user_mentions": [], 
   "created_at": "Tue Apr 08 01:31:56 +0000 2014", 
   "retweet_count": 6, 
   "favorite_count": 12
  }, 
  {
   "text": "RT @WarriorWishes: Thanks to the @NHLDevils for helping us honor the legacy of fallen hero SPC Rafael http://t.co/Wv7Vi4sOne http://t.co/Mz\u2026", 
   "label": "O", 
   "id": 453343197184663552, 
   "hashtags": [], 
   "user_mentions": [
    "WarriorWishes", 
    "NHLDevils"
   ], 
   "created_at": "Tue Apr 08 01:26:55 +0000 2014", 
   "retweet_count": 34, 
   "favorite_count": 0
  }, 
  {
   "text": "#NJDevils lead in SOG 30-20 but are still looking for the game-tying goal with 4:32 left in regulation. #NJDvsCGY", 
   "label": "O", 
   "id": 453342664600350720, 
   "hashtags": [
    "NJDevils", 
    "NJDvsCGY"
   ], 
   "user_mentions": [], 
   "created_at": "Tue Apr 08 01:24:48 +0000 2014", 
   "retweet_count": 11, 
   "favorite_count": 13
  }, 
  {
   "text": "At the midway point of the third period, #NJDevils trail the Flames 1-0. #NJDvsCGY", 
   "label": "O", 
   "id": 453340067546017792, 
   "hashtags": [
    "NJDevils", 
    "NJDvsCGY"
   ], 
   "user_mentions": [], 
   "created_at": "Tue Apr 08 01:14:29 +0000 2014", 
   "retweet_count": 9, 
   "favorite_count": 10
  }, 
  {
   "text": "Gelinas blasts the puck from the blue line but is denied by the glove of Ramo. 13:01 remains in regulation. #NJDvsCGY", 
   "label": "O", 
   "id": 453338755970371584, 
   "hashtags": [
    "NJDvsCGY"
   ], 
   "user_mentions": [], 
   "created_at": "Tue Apr 08 01:09:16 +0000 2014", 
   "retweet_count": 4, 
   "favorite_count": 15
  }, 
  {
   "text": "Giordano gives the Flames a 1-0 lead on a PPG at :23 in the third period. #NJDvsCGY", 
   "label": "O", 
   "id": 453336631643496448, 
   "hashtags": [
    "NJDvsCGY"
   ], 
   "user_mentions": [], 
   "created_at": "Tue Apr 08 01:00:50 +0000 2014", 
   "retweet_count": 5, 
   "favorite_count": 12
  }, 
  {
   "text": "Zajac wins the draw as the #NJDevils and Flames start the third period. #NJDvsCGY", 
   "label": "O", 
   "id": 453336250930720768, 
   "hashtags": [
    "NJDevils", 
    "NJDvsCGY"
   ], 
   "user_mentions": [], 
   "created_at": "Tue Apr 08 00:59:19 +0000 2014", 
   "retweet_count": 3, 
   "favorite_count": 15
  }, 
  {
   "text": "RT @PruCenter: .@News12NJ anchor @roxanneevans12 gets ready to ride the Zamboni during the second intermission of #NJDvsCGY! http://t.co/kq\u2026", 
   "label": "O", 
   "id": 453335534463901696, 
   "hashtags": [
    "NJDvsCGY"
   ], 
   "user_mentions": [
    "PruCenter", 
    "News12NJ", 
    "roxanneevans12"
   ], 
   "created_at": "Tue Apr 08 00:56:28 +0000 2014", 
   "retweet_count": 6, 
   "favorite_count": 0
  }, 
  {
   "text": "Who will be the #NJDevils clutch goal-scorer in the third period? #NJDvsCGY", 
   "label": "O", 
   "id": 453332953607970816, 
   "hashtags": [
    "NJDevils", 
    "NJDvsCGY"
   ], 
   "user_mentions": [], 
   "created_at": "Tue Apr 08 00:46:13 +0000 2014", 
   "retweet_count": 11, 
   "favorite_count": 25
  }, 
  {
   "text": "#JerseysTeam is outshooting Calgary 22-16. Andy Greene leads the #NJDevils with 4 SOG. #NJDvsCGY", 
   "label": "O", 
   "id": 453332519900184576, 
   "hashtags": [
    "JerseysTeam", 
    "NJDevils", 
    "NJDvsCGY"
   ], 
   "user_mentions": [], 
   "created_at": "Tue Apr 08 00:44:29 +0000 2014", 
   "retweet_count": 6, 
   "favorite_count": 19
  }, 
  {
   "text": "After 40 minutes of play the #NJDevils and Flames remain scoreless at @PruCenter. #NJDvsCGY", 
   "label": "O", 
   "id": 453331710747631616, 
   "hashtags": [
    "NJDevils", 
    "NJDvsCGY"
   ], 
   "user_mentions": [
    "PruCenter"
   ], 
   "created_at": "Tue Apr 08 00:41:17 +0000 2014", 
   "retweet_count": 10, 
   "favorite_count": 16
  }, 
  {
   "text": "One minute remains in the second period. #NJDvsCGY", 
   "label": "O", 
   "id": 453330904350748673, 
   "hashtags": [
    "NJDvsCGY"
   ], 
   "user_mentions": [], 
   "created_at": "Tue Apr 08 00:38:04 +0000 2014", 
   "retweet_count": 5, 
   "favorite_count": 11
  }, 
  {
   "text": "Merrill is called for slashing at 18:26 as the #NJDevils PK will see action in the closing minutes of the period. #NJDvsCGY", 
   "label": "O", 
   "id": 453330800646582273, 
   "hashtags": [
    "NJDevils", 
    "NJDvsCGY"
   ], 
   "user_mentions": [], 
   "created_at": "Tue Apr 08 00:37:40 +0000 2014", 
   "retweet_count": 2, 
   "favorite_count": 12
  }, 
  {
   "text": "Schneider makes a big save, denying NJ-native Agostino on a breakaway! #NJDvsCGY", 
   "label": "O", 
   "id": 453330600771203073, 
   "hashtags": [
    "NJDvsCGY"
   ], 
   "user_mentions": [], 
   "created_at": "Tue Apr 08 00:36:52 +0000 2014", 
   "retweet_count": 11, 
   "favorite_count": 26
  }, 
  {
   "text": "The #NJDevils hold the Flames without a SOG during the PK as Carter exits the box. #NJDevils back to full strength. #NJDvsCGY", 
   "label": "O", 
   "id": 453326344810553344, 
   "hashtags": [
    "NJDevils", 
    "NJDevils", 
    "NJDvsCGY"
   ], 
   "user_mentions": [], 
   "created_at": "Tue Apr 08 00:19:57 +0000 2014", 
   "retweet_count": 6, 
   "favorite_count": 15
  }, 
  {
   "text": "Carter is called for interference at 6:46 as the #NHL's top-ranked PK unit heads onto the ice. #NJDvsCGY", 
   "label": "O", 
   "id": 453325793641656320, 
   "hashtags": [
    "NHL", 
    "NJDvsCGY"
   ], 
   "user_mentions": [], 
   "created_at": "Tue Apr 08 00:17:46 +0000 2014", 
   "retweet_count": 3, 
   "favorite_count": 10
  }, 
  {
   "text": "Ramo makes a glove save on a shot from Bernier at 5:45. #NJDevils outshooting the Flames 17-7. #NJDvsCGY", 
   "label": "O", 
   "id": 453324671111675906, 
   "hashtags": [
    "NJDevils", 
    "NJDvsCGY"
   ], 
   "user_mentions": [], 
   "created_at": "Tue Apr 08 00:13:18 +0000 2014", 
   "retweet_count": 4, 
   "favorite_count": 9
  }, 
  {
   "text": "Penalty time is up. Cammalleri leaves the box as the #NJDevils PP comes to an end. #NJDvsCGY", 
   "label": "O", 
   "id": 453323408458395648, 
   "hashtags": [
    "NJDevils", 
    "NJDvsCGY"
   ], 
   "user_mentions": [], 
   "created_at": "Tue Apr 08 00:08:17 +0000 2014", 
   "retweet_count": 3, 
   "favorite_count": 8
  }, 
  {
   "text": "Brunner with a great chance on a rebound but couldn't guide the puck past Ramo. #NJDvsCGY", 
   "label": "O", 
   "id": 453323031952523264, 
   "hashtags": [
    "NJDvsCGY"
   ], 
   "user_mentions": [], 
   "created_at": "Tue Apr 08 00:06:47 +0000 2014", 
   "retweet_count": 4, 
   "favorite_count": 8
  }, 
  {
   "text": "Cammalleri is called for hooking at :45 as the #NJDevils PP unit will take over! #NJDvsCGY", 
   "label": "O", 
   "id": 453322758328688640, 
   "hashtags": [
    "NJDevils", 
    "NJDvsCGY"
   ], 
   "user_mentions": [], 
   "created_at": "Tue Apr 08 00:05:42 +0000 2014", 
   "retweet_count": 2, 
   "favorite_count": 8
  }, 
  {
   "text": "The second period is underway as the #NJDevils look to break the tie. #NJDvsCGY", 
   "label": "O", 
   "id": 453322404241371136, 
   "hashtags": [
    "NJDevils", 
    "NJDvsCGY"
   ], 
   "user_mentions": [], 
   "created_at": "Tue Apr 08 00:04:18 +0000 2014", 
   "retweet_count": 6, 
   "favorite_count": 11
  }, 
  {
   "text": "RT @NHL: #HockeyOps explains \"no goal\" video review at 18:34 of the first period in the @NHLFlames/@NHLDevils game. http://t.co/19KoOyRpmi", 
   "label": "O", 
   "id": 453321658183729152, 
   "hashtags": [
    "HockeyOps"
   ], 
   "user_mentions": [
    "NHL", 
    "NHLFlames", 
    "NHLDevils"
   ], 
   "created_at": "Tue Apr 08 00:01:20 +0000 2014", 
   "retweet_count": 14, 
   "favorite_count": 0
  }, 
  {
   "text": "#NJDevils President @hughweber1 pumps up the crowd during the Fan Appreciation Week t-shirt toss! #NJDvsCGY http://t.co/Rxq2WlY8rZ", 
   "label": "O", 
   "id": 453321624352473088, 
   "hashtags": [
    "NJDevils", 
    "NJDvsCGY"
   ], 
   "user_mentions": [
    "hughweber1"
   ], 
   "created_at": "Tue Apr 08 00:01:12 +0000 2014", 
   "retweet_count": 4, 
   "favorite_count": 9
  }, 
  {
   "text": "Who wants a t-shirt? @NJDevil00 &amp; the #NJDevils staff distributed 500 shirts to the crowd for Fan Appreciation Week! http://t.co/nTnwNI2lWo", 
   "label": "O", 
   "id": 453319311017639936, 
   "hashtags": [
    "NJDevils"
   ], 
   "user_mentions": [
    "NJDevil00"
   ], 
   "created_at": "Mon Apr 07 23:52:00 +0000 2014", 
   "retweet_count": 8, 
   "favorite_count": 26
  }, 
  {
   "text": "SOG in the first period were 12-7 in favor of #JerseysTeam. #NJDvsCGY", 
   "label": "O", 
   "id": 453318623051137024, 
   "hashtags": [
    "JerseysTeam", 
    "NJDvsCGY"
   ], 
   "user_mentions": [], 
   "created_at": "Mon Apr 07 23:49:16 +0000 2014", 
   "retweet_count": 5, 
   "favorite_count": 14
  }, 
  {
   "text": "@mohalloran26 Not at all. Sounds like the right choice to us! #LetsGoDevils", 
   "label": "O", 
   "id": 453318424446660609, 
   "hashtags": [
    "LetsGoDevils"
   ], 
   "user_mentions": [
    "mohalloran26"
   ], 
   "created_at": "Mon Apr 07 23:48:29 +0000 2014", 
   "retweet_count": 2, 
   "favorite_count": 4
  }, 
  {
   "text": "The first period comes to an end as #NJDevils and Flames remain scoreless. #NJDvsCGY", 
   "label": "O", 
   "id": 453317829241344000, 
   "hashtags": [
    "NJDevils", 
    "NJDvsCGY"
   ], 
   "user_mentions": [], 
   "created_at": "Mon Apr 07 23:46:07 +0000 2014", 
   "retweet_count": 4, 
   "favorite_count": 13
  }, 
  {
   "text": "One minute remains in the first period. #NJDvsCGY", 
   "label": "O", 
   "id": 453317368497065984, 
   "hashtags": [
    "NJDvsCGY"
   ], 
   "user_mentions": [], 
   "created_at": "Mon Apr 07 23:44:17 +0000 2014", 
   "retweet_count": 2, 
   "favorite_count": 12
  }, 
  {
   "text": "After review the call stands. No goal. #NJDvsCGY", 
   "label": "O", 
   "id": 453316702756171776, 
   "hashtags": [
    "NJDvsCGY"
   ], 
   "user_mentions": [], 
   "created_at": "Mon Apr 07 23:41:38 +0000 2014", 
   "retweet_count": 9, 
   "favorite_count": 10
  }, 
  {
   "text": "Carter deflects the puck past Ramo and into the back of the net. The play is under review with 1:26 left in the first period. #NJDvsCGY", 
   "label": "O", 
   "id": 453316065364545536, 
   "hashtags": [
    "NJDvsCGY"
   ], 
   "user_mentions": [], 
   "created_at": "Mon Apr 07 23:39:06 +0000 2014", 
   "retweet_count": 11, 
   "favorite_count": 20
  }, 
  {
   "text": "Both penalties expire as each team gets back to full strength. #NJDvsCGY", 
   "label": "O", 
   "id": 453313826285715457, 
   "hashtags": [
    "NJDvsCGY"
   ], 
   "user_mentions": [], 
   "created_at": "Mon Apr 07 23:30:13 +0000 2014", 
   "retweet_count": 1, 
   "favorite_count": 10
  }, 
  {
   "text": "Agostino leaves the box. 4-on-4 hockey at @PruCenter. #NJDvsCGY", 
   "label": "O", 
   "id": 453312866981269505, 
   "hashtags": [
    "NJDvsCGY"
   ], 
   "user_mentions": [
    "PruCenter"
   ], 
   "created_at": "Mon Apr 07 23:26:24 +0000 2014", 
   "retweet_count": 2, 
   "favorite_count": 15
  }, 
  {
   "text": "Zajac is called for interference at 9:31. We will have 4-on-3 for the next 47 seconds. #NJDvsCGY", 
   "label": "O", 
   "id": 453312516354211840, 
   "hashtags": [
    "NJDvsCGY"
   ], 
   "user_mentions": [], 
   "created_at": "Mon Apr 07 23:25:00 +0000 2014", 
   "retweet_count": 4, 
   "favorite_count": 10
  }, 
  {
   "text": "Coach DeBoer calls timeout for the #NJDevils. #NJDvsCGY", 
   "label": "O", 
   "id": 453312353904623616, 
   "hashtags": [
    "NJDevils", 
    "NJDvsCGY"
   ], 
   "user_mentions": [], 
   "created_at": "Mon Apr 07 23:24:21 +0000 2014", 
   "retweet_count": 2, 
   "favorite_count": 11
  }, 
  {
   "text": "Bouma is called for tripping at 9:17 as #NJDevils will have a 5-on-3 PP for the next minute. #NJDvsCGY", 
   "label": "O", 
   "id": 453312289706622976, 
   "hashtags": [
    "NJDevils", 
    "NJDvsCGY"
   ], 
   "user_mentions": [], 
   "created_at": "Mon Apr 07 23:24:06 +0000 2014", 
   "retweet_count": 5, 
   "favorite_count": 11
  }, 
  {
   "text": "Carter leaves the box as #JerseysTeam will go on a 5-on-4 PP for the next 1:15. #NJDvsCGY", 
   "label": "O", 
   "id": 453312111104757760, 
   "hashtags": [
    "JerseysTeam", 
    "NJDvsCGY"
   ], 
   "user_mentions": [], 
   "created_at": "Mon Apr 07 23:23:24 +0000 2014", 
   "retweet_count": 2, 
   "favorite_count": 9
  }, 
  {
   "text": "We will have 4-on-4 hockey for the next 45 seconds. #NJDvsCGY", 
   "label": "O", 
   "id": 453311338534957056, 
   "hashtags": [
    "NJDvsCGY"
   ], 
   "user_mentions": [], 
   "created_at": "Mon Apr 07 23:20:19 +0000 2014", 
   "retweet_count": 3, 
   "favorite_count": 14
  }, 
  {
   "text": "Ramo is called for delay of game with 45 seconds remaining on the Flames PP. Agostino will serve the penalty. #NJDvsCGY", 
   "label": "O", 
   "id": 453311256464982016, 
   "hashtags": [
    "NJDvsCGY"
   ], 
   "user_mentions": [], 
   "created_at": "Mon Apr 07 23:20:00 +0000 2014", 
   "retweet_count": 3, 
   "favorite_count": 7
  }, 
  {
   "text": "Carter is called for high sticking at 5:02. He will serve a 4 minute double minor. #NJDevils will go on the PK for the 1st time. #NJDvsCGY", 
   "label": "O", 
   "id": 453310187286577152, 
   "hashtags": [
    "NJDevils", 
    "NJDvsCGY"
   ], 
   "user_mentions": [], 
   "created_at": "Mon Apr 07 23:15:45 +0000 2014", 
   "retweet_count": 1, 
   "favorite_count": 10
  }, 
  {
   "text": "Gelinas takes the ice as a forward with Sestito and Sislo as linemates. #NJDvsCGY", 
   "label": "O", 
   "id": 453309347624677377, 
   "hashtags": [
    "NJDvsCGY"
   ], 
   "user_mentions": [], 
   "created_at": "Mon Apr 07 23:12:25 +0000 2014", 
   "retweet_count": 9, 
   "favorite_count": 24
  }, 
  {
   "text": "The puck has dropped as #NJDvsCGY is underway at @PruCenter!", 
   "label": "O", 
   "id": 453308350793793536, 
   "hashtags": [
    "NJDvsCGY"
   ], 
   "user_mentions": [
    "PruCenter"
   ], 
   "created_at": "Mon Apr 07 23:08:27 +0000 2014", 
   "retweet_count": 21, 
   "favorite_count": 33
  }, 
  {
   "text": "RT @NHLDevilsPR: New Jersey native LW Kenny Agostino starts for Calgary. He won three NJSIAA Non-Public titles with Delbarton and an NCAA t\u2026", 
   "label": "O", 
   "id": 453306593606918144, 
   "hashtags": [], 
   "user_mentions": [
    "NHLDevilsPR"
   ], 
   "created_at": "Mon Apr 07 23:01:28 +0000 2014", 
   "retweet_count": 20, 
   "favorite_count": 0
  }, 
  {
   "text": "Starting for your #NJDevils tonight will be Ruutu-Zajac-Jagr, Merrill-Zidlicky and Schneider. #NJDvsCGY", 
   "label": "O", 
   "id": 453306305617620992, 
   "hashtags": [
    "NJDevils", 
    "NJDvsCGY"
   ], 
   "user_mentions": [], 
   "created_at": "Mon Apr 07 23:00:19 +0000 2014", 
   "retweet_count": 15, 
   "favorite_count": 26
  }, 
  {
   "text": "Tonight's starting goaltender matchup features Cory Schneider vs. Karri Ramo. #NJDvsCGY", 
   "label": "O", 
   "id": 453305393293582337, 
   "hashtags": [
    "NJDvsCGY"
   ], 
   "user_mentions": [], 
   "created_at": "Mon Apr 07 22:56:42 +0000 2014", 
   "retweet_count": 14, 
   "favorite_count": 29
  }, 
  {
   "text": "#DevilsFacts: Cory Schneider has allowed two goals or less in five consecutive starts. He starts tonight vs. Calgary.", 
   "label": "O", 
   "id": 453291574127235072, 
   "hashtags": [
    "DevilsFacts"
   ], 
   "user_mentions": [], 
   "created_at": "Mon Apr 07 22:01:47 +0000 2014", 
   "retweet_count": 25, 
   "favorite_count": 40
  }, 
  {
   "text": "RT @NJDevil00: You must follow me to be entered into the #NJDevilsGWG sweepstakes! http://t.co/xzoax8aJJ7", 
   "label": "O", 
   "id": 453285062935855104, 
   "hashtags": [
    "NJDevilsGWG"
   ], 
   "user_mentions": [
    "NJDevil00"
   ], 
   "created_at": "Mon Apr 07 21:35:55 +0000 2014", 
   "retweet_count": 2, 
   "favorite_count": 0
  }, 
  {
   "text": "RT @NJDevil00: Start predicting! Who will score the #NJDevilsGWG tonight for #NJDvsCGY? Correct answers will have the chance to win a #Jers\u2026", 
   "label": "O", 
   "id": 453284798745022464, 
   "hashtags": [
    "NJDevilsGWG", 
    "NJDvsCGY", 
    "JerseysTeam"
   ], 
   "user_mentions": [
    "NJDevil00"
   ], 
   "created_at": "Mon Apr 07 21:34:52 +0000 2014", 
   "retweet_count": 6, 
   "favorite_count": 0
  }, 
  {
   "text": "RT @MSGNetworks: Sitting 3 points out of the final wild card, the @NHLDevils look for 2 huge points vs Calgary tonight. Action starts at 6:\u2026", 
   "label": "O", 
   "id": 453283308529803264, 
   "hashtags": [], 
   "user_mentions": [
    "MSGNetworks", 
    "NHLDevils"
   ], 
   "created_at": "Mon Apr 07 21:28:57 +0000 2014", 
   "retweet_count": 16, 
   "favorite_count": 0
  }, 
  {
   "text": "#NJDevils President @HughWeber1 joins @Nick_Meidanis of @News12NJ at @PruCenter for a live interview! http://t.co/phPeDgzhSM", 
   "label": "O", 
   "id": 453282524715028480, 
   "hashtags": [
    "NJDevils"
   ], 
   "user_mentions": [
    "hughweber1", 
    "Nick_Meidanis", 
    "News12NJ", 
    "PruCenter"
   ], 
   "created_at": "Mon Apr 07 21:25:50 +0000 2014", 
   "retweet_count": 8, 
   "favorite_count": 23
  }, 
  {
   "text": "RT @roxanneevans12: @Nick_Meidanis live interview w @hughweber1 after I warmed him up. Don't hold anything against me! http://t.co/E6n5Qf2S\u2026", 
   "label": "O", 
   "id": 453281848610013184, 
   "hashtags": [], 
   "user_mentions": [
    "roxanneevans12", 
    "Nick_Meidanis", 
    "hughweber1"
   ], 
   "created_at": "Mon Apr 07 21:23:08 +0000 2014", 
   "retweet_count": 5, 
   "favorite_count": 0
  }, 
  {
   "text": "#NJDevils Fan Fest has been canceled for #NJDvsCGY.", 
   "label": "O", 
   "id": 453281309360918528, 
   "hashtags": [
    "NJDevils", 
    "NJDvsCGY"
   ], 
   "user_mentions": [], 
   "created_at": "Mon Apr 07 21:21:00 +0000 2014", 
   "retweet_count": 7, 
   "favorite_count": 12
  }, 
  {
   "text": "Check out this year\u2019s Fan Appreciation Day shirt by @PrudentialBYC that all fans will receive on 4/13 for #NJDvsBOS! http://t.co/zr13n5fTAB", 
   "label": "O", 
   "id": 453280839137513472, 
   "hashtags": [
    "NJDvsBOS"
   ], 
   "user_mentions": [
    "PrudentialBYC"
   ], 
   "created_at": "Mon Apr 07 21:19:08 +0000 2014", 
   "retweet_count": 16, 
   "favorite_count": 37
  }, 
  {
   "text": "#DevilsFacts: Coach Peter DeBoer's 101st win as #NJDevils coach on Saturday passed Doug Carpenter for second in team history.", 
   "label": "O", 
   "id": 453276527791448064, 
   "hashtags": [
    "DevilsFacts", 
    "NJDevils"
   ], 
   "user_mentions": [], 
   "created_at": "Mon Apr 07 21:02:00 +0000 2014", 
   "retweet_count": 12, 
   "favorite_count": 25
  }, 
  {
   "text": "Former #NJDevils defenseman, @KenDaneykoMSG, chats with @Nick_Meidanis of @news12NJ prior to #NJDvsCGY. http://t.co/nZejyurjhG", 
   "label": "O", 
   "id": 453264917865721856, 
   "hashtags": [
    "NJDevils", 
    "NJDvsCGY"
   ], 
   "user_mentions": [
    "KenDaneykoMSG", 
    "Nick_Meidanis", 
    "News12NJ"
   ], 
   "created_at": "Mon Apr 07 20:15:52 +0000 2014", 
   "retweet_count": 6, 
   "favorite_count": 11
  }, 
  {
   "text": "#DevilsFacts:  Tuomo Ruutu enters tonight with a four-game point streak (2g-2a).", 
   "label": "O", 
   "id": 453261399184388096, 
   "hashtags": [
    "DevilsFacts"
   ], 
   "user_mentions": [], 
   "created_at": "Mon Apr 07 20:01:53 +0000 2014", 
   "retweet_count": 12, 
   "favorite_count": 33
  }, 
  {
   "text": "Thank you, Fans! Learn about the first-ever #NJDevils Fan Appreciation Week: http://t.co/eULX9HDzIP", 
   "label": "O", 
   "id": 453253418728312833, 
   "hashtags": [
    "NJDevils"
   ], 
   "user_mentions": [], 
   "created_at": "Mon Apr 07 19:30:10 +0000 2014", 
   "retweet_count": 5, 
   "favorite_count": 17
  }, 
  {
   "text": "LAST CHANCE! @AmericanExpress Card Members, grab last minute tix to #NJDvsCGY at @PruCenter! Expires 5:30p EST! Info: http://t.co/ZFIZ0D7oRU", 
   "label": "O", 
   "id": 453246172044726272, 
   "hashtags": [
    "NJDvsCGY"
   ], 
   "user_mentions": [
    "AmericanExpress", 
    "PruCenter"
   ], 
   "created_at": "Mon Apr 07 19:01:22 +0000 2014", 
   "retweet_count": 2, 
   "favorite_count": 8
  }, 
  {
   "text": "#DevilsFacts: #NJDevils have picked up 11 points in their last seven games (4-0-3) and are 12-3-3 in their last 18 games at @PruCenter.", 
   "label": "O", 
   "id": 453238112366649344, 
   "hashtags": [
    "DevilsFacts", 
    "NJDevils"
   ], 
   "user_mentions": [
    "PruCenter"
   ], 
   "created_at": "Mon Apr 07 18:29:21 +0000 2014", 
   "retweet_count": 18, 
   "favorite_count": 22
  }, 
  {
   "text": "RT @hughweber1: I'm tossing t-shirts at tonight's @NHLDevils game from section 16 with @NJDevil00 and the rest of the @PruCenter staff! WHO\u2026", 
   "label": "O", 
   "id": 453233063607431170, 
   "hashtags": [], 
   "user_mentions": [
    "hughweber1", 
    "NHLDevils", 
    "NJDevil00", 
    "PruCenter"
   ], 
   "created_at": "Mon Apr 07 18:09:17 +0000 2014", 
   "retweet_count": 5, 
   "favorite_count": 0
  }, 
  {
   "text": "#DevilsFacts: The #NJDevils top-ranked PK (87.2%) has killed 19 of 20 opponent power plays over the last six games.", 
   "label": "O", 
   "id": 453231187834986498, 
   "hashtags": [
    "DevilsFacts", 
    "NJDevils"
   ], 
   "user_mentions": [], 
   "created_at": "Mon Apr 07 18:01:50 +0000 2014", 
   "retweet_count": 14, 
   "favorite_count": 20
  }, 
  {
   "text": "It's Game Day! The playoff push continues tonight at @PruCenter against the Calgary Flames at 7 p.m.! Preview:  http://t.co/LGPRaKsq9l", 
   "label": "O", 
   "id": 453223611101634560, 
   "hashtags": [], 
   "user_mentions": [
    "PruCenter"
   ], 
   "created_at": "Mon Apr 07 17:31:44 +0000 2014", 
   "retweet_count": 21, 
   "favorite_count": 33
  }, 
  {
   "text": "#DoWhatYouLove with #NJDevils hockey &amp; get your photo on the scoreboard tonight thanks to @PrudentialBYC: http://t.co/sQuc3FK0WO", 
   "label": "O", 
   "id": 453205508791730176, 
   "hashtags": [
    "DoWhatYouLove", 
    "NJDevils"
   ], 
   "user_mentions": [
    "PrudentialBYC"
   ], 
   "created_at": "Mon Apr 07 16:19:48 +0000 2014", 
   "retweet_count": 7, 
   "favorite_count": 10
  }, 
  {
   "text": "#NJDevils CEO @ScottONeil joining @SRuhle &amp; @ErikSchatzker now on @bloombergtv @MarketMakers! http://t.co/6bXb7a5Owq http://t.co/6hrtWcYcXf", 
   "label": "O", 
   "id": 453191835859832832, 
   "hashtags": [
    "NJDevils"
   ], 
   "user_mentions": [
    "ScottONeil", 
    "SRuhle", 
    "ErikSchatzker", 
    "BloombergTV", 
    "marketmakers"
   ], 
   "created_at": "Mon Apr 07 15:25:28 +0000 2014", 
   "retweet_count": 7, 
   "favorite_count": 16
  }, 
  {
   "text": "Hey @AmericanExpress Card Members, grab last minute tix to #NJDvsCGY at @PruCenter! Expires 5:30p EST! Info: http://t.co/eFihHTM7dd", 
   "label": "O", 
   "id": 453171499374235648, 
   "hashtags": [
    "NJDvsCGY"
   ], 
   "user_mentions": [
    "AmericanExpress", 
    "PruCenter"
   ], 
   "created_at": "Mon Apr 07 14:04:39 +0000 2014", 
   "retweet_count": 2, 
   "favorite_count": 4
  }
 ]
}