{
 "num_road_team_goals": "3", 
 "home_team": "New Jersey Devils", 
 "num_home_team_goals": "4", 
 "summary_url": "http://www.flyershistory.com/cgi-bin/poboxscore.cgi?H20130925", 
 "result": "W", 
 "road_team": "Detroit Red Wings", 
 "date": "2014-03-04", 
 "goals": [
  {
   "season_index": "19", 
   "strength": "(EV)", 
   "time": "0:27", 
   "period": "1", 
   "player": "A.Henrique", 
   "assists": null, 
   "game_index": "1", 
   "team": "N.J"
  }, 
  {
   "season_index": "13", 
   "strength": "(PP)", 
   "time": "11:26", 
   "period": "1", 
   "player": "J.Franzen", 
   "assists": null, 
   "game_index": "2", 
   "team": "DET"
  }, 
  {
   "season_index": "2", 
   "strength": "(EV)", 
   "time": "7:03", 
   "period": "2", 
   "player": "B.Smith", 
   "assists": "(J.Abdelkader)", 
   "game_index": "3", 
   "team": "DET"
  }, 
  {
   "season_index": "10", 
   "strength": "(PP)", 
   "time": "0:41", 
   "period": "3", 
   "player": "M.Zidlicky", 
   "assists": "(D.Brunner, P.Elias)", 
   "game_index": "4", 
   "team": "N.J"
  }, 
  {
   "season_index": "10", 
   "strength": "(EV)", 
   "time": "6:30", 
   "period": "3", 
   "player": "T.Zajac", 
   "assists": "(J.Jagr, R.Clowe)", 
   "game_index": "5", 
   "team": "N.J"
  }, 
  {
   "season_index": "8", 
   "strength": "(PP)", 
   "time": "9:43", 
   "period": "3", 
   "player": "T.Bertuzzi", 
   "assists": "(J.Franzen, G.Nyquist)", 
   "game_index": "6", 
   "team": "DET"
  }, 
  {
   "season_index": "4", 
   "strength": "(EV)", 
   "time": "19:23", 
   "period": "3", 
   "player": "S.Gionta", 
   "assists": "(M.Fayne, D.Zubrus)", 
   "game_index": "7", 
   "team": "N.J"
  }
 ], 
 "tweets": [
  {
   "text": "POSTGAME: Martin Brodeur makes 20 saves to defeat Detroit http://t.co/G8R1skEPq0 #NJDevils", 
   "label": "O", 
   "id": 441065447878692864, 
   "hashtags": [
    "NJDevils"
   ], 
   "user_mentions": [], 
   "created_at": "Wed Mar 05 04:19:32 +0000 2014", 
   "retweet_count": 22, 
   "favorite_count": 45
  }, 
  {
   "text": "Stephen Gionta was named the first star of the game thanks to his GWG with 36.6 seconds remaining in regulation! #NJDvsDET", 
   "label": "O", 
   "id": 441050040224976896, 
   "hashtags": [
    "NJDvsDET"
   ], 
   "user_mentions": [], 
   "created_at": "Wed Mar 05 03:18:18 +0000 2014", 
   "retweet_count": 31, 
   "favorite_count": 67
  }, 
  {
   "text": "RT @NJDevil00: Huge home win for the @NHLDevils tonight over the Red Wings! Gionta scores the GWG with under a minute remaining to secure t\u2026", 
   "label": "O", 
   "id": 441049686976528385, 
   "hashtags": [
    "NJDvsDET"
   ], 
   "user_mentions": [
    "NJDevil00", 
    "NHLDevils"
   ], 
   "created_at": "Wed Mar 05 03:16:54 +0000 2014", 
   "retweet_count": 51, 
   "favorite_count": 0
  }, 
  {
   "text": "RT @hughweber1: Great win tonight! Got to hang with Tom, who was my spotlighted season ticket holder of the game! http://t.co/9eG1XgkqQz", 
   "label": "O", 
   "id": 441043270085656577, 
   "hashtags": [], 
   "user_mentions": [
    "hughweber1"
   ], 
   "created_at": "Wed Mar 05 02:51:24 +0000 2014", 
   "retweet_count": 5, 
   "favorite_count": 0
  }, 
  {
   "text": "RT @ChrisThomsBauer: #NJDevils take up the majority of my life and I love it. Great fight and win tonight! @NHLDevils", 
   "label": "O", 
   "id": 441041585481187328, 
   "hashtags": [
    "NJDevils"
   ], 
   "user_mentions": [
    "ChrisThomsBauer", 
    "NHLDevils"
   ], 
   "created_at": "Wed Mar 05 02:44:42 +0000 2014", 
   "retweet_count": 20, 
   "favorite_count": 0
  }, 
  {
   "text": "RT @artstar1002: @NHLDevils ZAJAC! His goal was so pretty \ud83d\ude0d", 
   "label": "O", 
   "id": 441041238016684032, 
   "hashtags": [], 
   "user_mentions": [
    "artstar1002", 
    "NHLDevils"
   ], 
   "created_at": "Wed Mar 05 02:43:19 +0000 2014", 
   "retweet_count": 10, 
   "favorite_count": 0
  }, 
  {
   "text": "RT @DevilsTweetFeed: \u201c@NHLDevils: Who impressed you the most in tonight's victory over the Red Wings? #NJDvsDET\u201d Elias and Zidlicky.", 
   "label": "O", 
   "id": 441041186598715392, 
   "hashtags": [
    "NJDvsDET"
   ], 
   "user_mentions": [
    "DevilsTweetFeed", 
    "NHLDevils"
   ], 
   "created_at": "Wed Mar 05 02:43:07 +0000 2014", 
   "retweet_count": 6, 
   "favorite_count": 0
  }, 
  {
   "text": "Who impressed you the most in tonight's victory over the Red Wings? #NJDvsDET", 
   "label": "O", 
   "id": 441040230108651520, 
   "hashtags": [
    "NJDvsDET"
   ], 
   "user_mentions": [], 
   "created_at": "Wed Mar 05 02:39:19 +0000 2014", 
   "retweet_count": 12, 
   "favorite_count": 42
  }, 
  {
   "text": "#NJDEVILS WIN 4-3! Gionta scores the GWG with 36.6 remaining as Brodeur records 20 saves in the victory! #NJDvsDET http://t.co/EKSxw9nTRS", 
   "label": "O", 
   "id": 441038874039427072, 
   "hashtags": [
    "NJDEVILS", 
    "NJDvsDET"
   ], 
   "user_mentions": [], 
   "created_at": "Wed Mar 05 02:33:56 +0000 2014", 
   "retweet_count": 643, 
   "favorite_count": 394
  }, 
  {
   "text": "Howard heads to the bench for the extra skater. #NJDvsDET", 
   "label": "O", 
   "id": 441038275386826752, 
   "hashtags": [
    "NJDvsDET"
   ], 
   "user_mentions": [], 
   "created_at": "Wed Mar 05 02:31:33 +0000 2014", 
   "retweet_count": 5, 
   "favorite_count": 21
  }, 
  {
   "text": "Great hustle play by Jagr leads to the #NJDevils goal. Fayne and Zubrus get the assists on Gionta's go-ahead goal! #NJDvsDET", 
   "label": "O", 
   "id": 441038197213376514, 
   "hashtags": [
    "NJDevils", 
    "NJDvsDET"
   ], 
   "user_mentions": [], 
   "created_at": "Wed Mar 05 02:31:14 +0000 2014", 
   "retweet_count": 33, 
   "favorite_count": 52
  }, 
  {
   "text": "GIONTA! Stephen Gionta gives #JerseysTeam the lead with a deflection of a Mark Fayne shot with 36.6 remaining! #NJDevils lead 4-3! #NJDvsDET", 
   "label": "O", 
   "id": 441037998655021056, 
   "hashtags": [
    "JerseysTeam", 
    "NJDevils", 
    "NJDvsDET"
   ], 
   "user_mentions": [], 
   "created_at": "Wed Mar 05 02:30:27 +0000 2014", 
   "retweet_count": 264, 
   "favorite_count": 205
  }, 
  {
   "text": "One minute remains in regulation. #NJDvsDET", 
   "label": "O", 
   "id": 441037657687465984, 
   "hashtags": [
    "NJDvsDET"
   ], 
   "user_mentions": [], 
   "created_at": "Wed Mar 05 02:29:06 +0000 2014", 
   "retweet_count": 6, 
   "favorite_count": 16
  }, 
  {
   "text": "Denied! Brodeur with a big save on a slapper from Alfredsson. #NJDvsDET", 
   "label": "O", 
   "id": 441037162482774016, 
   "hashtags": [
    "NJDvsDET"
   ], 
   "user_mentions": [], 
   "created_at": "Wed Mar 05 02:27:08 +0000 2014", 
   "retweet_count": 21, 
   "favorite_count": 54
  }, 
  {
   "text": "#NJDevils outshooting Detroit 25-20 with 6 minutes remaining. Game still tied at 3. #NJDvsDET", 
   "label": "O", 
   "id": 441035779553628160, 
   "hashtags": [
    "NJDevils", 
    "NJDvsDET"
   ], 
   "user_mentions": [], 
   "created_at": "Wed Mar 05 02:21:38 +0000 2014", 
   "retweet_count": 10, 
   "favorite_count": 13
  }, 
  {
   "text": "Stat Correction: Zidlicky gets credit for the second #NJDevils goal. Bertuzzi on Detroit's third. #NJDvsDET", 
   "label": "O", 
   "id": 441034773293973505, 
   "hashtags": [
    "NJDevils", 
    "NJDvsDET"
   ], 
   "user_mentions": [], 
   "created_at": "Wed Mar 05 02:17:38 +0000 2014", 
   "retweet_count": 2, 
   "favorite_count": 9
  }, 
  {
   "text": "Bertuzzi screens Brodeur as Franzen nets his second of the night. We're now tied, 3-3, with 10:17 remaining. #NJDvsDET", 
   "label": "O", 
   "id": 441034004335452160, 
   "hashtags": [
    "NJDvsDET"
   ], 
   "user_mentions": [], 
   "created_at": "Wed Mar 05 02:14:35 +0000 2014", 
   "retweet_count": 3, 
   "favorite_count": 9
  }, 
  {
   "text": "Gelinas is called for interference at 9:30. #NJDevils will go on the PK. #NJDvsDET", 
   "label": "O", 
   "id": 441033605008347136, 
   "hashtags": [
    "NJDevils", 
    "NJDvsDET"
   ], 
   "user_mentions": [], 
   "created_at": "Wed Mar 05 02:13:00 +0000 2014", 
   "retweet_count": 5, 
   "favorite_count": 9
  }, 
  {
   "text": "Zajac's tally comes at 6:30 in the third period. @PruCenter is electric! #NJDvsDET", 
   "label": "O", 
   "id": 441032458512130048, 
   "hashtags": [
    "NJDvsDET"
   ], 
   "user_mentions": [
    "PruCenter"
   ], 
   "created_at": "Wed Mar 05 02:08:26 +0000 2014", 
   "retweet_count": 21, 
   "favorite_count": 33
  }, 
  {
   "text": "RT @NHLDevilsPR: #NJDevils regain lead on Travis Zajac's 10th of the season. Jaromir Jagr records 1,041st assist to pass Marcel Dionne for \u2026", 
   "label": "O", 
   "id": 441032141284311040, 
   "hashtags": [
    "NJDevils"
   ], 
   "user_mentions": [
    "NHLDevilsPR"
   ], 
   "created_at": "Wed Mar 05 02:07:11 +0000 2014", 
   "retweet_count": 37, 
   "favorite_count": 0
  }, 
  {
   "text": "RT @AndrewJDV: Wow that was a siiiiiiiiiick backhand by Zajac.....@NHLDevils", 
   "label": "O", 
   "id": 441031823716794368, 
   "hashtags": [], 
   "user_mentions": [
    "AndrewJDV", 
    "NHLDevils"
   ], 
   "created_at": "Wed Mar 05 02:05:55 +0000 2014", 
   "retweet_count": 20, 
   "favorite_count": 0
  }, 
  {
   "text": "WOW! Travis Zajac gives the #NJDevils a 3-2 lead with a NO LOOK backhand shot! #NJDvsDET", 
   "label": "O", 
   "id": 441031795010973696, 
   "hashtags": [
    "NJDevils", 
    "NJDvsDET"
   ], 
   "user_mentions": [], 
   "created_at": "Wed Mar 05 02:05:48 +0000 2014", 
   "retweet_count": 163, 
   "favorite_count": 147
  }, 
  {
   "text": "Carter one-times a shot on net but Howard makes a glove-save with 14:20 remaining in regulation. #NJDvsDET", 
   "label": "O", 
   "id": 441031118041927683, 
   "hashtags": [
    "NJDvsDET"
   ], 
   "user_mentions": [], 
   "created_at": "Wed Mar 05 02:03:07 +0000 2014", 
   "retweet_count": 3, 
   "favorite_count": 6
  }, 
  {
   "text": "Elias' 14th goal of the season extends his point streak to four consecutive games (3g-4a). #NJDvsDET", 
   "label": "O", 
   "id": 441030654915248128, 
   "hashtags": [
    "NJDvsDET"
   ], 
   "user_mentions": [], 
   "created_at": "Wed Mar 05 02:01:16 +0000 2014", 
   "retweet_count": 12, 
   "favorite_count": 19
  }, 
  {
   "text": "Credit Zidlicky and Brunner with the helpers on Elias' PPG at :41 in the third period. #LetsGoDevils! #NJDvsDET", 
   "label": "O", 
   "id": 441030143298248704, 
   "hashtags": [
    "LetsGoDevils", 
    "NJDvsDET"
   ], 
   "user_mentions": [], 
   "created_at": "Wed Mar 05 01:59:14 +0000 2014", 
   "retweet_count": 9, 
   "favorite_count": 16
  }, 
  {
   "text": "GOAL! Patrik Elias scores a PPG on a perfectly placed deflection! #JerseysTeam has tied the game, 2-2! #NJDvsDET", 
   "label": "O", 
   "id": 441029681761239040, 
   "hashtags": [
    "JerseysTeam", 
    "NJDvsDET"
   ], 
   "user_mentions": [], 
   "created_at": "Wed Mar 05 01:57:24 +0000 2014", 
   "retweet_count": 103, 
   "favorite_count": 90
  }, 
  {
   "text": "The puck has dropped as #NJDevils look to erase the 1 goal deficit. #NJDvsDET", 
   "label": "O", 
   "id": 441029427213135872, 
   "hashtags": [
    "NJDevils", 
    "NJDvsDET"
   ], 
   "user_mentions": [], 
   "created_at": "Wed Mar 05 01:56:24 +0000 2014", 
   "retweet_count": 1, 
   "favorite_count": 11
  }, 
  {
   "text": "The #NJDevils Silent Auction in support of Mikey Nichols is drawing a huge crowd! http://t.co/eQwf1VCzzx", 
   "label": "O", 
   "id": 441029334174683136, 
   "hashtags": [
    "NJDevils"
   ], 
   "user_mentions": [], 
   "created_at": "Wed Mar 05 01:56:01 +0000 2014", 
   "retweet_count": 32, 
   "favorite_count": 60
  }, 
  {
   "text": "@Glasgow_smile17 @PruCenter misses you too, visit soon!", 
   "label": "O", 
   "id": 441029079324950528, 
   "hashtags": [], 
   "user_mentions": [
    "Glasgow_smile17", 
    "PruCenter"
   ], 
   "created_at": "Wed Mar 05 01:55:01 +0000 2014", 
   "retweet_count": 0, 
   "favorite_count": 1
  }, 
  {
   "text": "RT @BruceBeck4NY: Great job @NHLDevils who are hosting charity event tomorrow 7 pm @PruCenter ! NHL vs Russia ! Legends turning out! @KenDa\u2026", 
   "label": "O", 
   "id": 441028223946989568, 
   "hashtags": [], 
   "user_mentions": [
    "BruceBeck4NY", 
    "NHLDevils", 
    "PruCenter", 
    "KenDaneykoMSG"
   ], 
   "created_at": "Wed Mar 05 01:51:37 +0000 2014", 
   "retweet_count": 6, 
   "favorite_count": 0
  }, 
  {
   "text": "Members of #TeamNHL &amp; #TeamRussia in tomorrow's Legends Classic sign autographs during the intermission of #NJDvsDET http://t.co/V2UhTSQM7R", 
   "label": "O", 
   "id": 441026953928511488, 
   "hashtags": [
    "TeamNHL", 
    "TeamRussia", 
    "NJDvsDET"
   ], 
   "user_mentions": [], 
   "created_at": "Wed Mar 05 01:46:34 +0000 2014", 
   "retweet_count": 4, 
   "favorite_count": 28
  }, 
  {
   "text": "What are the keys to netting a PPG to start the third period? #NJDvsDET", 
   "label": "O", 
   "id": 441024695182581761, 
   "hashtags": [
    "NJDvsDET"
   ], 
   "user_mentions": [], 
   "created_at": "Wed Mar 05 01:37:35 +0000 2014", 
   "retweet_count": 4, 
   "favorite_count": 8
  }, 
  {
   "text": "The 2nd period comes to an end as #NJDevils trail Detroit 2-1. #JerseysTeam will start the 3rd with 1:40 remaining on the PP. #NJDvsDET", 
   "label": "O", 
   "id": 441024617814454272, 
   "hashtags": [
    "NJDevils", 
    "JerseysTeam", 
    "NJDvsDET"
   ], 
   "user_mentions": [], 
   "created_at": "Wed Mar 05 01:37:17 +0000 2014", 
   "retweet_count": 5, 
   "favorite_count": 7
  }, 
  {
   "text": "Lashoff is called for roughing Gelinas with 20.8 seconds left in the 2nd. #NJDevils will have a 5-on-3 PP for 17 seconds. #NJDvsDET", 
   "label": "O", 
   "id": 441024172358377472, 
   "hashtags": [
    "NJDevils", 
    "NJDvsDET"
   ], 
   "user_mentions": [], 
   "created_at": "Wed Mar 05 01:35:31 +0000 2014", 
   "retweet_count": 5, 
   "favorite_count": 8
  }, 
  {
   "text": "One minute remains in the period. #NJDvsDET", 
   "label": "O", 
   "id": 441023719696506880, 
   "hashtags": [
    "NJDvsDET"
   ], 
   "user_mentions": [], 
   "created_at": "Wed Mar 05 01:33:43 +0000 2014", 
   "retweet_count": 4, 
   "favorite_count": 8
  }, 
  {
   "text": "Quincey is called for a 2 minute hi-sticking penalty. #NJDevils will go on their 2nd PP with 2:04 remaining in the period. #NJDvsDET", 
   "label": "O", 
   "id": 441023424325246976, 
   "hashtags": [
    "NJDevils", 
    "NJDvsDET"
   ], 
   "user_mentions": [], 
   "created_at": "Wed Mar 05 01:32:32 +0000 2014", 
   "retweet_count": 3, 
   "favorite_count": 7
  }, 
  {
   "text": "Clowe leaves the box as #JerseysTeam is back to full strength. #NJDvsDET", 
   "label": "O", 
   "id": 441023104597655553, 
   "hashtags": [
    "JerseysTeam", 
    "NJDvsDET"
   ], 
   "user_mentions": [], 
   "created_at": "Wed Mar 05 01:31:16 +0000 2014", 
   "retweet_count": 4, 
   "favorite_count": 6
  }, 
  {
   "text": "Clowe is called for boarding with 4:37 remaining in the 2nd period. #NJDevils PK is 1/2 tonight. #NJDvsDET", 
   "label": "O", 
   "id": 441022091320885248, 
   "hashtags": [
    "NJDevils", 
    "NJDvsDET"
   ], 
   "user_mentions": [], 
   "created_at": "Wed Mar 05 01:27:15 +0000 2014", 
   "retweet_count": 1, 
   "favorite_count": 10
  }, 
  {
   "text": "Brodeur stands on his head and makes an amazing save!  #NJDvsDET", 
   "label": "O", 
   "id": 441021015930707968, 
   "hashtags": [
    "NJDvsDET"
   ], 
   "user_mentions": [], 
   "created_at": "Wed Mar 05 01:22:58 +0000 2014", 
   "retweet_count": 43, 
   "favorite_count": 72
  }, 
  {
   "text": "Midway through the second period, #NJDevils have fallen behind the Red Wings, 2-1. #NJDvsDET", 
   "label": "O", 
   "id": 441019832755314688, 
   "hashtags": [
    "NJDevils", 
    "NJDvsDET"
   ], 
   "user_mentions": [], 
   "created_at": "Wed Mar 05 01:18:16 +0000 2014", 
   "retweet_count": 3, 
   "favorite_count": 8
  }, 
  {
   "text": "Smith gives Detroit a 2-1 lead at 7:03. #NJDvsDET", 
   "label": "O", 
   "id": 441018224252301312, 
   "hashtags": [
    "NJDvsDET"
   ], 
   "user_mentions": [], 
   "created_at": "Wed Mar 05 01:11:53 +0000 2014", 
   "retweet_count": 6, 
   "favorite_count": 9
  }, 
  {
   "text": "Redirection by Ryder just goes wide of the net! #NJDvsDET", 
   "label": "O", 
   "id": 441017104285040642, 
   "hashtags": [
    "NJDvsDET"
   ], 
   "user_mentions": [], 
   "created_at": "Wed Mar 05 01:07:26 +0000 2014", 
   "retweet_count": 2, 
   "favorite_count": 4
  }, 
  {
   "text": "Fayne is out of the box and #JerseysTeam is back to full strength. #NJDvsDET", 
   "label": "O", 
   "id": 441016920687788032, 
   "hashtags": [
    "JerseysTeam", 
    "NJDvsDET"
   ], 
   "user_mentions": [], 
   "created_at": "Wed Mar 05 01:06:42 +0000 2014", 
   "retweet_count": 2, 
   "favorite_count": 8
  }, 
  {
   "text": "Brodeur makes a beautiful kick-save on a slapper from Kronwall. #NJDvsDET", 
   "label": "O", 
   "id": 441016460786561024, 
   "hashtags": [
    "NJDvsDET"
   ], 
   "user_mentions": [], 
   "created_at": "Wed Mar 05 01:04:52 +0000 2014", 
   "retweet_count": 18, 
   "favorite_count": 30
  }, 
  {
   "text": "Fayne is called for holding 35 seconds in to the start of the 2nd period. #JerseysTeam will go on their second PK of the night. #NJDvsDET", 
   "label": "O", 
   "id": 441016118292262912, 
   "hashtags": [
    "JerseysTeam", 
    "NJDvsDET"
   ], 
   "user_mentions": [], 
   "created_at": "Wed Mar 05 01:03:30 +0000 2014", 
   "retweet_count": 1, 
   "favorite_count": 8
  }, 
  {
   "text": "The second period is underway as #NJDevils and Red Wings resume play. #NJDvsDET", 
   "label": "O", 
   "id": 441015862380986368, 
   "hashtags": [
    "NJDevils", 
    "NJDvsDET"
   ], 
   "user_mentions": [], 
   "created_at": "Wed Mar 05 01:02:29 +0000 2014", 
   "retweet_count": 4, 
   "favorite_count": 10
  }, 
  {
   "text": "@tshorty928 Hope he's enjoying his first game!", 
   "label": "O", 
   "id": 441015083473571840, 
   "hashtags": [], 
   "user_mentions": [
    "tshorty928"
   ], 
   "created_at": "Wed Mar 05 00:59:24 +0000 2014", 
   "retweet_count": 0, 
   "favorite_count": 2
  }, 
  {
   "text": "#DoWhatYouLove RT @lionwarx: JUST MADE THE JUMBOTRON WITH A PICTURE OF ME AND MY MOM SOOOO STOKED! @NHLDevils #newjerseydevils", 
   "label": "O", 
   "id": 441013699890151424, 
   "hashtags": [
    "DoWhatYouLove", 
    "newjerseydevils"
   ], 
   "user_mentions": [
    "lionwarx", 
    "NHLDevils"
   ], 
   "created_at": "Wed Mar 05 00:53:54 +0000 2014", 
   "retweet_count": 0, 
   "favorite_count": 10
  }, 
  {
   "text": "@gelly_xo_adv Study up, there will be a quiz after the third period.", 
   "label": "O", 
   "id": 441012287303057408, 
   "hashtags": [], 
   "user_mentions": [
    "gelly_xo_adv"
   ], 
   "created_at": "Wed Mar 05 00:48:17 +0000 2014", 
   "retweet_count": 1, 
   "favorite_count": 3
  }, 
  {
   "text": "Solid philosophy right there! RT @WindestHarbor: @NHLDevils Any Tv you can watch the Devils Game on, Is a Good TV.", 
   "label": "O", 
   "id": 441012063989923840, 
   "hashtags": [], 
   "user_mentions": [
    "WindestHarbor", 
    "NHLDevils"
   ], 
   "created_at": "Wed Mar 05 00:47:24 +0000 2014", 
   "retweet_count": 6, 
   "favorite_count": 11
  }, 
  {
   "text": "Nichols is a Monroe Township Senior who suffered a severe injury to his C5 vertebra during a game in January. More: http://t.co/COwEsWKFhB", 
   "label": "O", 
   "id": 441011974131159040, 
   "hashtags": [], 
   "user_mentions": [], 
   "created_at": "Wed Mar 05 00:47:02 +0000 2014", 
   "retweet_count": 26, 
   "favorite_count": 27
  }, 
  {
   "text": "#NJD CEO @ScottONeil &amp; Pres. @HughWeber1 present family of Monroe hockey player Mikey Nichols with a check for $25k. http://t.co/d6m1zLeURU", 
   "label": "O", 
   "id": 441011841917911040, 
   "hashtags": [
    "NJD"
   ], 
   "user_mentions": [
    "ScottONeil", 
    "hughweber1"
   ], 
   "created_at": "Wed Mar 05 00:46:31 +0000 2014", 
   "retweet_count": 125, 
   "favorite_count": 114
  }, 
  {
   "text": "@meganoppici Right back at you!  #LetsGoDevils!", 
   "label": "O", 
   "id": 441011618512912384, 
   "hashtags": [
    "LetsGoDevils"
   ], 
   "user_mentions": [
    "meganoppici"
   ], 
   "created_at": "Wed Mar 05 00:45:38 +0000 2014", 
   "retweet_count": 0, 
   "favorite_count": 7
  }, 
  {
   "text": "After 20 min. of play, #JerseysTeam is locked in a 1-1 tie with Detroit. #NJDevils outshot the Red Wings 8-7 in the 1st period. #NJDvsDET", 
   "label": "O", 
   "id": 441011568294514688, 
   "hashtags": [
    "JerseysTeam", 
    "NJDevils", 
    "NJDvsDET"
   ], 
   "user_mentions": [], 
   "created_at": "Wed Mar 05 00:45:26 +0000 2014", 
   "retweet_count": 6, 
   "favorite_count": 12
  }, 
  {
   "text": "One minute remains in the first period. #NJDvsDET", 
   "label": "O", 
   "id": 441010952377733121, 
   "hashtags": [
    "NJDvsDET"
   ], 
   "user_mentions": [], 
   "created_at": "Wed Mar 05 00:42:59 +0000 2014", 
   "retweet_count": 4, 
   "favorite_count": 10
  }, 
  {
   "text": "Henrique with a great chance from the slot but is denied by Howard. #NJDvsDET", 
   "label": "O", 
   "id": 441010307524481024, 
   "hashtags": [
    "NJDvsDET"
   ], 
   "user_mentions": [], 
   "created_at": "Wed Mar 05 00:40:25 +0000 2014", 
   "retweet_count": 3, 
   "favorite_count": 21
  }, 
  {
   "text": "Franzen beats Brodeur with a PPG with 8:34 remaining in the first period, tying the game 1-1. #NJDvsDET", 
   "label": "O", 
   "id": 441007769790197760, 
   "hashtags": [
    "NJDvsDET"
   ], 
   "user_mentions": [], 
   "created_at": "Wed Mar 05 00:30:20 +0000 2014", 
   "retweet_count": 5, 
   "favorite_count": 8
  }, 
  {
   "text": "Salvador is called for boarding at 10:03. #NJDevils will go on the PK for the first time tonight. #NJDvsDET", 
   "label": "O", 
   "id": 441007253236498432, 
   "hashtags": [
    "NJDevils", 
    "NJDvsDET"
   ], 
   "user_mentions": [], 
   "created_at": "Wed Mar 05 00:28:17 +0000 2014", 
   "retweet_count": 1, 
   "favorite_count": 8
  }, 
  {
   "text": "Quincey is out of the box as we get back to 5-on-5 hockey at @PruCenter. #NJDvsDET", 
   "label": "O", 
   "id": 441006616658591744, 
   "hashtags": [
    "NJDvsDET"
   ], 
   "user_mentions": [
    "PruCenter"
   ], 
   "created_at": "Wed Mar 05 00:25:45 +0000 2014", 
   "retweet_count": 0, 
   "favorite_count": 8
  }, 
  {
   "text": "Quincey is called for delay of game at 7:12. The #NJDevils will take over on the first PP of the night. #NJDvsDET", 
   "label": "O", 
   "id": 441005669412782080, 
   "hashtags": [
    "NJDevils", 
    "NJDvsDET"
   ], 
   "user_mentions": [], 
   "created_at": "Wed Mar 05 00:21:59 +0000 2014", 
   "retweet_count": 5, 
   "favorite_count": 10
  }, 
  {
   "text": "RT @PR_NHL: #HockeyOps explains video review of Adam Henrique's goal at 0:27 of 1st period in @DetroitRedWings / @NHLDevils game. http://t.\u2026", 
   "label": "O", 
   "id": 441005215446470656, 
   "hashtags": [
    "HockeyOps"
   ], 
   "user_mentions": [
    "PR_NHL", 
    "DetroitRedWings", 
    "NHLDevils"
   ], 
   "created_at": "Wed Mar 05 00:20:11 +0000 2014", 
   "retweet_count": 8, 
   "favorite_count": 0
  }, 
  {
   "text": "RT @NHLDevilsPR: Fifth goal in four games for Henrique, who ties Jaromir Jagr for the #NJDevils lead. Henrique now has 5g-2a in his last fo\u2026", 
   "label": "O", 
   "id": 441004794699059200, 
   "hashtags": [
    "NJDevils"
   ], 
   "user_mentions": [
    "NHLDevilsPR"
   ], 
   "created_at": "Wed Mar 05 00:18:31 +0000 2014", 
   "retweet_count": 36, 
   "favorite_count": 0
  }, 
  {
   "text": "Adam Henrique has now tied Jaromir Jagr with 19 goals on the season for the team lead. The goal is unassisted at :27. #NJDvsDET", 
   "label": "O", 
   "id": 441003608122085376, 
   "hashtags": [
    "NJDvsDET"
   ], 
   "user_mentions": [], 
   "created_at": "Wed Mar 05 00:13:48 +0000 2014", 
   "retweet_count": 56, 
   "favorite_count": 74
  }, 
  {
   "text": "GOAL! Adam Henrique lights the lamp just 27 seconds in to the game! #NJDevils lead 1-0! Henrique has scored in 4 straight games! #NJDvsDET", 
   "label": "O", 
   "id": 441002931350171648, 
   "hashtags": [
    "NJDevils", 
    "NJDvsDET"
   ], 
   "user_mentions": [], 
   "created_at": "Wed Mar 05 00:11:06 +0000 2014", 
   "retweet_count": 242, 
   "favorite_count": 169
  }, 
  {
   "text": "The puck has dropped as #NJDvsDET gets underway at @PruCenter! #LetsGoDevils! http://t.co/5qfDrc4XjK", 
   "label": "O", 
   "id": 441002378351747072, 
   "hashtags": [
    "NJDvsDET", 
    "LetsGoDevils"
   ], 
   "user_mentions": [
    "PruCenter"
   ], 
   "created_at": "Wed Mar 05 00:08:55 +0000 2014", 
   "retweet_count": 57, 
   "favorite_count": 96
  }, 
  {
   "text": "Starting for your #NJDevils will be Henrique-Elias-Brunner, Gelinas-Merrill and Brodeur! #NJDvsDET", 
   "label": "O", 
   "id": 441000481226518528, 
   "hashtags": [
    "NJDevils", 
    "NJDvsDET"
   ], 
   "user_mentions": [], 
   "created_at": "Wed Mar 05 00:01:22 +0000 2014", 
   "retweet_count": 13, 
   "favorite_count": 34
  }, 
  {
   "text": "Tonight's starting goaltender matchup features Martin Brodeur vs. Jimmy Howard! #NJDvsDET", 
   "label": "O", 
   "id": 441000264095789056, 
   "hashtags": [
    "NJDvsDET"
   ], 
   "user_mentions": [], 
   "created_at": "Wed Mar 05 00:00:31 +0000 2014", 
   "retweet_count": 17, 
   "favorite_count": 26
  }, 
  {
   "text": "@carpy05 See you tomorrow at @PruCenter for the Legends Classic! Get ready to put your game-face on!", 
   "label": "O", 
   "id": 440999456599597056, 
   "hashtags": [], 
   "user_mentions": [
    "carpy05", 
    "PruCenter"
   ], 
   "created_at": "Tue Mar 04 23:57:18 +0000 2014", 
   "retweet_count": 2, 
   "favorite_count": 5
  }, 
  {
   "text": "RT @carpy05: Excited to play in the @NHLDevils Legends Classic Charity Game tomorrow night with this sick jersey! http://t.co/7p0ZbsWCjV", 
   "label": "O", 
   "id": 440998716850569216, 
   "hashtags": [], 
   "user_mentions": [
    "carpy05", 
    "NHLDevils"
   ], 
   "created_at": "Tue Mar 04 23:54:22 +0000 2014", 
   "retweet_count": 26, 
   "favorite_count": 0
  }, 
  {
   "text": "Players from tomorrow's LEGENDS CLASSIC: Team NHL vs. Team Russia will sign autographs tonight outside Fire Lounge during 1st intermission!", 
   "label": "O", 
   "id": 440992909970898944, 
   "hashtags": [], 
   "user_mentions": [], 
   "created_at": "Tue Mar 04 23:31:17 +0000 2014", 
   "retweet_count": 4, 
   "favorite_count": 9
  }, 
  {
   "text": "#DevilsFacts: Adam Henrique (4g-2a) and Patrik Elias (2g-4a) each has an #NHL-best six points since the Olympic break.", 
   "label": "O", 
   "id": 440985203519942656, 
   "hashtags": [
    "DevilsFacts", 
    "NHL"
   ], 
   "user_mentions": [], 
   "created_at": "Tue Mar 04 23:00:40 +0000 2014", 
   "retweet_count": 19, 
   "favorite_count": 34
  }, 
  {
   "text": "#DevilsFacts: Adam Henrique lit the lamp for his 18th goal of the season on Sunday and now trails Jaromir Jagr by one for the team lead.", 
   "label": "O", 
   "id": 440970688984150017, 
   "hashtags": [
    "DevilsFacts"
   ], 
   "user_mentions": [], 
   "created_at": "Tue Mar 04 22:02:59 +0000 2014", 
   "retweet_count": 30, 
   "favorite_count": 46
  }, 
  {
   "text": "Season ticket holders who renew for the 2014-15 season will be entered into 30 Days of Prizes starting March 4! Info: http://t.co/9GesnhfbwQ", 
   "label": "O", 
   "id": 440966378976063489, 
   "hashtags": [], 
   "user_mentions": [], 
   "created_at": "Tue Mar 04 21:45:52 +0000 2014", 
   "retweet_count": 7, 
   "favorite_count": 9
  }, 
  {
   "text": "@PaulyO_138 Great photo! We need your permission to put it up on the jumbotron. Submit your photo here: http://t.co/ZOiCqYpAGz", 
   "label": "O", 
   "id": 440963029849497600, 
   "hashtags": [], 
   "user_mentions": [
    "PaulyO_138"
   ], 
   "created_at": "Tue Mar 04 21:32:33 +0000 2014", 
   "retweet_count": 0, 
   "favorite_count": 2
  }, 
  {
   "text": "#NJDevils to host Legends Classic: Team NHL vs. Team Russia to benefit Monroe High School hockey player Mikey Nichols http://t.co/yTzdzBE0lf", 
   "label": "O", 
   "id": 440957288593891328, 
   "hashtags": [
    "NJDevils"
   ], 
   "user_mentions": [], 
   "created_at": "Tue Mar 04 21:09:44 +0000 2014", 
   "retweet_count": 55, 
   "favorite_count": 29
  }, 
  {
   "text": "#DevilsFacts: Bryce Salvador and Damien Brunner expected to return to the #NJDevils lineup tonight. Both have missed the last two games.", 
   "label": "O", 
   "id": 440954977524002817, 
   "hashtags": [
    "DevilsFacts", 
    "NJDevils"
   ], 
   "user_mentions": [], 
   "created_at": "Tue Mar 04 21:00:33 +0000 2014", 
   "retweet_count": 15, 
   "favorite_count": 28
  }, 
  {
   "text": "Martin Brodeur starts tonight as the #NJDevils host Detroit at @PruCenter for a 7 p.m. showdown! Preview: http://t.co/aO1t3PdATb", 
   "label": "O", 
   "id": 440943640450727937, 
   "hashtags": [
    "NJDevils"
   ], 
   "user_mentions": [
    "PruCenter"
   ], 
   "created_at": "Tue Mar 04 20:15:30 +0000 2014", 
   "retweet_count": 42, 
   "favorite_count": 48
  }, 
  {
   "text": "#DevilsFacts: The #NJDevils PK remains the top ranked unit in the #NHL with a success rate of 87.8% (173/197) this season.", 
   "label": "O", 
   "id": 440940104472068097, 
   "hashtags": [
    "DevilsFacts", 
    "NJDevils", 
    "NHL"
   ], 
   "user_mentions": [], 
   "created_at": "Tue Mar 04 20:01:27 +0000 2014", 
   "retweet_count": 42, 
   "favorite_count": 44
  }, 
  {
   "text": "#DevilsFacts: Martin Brodeur will be in goal tonight for his first start @PruCenter since Jan. 7 vs. Philadelphia.", 
   "label": "O", 
   "id": 440925120350388225, 
   "hashtags": [
    "DevilsFacts"
   ], 
   "user_mentions": [
    "PruCenter"
   ], 
   "created_at": "Tue Mar 04 19:01:55 +0000 2014", 
   "retweet_count": 56, 
   "favorite_count": 86
  }, 
  {
   "text": "RT @MSGNetworks: It\u2019s game day for the @NHLDevils as they face the Red Wings at home. Coverage starts at 630PM on MSG! Retweet if you\u2019re re\u2026", 
   "label": "O", 
   "id": 440925054327877632, 
   "hashtags": [], 
   "user_mentions": [
    "MSGNetworks", 
    "NHLDevils"
   ], 
   "created_at": "Tue Mar 04 19:01:39 +0000 2014", 
   "retweet_count": 20, 
   "favorite_count": 0
  }, 
  {
   "text": "Looking for a night out? Enjoy the #NJDevils vs. Red Wings tonight with the Girls/Guys Night Out Ticket Package! http://t.co/6WML9ApCzK", 
   "label": "O", 
   "id": 440917379091292160, 
   "hashtags": [
    "NJDevils"
   ], 
   "user_mentions": [], 
   "created_at": "Tue Mar 04 18:31:09 +0000 2014", 
   "retweet_count": 6, 
   "favorite_count": 10
  }, 
  {
   "text": "#CaptionThis! Share your funny or creative description of this photo of Patrik Elias! http://t.co/LamlOiHnBM", 
   "label": "O", 
   "id": 440897297023373312, 
   "hashtags": [
    "CaptionThis"
   ], 
   "user_mentions": [], 
   "created_at": "Tue Mar 04 17:11:21 +0000 2014", 
   "retweet_count": 17, 
   "favorite_count": 40
  }
 ]
}