{
 "num_road_team_goals": "2", 
 "home_team": "Dallas Stars", 
 "num_home_team_goals": "3", 
 "summary_url": "http://www.flyershistory.com/cgi-bin/poboxscore.cgi?H20131188", 
 "result": "L (SO)", 
 "road_team": "Nashville Predators", 
 "date": "2014-04-08", 
 "goals": [
  {
   "season_index": "6", 
   "strength": "(EV)", 
   "time": "2:23", 
   "period": "1", 
   "player": "A.Goligoski", 
   "assists": "(V.Fiddler, C.Sceviour)", 
   "game_index": "1", 
   "team": "DAL"
  }, 
  {
   "season_index": "8", 
   "strength": "(EV)", 
   "time": "1:22", 
   "period": "2", 
   "player": "G.Bourque", 
   "assists": "(C.Smith, S.Weber)", 
   "game_index": "2", 
   "team": "NSH"
  }, 
  {
   "season_index": "34", 
   "strength": "(EV)", 
   "time": "8:16", 
   "period": "2", 
   "player": "J.Benn", 
   "assists": "(V.Nichushkin, B.Dillon)", 
   "game_index": "3", 
   "team": "DAL"
  }, 
  {
   "season_index": "9", 
   "strength": "(EV)", 
   "time": "10:24", 
   "period": "3", 
   "player": "G.Bourque", 
   "assists": "(P.Gaustad)", 
   "game_index": "4", 
   "team": "NSH"
  }
 ], 
 "tweets": [
  {
   "text": "Nashville fought back but Stars win this one 3-2 in the shootout. #Preds celebrating Fan Appreciation night Thursday against the Coyotes.", 
   "label": "O", 
   "id": 453735218365882368, 
   "hashtags": [
    "Preds"
   ], 
   "user_mentions": [], 
   "created_at": "Wed Apr 09 03:24:40 +0000 2014", 
   "retweet_count": 22, 
   "favorite_count": 30
  }, 
  {
   "text": "Seguin for Dallas - goal. #NSHvsDAL", 
   "label": "O", 
   "id": 453734868997124096, 
   "hashtags": [
    "NSHvsDAL"
   ], 
   "user_mentions": [], 
   "created_at": "Wed Apr 09 03:23:17 +0000 2014", 
   "retweet_count": 2, 
   "favorite_count": 5
  }, 
  {
   "text": "Cullen for #Preds - blocked. #NSHvsDAL", 
   "label": "O", 
   "id": 453734727854587904, 
   "hashtags": [
    "Preds", 
    "NSHvsDAL"
   ], 
   "user_mentions": [], 
   "created_at": "Wed Apr 09 03:22:43 +0000 2014", 
   "retweet_count": 1, 
   "favorite_count": 2
  }, 
  {
   "text": "Fiddler for Dallas - goal. #NSHvsDAL", 
   "label": "O", 
   "id": 453734607025102848, 
   "hashtags": [
    "NSHvsDAL"
   ], 
   "user_mentions": [], 
   "created_at": "Wed Apr 09 03:22:14 +0000 2014", 
   "retweet_count": 1, 
   "favorite_count": 6
  }, 
  {
   "text": "Josi for #Preds - GOAL. #NSHvsDAL", 
   "label": "O", 
   "id": 453734464980811776, 
   "hashtags": [
    "Preds", 
    "NSHvsDAL"
   ], 
   "user_mentions": [], 
   "created_at": "Wed Apr 09 03:21:41 +0000 2014", 
   "retweet_count": 27, 
   "favorite_count": 45
  }, 
  {
   "text": "Benn for Dallas - blocked. #NSHvsDAL", 
   "label": "O", 
   "id": 453734375684075520, 
   "hashtags": [
    "NSHvsDAL"
   ], 
   "user_mentions": [], 
   "created_at": "Wed Apr 09 03:21:19 +0000 2014", 
   "retweet_count": 0, 
   "favorite_count": 6
  }, 
  {
   "text": "Smith for #Preds - blocked. #NSHvsDAL", 
   "label": "O", 
   "id": 453734246474321921, 
   "hashtags": [
    "Preds", 
    "NSHvsDAL"
   ], 
   "user_mentions": [], 
   "created_at": "Wed Apr 09 03:20:48 +0000 2014", 
   "retweet_count": 1, 
   "favorite_count": 5
  }, 
  {
   "text": "Benn for Dallas - no goal. #NSHvsDAL", 
   "label": "O", 
   "id": 453734154119962625, 
   "hashtags": [
    "NSHvsDAL"
   ], 
   "user_mentions": [], 
   "created_at": "Wed Apr 09 03:20:26 +0000 2014", 
   "retweet_count": 2, 
   "favorite_count": 8
  }, 
  {
   "text": "#Preds shooting first. Jarnkrok - blocked. #NSHvsDAL", 
   "label": "O", 
   "id": 453734020346810368, 
   "hashtags": [
    "Preds", 
    "NSHvsDAL"
   ], 
   "user_mentions": [], 
   "created_at": "Wed Apr 09 03:19:55 +0000 2014", 
   "retweet_count": 0, 
   "favorite_count": 7
  }, 
  {
   "text": "As if the OT stress wasn\u2019t enough, we are headed to the shootout! #NSHvsDAL", 
   "label": "O", 
   "id": 453733152406913024, 
   "hashtags": [
    "NSHvsDAL"
   ], 
   "user_mentions": [], 
   "created_at": "Wed Apr 09 03:16:28 +0000 2014", 
   "retweet_count": 17, 
   "favorite_count": 22
  }, 
  {
   "text": "We are headed to OT! #NSHvsDAL", 
   "label": "O", 
   "id": 453730919904727040, 
   "hashtags": [
    "NSHvsDAL"
   ], 
   "user_mentions": [], 
   "created_at": "Wed Apr 09 03:07:35 +0000 2014", 
   "retweet_count": 16, 
   "favorite_count": 27
  }, 
  {
   "text": "#preds kill it off. #NSHvsDAL", 
   "label": "O", 
   "id": 453726615651221504, 
   "hashtags": [
    "preds", 
    "NSHvsDAL"
   ], 
   "user_mentions": [], 
   "created_at": "Wed Apr 09 02:50:29 +0000 2014", 
   "retweet_count": 10, 
   "favorite_count": 30
  }, 
  {
   "text": "Bartley called for holding. 5-on-3 for Dallas. @NSHvsDAL", 
   "label": "O", 
   "id": 453725666270527488, 
   "hashtags": [], 
   "user_mentions": [], 
   "created_at": "Wed Apr 09 02:46:43 +0000 2014", 
   "retweet_count": 1, 
   "favorite_count": 1
  }, 
  {
   "text": "Weber in the box for delay of game. Stars on the PP. #NSHvsDAL", 
   "label": "O", 
   "id": 453725365585072128, 
   "hashtags": [
    "NSHvsDAL"
   ], 
   "user_mentions": [], 
   "created_at": "Wed Apr 09 02:45:31 +0000 2014", 
   "retweet_count": 0, 
   "favorite_count": 1
  }, 
  {
   "text": "GOAL!! #Preds tie it up on a goal from Bourque. 2-2. #NSHvsDAL", 
   "label": "O", 
   "id": 453724624866803712, 
   "hashtags": [
    "Preds", 
    "NSHvsDAL"
   ], 
   "user_mentions": [], 
   "created_at": "Wed Apr 09 02:42:35 +0000 2014", 
   "retweet_count": 24, 
   "favorite_count": 45
  }, 
  {
   "text": "3rd period is underway. #NSHvsDAL", 
   "label": "O", 
   "id": 453719517852860416, 
   "hashtags": [
    "NSHvsDAL"
   ], 
   "user_mentions": [], 
   "created_at": "Wed Apr 09 02:22:17 +0000 2014", 
   "retweet_count": 1, 
   "favorite_count": 4
  }, 
  {
   "text": "Stars up 2-1 at the end of 40 minutes of play. #NSHvsDAL", 
   "label": "O", 
   "id": 453714901799010304, 
   "hashtags": [
    "NSHvsDAL"
   ], 
   "user_mentions": [], 
   "created_at": "Wed Apr 09 02:03:56 +0000 2014", 
   "retweet_count": 5, 
   "favorite_count": 6
  }, 
  {
   "text": "2-1 Dallas on a goal from Benn. #NSHvsDAL", 
   "label": "O", 
   "id": 453709919737634816, 
   "hashtags": [
    "NSHvsDAL"
   ], 
   "user_mentions": [], 
   "created_at": "Wed Apr 09 01:44:09 +0000 2014", 
   "retweet_count": 0, 
   "favorite_count": 3
  }, 
  {
   "text": "Goal officially Bourque from Smith and Weber at 1:22 of the 2nd period. #NSHvsDAL", 
   "label": "O", 
   "id": 453707539226820608, 
   "hashtags": [
    "NSHvsDAL"
   ], 
   "user_mentions": [], 
   "created_at": "Wed Apr 09 01:34:41 +0000 2014", 
   "retweet_count": 6, 
   "favorite_count": 18
  }, 
  {
   "text": "GOAL! Bourque strikes early in the 2nd to tie the game 1-1. #NSHvsDAL", 
   "label": "O", 
   "id": 453707153170530305, 
   "hashtags": [
    "NSHvsDAL"
   ], 
   "user_mentions": [], 
   "created_at": "Wed Apr 09 01:33:09 +0000 2014", 
   "retweet_count": 19, 
   "favorite_count": 38
  }, 
  {
   "text": "2nd period is underway #NSHvsDAL", 
   "label": "O", 
   "id": 453706370794397696, 
   "hashtags": [
    "NSHvsDAL"
   ], 
   "user_mentions": [], 
   "created_at": "Wed Apr 09 01:30:02 +0000 2014", 
   "retweet_count": 0, 
   "favorite_count": 10
  }, 
  {
   "text": "End of the 1st period, Stars lead 1-0. #NSHvsDAL", 
   "label": "O", 
   "id": 453701698729828353, 
   "hashtags": [
    "NSHvsDAL"
   ], 
   "user_mentions": [], 
   "created_at": "Wed Apr 09 01:11:29 +0000 2014", 
   "retweet_count": 1, 
   "favorite_count": 7
  }, 
  {
   "text": "#Preds with the first PP of the night. Benn called for slashing. #NSHvsDAL", 
   "label": "O", 
   "id": 453700284901253121, 
   "hashtags": [
    "Preds", 
    "NSHvsDAL"
   ], 
   "user_mentions": [], 
   "created_at": "Wed Apr 09 01:05:51 +0000 2014", 
   "retweet_count": 4, 
   "favorite_count": 10
  }, 
  {
   "text": "Goligoski puts the Stars up 1-0. #NSHvsDAL", 
   "label": "O", 
   "id": 453694384903843840, 
   "hashtags": [
    "NSHvsDAL"
   ], 
   "user_mentions": [], 
   "created_at": "Wed Apr 09 00:42:25 +0000 2014", 
   "retweet_count": 0, 
   "favorite_count": 4
  }, 
  {
   "text": "Game on from American Airlines Center in Dallas between #Preds &amp; Stars. Tune in on @FSTennessee (Comcast HD 1675) &amp; @1025TheGame. #NSHvsDAL", 
   "label": "O", 
   "id": 453693455479635968, 
   "hashtags": [
    "Preds", 
    "NSHvsDAL"
   ], 
   "user_mentions": [
    "FSTennessee", 
    "1025TheGame"
   ], 
   "created_at": "Wed Apr 09 00:38:43 +0000 2014", 
   "retweet_count": 1, 
   "favorite_count": 6
  }, 
  {
   "text": "Join us tomorrow at Dave &amp; Buster's Opry Mills for the final 2014 @1025TheGame Colin Wilson Show from 7-8pm. Special guest: Mattias Ekholm.", 
   "label": "O", 
   "id": 453619509510017024, 
   "hashtags": [], 
   "user_mentions": [
    "1025TheGame"
   ], 
   "created_at": "Tue Apr 08 19:44:53 +0000 2014", 
   "retweet_count": 7, 
   "favorite_count": 9
  }, 
  {
   "text": "RT @PREDSident: 3/3 ...tag #PredsPride for a randomish chance 2win 2tix &amp; player jersey Winner announced Noon Thurs. Who Gonna Win???", 
   "label": "O", 
   "id": 453616977500983296, 
   "hashtags": [
    "PredsPride"
   ], 
   "user_mentions": [
    "PREDSident"
   ], 
   "created_at": "Tue Apr 08 19:34:49 +0000 2014", 
   "retweet_count": 11, 
   "favorite_count": 0
  }, 
  {
   "text": "RT @PREDSident: 2/3 twit pic wearing @PredsNHL gold at a fun place watching tonight, from Colin Wilson radio show w/ @MatEkh14 Tmr or from \u2026", 
   "label": "O", 
   "id": 453616946807074816, 
   "hashtags": [], 
   "user_mentions": [
    "PREDSident", 
    "PredsNHL", 
    "MatEkh14"
   ], 
   "created_at": "Tue Apr 08 19:34:42 +0000 2014", 
   "retweet_count": 9, 
   "favorite_count": 0
  }, 
  {
   "text": "RT @PREDSident: 1/3 who wants to win 2 tix to @PredsNHL Fan Appreciation nigh &amp; a jersey (sweater) of a player's back Thursday night?", 
   "label": "O", 
   "id": 453616940654022656, 
   "hashtags": [], 
   "user_mentions": [
    "PREDSident", 
    "PredsNHL"
   ], 
   "created_at": "Tue Apr 08 19:34:41 +0000 2014", 
   "retweet_count": 9, 
   "favorite_count": 0
  }, 
  {
   "text": "RT @NHL: Will the @PredsNHL extend their win streak to 4 tonight vs. the @DallasStars? Preview: http://t.co/9SlBoFigOU http://t.co/pGd52Wc0\u2026", 
   "label": "O", 
   "id": 453598431731548160, 
   "hashtags": [], 
   "user_mentions": [
    "NHL", 
    "PredsNHL", 
    "DallasStars"
   ], 
   "created_at": "Tue Apr 08 18:21:08 +0000 2014", 
   "retweet_count": 44, 
   "favorite_count": 0
  }, 
  {
   "text": "Join @LanceKnowsBeer &amp; us for #AutismAwareness month &amp; be part of #beer's most inspiring movement: #BeerAutismHope http://t.co/ZSQtHEMzX8", 
   "label": "O", 
   "id": 453549722419335168, 
   "hashtags": [
    "AutismAwareness", 
    "beer", 
    "BeerAutismHope"
   ], 
   "user_mentions": [
    "LanceKnowsBeer"
   ], 
   "created_at": "Tue Apr 08 15:07:35 +0000 2014", 
   "retweet_count": 7, 
   "favorite_count": 6
  }, 
  {
   "text": "Game day! #Preds in Dallas tonight to take on the Stars at 7:30pm/CT. Tune in on @FSTennessee (Comcast HD 1675) &amp; @1025TheGame. #NSHvsDAL", 
   "label": "O", 
   "id": 453544199871528960, 
   "hashtags": [
    "Preds", 
    "NSHvsDAL"
   ], 
   "user_mentions": [
    "FSTennessee", 
    "1025TheGame"
   ], 
   "created_at": "Tue Apr 08 14:45:38 +0000 2014", 
   "retweet_count": 13, 
   "favorite_count": 21
  }
 ]
}