{
 "num_road_team_goals": "2", 
 "home_team": "Nashville Predators", 
 "num_home_team_goals": "4", 
 "summary_url": "http://www.flyershistory.com/cgi-bin/poboxscore.cgi?H20130361", 
 "result": "W", 
 "road_team": "Phoenix Coyotes", 
 "date": "2013-11-25", 
 "goals": [
  {
   "season_index": "3", 
   "strength": "(EV)", 
   "time": "1:02", 
   "period": "1", 
   "player": "N.Spaling", 
   "assists": "(M.Cullen, C.Smith)", 
   "game_index": "1", 
   "team": "NSH"
  }, 
  {
   "season_index": "4", 
   "strength": "(EV)", 
   "time": "8:22", 
   "period": "1", 
   "player": "M.Fisher", 
   "assists": "(C.Wilson, E.Nystrom)", 
   "game_index": "2", 
   "team": "NSH"
  }, 
  {
   "season_index": "4", 
   "strength": "(EV)", 
   "time": "18:27", 
   "period": "1", 
   "player": "G.Bourque", 
   "assists": "(V.Stalberg, D.Legwand)", 
   "game_index": "3", 
   "team": "NSH"
  }, 
  {
   "season_index": "5", 
   "strength": "(EV)", 
   "time": "9:34", 
   "period": "2", 
   "player": "M.Boedker", 
   "assists": "(A.Vermette, K.Chipchura)", 
   "game_index": "4", 
   "team": "PHX"
  }, 
  {
   "season_index": "1", 
   "strength": "(EV)", 
   "time": "13:00", 
   "period": "2", 
   "player": "T.Kennedy", 
   "assists": "(M.Hanzal, R.Vrbata)", 
   "game_index": "5", 
   "team": "PHX"
  }, 
  {
   "season_index": "7", 
   "strength": "(EV-EN)", 
   "time": "19:25", 
   "period": "3", 
   "player": "S.Weber", 
   "assists": null, 
   "game_index": "6", 
   "team": "NSH"
  }
 ], 
 "tweets": [
  {
   "text": "When we win, you win. Grab a voucher as you exit @BrdgstoneArena for free 16oz Pepsi Max or Orange Crush at Middle TN @TwiceDailyFresh", 
   "label": "O", 
   "id": 405179160361852928, 
   "hashtags": [], 
   "user_mentions": [
    "BrdgstoneArena", 
    "TwiceDailyFresh"
   ], 
   "created_at": "Tue Nov 26 03:40:14 +0000 2013", 
   "retweet_count": 5, 
   "favorite_count": 3
  }, 
  {
   "text": "Your 3 Stars of the Game: 1 - Bourque, 2 - Fisher, 3 - Vermette (PHX).", 
   "label": "O", 
   "id": 405178882900254720, 
   "hashtags": [], 
   "user_mentions": [], 
   "created_at": "Tue Nov 26 03:39:08 +0000 2013", 
   "retweet_count": 17, 
   "favorite_count": 16
  }, 
  {
   "text": "HANDS GO UP! Preds win this one 4-2. #PHXvsNSH", 
   "label": "O", 
   "id": 405178401729695746, 
   "hashtags": [
    "PHXvsNSH"
   ], 
   "user_mentions": [], 
   "created_at": "Tue Nov 26 03:37:13 +0000 2013", 
   "retweet_count": 138, 
   "favorite_count": 71
  }, 
  {
   "text": "That's goal #4! Your ticket is good for a FREE Frosty at a local participating Middle TN Wendy's. #PHXvsNSH", 
   "label": "O", 
   "id": 405178274457714688, 
   "hashtags": [
    "PHXvsNSH"
   ], 
   "user_mentions": [], 
   "created_at": "Tue Nov 26 03:36:43 +0000 2013", 
   "retweet_count": 20, 
   "favorite_count": 8
  }, 
  {
   "text": "GOAL! Weber banks it off the boards and into the empty net. #PHXvsNSH", 
   "label": "O", 
   "id": 405178029288067072, 
   "hashtags": [
    "PHXvsNSH"
   ], 
   "user_mentions": [], 
   "created_at": "Tue Nov 26 03:35:44 +0000 2013", 
   "retweet_count": 19, 
   "favorite_count": 28
  }, 
  {
   "text": "One minute remaining in regulation, Preds up by one. #PHXvsNSH", 
   "label": "O", 
   "id": 405177395021225984, 
   "hashtags": [
    "PHXvsNSH"
   ], 
   "user_mentions": [], 
   "created_at": "Tue Nov 26 03:33:13 +0000 2013", 
   "retweet_count": 5, 
   "favorite_count": 6
  }, 
  {
   "text": "3rd period underway! #PHXvsNSH", 
   "label": "O", 
   "id": 405168981167722496, 
   "hashtags": [
    "PHXvsNSH"
   ], 
   "user_mentions": [], 
   "created_at": "Tue Nov 26 02:59:47 +0000 2013", 
   "retweet_count": 4, 
   "favorite_count": 4
  }, 
  {
   "text": "3-2 Preds lead at the end of 40 minutes of play. #PHXvsNSH", 
   "label": "O", 
   "id": 405164404150255616, 
   "hashtags": [
    "PHXvsNSH"
   ], 
   "user_mentions": [], 
   "created_at": "Tue Nov 26 02:41:36 +0000 2013", 
   "retweet_count": 14, 
   "favorite_count": 8
  }, 
  {
   "text": "Clune in the box for boarding. First minor penalty of the game. Phoenix on the PP. #PHXvsNSH", 
   "label": "O", 
   "id": 405162184537145346, 
   "hashtags": [
    "PHXvsNSH"
   ], 
   "user_mentions": [], 
   "created_at": "Tue Nov 26 02:32:47 +0000 2013", 
   "retweet_count": 0, 
   "favorite_count": 2
  }, 
  {
   "text": "Coyotes pull within one on a goal from Kennedy. 7:00 remaining in the 2nd period. #PHXvsNSH", 
   "label": "O", 
   "id": 405161859315032064, 
   "hashtags": [
    "PHXvsNSH"
   ], 
   "user_mentions": [], 
   "created_at": "Tue Nov 26 02:31:29 +0000 2013", 
   "retweet_count": 4, 
   "favorite_count": 0
  }, 
  {
   "text": "Phoenix gets on the board. Goal from Antoine Vermette halfway through the 2nd period. Preds up 3-1. #PHXvsNSH", 
   "label": "O", 
   "id": 405159586421669888, 
   "hashtags": [
    "PHXvsNSH"
   ], 
   "user_mentions": [], 
   "created_at": "Tue Nov 26 02:22:27 +0000 2013", 
   "retweet_count": 5, 
   "favorite_count": 4
  }, 
  {
   "text": "2nd period underway in Smashville. #PHXvsNSH", 
   "label": "O", 
   "id": 405155122625273856, 
   "hashtags": [
    "PHXvsNSH"
   ], 
   "user_mentions": [], 
   "created_at": "Tue Nov 26 02:04:43 +0000 2013", 
   "retweet_count": 4, 
   "favorite_count": 10
  }, 
  {
   "text": "3-0 Preds at the end of the 1st period. #PHXvsNSH", 
   "label": "O", 
   "id": 405150413281714177, 
   "hashtags": [
    "PHXvsNSH"
   ], 
   "user_mentions": [], 
   "created_at": "Tue Nov 26 01:46:00 +0000 2013", 
   "retweet_count": 39, 
   "favorite_count": 36
  }, 
  {
   "text": "Goal officially Bourque from Stalberg and Legwand at 18:27 of the 1st period. Preds up 3-0. #PHXvsNSH", 
   "label": "O", 
   "id": 405150105365258240, 
   "hashtags": [
    "PHXvsNSH"
   ], 
   "user_mentions": [], 
   "created_at": "Tue Nov 26 01:44:47 +0000 2013", 
   "retweet_count": 12, 
   "favorite_count": 13
  }, 
  {
   "text": "GOAL!! Beautiful goal by Gabby Bourque on a great feed from Stalberg. #PHXvsNSH", 
   "label": "O", 
   "id": 405149937840562176, 
   "hashtags": [
    "PHXvsNSH"
   ], 
   "user_mentions": [], 
   "created_at": "Tue Nov 26 01:44:07 +0000 2013", 
   "retweet_count": 17, 
   "favorite_count": 24
  }, 
  {
   "text": "Goal is officially Fisher from Wilson and Nystrom at 8:22 of the 1st period. #PHXvsNSH", 
   "label": "O", 
   "id": 405145832636162048, 
   "hashtags": [
    "PHXvsNSH"
   ], 
   "user_mentions": [], 
   "created_at": "Tue Nov 26 01:27:48 +0000 2013", 
   "retweet_count": 9, 
   "favorite_count": 12
  }, 
  {
   "text": "GOAL! Mike Fisher scores his 4th goal this season on a pass from Colin Wilson in the corner. #PHXvsNSH", 
   "label": "O", 
   "id": 405145634383986688, 
   "hashtags": [
    "PHXvsNSH"
   ], 
   "user_mentions": [], 
   "created_at": "Tue Nov 26 01:27:01 +0000 2013", 
   "retweet_count": 46, 
   "favorite_count": 41
  }, 
  {
   "text": "Hendricks and Chipchura drop the gloves and exchange punches. 5 each for fighting. #PHXvsNSH", 
   "label": "O", 
   "id": 405143393744859136, 
   "hashtags": [
    "PHXvsNSH"
   ], 
   "user_mentions": [], 
   "created_at": "Tue Nov 26 01:18:06 +0000 2013", 
   "retweet_count": 5, 
   "favorite_count": 9
  }, 
  {
   "text": "Goal officially Spaling from Cullen and Smith at 1:02 of the 1st period. #PHXvsNSH", 
   "label": "O", 
   "id": 405142604704018434, 
   "hashtags": [
    "PHXvsNSH"
   ], 
   "user_mentions": [], 
   "created_at": "Tue Nov 26 01:14:58 +0000 2013", 
   "retweet_count": 9, 
   "favorite_count": 8
  }, 
  {
   "text": "GOAL!! Preds strike first one minute into the 1st period. Spaling off a Cullen rebound. #PHXvsNSH", 
   "label": "O", 
   "id": 405142386247872512, 
   "hashtags": [
    "PHXvsNSH"
   ], 
   "user_mentions": [], 
   "created_at": "Tue Nov 26 01:14:06 +0000 2013", 
   "retweet_count": 19, 
   "favorite_count": 29
  }, 
  {
   "text": "Game on from Smashville between the Preds and Coyotes. Preds starting Jones, Klein, Clune, Hendricks, Gaustad and  Mazanec. #PHXvsNSH", 
   "label": "O", 
   "id": 405141639674351617, 
   "hashtags": [
    "PHXvsNSH"
   ], 
   "user_mentions": [], 
   "created_at": "Tue Nov 26 01:11:08 +0000 2013", 
   "retweet_count": 3, 
   "favorite_count": 6
  }, 
  {
   "text": "Those awesome uniforms you saw the Preds wear during warmup are available for auction at the @PredsFoundation Silent Auction area. #PHXvsNSH", 
   "label": "O", 
   "id": 405137391356088320, 
   "hashtags": [
    "PHXvsNSH"
   ], 
   "user_mentions": [
    "PredsFoundation"
   ], 
   "created_at": "Tue Nov 26 00:54:15 +0000 2013", 
   "retweet_count": 5, 
   "favorite_count": 6
  }, 
  {
   "text": "Tonight\u2019s game is not televised locally on @FSTennessee. However, for all of our fans to watch, the team has lifted the Center Ice blackout.", 
   "label": "O", 
   "id": 405124440398131200, 
   "hashtags": [], 
   "user_mentions": [
    "FSTennessee"
   ], 
   "created_at": "Tue Nov 26 00:02:48 +0000 2013", 
   "retweet_count": 10, 
   "favorite_count": 7
  }, 
  {
   "text": "RT @PredsProShop: Military Monday! Camo jerseys yth and adult available now. Military inspired coins now available! @PredsNHL #thankyou htt\u2026", 
   "label": "O", 
   "id": 405105493078999040, 
   "hashtags": [
    "thankyou"
   ], 
   "user_mentions": [
    "PredsProShop", 
    "PredsNHL"
   ], 
   "created_at": "Mon Nov 25 22:47:30 +0000 2013", 
   "retweet_count": 7, 
   "favorite_count": 0
  }, 
  {
   "text": "RT @PredsYouthHcky: It's @PredsNHL Kids Club Night! Not a member? Visit sec 108/322, ask how kids can go on ice tonight! #DeltaDental http:\u2026", 
   "label": "O", 
   "id": 405091528713834497, 
   "hashtags": [
    "DeltaDental"
   ], 
   "user_mentions": [
    "PredsYouthHcky", 
    "PredsNHL"
   ], 
   "created_at": "Mon Nov 25 21:52:01 +0000 2013", 
   "retweet_count": 4, 
   "favorite_count": 0
  }, 
  {
   "text": "RT @Gnash00: I called in backup for tonight!  Brave the blizzard and get here early. http://t.co/b72XWsQTuQ", 
   "label": "O", 
   "id": 405090332741603328, 
   "hashtags": [], 
   "user_mentions": [
    "Gnash00"
   ], 
   "created_at": "Mon Nov 25 21:47:16 +0000 2013", 
   "retweet_count": 15, 
   "favorite_count": 0
  }, 
  {
   "text": "Go America, Go Preds! http://t.co/a4Wejw29Qh", 
   "label": "O", 
   "id": 405082744964673536, 
   "hashtags": [], 
   "user_mentions": [], 
   "created_at": "Mon Nov 25 21:17:07 +0000 2013", 
   "retweet_count": 34, 
   "favorite_count": 23
  }, 
  {
   "text": "Food Drive runs until game time fans so pick up some items on your way to @BrdgstoneArena tonight. Preds vs Coyotes at 7pm.", 
   "label": "O", 
   "id": 405076431916384257, 
   "hashtags": [], 
   "user_mentions": [
    "BrdgstoneArena"
   ], 
   "created_at": "Mon Nov 25 20:52:01 +0000 2013", 
   "retweet_count": 7, 
   "favorite_count": 4
  }, 
  {
   "text": "RT @tjmartell: Hey, #Nashville! Are you joining us Saturday for our FREE party with @DunkinDonuts &amp; @PredsNHL? http://t.co/wCoKsYPLm3", 
   "label": "O", 
   "id": 405074213574176768, 
   "hashtags": [
    "Nashville"
   ], 
   "user_mentions": [
    "tjmartell", 
    "DunkinDonuts", 
    "PredsNHL"
   ], 
   "created_at": "Mon Nov 25 20:43:13 +0000 2013", 
   "retweet_count": 2, 
   "favorite_count": 0
  }, 
  {
   "text": "RT @FOX17Eric: Want free @predsnhl tickets? Come donate to @2HarvestMidTN and meet the @wztv_fox17 team outside of Bridgestone http://t.co/\u2026", 
   "label": "O", 
   "id": 405059278068649984, 
   "hashtags": [], 
   "user_mentions": [
    "FOX17Eric", 
    "PredsNHL", 
    "2HarvestMidTN", 
    "wztv_fox17"
   ], 
   "created_at": "Mon Nov 25 19:43:52 +0000 2013", 
   "retweet_count": 17, 
   "favorite_count": 0
  }, 
  {
   "text": "RT @Twoguyslunchbox: Bring some food to donate and join us @BrdgstoneArena with @SlowHandCoffee for the @2HarvestMidTN food drive!", 
   "label": "O", 
   "id": 405025135779778561, 
   "hashtags": [], 
   "user_mentions": [
    "Twoguyslunchbox", 
    "BrdgstoneArena", 
    "SlowHandCoffee", 
    "2HarvestMidTN"
   ], 
   "created_at": "Mon Nov 25 17:28:12 +0000 2013", 
   "retweet_count": 7, 
   "favorite_count": 0
  }, 
  {
   "text": "It's food truck lunch time on the @BrdgstoneArena plaza! Come on down, donate to the @2HarvestMidTN and have some lunch!", 
   "label": "O", 
   "id": 405022421343690752, 
   "hashtags": [], 
   "user_mentions": [
    "BrdgstoneArena", 
    "2HarvestMidTN"
   ], 
   "created_at": "Mon Nov 25 17:17:24 +0000 2013", 
   "retweet_count": 4, 
   "favorite_count": 2
  }, 
  {
   "text": "Don't forget! Take your non-winning TN Lottery ticket to the @BrdgstoneArena Box Office for a buy one get one free ticket to tonight's game!", 
   "label": "O", 
   "id": 405009381407731712, 
   "hashtags": [], 
   "user_mentions": [
    "BrdgstoneArena"
   ], 
   "created_at": "Mon Nov 25 16:25:35 +0000 2013", 
   "retweet_count": 8, 
   "favorite_count": 3
  }, 
  {
   "text": "RT @2HarvestMidTN: We're at Bridgestone Arena all day today collecting food for the @PredsNHL food drive! Stop by for food &amp; fun! http://t.\u2026", 
   "label": "O", 
   "id": 404969968610967552, 
   "hashtags": [], 
   "user_mentions": [
    "2HarvestMidTN", 
    "PredsNHL"
   ], 
   "created_at": "Mon Nov 25 13:48:59 +0000 2013", 
   "retweet_count": 22, 
   "favorite_count": 0
  }, 
  {
   "text": "RT @_thegolds: Hey @espn... How about some @PredsNHL highlights? http://t.co/x9GSvsZLiw", 
   "label": "O", 
   "id": 404958483776536576, 
   "hashtags": [], 
   "user_mentions": [
    "_thegolds", 
    "espn", 
    "PredsNHL"
   ], 
   "created_at": "Mon Nov 25 13:03:20 +0000 2013", 
   "retweet_count": 55, 
   "favorite_count": 0
  }, 
  {
   "text": "RT @1025TheGame: The First Quarter is live at @BrdgstoneArena this morning to help the @PredsNHL #FoodDrive benefiting @2HarvestMidTN. Go b\u2026", 
   "label": "O", 
   "id": 404947463003725824, 
   "hashtags": [
    "FoodDrive"
   ], 
   "user_mentions": [
    "1025TheGame", 
    "BrdgstoneArena", 
    "PredsNHL", 
    "2HarvestMidTN"
   ], 
   "created_at": "Mon Nov 25 12:19:33 +0000 2013", 
   "retweet_count": 5, 
   "favorite_count": 0
  }
 ]
}