{
 "num_road_team_goals": "4", 
 "home_team": "Winnipeg Jets", 
 "num_home_team_goals": "3", 
 "summary_url": "http://www.flyershistory.com/cgi-bin/poboxscore.cgi?H20130802", 
 "result": "W", 
 "road_team": "Nashville Predators", 
 "date": "2014-01-28", 
 "goals": [
  {
   "season_index": "5", 
   "strength": "(EV)", 
   "time": "3:48", 
   "period": "1", 
   "player": "S.Jones", 
   "assists": "(M.Del, C.Smith)", 
   "game_index": "1", 
   "team": "NSH"
  }, 
  {
   "season_index": "1", 
   "strength": "(EV)", 
   "time": "4:10", 
   "period": "1", 
   "player": "C.Thorburn", 
   "assists": "(M.Stuart, J.Trouba)", 
   "game_index": "2", 
   "team": "WPG"
  }, 
  {
   "season_index": "7", 
   "strength": "(EV)", 
   "time": "0:42", 
   "period": "2", 
   "player": "R.Josi", 
   "assists": "(C.Smith, D.Legwand)", 
   "game_index": "3", 
   "team": "NSH"
  }, 
  {
   "season_index": "10", 
   "strength": "(EV)", 
   "time": "17:18", 
   "period": "2", 
   "player": "N.Spaling", 
   "assists": "(P.Gaustad, C.Sissons)", 
   "game_index": "4", 
   "team": "NSH"
  }, 
  {
   "season_index": "11", 
   "strength": "(EV)", 
   "time": "18:13", 
   "period": "2", 
   "player": "M.Scheifele", 
   "assists": null, 
   "game_index": "5", 
   "team": "WPG"
  }, 
  {
   "season_index": "22", 
   "strength": "(EV)", 
   "time": "18:40", 
   "period": "2", 
   "player": "B.Wheeler", 
   "assists": "(M.Scheifele, J.Trouba)", 
   "game_index": "6", 
   "team": "WPG"
  }, 
  {
   "season_index": "14", 
   "strength": "(PP)", 
   "time": "0:42", 
   "period": "3", 
   "player": "M.Fisher", 
   "assists": "(P.Hornqvist, S.Weber)", 
   "game_index": "7", 
   "team": "NSH"
  }
 ], 
 "tweets": [
  {
   "text": "RT @RealScottNichol: Congrats @colton_es15 on his 1st NHL game and his 1st assist #manymoretocome http://t.co/075QzURBrB", 
   "label": "O", 
   "id": 428378967645507584, 
   "hashtags": [
    "manymoretocome"
   ], 
   "user_mentions": [
    "RealScottNichol", 
    "colton_es15"
   ], 
   "created_at": "Wed Jan 29 04:07:59 +0000 2014", 
   "retweet_count": 57, 
   "favorite_count": 0
  }, 
  {
   "text": "Head Coach Barry Trotz in his media scrum following the Preds 4-3 win over the Jets tonight. #NSHvsWPG http://t.co/4SqR96FRkN", 
   "label": "O", 
   "id": 428373825357901824, 
   "hashtags": [
    "NSHvsWPG"
   ], 
   "user_mentions": [], 
   "created_at": "Wed Jan 29 03:47:33 +0000 2014", 
   "retweet_count": 9, 
   "favorite_count": 22
  }, 
  {
   "text": "HANDS UP!! Preds win this one 4-3 over the Jets. #NSHvsWPG #BellLetsTalk", 
   "label": "O", 
   "id": 428368863776874496, 
   "hashtags": [
    "NSHvsWPG", 
    "BellLetsTalk"
   ], 
   "user_mentions": [], 
   "created_at": "Wed Jan 29 03:27:50 +0000 2014", 
   "retweet_count": 191, 
   "favorite_count": 97
  }, 
  {
   "text": "Jets have pulled their goalie. One minute to go. #NSHvsWPG", 
   "label": "O", 
   "id": 428368082864582656, 
   "hashtags": [
    "NSHvsWPG"
   ], 
   "user_mentions": [], 
   "created_at": "Wed Jan 29 03:24:44 +0000 2014", 
   "retweet_count": 11, 
   "favorite_count": 10
  }, 
  {
   "text": "Clune in the box, Jets on the PP. #NSHvsWPG", 
   "label": "O", 
   "id": 428363917044109312, 
   "hashtags": [
    "NSHvsWPG"
   ], 
   "user_mentions": [], 
   "created_at": "Wed Jan 29 03:08:11 +0000 2014", 
   "retweet_count": 1, 
   "favorite_count": 5
  }, 
  {
   "text": "GOAL! The first one was negated, the second one counts. Fisher makes it 4-3 on the PP. #NSHvsWPG", 
   "label": "O", 
   "id": 428361219645251586, 
   "hashtags": [
    "NSHvsWPG"
   ], 
   "user_mentions": [], 
   "created_at": "Wed Jan 29 02:57:27 +0000 2014", 
   "retweet_count": 24, 
   "favorite_count": 40
  }, 
  {
   "text": "Here we go with the 3rd period! #NSHvsWPG", 
   "label": "O", 
   "id": 428360684842147840, 
   "hashtags": [
    "NSHvsWPG"
   ], 
   "user_mentions": [], 
   "created_at": "Wed Jan 29 02:55:20 +0000 2014", 
   "retweet_count": 3, 
   "favorite_count": 9
  }, 
  {
   "text": "Well that escalated quickly. 3-3 at the end of 40 minutes of play. #NSHvsWPG", 
   "label": "O", 
   "id": 428356017835892737, 
   "hashtags": [
    "NSHvsWPG"
   ], 
   "user_mentions": [], 
   "created_at": "Wed Jan 29 02:36:47 +0000 2014", 
   "retweet_count": 17, 
   "favorite_count": 15
  }, 
  {
   "text": "Preds now on the PP. Setoguchi called for slashing. #NSHvsWPG", 
   "label": "O", 
   "id": 428355599219175424, 
   "hashtags": [
    "NSHvsWPG"
   ], 
   "user_mentions": [], 
   "created_at": "Wed Jan 29 02:35:07 +0000 2014", 
   "retweet_count": 1, 
   "favorite_count": 4
  }, 
  {
   "text": "3-3 now. Scheifle and Wheeler with the goals. #NSHvsWPG", 
   "label": "O", 
   "id": 428355284352761857, 
   "hashtags": [
    "NSHvsWPG"
   ], 
   "user_mentions": [], 
   "created_at": "Wed Jan 29 02:33:52 +0000 2014", 
   "retweet_count": 5, 
   "favorite_count": 4
  }, 
  {
   "text": "Goal officially Spaling from Gaustad and Sissons (his first NHL point). #NSHvsWPG", 
   "label": "O", 
   "id": 428354794374168576, 
   "hashtags": [
    "NSHvsWPG"
   ], 
   "user_mentions": [], 
   "created_at": "Wed Jan 29 02:31:56 +0000 2014", 
   "retweet_count": 18, 
   "favorite_count": 16
  }, 
  {
   "text": "GOAL! Spaling puts the Preds up 3-1 at 17:18 of the 2nd. #NSHvsWPG", 
   "label": "O", 
   "id": 428354477867819008, 
   "hashtags": [
    "NSHvsWPG"
   ], 
   "user_mentions": [], 
   "created_at": "Wed Jan 29 02:30:40 +0000 2014", 
   "retweet_count": 17, 
   "favorite_count": 23
  }, 
  {
   "text": "Goal officially Josi from Smith and Legwand at :42 of the 2nd period. #WPGvsNSH", 
   "label": "O", 
   "id": 428347559828918272, 
   "hashtags": [
    "WPGvsNSH"
   ], 
   "user_mentions": [], 
   "created_at": "Wed Jan 29 02:03:11 +0000 2014", 
   "retweet_count": 7, 
   "favorite_count": 16
  }, 
  {
   "text": "GOAL! Preds score :42 into the period on a goal from Josi. #NSHvsWPG", 
   "label": "O", 
   "id": 428347437149724672, 
   "hashtags": [
    "NSHvsWPG"
   ], 
   "user_mentions": [], 
   "created_at": "Wed Jan 29 02:02:41 +0000 2014", 
   "retweet_count": 12, 
   "favorite_count": 19
  }, 
  {
   "text": "2nd period underway with teams knotted at one. #NSHvsWPG", 
   "label": "O", 
   "id": 428347103203454977, 
   "hashtags": [
    "NSHvsWPG"
   ], 
   "user_mentions": [], 
   "created_at": "Wed Jan 29 02:01:22 +0000 2014", 
   "retweet_count": 5, 
   "favorite_count": 4
  }, 
  {
   "text": "1-1 at the end of the 1st period. #NSHvsWPG", 
   "label": "O", 
   "id": 428342505814233088, 
   "hashtags": [
    "NSHvsWPG"
   ], 
   "user_mentions": [], 
   "created_at": "Wed Jan 29 01:43:06 +0000 2014", 
   "retweet_count": 8, 
   "favorite_count": 8
  }, 
  {
   "text": "Weber called for holding the stick. Jets on their first PP of the night. #NSHvsWPG", 
   "label": "O", 
   "id": 428341650675335168, 
   "hashtags": [
    "NSHvsWPG"
   ], 
   "user_mentions": [], 
   "created_at": "Wed Jan 29 01:39:42 +0000 2014", 
   "retweet_count": 4, 
   "favorite_count": 4
  }, 
  {
   "text": "Scheifle in the box for interference. Preds on the PP. #NSHvsWPG", 
   "label": "O", 
   "id": 428337805584912384, 
   "hashtags": [
    "NSHvsWPG"
   ], 
   "user_mentions": [], 
   "created_at": "Wed Jan 29 01:24:25 +0000 2014", 
   "retweet_count": 2, 
   "favorite_count": 4
  }, 
  {
   "text": "Byfuglien in the box for slashing. Preds get the PP. #NSHvsWPG", 
   "label": "O", 
   "id": 428336105092423682, 
   "hashtags": [
    "NSHvsWPG"
   ], 
   "user_mentions": [], 
   "created_at": "Wed Jan 29 01:17:40 +0000 2014", 
   "retweet_count": 3, 
   "favorite_count": 6
  }, 
  {
   "text": "1-1 on a goal from Thorburn. #NSHvsWPG", 
   "label": "O", 
   "id": 428335928319279104, 
   "hashtags": [
    "NSHvsWPG"
   ], 
   "user_mentions": [], 
   "created_at": "Wed Jan 29 01:16:58 +0000 2014", 
   "retweet_count": 7, 
   "favorite_count": 5
  }, 
  {
   "text": "Jones from Del Zotto and Smith at 3:48 of the 1st period. #NSHvsWPG", 
   "label": "O", 
   "id": 428335548344717312, 
   "hashtags": [
    "NSHvsWPG"
   ], 
   "user_mentions": [], 
   "created_at": "Wed Jan 29 01:15:27 +0000 2014", 
   "retweet_count": 11, 
   "favorite_count": 21
  }, 
  {
   "text": "GOAL! Jones scores at 3:48 of the 1st to put the Preds up 1-0. #NSHvsWPG #BellLetsTalk", 
   "label": "O", 
   "id": 428335344983891968, 
   "hashtags": [
    "NSHvsWPG", 
    "BellLetsTalk"
   ], 
   "user_mentions": [], 
   "created_at": "Wed Jan 29 01:14:38 +0000 2014", 
   "retweet_count": 50, 
   "favorite_count": 37
  }, 
  {
   "text": "Scratches: Cullen, Stalberg (upper body injuries) and Victor Bartley. #NSHvsWPG", 
   "label": "O", 
   "id": 428333942698045440, 
   "hashtags": [
    "NSHvsWPG"
   ], 
   "user_mentions": [], 
   "created_at": "Wed Jan 29 01:09:04 +0000 2014", 
   "retweet_count": 4, 
   "favorite_count": 2
  }, 
  {
   "text": "Game on between the #Preds and Jets! Tune in on @FSTennessee (Comcast HD 1675) &amp; @1025TheGame. Hutton starts in net for Nashville. #NSHvsWPG", 
   "label": "O", 
   "id": 428333778226794496, 
   "hashtags": [
    "Preds", 
    "NSHvsWPG"
   ], 
   "user_mentions": [
    "FSTennessee", 
    "1025TheGame"
   ], 
   "created_at": "Wed Jan 29 01:08:25 +0000 2014", 
   "retweet_count": 1, 
   "favorite_count": 7
  }, 
  {
   "text": "Guys are ready in the tunnel. A little over 15 minutes from puck drop in Winnipeg. #NSHvsWPG http://t.co/px7Cn8MbID", 
   "label": "O", 
   "id": 428327580765552641, 
   "hashtags": [
    "NSHvsWPG"
   ], 
   "user_mentions": [], 
   "created_at": "Wed Jan 29 00:43:47 +0000 2014", 
   "retweet_count": 24, 
   "favorite_count": 58
  }, 
  {
   "text": "Morning skate has wrapped in Winnipeg. #NSHvsWPG #BellLetsTalk http://t.co/YB0JutzpZI", 
   "label": "O", 
   "id": 428234715406299136, 
   "hashtags": [
    "NSHvsWPG", 
    "BellLetsTalk"
   ], 
   "user_mentions": [], 
   "created_at": "Tue Jan 28 18:34:47 +0000 2014", 
   "retweet_count": 50, 
   "favorite_count": 24
  }, 
  {
   "text": "Tag #BellLetsTalk when you are tweeting today Preds fans! 5c going to mental health research &amp; awareness courtesy of Canadian company Bell.", 
   "label": "O", 
   "id": 428223498616852480, 
   "hashtags": [
    "BellLetsTalk"
   ], 
   "user_mentions": [], 
   "created_at": "Tue Jan 28 17:50:12 +0000 2014", 
   "retweet_count": 159, 
   "favorite_count": 25
  }, 
  {
   "text": "RT @Gnash00: Cupid Gnash deliveries are back! \nTo reserve your Valentine\u2019s Day package, go to http://t.co/SjMJ2djdtv http://t.co/ORl3yPvhhG", 
   "label": "O", 
   "id": 428201232692695041, 
   "hashtags": [], 
   "user_mentions": [
    "Gnash00"
   ], 
   "created_at": "Tue Jan 28 16:21:44 +0000 2014", 
   "retweet_count": 11, 
   "favorite_count": 0
  }, 
  {
   "text": "Game Day! Preds close out this Canada trip tonight against the Winnipeg Jets. 7pm/CT puck drop on @FSTennessee and @1025TheGame. #NSHvsWPG", 
   "label": "O", 
   "id": 428189921640468481, 
   "hashtags": [
    "NSHvsWPG"
   ], 
   "user_mentions": [
    "FSTennessee", 
    "1025TheGame"
   ], 
   "created_at": "Tue Jan 28 15:36:47 +0000 2014", 
   "retweet_count": 13, 
   "favorite_count": 6
  }
 ]
}