{
 "num_road_team_goals": "5", 
 "home_team": "Nashville Predators", 
 "num_home_team_goals": "7", 
 "summary_url": "http://www.flyershistory.com/cgi-bin/poboxscore.cgi?H20131217", 
 "result": "W", 
 "road_team": "Chicago Blackhawks", 
 "date": "2014-04-12", 
 "goals": [
  {
   "season_index": "14", 
   "strength": "(EV)", 
   "time": "4:11", 
   "period": "1", 
   "player": "B.Smith", 
   "assists": "(B.Saad)", 
   "game_index": "1", 
   "team": "CHI"
  }, 
  {
   "season_index": "30", 
   "strength": "(EV)", 
   "time": "12:43", 
   "period": "1", 
   "player": "M.Hossa", 
   "assists": null, 
   "game_index": "2", 
   "team": "CHI"
  }, 
  {
   "season_index": "22", 
   "strength": "(EV)", 
   "time": "12:57", 
   "period": "1", 
   "player": "C.Smith", 
   "assists": "(P.Gaustad)", 
   "game_index": "3", 
   "team": "NSH"
  }, 
  {
   "season_index": "5", 
   "strength": "(EV)", 
   "time": "6:32", 
   "period": "2", 
   "player": "R.Ellis", 
   "assists": "(M.Fisher, P.Hornqvist)", 
   "game_index": "4", 
   "team": "NSH"
  }, 
  {
   "season_index": "1", 
   "strength": "(EV)", 
   "time": "13:16", 
   "period": "2", 
   "player": "M.Carey", 
   "assists": "(B.Bickell, B.Saad)", 
   "game_index": "5", 
   "team": "CHI"
  }, 
  {
   "season_index": "10", 
   "strength": "(EV)", 
   "time": "4:03", 
   "period": "3", 
   "player": "M.Cullen", 
   "assists": "(M.Fisher, M.Ekholm)", 
   "game_index": "6", 
   "team": "NSH"
  }, 
  {
   "season_index": "11", 
   "strength": "(EV)", 
   "time": "7:05", 
   "period": "3", 
   "player": "C.Wilson", 
   "assists": "(S.Weber, V.Stalberg)", 
   "game_index": "7", 
   "team": "NSH"
  }, 
  {
   "season_index": "5", 
   "strength": "(EV)", 
   "time": "8:00", 
   "period": "3", 
   "player": "J.Morin", 
   "assists": "(J.Oduya, A.Shaw)", 
   "game_index": "8", 
   "team": "CHI"
  }, 
  {
   "season_index": "10", 
   "strength": "(EV)", 
   "time": "17:05", 
   "period": "3", 
   "player": "P.Gaustad", 
   "assists": "(C.Smith, G.Bourque)", 
   "game_index": "9", 
   "team": "NSH"
  }, 
  {
   "season_index": "20", 
   "strength": "(EV)", 
   "time": "18:25", 
   "period": "3", 
   "player": "A.Shaw", 
   "assists": null, 
   "game_index": "10", 
   "team": "CHI"
  }, 
  {
   "season_index": "22", 
   "strength": "(EV)", 
   "time": "19:01", 
   "period": "3", 
   "player": "P.Hornqvist", 
   "assists": "(M.Cullen, M.Fisher)", 
   "game_index": "11", 
   "team": "NSH"
  }, 
  {
   "season_index": "22", 
   "strength": "(EV-EN)", 
   "time": "19:46", 
   "period": "3", 
   "player": "S.Weber", 
   "assists": "(R.Josi, P.Gaustad)", 
   "game_index": "12", 
   "team": "NSH"
  }
 ], 
 "tweets": [
  {
   "text": "#Preds close out the season tomorrow night in Minnesota against the Wild.", 
   "label": "O", 
   "id": 455173898326536192, 
   "hashtags": [
    "Preds"
   ], 
   "user_mentions": [], 
   "created_at": "Sun Apr 13 02:41:28 +0000 2014", 
   "retweet_count": 22, 
   "favorite_count": 49
  }, 
  {
   "text": "Preds win &amp; so do you! Pick up voucher as you exit good for a FREE md coffee or fountain drink at participating Middle TN @TwiceDailyFresh", 
   "label": "O", 
   "id": 455173599503323136, 
   "hashtags": [], 
   "user_mentions": [
    "TwiceDailyFresh"
   ], 
   "created_at": "Sun Apr 13 02:40:17 +0000 2014", 
   "retweet_count": 6, 
   "favorite_count": 27
  }, 
  {
   "text": "HANDS UP AND STAYING THERE! #Preds defeat the Hawks 7 to 5 in the home finale! #CHIvsNSH", 
   "label": "O", 
   "id": 455173425754292224, 
   "hashtags": [
    "Preds", 
    "CHIvsNSH"
   ], 
   "user_mentions": [], 
   "created_at": "Sun Apr 13 02:39:36 +0000 2014", 
   "retweet_count": 219, 
   "favorite_count": 177
  }, 
  {
   "text": "GOAL!! Empty netter by Weber puts the #Preds up 7-5 with :14 to go. #CHIvsNSH", 
   "label": "O", 
   "id": 455173185924001792, 
   "hashtags": [
    "Preds", 
    "CHIvsNSH"
   ], 
   "user_mentions": [], 
   "created_at": "Sun Apr 13 02:38:38 +0000 2014", 
   "retweet_count": 53, 
   "favorite_count": 81
  }, 
  {
   "text": "Hawks pull the goalie. :20 to go. #CHIvsNSH", 
   "label": "O", 
   "id": 455172921695436800, 
   "hashtags": [
    "CHIvsNSH"
   ], 
   "user_mentions": [], 
   "created_at": "Sun Apr 13 02:37:35 +0000 2014", 
   "retweet_count": 2, 
   "favorite_count": 9
  }, 
  {
   "text": "Goal officially Hornqvist from Cullen and Fisher at 19:01. #CHIvsNSH", 
   "label": "O", 
   "id": 455172515833606144, 
   "hashtags": [
    "CHIvsNSH"
   ], 
   "user_mentions": [], 
   "created_at": "Sun Apr 13 02:35:59 +0000 2014", 
   "retweet_count": 9, 
   "favorite_count": 31
  }, 
  {
   "text": "GOAL!!!!! Hornqvist gets it right back 6-5 #Preds with under a minute to play. #CHIvsNSH", 
   "label": "O", 
   "id": 455172282915516416, 
   "hashtags": [
    "Preds", 
    "CHIvsNSH"
   ], 
   "user_mentions": [], 
   "created_at": "Sun Apr 13 02:35:03 +0000 2014", 
   "retweet_count": 45, 
   "favorite_count": 59
  }, 
  {
   "text": "Hawks tie it up. Shaw with the equalizer. 5-5 with 1:30 to go. #CHIvsNSH", 
   "label": "O", 
   "id": 455172054053310464, 
   "hashtags": [
    "CHIvsNSH"
   ], 
   "user_mentions": [], 
   "created_at": "Sun Apr 13 02:34:09 +0000 2014", 
   "retweet_count": 3, 
   "favorite_count": 13
  }, 
  {
   "text": "RT @PredsFoundation: @BestBuddiesTN has their 50/50 charity raffle winner! A72137! Visit http://t.co/0MxFXhgCMr to collect your winnings!", 
   "label": "O", 
   "id": 455171446688722944, 
   "hashtags": [], 
   "user_mentions": [
    "PredsFoundation", 
    "BestBuddiesTN"
   ], 
   "created_at": "Sun Apr 13 02:31:44 +0000 2014", 
   "retweet_count": 2, 
   "favorite_count": 0
  }, 
  {
   "text": "Goal officially Gaustad from Smith and Bourque at 17:05 of the 3rd. #CHIvsNSH", 
   "label": "O", 
   "id": 455171435271831552, 
   "hashtags": [
    "CHIvsNSH"
   ], 
   "user_mentions": [], 
   "created_at": "Sun Apr 13 02:31:41 +0000 2014", 
   "retweet_count": 2, 
   "favorite_count": 11
  }, 
  {
   "text": "GOAL!!! Gaustad scores on a great pass from Craig Smith behind the net 5-4 with 2:55 to go. #CHIvsNSH", 
   "label": "O", 
   "id": 455171239569784834, 
   "hashtags": [
    "CHIvsNSH"
   ], 
   "user_mentions": [], 
   "created_at": "Sun Apr 13 02:30:54 +0000 2014", 
   "retweet_count": 23, 
   "favorite_count": 38
  }, 
  {
   "text": "RT @BestBuddiesTN: We have a winner for the @PredsNHL Smashville Giveaway! If your number is A72137, today is your lucky day!", 
   "label": "O", 
   "id": 455169913876144129, 
   "hashtags": [], 
   "user_mentions": [
    "BestBuddiesTN", 
    "PredsNHL"
   ], 
   "created_at": "Sun Apr 13 02:25:38 +0000 2014", 
   "retweet_count": 3, 
   "favorite_count": 0
  }, 
  {
   "text": "#Preds on the PP. Chicago called for too many men on the ice. #CHIvsNSH", 
   "label": "O", 
   "id": 455168362830905345, 
   "hashtags": [
    "Preds", 
    "CHIvsNSH"
   ], 
   "user_mentions": [], 
   "created_at": "Sun Apr 13 02:19:28 +0000 2014", 
   "retweet_count": 5, 
   "favorite_count": 16
  }, 
  {
   "text": "Chicago ties it up on bouncing puck. 4-4. #CHIvsNSH", 
   "label": "O", 
   "id": 455166671444271105, 
   "hashtags": [
    "CHIvsNSH"
   ], 
   "user_mentions": [], 
   "created_at": "Sun Apr 13 02:12:45 +0000 2014", 
   "retweet_count": 1, 
   "favorite_count": 5
  }, 
  {
   "text": "That\u2019s your Frosty goal #Smashville! Your game ticket is now good for a FREE 10oz Frosty at participating Middle TN Wendy\u2019s. #CHIvsNSH", 
   "label": "O", 
   "id": 455166391185051648, 
   "hashtags": [
    "Smashville", 
    "CHIvsNSH"
   ], 
   "user_mentions": [], 
   "created_at": "Sun Apr 13 02:11:38 +0000 2014", 
   "retweet_count": 4, 
   "favorite_count": 22
  }, 
  {
   "text": "Goal officially Wilson from Weber and Stalberg at 7:05 of the 3rd. #CHIvsNSH", 
   "label": "O", 
   "id": 455166199656353792, 
   "hashtags": [
    "CHIvsNSH"
   ], 
   "user_mentions": [], 
   "created_at": "Sun Apr 13 02:10:53 +0000 2014", 
   "retweet_count": 6, 
   "favorite_count": 20
  }, 
  {
   "text": "GOAL!! Wilson scores on the rebound to put the #Preds up 4-3. #CHIvsNSH", 
   "label": "O", 
   "id": 455166034061049856, 
   "hashtags": [
    "Preds", 
    "CHIvsNSH"
   ], 
   "user_mentions": [], 
   "created_at": "Sun Apr 13 02:10:13 +0000 2014", 
   "retweet_count": 16, 
   "favorite_count": 36
  }, 
  {
   "text": "Goal officially Cullen from Fisher and Ekholm at 4:03 of the 3rd period. #CHIvsNSH", 
   "label": "O", 
   "id": 455165064598003712, 
   "hashtags": [
    "CHIvsNSH"
   ], 
   "user_mentions": [], 
   "created_at": "Sun Apr 13 02:06:22 +0000 2014", 
   "retweet_count": 9, 
   "favorite_count": 23
  }, 
  {
   "text": "GOAL! Tie game 3-3 on a goal from Cullen. #CHIvsNSH", 
   "label": "O", 
   "id": 455164594252939264, 
   "hashtags": [
    "CHIvsNSH"
   ], 
   "user_mentions": [], 
   "created_at": "Sun Apr 13 02:04:30 +0000 2014", 
   "retweet_count": 12, 
   "favorite_count": 29
  }, 
  {
   "text": "Here we go with the 3rd period. Hawks up 3-2. #CHIvsNSH", 
   "label": "O", 
   "id": 455163277287641088, 
   "hashtags": [
    "CHIvsNSH"
   ], 
   "user_mentions": [], 
   "created_at": "Sun Apr 13 01:59:16 +0000 2014", 
   "retweet_count": 4, 
   "favorite_count": 7
  }, 
  {
   "text": "Hawks lead 3-2 at the end of the 2nd period here in Smashville. #CHIvsNSH", 
   "label": "O", 
   "id": 455158581823016960, 
   "hashtags": [
    "CHIvsNSH"
   ], 
   "user_mentions": [], 
   "created_at": "Sun Apr 13 01:40:37 +0000 2014", 
   "retweet_count": 2, 
   "favorite_count": 8
  }, 
  {
   "text": "Congrats to Austin! RT @mkeadmirals: WATSON SCORES HIS THIRD POWER PLAY GOAL OF THE GAME! 3-1 for the Ads. #HatTrick", 
   "label": "O", 
   "id": 455157967508496384, 
   "hashtags": [
    "HatTrick"
   ], 
   "user_mentions": [
    "mkeadmirals"
   ], 
   "created_at": "Sun Apr 13 01:38:10 +0000 2014", 
   "retweet_count": 10, 
   "favorite_count": 28
  }, 
  {
   "text": "Versteeg called for high sticking. #Preds on the PP. #CHIvsNSH", 
   "label": "O", 
   "id": 455157130069544960, 
   "hashtags": [
    "Preds", 
    "CHIvsNSH"
   ], 
   "user_mentions": [], 
   "created_at": "Sun Apr 13 01:34:50 +0000 2014", 
   "retweet_count": 0, 
   "favorite_count": 6
  }, 
  {
   "text": "Hawks score on a goal from Carey to go up 3-2. #CHIvsNSH", 
   "label": "O", 
   "id": 455155355958648832, 
   "hashtags": [
    "CHIvsNSH"
   ], 
   "user_mentions": [], 
   "created_at": "Sun Apr 13 01:27:47 +0000 2014", 
   "retweet_count": 2, 
   "favorite_count": 8
  }, 
  {
   "text": "Jones called for tripping. Hawks on the PP. #CHIvsNSH", 
   "label": "O", 
   "id": 455154200226594816, 
   "hashtags": [
    "CHIvsNSH"
   ], 
   "user_mentions": [], 
   "created_at": "Sun Apr 13 01:23:12 +0000 2014", 
   "retweet_count": 1, 
   "favorite_count": 8
  }, 
  {
   "text": "#Preds on the PP. Rozsival in the box. #CHIvsNSH", 
   "label": "O", 
   "id": 455152156866514944, 
   "hashtags": [
    "Preds", 
    "CHIvsNSH"
   ], 
   "user_mentions": [], 
   "created_at": "Sun Apr 13 01:15:05 +0000 2014", 
   "retweet_count": 2, 
   "favorite_count": 13
  }, 
  {
   "text": "Goal officially Ellis from Fisher and Hornqvist at 6:32 of the 2nd period. #CHIvsNSH", 
   "label": "O", 
   "id": 455151940771799040, 
   "hashtags": [
    "CHIvsNSH"
   ], 
   "user_mentions": [], 
   "created_at": "Sun Apr 13 01:14:13 +0000 2014", 
   "retweet_count": 7, 
   "favorite_count": 25
  }, 
  {
   "text": "GOAL!! #Preds tie it up on a goal from Ryan Ellis! #CHIvsNSH", 
   "label": "O", 
   "id": 455151725637541888, 
   "hashtags": [
    "Preds", 
    "CHIvsNSH"
   ], 
   "user_mentions": [], 
   "created_at": "Sun Apr 13 01:13:22 +0000 2014", 
   "retweet_count": 20, 
   "favorite_count": 30
  }, 
  {
   "text": "First penalty of the night goes to Ryan Ellis for tripping. Hawks on the PP. #CHIvsNSH", 
   "label": "O", 
   "id": 455150636162895872, 
   "hashtags": [
    "CHIvsNSH"
   ], 
   "user_mentions": [], 
   "created_at": "Sun Apr 13 01:09:02 +0000 2014", 
   "retweet_count": 1, 
   "favorite_count": 4
  }, 
  {
   "text": "RT @BestBuddiesTN: Hey @PredsNHL @PREDSident @PredsFoundation !! Last chance 2 win big 4 the 50/50 raffle announced during the 3rd period!", 
   "label": "O", 
   "id": 455149960921890816, 
   "hashtags": [], 
   "user_mentions": [
    "BestBuddiesTN", 
    "PredsNHL", 
    "PREDSident", 
    "PredsFoundation"
   ], 
   "created_at": "Sun Apr 13 01:06:21 +0000 2014", 
   "retweet_count": 3, 
   "favorite_count": 6
  }, 
  {
   "text": "2nd period is underway! #CHIvsNSH", 
   "label": "O", 
   "id": 455149475519279104, 
   "hashtags": [
    "CHIvsNSH"
   ], 
   "user_mentions": [], 
   "created_at": "Sun Apr 13 01:04:25 +0000 2014", 
   "retweet_count": 3, 
   "favorite_count": 7
  }, 
  {
   "text": "2-1 Hawks at the end of the 1st period of play. #CHIvsNSH", 
   "label": "O", 
   "id": 455144762497327104, 
   "hashtags": [
    "CHIvsNSH"
   ], 
   "user_mentions": [], 
   "created_at": "Sun Apr 13 00:45:42 +0000 2014", 
   "retweet_count": 1, 
   "favorite_count": 11
  }, 
  {
   "text": "Goal officially Smith from Gaustad at 12:57. #CHIvsNSH", 
   "label": "O", 
   "id": 455142113597210624, 
   "hashtags": [
    "CHIvsNSH"
   ], 
   "user_mentions": [], 
   "created_at": "Sun Apr 13 00:35:10 +0000 2014", 
   "retweet_count": 2, 
   "favorite_count": 16
  }, 
  {
   "text": "GOAL! #Preds answer RIGHT back get on the board on a goal from Craig Smith. 2-1 Hawks. #CHIvsNSH", 
   "label": "O", 
   "id": 455141818611818496, 
   "hashtags": [
    "Preds", 
    "CHIvsNSH"
   ], 
   "user_mentions": [], 
   "created_at": "Sun Apr 13 00:34:00 +0000 2014", 
   "retweet_count": 19, 
   "favorite_count": 26
  }, 
  {
   "text": "Wrap-around goal by Hossa puts the Hawks up 2-0. #CHIvsNSH", 
   "label": "O", 
   "id": 455141448523214848, 
   "hashtags": [
    "CHIvsNSH"
   ], 
   "user_mentions": [], 
   "created_at": "Sun Apr 13 00:32:32 +0000 2014", 
   "retweet_count": 1, 
   "favorite_count": 6
  }, 
  {
   "text": "Hawks tally first on a goal from Ben Smith. 1-0. #CHIvsNSH", 
   "label": "O", 
   "id": 455137418782736384, 
   "hashtags": [
    "CHIvsNSH"
   ], 
   "user_mentions": [], 
   "created_at": "Sun Apr 13 00:16:31 +0000 2014", 
   "retweet_count": 3, 
   "favorite_count": 4
  }, 
  {
   "text": "Last time this season - game on from Smashville! We are national tonight on @NHLonNBCSports (Comcast HD 1607) &amp; @1025TheGame. #CHIvsNSH", 
   "label": "O", 
   "id": 455135866189774849, 
   "hashtags": [
    "CHIvsNSH"
   ], 
   "user_mentions": [
    "NHLonNBCSports", 
    "1025TheGame"
   ], 
   "created_at": "Sun Apr 13 00:10:21 +0000 2014", 
   "retweet_count": 6, 
   "favorite_count": 15
  }, 
  {
   "text": "20% off all merchandise tonight! 30% for STH. $50 off all player authentic merchandise at the South\u2026 http://t.co/HgkQSIXymn", 
   "label": "O", 
   "id": 455123269369491457, 
   "hashtags": [], 
   "user_mentions": [], 
   "created_at": "Sat Apr 12 23:20:17 +0000 2014", 
   "retweet_count": 2, 
   "favorite_count": 7
  }, 
  {
   "text": "RT @PredsProShop: tonight in game only!!!! 20% off merchandise and 30% off for season ticket holders (excludes authentics and specialty ite\u2026", 
   "label": "O", 
   "id": 455101122286714881, 
   "hashtags": [
    "gopreds"
   ], 
   "user_mentions": [
    "PredsProShop"
   ], 
   "created_at": "Sat Apr 12 21:52:17 +0000 2014", 
   "retweet_count": 6, 
   "favorite_count": 0
  }, 
  {
   "text": "Game day! Preds vs Hawks for final home game of the season. Dunkin\u2019 Donuts Day of Game tix available at @BrdgstoneArena Box Office at 10am!", 
   "label": "O", 
   "id": 454969997732110337, 
   "hashtags": [], 
   "user_mentions": [
    "BrdgstoneArena"
   ], 
   "created_at": "Sat Apr 12 13:11:15 +0000 2014", 
   "retweet_count": 21, 
   "favorite_count": 24
  }
 ]
}