{
 "num_road_team_goals": "4", 
 "home_team": "Nashville Predators", 
 "num_home_team_goals": "0", 
 "summary_url": "http://www.flyershistory.com/cgi-bin/poboxscore.cgi?H20130690", 
 "result": "L", 
 "road_team": "Minnesota Wild", 
 "date": "2014-01-12", 
 "goals": [
  {
   "season_index": "9", 
   "strength": "(EV)", 
   "time": "12:03", 
   "period": "1", 
   "player": "D.Heatley", 
   "assists": "(C.Coyle, R.Suter)", 
   "game_index": "1", 
   "team": "MIN"
  }, 
  {
   "season_index": "3", 
   "strength": "(EV)", 
   "time": "14:15", 
   "period": "1", 
   "player": "J.Zucker", 
   "assists": "(D.Heatley, C.Coyle)", 
   "game_index": "2", 
   "team": "MIN"
  }, 
  {
   "season_index": "6", 
   "strength": "(EV)", 
   "time": "1:14", 
   "period": "3", 
   "player": "M.Cooke", 
   "assists": "(J.Fontaine, K.Brodziak)", 
   "game_index": "3", 
   "team": "MIN"
  }, 
  {
   "season_index": "3", 
   "strength": "(EV)", 
   "time": "10:16", 
   "period": "3", 
   "player": "M.Scandella", 
   "assists": "(N.Niederreiter, M.Granlund)", 
   "game_index": "4", 
   "team": "MIN"
  }
 ], 
 "tweets": [
  {
   "text": "That\u2019ll do it for this one. 4-0 Wild win. Preds wrap up this home stand this Tuesday against the Calgary Flames. See you then!", 
   "label": "O", 
   "id": 422555838402658304, 
   "hashtags": [], 
   "user_mentions": [], 
   "created_at": "Mon Jan 13 02:28:57 +0000 2014", 
   "retweet_count": 5, 
   "favorite_count": 4
  }, 
  {
   "text": "@FranklinTNSoR Thanks for coming and rocking the band stage!", 
   "label": "O", 
   "id": 422554786030825472, 
   "hashtags": [], 
   "user_mentions": [
    "FranklinTNSoR"
   ], 
   "created_at": "Mon Jan 13 02:24:46 +0000 2014", 
   "retweet_count": 2, 
   "favorite_count": 2
  }, 
  {
   "text": "Preds on the PP. Stoner called for hooking. 5:20 remaining. #MINvsNSH", 
   "label": "O", 
   "id": 422553704156250112, 
   "hashtags": [
    "MINvsNSH"
   ], 
   "user_mentions": [], 
   "created_at": "Mon Jan 13 02:20:28 +0000 2014", 
   "retweet_count": 5, 
   "favorite_count": 3
  }, 
  {
   "text": "Scandella scores for the Wild. 4-0 halfway through the 3rd period. #MINvsNSH", 
   "label": "O", 
   "id": 422551433158721536, 
   "hashtags": [
    "MINvsNSH"
   ], 
   "user_mentions": [], 
   "created_at": "Mon Jan 13 02:11:26 +0000 2014", 
   "retweet_count": 4, 
   "favorite_count": 5
  }, 
  {
   "text": "Hendricks called for roughing. Minnesota on the PP. #MINvsNSH", 
   "label": "O", 
   "id": 422548241108848641, 
   "hashtags": [
    "MINvsNSH"
   ], 
   "user_mentions": [], 
   "created_at": "Mon Jan 13 01:58:45 +0000 2014", 
   "retweet_count": 2, 
   "favorite_count": 3
  }, 
  {
   "text": "Cooke scores for Minnesota, 3-0. 18:46 to go. #MINvsNSH", 
   "label": "O", 
   "id": 422547272052645888, 
   "hashtags": [
    "MINvsNSH"
   ], 
   "user_mentions": [], 
   "created_at": "Mon Jan 13 01:54:54 +0000 2014", 
   "retweet_count": 4, 
   "favorite_count": 6
  }, 
  {
   "text": "3rd period is underway. #MINvsNSH", 
   "label": "O", 
   "id": 422546784649375744, 
   "hashtags": [
    "MINvsNSH"
   ], 
   "user_mentions": [], 
   "created_at": "Mon Jan 13 01:52:58 +0000 2014", 
   "retweet_count": 3, 
   "favorite_count": 5
  }, 
  {
   "text": "Preds look much better in the 2nd but are still down 2-0. Shots tied at 14. #MINvsNSH", 
   "label": "O", 
   "id": 422542121644470272, 
   "hashtags": [
    "MINvsNSH"
   ], 
   "user_mentions": [], 
   "created_at": "Mon Jan 13 01:34:26 +0000 2014", 
   "retweet_count": 6, 
   "favorite_count": 4
  }, 
  {
   "text": "Clune and Stoner drop the gloves for a quick scrap. Five each for fighting. #MINvsNSH", 
   "label": "O", 
   "id": 422534687647485952, 
   "hashtags": [
    "MINvsNSH"
   ], 
   "user_mentions": [], 
   "created_at": "Mon Jan 13 01:04:54 +0000 2014", 
   "retweet_count": 8, 
   "favorite_count": 11
  }, 
  {
   "text": "2nd period underway. #MINvsNSH", 
   "label": "O", 
   "id": 422534326736007168, 
   "hashtags": [
    "MINvsNSH"
   ], 
   "user_mentions": [], 
   "created_at": "Mon Jan 13 01:03:28 +0000 2014", 
   "retweet_count": 3, 
   "favorite_count": 4
  }, 
  {
   "text": "2-0 Wild at the end of the 1st period. #MINvsNSH", 
   "label": "O", 
   "id": 422529501633843200, 
   "hashtags": [
    "MINvsNSH"
   ], 
   "user_mentions": [], 
   "created_at": "Mon Jan 13 00:44:18 +0000 2014", 
   "retweet_count": 6, 
   "favorite_count": 7
  }, 
  {
   "text": "2-0 Wild on a goal from Zucker at 14:15 of the 1st. #MINvsNSH", 
   "label": "O", 
   "id": 422527159316406272, 
   "hashtags": [
    "MINvsNSH"
   ], 
   "user_mentions": [], 
   "created_at": "Mon Jan 13 00:34:59 +0000 2014", 
   "retweet_count": 0, 
   "favorite_count": 3
  }, 
  {
   "text": "Heatley scores first for the Wild. 1-0 with 7:57 to go in the 1st. #MINvsNSH", 
   "label": "O", 
   "id": 422525623660077056, 
   "hashtags": [
    "MINvsNSH"
   ], 
   "user_mentions": [], 
   "created_at": "Mon Jan 13 00:28:53 +0000 2014", 
   "retweet_count": 4, 
   "favorite_count": 3
  }, 
  {
   "text": "Preds on the PP. Wild called for too many men on the ice. #MINvsNSH", 
   "label": "O", 
   "id": 422524794471329792, 
   "hashtags": [
    "MINvsNSH"
   ], 
   "user_mentions": [], 
   "created_at": "Mon Jan 13 00:25:35 +0000 2014", 
   "retweet_count": 3, 
   "favorite_count": 2
  }, 
  {
   "text": "Game on from Smashville! Preds starters are Weber, Josi, Spaling, Legwand, Smith and Mazanec. #MINvsNSH", 
   "label": "O", 
   "id": 422520492310810624, 
   "hashtags": [
    "MINvsNSH"
   ], 
   "user_mentions": [], 
   "created_at": "Mon Jan 13 00:08:30 +0000 2014", 
   "retweet_count": 17, 
   "favorite_count": 18
  }, 
  {
   "text": "RT @PREDSident: Thank you all for buying the @PredsNHL  50-50 tickets and spreading the word. Good things will be built off of your generos\u2026", 
   "label": "O", 
   "id": 422518009459011584, 
   "hashtags": [], 
   "user_mentions": [
    "PREDSident", 
    "PredsNHL"
   ], 
   "created_at": "Sun Jan 12 23:58:38 +0000 2014", 
   "retweet_count": 6, 
   "favorite_count": 0
  }, 
  {
   "text": "About 15 minutes from puck drop between Preds &amp; Wild at @BrdgstoneArena. Complete coverage- @FSTennessee (Comcast HD 1675) &amp; @1025TheGame.", 
   "label": "O", 
   "id": 422515013643812864, 
   "hashtags": [], 
   "user_mentions": [
    "BrdgstoneArena", 
    "FSTennessee", 
    "1025TheGame"
   ], 
   "created_at": "Sun Jan 12 23:46:43 +0000 2014", 
   "retweet_count": 5, 
   "favorite_count": 6
  }, 
  {
   "text": "Pro Shop deal of the game: 30% off headwear at all Pro Shops and $50 off Bourque authentic equipment\u2026 http://t.co/Jd71V20Jfb", 
   "label": "O", 
   "id": 422510093478158337, 
   "hashtags": [], 
   "user_mentions": [], 
   "created_at": "Sun Jan 12 23:27:10 +0000 2014", 
   "retweet_count": 2, 
   "favorite_count": 3
  }, 
  {
   "text": "RT @PREDSident: 2/2 to win 2 glass seat upgrades tweet a pic of your @PredsNHL 50-50 ticket that you bought tonight &amp;U may randomly be pick\u2026", 
   "label": "O", 
   "id": 422506169169883136, 
   "hashtags": [], 
   "user_mentions": [
    "PREDSident", 
    "PredsNHL"
   ], 
   "created_at": "Sun Jan 12 23:11:35 +0000 2014", 
   "retweet_count": 3, 
   "favorite_count": 0
  }, 
  {
   "text": "RT @PREDSident: 1/2 Last night's 50-50 share a pic contest at the @PredsNHL game was so much fun that tonight there will B 5 winners 2 relo\u2026", 
   "label": "O", 
   "id": 422506164002508800, 
   "hashtags": [], 
   "user_mentions": [
    "PREDSident", 
    "PredsNHL"
   ], 
   "created_at": "Sun Jan 12 23:11:33 +0000 2014", 
   "retweet_count": 2, 
   "favorite_count": 0
  }, 
  {
   "text": "RT @FSTennessee: The @PredsNHL are hosting the Wild tonight. The puck drops at 7pm ET/6pm CT. @NHL #Hockey #PredatorsLIVE", 
   "label": "O", 
   "id": 422470944074895360, 
   "hashtags": [
    "Hockey", 
    "PredatorsLIVE"
   ], 
   "user_mentions": [
    "FSTennessee", 
    "PredsNHL", 
    "NHL"
   ], 
   "created_at": "Sun Jan 12 20:51:36 +0000 2014", 
   "retweet_count": 12, 
   "favorite_count": 0
  }, 
  {
   "text": "Limited number of player holds released for tonight's game! Get tix now- @BrdgstoneArena Box Office, 615-770-7800,  http://t.co/KgVP3ky9qC", 
   "label": "O", 
   "id": 422469574869532672, 
   "hashtags": [], 
   "user_mentions": [
    "BrdgstoneArena"
   ], 
   "created_at": "Sun Jan 12 20:46:10 +0000 2014", 
   "retweet_count": 4, 
   "favorite_count": 7
  }, 
  {
   "text": "RT @PREDSident: Last call coming up to win my tix for tonight's @PredsNHL game. Who will it be? @PredsNHL will DM the winner (s)he picks", 
   "label": "O", 
   "id": 422449668170457088, 
   "hashtags": [], 
   "user_mentions": [
    "PREDSident", 
    "PredsNHL", 
    "PredsNHL"
   ], 
   "created_at": "Sun Jan 12 19:27:04 +0000 2014", 
   "retweet_count": 9, 
   "favorite_count": 0
  }, 
  {
   "text": "Game day\u2026again! Four point game tonight against the Wild at @BrdgstoneArena. 6pm/CT puck drop! Get your tickets -&gt; http://t.co/AZX0fahHzT", 
   "label": "O", 
   "id": 422385154649124864, 
   "hashtags": [], 
   "user_mentions": [
    "BrdgstoneArena"
   ], 
   "created_at": "Sun Jan 12 15:10:43 +0000 2014", 
   "retweet_count": 23, 
   "favorite_count": 6
  }, 
  {
   "text": "RT @PREDSident: . @PredsNHL and hope you do it again tomorrow for a 4 pt game against the wild. The #LoyalLegion makes a diff w/the noise a\u2026", 
   "label": "O", 
   "id": 422249451659350016, 
   "hashtags": [
    "LoyalLegion"
   ], 
   "user_mentions": [
    "PREDSident", 
    "PredsNHL"
   ], 
   "created_at": "Sun Jan 12 06:11:28 +0000 2014", 
   "retweet_count": 4, 
   "favorite_count": 0
  }, 
  {
   "text": "RT @PREDSident: Thx for a great atmosphere at @BrdgstoneArena for the @PredsNHL game tonight. Didn't end like we wanted but it did give us \u2026", 
   "label": "O", 
   "id": 422249431136600064, 
   "hashtags": [], 
   "user_mentions": [
    "PREDSident", 
    "BrdgstoneArena", 
    "PredsNHL"
   ], 
   "created_at": "Sun Jan 12 06:11:24 +0000 2014", 
   "retweet_count": 3, 
   "favorite_count": 0
  }
 ]
}