{
 "num_road_team_goals": "1", 
 "home_team": "Edmonton Oilers", 
 "num_home_team_goals": "5", 
 "summary_url": "http://www.flyershistory.com/cgi-bin/poboxscore.cgi?H20131035", 
 "result": "L", 
 "road_team": "Nashville Predators", 
 "date": "2014-03-18", 
 "goals": [
  {
   "season_index": "8", 
   "strength": "(EV)", 
   "time": "19:25", 
   "period": "1", 
   "player": "S.Gagner", 
   "assists": "(M.Marincin, D.Perron)", 
   "game_index": "1", 
   "team": "EDM"
  }, 
  {
   "season_index": "16", 
   "strength": "(PP)", 
   "time": "8:18", 
   "period": "2", 
   "player": "R.Nugent-Hopkins", 
   "assists": "(J.Eberle, P.Larsen)", 
   "game_index": "2", 
   "team": "EDM"
  }, 
  {
   "season_index": "23", 
   "strength": "(EV)", 
   "time": "14:48", 
   "period": "2", 
   "player": "T.Hall", 
   "assists": "(S.Gagner, A.Ference)", 
   "game_index": "3", 
   "team": "EDM"
  }, 
  {
   "season_index": "6", 
   "strength": "(EV)", 
   "time": "18:39", 
   "period": "2", 
   "player": "G.Bourque", 
   "assists": "(P.Hornqvist, S.Weber)", 
   "game_index": "4", 
   "team": "NSH"
  }, 
  {
   "season_index": "22", 
   "strength": "(EV)", 
   "time": "8:38", 
   "period": "3", 
   "player": "J.Eberle", 
   "assists": "(A.Lander, R.Nugent-Hopkins)", 
   "game_index": "5", 
   "team": "EDM"
  }, 
  {
   "season_index": "23", 
   "strength": "(EV)", 
   "time": "10:01", 
   "period": "3", 
   "player": "J.Eberle", 
   "assists": "(R.Nugent-Hopkins)", 
   "game_index": "6", 
   "team": "EDM"
  }
 ], 
 "tweets": [
  {
   "text": "Hutton in net for the #Preds. #NSHvsEDM", 
   "label": "O", 
   "id": 446130716657856512, 
   "hashtags": [
    "Preds", 
    "NSHvsEDM"
   ], 
   "user_mentions": [], 
   "created_at": "Wed Mar 19 03:47:06 +0000 2014", 
   "retweet_count": 4, 
   "favorite_count": 10
  }, 
  {
   "text": "Eberle scores. 5-1 Oilers. #NSHvsEDM", 
   "label": "O", 
   "id": 446130471454642176, 
   "hashtags": [
    "NSHvsEDM"
   ], 
   "user_mentions": [], 
   "created_at": "Wed Mar 19 03:46:07 +0000 2014", 
   "retweet_count": 2, 
   "favorite_count": 1
  }, 
  {
   "text": "Oilers extend their lead to 4-1 just after their PP expires. #NSHvsEDM", 
   "label": "O", 
   "id": 446129898886037504, 
   "hashtags": [
    "NSHvsEDM"
   ], 
   "user_mentions": [], 
   "created_at": "Wed Mar 19 03:43:51 +0000 2014", 
   "retweet_count": 2, 
   "favorite_count": 2
  }, 
  {
   "text": "Del Zotto called for interference. Oilers on the PP. #NSHvsEDM", 
   "label": "O", 
   "id": 446129250874429440, 
   "hashtags": [
    "NSHvsEDM"
   ], 
   "user_mentions": [], 
   "created_at": "Wed Mar 19 03:41:16 +0000 2014", 
   "retweet_count": 1, 
   "favorite_count": 4
  }, 
  {
   "text": "Hooking called on Petry. #Preds on the PP. #NSHvsEDM", 
   "label": "O", 
   "id": 446127643961094144, 
   "hashtags": [
    "Preds", 
    "NSHvsEDM"
   ], 
   "user_mentions": [], 
   "created_at": "Wed Mar 19 03:34:53 +0000 2014", 
   "retweet_count": 0, 
   "favorite_count": 4
  }, 
  {
   "text": "3rd period is underway #NSHvsEDM", 
   "label": "O", 
   "id": 446126687420678144, 
   "hashtags": [
    "NSHvsEDM"
   ], 
   "user_mentions": [], 
   "created_at": "Wed Mar 19 03:31:05 +0000 2014", 
   "retweet_count": 1, 
   "favorite_count": 4
  }, 
  {
   "text": "3-1 Edmonton at the end of the 2nd period. #NSHvsEDM", 
   "label": "O", 
   "id": 446122056837758976, 
   "hashtags": [
    "NSHvsEDM"
   ], 
   "user_mentions": [], 
   "created_at": "Wed Mar 19 03:12:41 +0000 2014", 
   "retweet_count": 2, 
   "favorite_count": 2
  }, 
  {
   "text": "Goal officially Bourque from Hornqvist and Weber at 18:49 of the 2nd period. #NSHvsEDM", 
   "label": "O", 
   "id": 446121748371890176, 
   "hashtags": [
    "NSHvsEDM"
   ], 
   "user_mentions": [], 
   "created_at": "Wed Mar 19 03:11:28 +0000 2014", 
   "retweet_count": 5, 
   "favorite_count": 6
  }, 
  {
   "text": "GOAL!! Bourque get the #Preds on the board. 3-1 Edmonton with 1:21 to go in the 2nd period. #NSHvsEDM", 
   "label": "O", 
   "id": 446121561083633665, 
   "hashtags": [
    "Preds", 
    "NSHvsEDM"
   ], 
   "user_mentions": [], 
   "created_at": "Wed Mar 19 03:10:43 +0000 2014", 
   "retweet_count": 7, 
   "favorite_count": 16
  }, 
  {
   "text": "#Preds now on the PP. #NSHvsEDM", 
   "label": "O", 
   "id": 446120129873842176, 
   "hashtags": [
    "Preds", 
    "NSHvsEDM"
   ], 
   "user_mentions": [], 
   "created_at": "Wed Mar 19 03:05:02 +0000 2014", 
   "retweet_count": 0, 
   "favorite_count": 5
  }, 
  {
   "text": "Delayed call but the Oilers make it 3-0. #NSHvsEDM", 
   "label": "O", 
   "id": 446120013096046592, 
   "hashtags": [
    "NSHvsEDM"
   ], 
   "user_mentions": [], 
   "created_at": "Wed Mar 19 03:04:34 +0000 2014", 
   "retweet_count": 1, 
   "favorite_count": 4
  }, 
  {
   "text": "Gordon in the box for slashing. #Preds on the PP. #NSHvsEDM", 
   "label": "O", 
   "id": 446116586114383872, 
   "hashtags": [
    "Preds", 
    "NSHvsEDM"
   ], 
   "user_mentions": [], 
   "created_at": "Wed Mar 19 02:50:57 +0000 2014", 
   "retweet_count": 1, 
   "favorite_count": 3
  }, 
  {
   "text": "Nugent-Hopkins scores on the PP to give the Oilers a 2-0 lead. #NSHvsEDM", 
   "label": "O", 
   "id": 446116388814716929, 
   "hashtags": [
    "NSHvsEDM"
   ], 
   "user_mentions": [], 
   "created_at": "Wed Mar 19 02:50:10 +0000 2014", 
   "retweet_count": 2, 
   "favorite_count": 3
  }, 
  {
   "text": "Nystrom in the box for tripping. Oilers on the PP. #NSHvsEDM", 
   "label": "O", 
   "id": 446115194230816769, 
   "hashtags": [
    "NSHvsEDM"
   ], 
   "user_mentions": [], 
   "created_at": "Wed Mar 19 02:45:25 +0000 2014", 
   "retweet_count": 4, 
   "favorite_count": 2
  }, 
  {
   "text": "2nd period underway! #NSvsEDM", 
   "label": "O", 
   "id": 446112669859594240, 
   "hashtags": [
    "NSvsEDM"
   ], 
   "user_mentions": [], 
   "created_at": "Wed Mar 19 02:35:23 +0000 2014", 
   "retweet_count": 2, 
   "favorite_count": 4
  }, 
  {
   "text": "Gagner strikes for Edmonton and the Oilers are in the lead 1-0 to end the 1st period. #NSHvsEDM", 
   "label": "O", 
   "id": 446107924352749568, 
   "hashtags": [
    "NSHvsEDM"
   ], 
   "user_mentions": [], 
   "created_at": "Wed Mar 19 02:16:32 +0000 2014", 
   "retweet_count": 4, 
   "favorite_count": 3
  }, 
  {
   "text": "Ference called for tripping. #Preds back on the PP. #NSHvsEDM", 
   "label": "O", 
   "id": 446106902242791424, 
   "hashtags": [
    "Preds", 
    "NSHvsEDM"
   ], 
   "user_mentions": [], 
   "created_at": "Wed Mar 19 02:12:28 +0000 2014", 
   "retweet_count": 1, 
   "favorite_count": 6
  }, 
  {
   "text": "Fraser called for roughing. #Preds get their first PP of the night. #NSHvsEDM", 
   "label": "O", 
   "id": 446104547422117888, 
   "hashtags": [
    "Preds", 
    "NSHvsEDM"
   ], 
   "user_mentions": [], 
   "created_at": "Wed Mar 19 02:03:06 +0000 2014", 
   "retweet_count": 1, 
   "favorite_count": 4
  }, 
  {
   "text": "#Preds called for too many men on the ice. Oilers on the PP. #NSHvsEDM", 
   "label": "O", 
   "id": 446100345320902656, 
   "hashtags": [
    "Preds", 
    "NSHvsEDM"
   ], 
   "user_mentions": [], 
   "created_at": "Wed Mar 19 01:46:25 +0000 2014", 
   "retweet_count": 4, 
   "favorite_count": 3
  }, 
  {
   "text": "Ellis called for boarding. Edmonton on the PP. #NSHvsEDM", 
   "label": "O", 
   "id": 446099010492067840, 
   "hashtags": [
    "NSHvsEDM"
   ], 
   "user_mentions": [], 
   "created_at": "Wed Mar 19 01:41:06 +0000 2014", 
   "retweet_count": 3, 
   "favorite_count": 3
  }, 
  {
   "text": "Game on from Edmonton between the #Preds and Oilers. Tune in on @FSTennessee (Comcast HD 1675) and @1025TheGame. #NSHvsEDM", 
   "label": "O", 
   "id": 446098540910370816, 
   "hashtags": [
    "Preds", 
    "NSHvsEDM"
   ], 
   "user_mentions": [
    "FSTennessee", 
    "1025TheGame"
   ], 
   "created_at": "Wed Mar 19 01:39:14 +0000 2014", 
   "retweet_count": 6, 
   "favorite_count": 12
  }, 
  {
   "text": "RT @NHL: Standing behind his team and son mean just the same for @PredsNHL's Coach Barry Trotz. Watch: http://t.co/Coxe458b3s http://t.co/8\u2026", 
   "label": "O", 
   "id": 446011415720374272, 
   "hashtags": [], 
   "user_mentions": [
    "NHL", 
    "PredsNHL"
   ], 
   "created_at": "Tue Mar 18 19:53:02 +0000 2014", 
   "retweet_count": 152, 
   "favorite_count": 0
  }, 
  {
   "text": "Want the Best Seat in the House? Enter now for your chance to sit rinkside on the #XFINITYCouch on March 30! http://t.co/jL01bXSQzW", 
   "label": "O", 
   "id": 446009200230293505, 
   "hashtags": [
    "XFINITYCouch"
   ], 
   "user_mentions": [], 
   "created_at": "Tue Mar 18 19:44:14 +0000 2014", 
   "retweet_count": 8, 
   "favorite_count": 6
  }, 
  {
   "text": "Warming up in Edmonton before taking the ice for morning skate. Puck drop at 8:30pm/CT tonight. http://t.co/fqeAjMEkrF", 
   "label": "O", 
   "id": 445963867395723264, 
   "hashtags": [], 
   "user_mentions": [], 
   "created_at": "Tue Mar 18 16:44:06 +0000 2014", 
   "retweet_count": 10, 
   "favorite_count": 16
  }, 
  {
   "text": "RT @Gnash00: Looking for the perfect spring break activity for your daughter? The Junior Energy Team program is next week! http://t.co/aaIf\u2026", 
   "label": "O", 
   "id": 445950374902763520, 
   "hashtags": [], 
   "user_mentions": [
    "Gnash00"
   ], 
   "created_at": "Tue Mar 18 15:50:29 +0000 2014", 
   "retweet_count": 6, 
   "favorite_count": 0
  }, 
  {
   "text": "Game Day! #Preds begin a Western Canada swing tonight in Edmonton against the Oilers. 8:30pm/CT puck drop on @FSTennessee &amp; @1025TheGame.", 
   "label": "O", 
   "id": 445930862400786433, 
   "hashtags": [
    "Preds"
   ], 
   "user_mentions": [
    "FSTennessee", 
    "1025TheGame"
   ], 
   "created_at": "Tue Mar 18 14:32:57 +0000 2014", 
   "retweet_count": 10, 
   "favorite_count": 18
  }
 ]
}