{
 "num_road_team_goals": "4", 
 "home_team": "St.Louis Blues", 
 "num_home_team_goals": "0", 
 "summary_url": "http://www.flyershistory.com/cgi-bin/poboxscore.cgi?H20131161", 
 "result": "L", 
 "road_team": "Colorado Avalanche", 
 "date": "2014-04-05", 
 "goals": [
  {
   "season_index": "22", 
   "strength": "(PP)", 
   "time": "1:14", 
   "period": "2", 
   "player": "P.Stastny", 
   "assists": "(N.MacKinnon, M.Talbot)", 
   "game_index": "1", 
   "team": "COL"
  }, 
  {
   "season_index": "24", 
   "strength": "(EV)", 
   "time": "6:20", 
   "period": "2", 
   "player": "N.MacKinnon", 
   "assists": "(J.McGinn, N.Guenin)", 
   "game_index": "2", 
   "team": "COL"
  }, 
  {
   "season_index": "10", 
   "strength": "(EV)", 
   "time": "10:25", 
   "period": "2", 
   "player": "N.Holden", 
   "assists": "(P.Stastny, J.Mitchell)", 
   "game_index": "3", 
   "team": "COL"
  }, 
  {
   "season_index": "27", 
   "strength": "(PP)", 
   "time": "15:55", 
   "period": "3", 
   "player": "R.O'reilly", 
   "assists": "(P.Stastny, G.Landeskog)", 
   "game_index": "4", 
   "team": "COL"
  }
 ], 
 "tweets": [
  {
   "text": "RT @mutigersdotcom: Great hospitality by @StLouisBlues for Mizzou Day. Enjoy meeting fans &amp; showing off @ATTCottonBowl trophy. #MIZBLU http\u2026", 
   "label": "O", 
   "id": 452584611134980098, 
   "hashtags": [
    "MIZBLU"
   ], 
   "user_mentions": [
    "mutigersdotcom", 
    "StLouisBlues", 
    "ATTCottonBowl"
   ], 
   "created_at": "Sat Apr 05 23:12:34 +0000 2014", 
   "retweet_count": 13, 
   "favorite_count": 0
  }, 
  {
   "text": "Hitchcock said Alexander Steen (upper-body) won't play tomorrow in Chicago. Brian Elliott will start. #stlblues", 
   "label": "O", 
   "id": 452575606824116225, 
   "hashtags": [
    "stlblues"
   ], 
   "user_mentions": [], 
   "created_at": "Sat Apr 05 22:36:47 +0000 2014", 
   "retweet_count": 34, 
   "favorite_count": 50
  }, 
  {
   "text": "POSTGAME INTERVIEWS: Barret Jackman, @OSH74 and Ken Hitchcock talk about today's game against Colorado. http://t.co/1FHh4BWNxV #stlblues", 
   "label": "O", 
   "id": 452570120678694912, 
   "hashtags": [
    "stlblues"
   ], 
   "user_mentions": [
    "OSH74"
   ], 
   "created_at": "Sat Apr 05 22:14:59 +0000 2014", 
   "retweet_count": 7, 
   "favorite_count": 24
  }, 
  {
   "text": "FINAL: Avalanche 4, Blues 0. Get postgame coverage soon at http://t.co/qz2Ghf4K46. #stlblues http://t.co/REPIq7xlxF", 
   "label": "O", 
   "id": 452549671429222400, 
   "hashtags": [
    "stlblues"
   ], 
   "user_mentions": [], 
   "created_at": "Sat Apr 05 20:53:44 +0000 2014", 
   "retweet_count": 29, 
   "favorite_count": 26
  }, 
  {
   "text": "10-minute misconducts to every player on the ice. Haven't seen that before. #stlblues", 
   "label": "O", 
   "id": 452549358173437952, 
   "hashtags": [
    "stlblues"
   ], 
   "user_mentions": [], 
   "created_at": "Sat Apr 05 20:52:29 +0000 2014", 
   "retweet_count": 360, 
   "favorite_count": 283
  }, 
  {
   "text": "O'Reilly chips in a power-play goal for Colorado, who leads 4-0. #stlblues", 
   "label": "O", 
   "id": 452546848973004800, 
   "hashtags": [
    "stlblues"
   ], 
   "user_mentions": [], 
   "created_at": "Sat Apr 05 20:42:31 +0000 2014", 
   "retweet_count": 7, 
   "favorite_count": 10
  }, 
  {
   "text": "The third period has begun. The Blues are on the power play. #stlblues", 
   "label": "O", 
   "id": 452537920776183808, 
   "hashtags": [
    "stlblues"
   ], 
   "user_mentions": [], 
   "created_at": "Sat Apr 05 20:07:02 +0000 2014", 
   "retweet_count": 8, 
   "favorite_count": 26
  }, 
  {
   "text": "End of 2nd: Avalanche 3, Blues 0. The Blues will have 1:15 remaining on a power play to start the third. #stlblues", 
   "label": "O", 
   "id": 452533428819226624, 
   "hashtags": [
    "stlblues"
   ], 
   "user_mentions": [], 
   "created_at": "Sat Apr 05 19:49:11 +0000 2014", 
   "retweet_count": 9, 
   "favorite_count": 12
  }, 
  {
   "text": "RT @NHL: #HockeyOps explains review of Nick Holden's goal at 10:25 of the second period in the @Avalanche/@StLouisBlues game. http://t.co/N\u2026", 
   "label": "O", 
   "id": 452533040594423808, 
   "hashtags": [
    "HockeyOps"
   ], 
   "user_mentions": [
    "NHL", 
    "Avalanche", 
    "StLouisBlues"
   ], 
   "created_at": "Sat Apr 05 19:47:39 +0000 2014", 
   "retweet_count": 20, 
   "favorite_count": 0
  }, 
  {
   "text": "The goal stands. Avs 3, Blues 0 with 9:35 left in the second. #stlblues", 
   "label": "O", 
   "id": 452528645236477953, 
   "hashtags": [
    "stlblues"
   ], 
   "user_mentions": [], 
   "created_at": "Sat Apr 05 19:30:11 +0000 2014", 
   "retweet_count": 7, 
   "favorite_count": 12
  }, 
  {
   "text": "Blues get hemmed in their zone and the puck ends up in the net. The play is under review, though. #stlblues", 
   "label": "O", 
   "id": 452527830476140544, 
   "hashtags": [
    "stlblues"
   ], 
   "user_mentions": [], 
   "created_at": "Sat Apr 05 19:26:57 +0000 2014", 
   "retweet_count": 2, 
   "favorite_count": 22
  }, 
  {
   "text": "RT @emwiegers: Sergeant at the @StLouisBlues game rocking a Chiefs hockey jersey like a CHAMP. #Slapshot", 
   "label": "O", 
   "id": 452527140181782528, 
   "hashtags": [
    "Slapshot"
   ], 
   "user_mentions": [
    "emwiegers", 
    "StLouisBlues"
   ], 
   "created_at": "Sat Apr 05 19:24:12 +0000 2014", 
   "retweet_count": 8, 
   "favorite_count": 0
  }, 
  {
   "text": "MacKinnon scores on a rebound. Colorado goes up 2-0 with 13:40 to play in the second. #stlblues", 
   "label": "O", 
   "id": 452525708875534337, 
   "hashtags": [
    "stlblues"
   ], 
   "user_mentions": [], 
   "created_at": "Sat Apr 05 19:18:31 +0000 2014", 
   "retweet_count": 9, 
   "favorite_count": 9
  }, 
  {
   "text": "Stastny puts Colorado ahead 1-0 just 1:14 into the second period. #stlblues", 
   "label": "O", 
   "id": 452523257418108928, 
   "hashtags": [
    "stlblues"
   ], 
   "user_mentions": [], 
   "created_at": "Sat Apr 05 19:08:46 +0000 2014", 
   "retweet_count": 9, 
   "favorite_count": 11
  }, 
  {
   "text": "The second period is underway. #stlblues", 
   "label": "O", 
   "id": 452522777728147456, 
   "hashtags": [
    "stlblues"
   ], 
   "user_mentions": [], 
   "created_at": "Sat Apr 05 19:06:52 +0000 2014", 
   "retweet_count": 9, 
   "favorite_count": 22
  }, 
  {
   "text": "ICYMI: @KidElls1 is honored before the game for reaching 25 shutouts. &gt;&gt;&gt; http://t.co/pt5rh8lHP7 #stlblues", 
   "label": "O", 
   "id": 452519368371339264, 
   "hashtags": [
    "stlblues"
   ], 
   "user_mentions": [
    "KidElls1"
   ], 
   "created_at": "Sat Apr 05 18:53:19 +0000 2014", 
   "retweet_count": 12, 
   "favorite_count": 32
  }, 
  {
   "text": "We're scoreless after one period. The Blues are outshooting the Avalanche, 14-6. #stlblues", 
   "label": "O", 
   "id": 452518174525640704, 
   "hashtags": [
    "stlblues"
   ], 
   "user_mentions": [], 
   "created_at": "Sat Apr 05 18:48:34 +0000 2014", 
   "retweet_count": 14, 
   "favorite_count": 42
  }, 
  {
   "text": ".@OSH74 crashes the net and comes close, but we're scoreless 10:07 into the first period. Shots are 5-1 in favor of the Blues. #stlblues", 
   "label": "O", 
   "id": 452513203419750400, 
   "hashtags": [
    "stlblues"
   ], 
   "user_mentions": [
    "OSH74"
   ], 
   "created_at": "Sat Apr 05 18:28:49 +0000 2014", 
   "retweet_count": 12, 
   "favorite_count": 59
  }, 
  {
   "text": ".@KidElls1 is being presented with a crystal plaque from the NHL for reaching 25 shutouts. Here's an up-close look. http://t.co/YCGdayJHbo", 
   "label": "O", 
   "id": 452508986361655296, 
   "hashtags": [], 
   "user_mentions": [
    "KidElls1"
   ], 
   "created_at": "Sat Apr 05 18:12:04 +0000 2014", 
   "retweet_count": 89, 
   "favorite_count": 210
  }, 
  {
   "text": "Blues and Avs. Let's do this. #stlblues #longlivethenote #LGB", 
   "label": "O", 
   "id": 452508488174817280, 
   "hashtags": [
    "stlblues", 
    "longlivethenote", 
    "LGB"
   ], 
   "user_mentions": [], 
   "created_at": "Sat Apr 05 18:10:05 +0000 2014", 
   "retweet_count": 55, 
   "favorite_count": 72
  }, 
  {
   "text": "The Blues have recalled goalie Niklas Lundstrom from AIK of the Swedish Hockey League. MORE &gt;&gt;&gt; http://t.co/ca4mMumIiw #stlblues", 
   "label": "O", 
   "id": 452506017993990145, 
   "hashtags": [
    "stlblues"
   ], 
   "user_mentions": [], 
   "created_at": "Sat Apr 05 18:00:16 +0000 2014", 
   "retweet_count": 29, 
   "favorite_count": 23
  }, 
  {
   "text": "Big Central Division matchup coming up. The puck drop is just minutes away on @FSMidwest and @KMOX 1120 AM. #stlblues #LGB", 
   "label": "O", 
   "id": 452504604425474049, 
   "hashtags": [
    "stlblues", 
    "LGB"
   ], 
   "user_mentions": [
    "FSMidwest", 
    "KMOX"
   ], 
   "created_at": "Sat Apr 05 17:54:39 +0000 2014", 
   "retweet_count": 14, 
   "favorite_count": 32
  }, 
  {
   "text": "It's Mizzou Day! Stop by Section 124 to see the Cotton Bowl Trophy through the second intermission. @mutigersdotcom http://t.co/UxxPv7PHuV", 
   "label": "O", 
   "id": 452491664611749888, 
   "hashtags": [], 
   "user_mentions": [
    "mutigersdotcom"
   ], 
   "created_at": "Sat Apr 05 17:03:14 +0000 2014", 
   "retweet_count": 35, 
   "favorite_count": 91
  }, 
  {
   "text": "Saturday hockey in St. Louis in one hour. Does it get any better? #stlblues #longlivethenote http://t.co/dEsQZkkhrt", 
   "label": "O", 
   "id": 452490524302114817, 
   "hashtags": [
    "stlblues", 
    "longlivethenote"
   ], 
   "user_mentions": [], 
   "created_at": "Sat Apr 05 16:58:42 +0000 2014", 
   "retweet_count": 118, 
   "favorite_count": 258
  }, 
  {
   "text": "@CALLmeACER See you soon!", 
   "label": "O", 
   "id": 452484509619867649, 
   "hashtags": [], 
   "user_mentions": [
    "CALLmeACER"
   ], 
   "created_at": "Sat Apr 05 16:34:48 +0000 2014", 
   "retweet_count": 2, 
   "favorite_count": 14
  }, 
  {
   "text": "@KC_EDM Sounds like a great Saturday!", 
   "label": "O", 
   "id": 452484446747230208, 
   "hashtags": [], 
   "user_mentions": [
    "KC_EDM"
   ], 
   "created_at": "Sat Apr 05 16:34:33 +0000 2014", 
   "retweet_count": 0, 
   "favorite_count": 0
  }, 
  {
   "text": "ALSO HOT VS. COLORADO: @dbackes42 has six goals and five assists in his last nine games against the Avalanche. #stlblues", 
   "label": "O", 
   "id": 452470971199275008, 
   "hashtags": [
    "stlblues"
   ], 
   "user_mentions": [
    "dbackes42"
   ], 
   "created_at": "Sat Apr 05 15:41:00 +0000 2014", 
   "retweet_count": 17, 
   "favorite_count": 42
  }, 
  {
   "text": "HOT VS. COLORADO: @bulish21 has points in five straight games against the Avs (two goals, three assists). #stlblues", 
   "label": "O", 
   "id": 452469210837286912, 
   "hashtags": [
    "stlblues"
   ], 
   "user_mentions": [
    "bulish21"
   ], 
   "created_at": "Sat Apr 05 15:34:00 +0000 2014", 
   "retweet_count": 12, 
   "favorite_count": 42
  }, 
  {
   "text": "Playoff Tickets for Round 1 (Home Games 1 and 2) are available now! BUY ONLINE &gt;&gt;&gt; http://t.co/xhA4hFUJX4 #stlblues", 
   "label": "O", 
   "id": 452461319136886784, 
   "hashtags": [
    "stlblues"
   ], 
   "user_mentions": [], 
   "created_at": "Sat Apr 05 15:02:39 +0000 2014", 
   "retweet_count": 18, 
   "favorite_count": 26
  }, 
  {
   "text": "@MKey729 Ryan Miller.", 
   "label": "O", 
   "id": 452459706070466560, 
   "hashtags": [], 
   "user_mentions": [], 
   "created_at": "Sat Apr 05 14:56:14 +0000 2014", 
   "retweet_count": 1, 
   "favorite_count": 3
  }, 
  {
   "text": "Ryan Reaves on the big weekend games with Colorado and Chicago: \"These are going to be amped-up games.\" #stlblues", 
   "label": "O", 
   "id": 452459669521326080, 
   "hashtags": [
    "stlblues"
   ], 
   "user_mentions": [], 
   "created_at": "Sat Apr 05 14:56:06 +0000 2014", 
   "retweet_count": 31, 
   "favorite_count": 83
  }, 
  {
   "text": "The Blues have points in nine of their last 11 vs. Colorado (7-2-2) and are 3-0-0 against them this season. #stlblues", 
   "label": "O", 
   "id": 452455622143799296, 
   "hashtags": [
    "stlblues"
   ], 
   "user_mentions": [], 
   "created_at": "Sat Apr 05 14:40:01 +0000 2014", 
   "retweet_count": 21, 
   "favorite_count": 60
  }, 
  {
   "text": "Single Game Tickets for the Playoffs (Round 1 - Home Games 1 and 2) go on sale today at 10 a.m. INFO &gt;&gt;&gt; http://t.co/xhA4hFUJX4 #stlblues", 
   "label": "O", 
   "id": 452449330771673088, 
   "hashtags": [
    "stlblues"
   ], 
   "user_mentions": [], 
   "created_at": "Sat Apr 05 14:15:01 +0000 2014", 
   "retweet_count": 12, 
   "favorite_count": 20
  }, 
  {
   "text": "Barret Jackman returns to the lineup today after missing one game with a lower-body injury. #stlblues", 
   "label": "O", 
   "id": 452448322729435137, 
   "hashtags": [
    "stlblues"
   ], 
   "user_mentions": [], 
   "created_at": "Sat Apr 05 14:11:00 +0000 2014", 
   "retweet_count": 17, 
   "favorite_count": 63
  }, 
  {
   "text": "IT'S GAMEDAY! The #stlblues (52-17-7) host the @Avalanche (49-21-6) today at 1 p.m. PREVIEW &gt;&gt;&gt; http://t.co/pD3Ffw6ZfG", 
   "label": "O", 
   "id": 452447316616556544, 
   "hashtags": [
    "stlblues"
   ], 
   "user_mentions": [
    "Avalanche"
   ], 
   "created_at": "Sat Apr 05 14:07:01 +0000 2014", 
   "retweet_count": 48, 
   "favorite_count": 82
  }
 ]
}