{
 "num_road_team_goals": "1", 
 "home_team": "Dallas Stars", 
 "num_home_team_goals": "2", 
 "summary_url": "http://www.flyershistory.com/cgi-bin/poboxscore.cgi?H20130881", 
 "result": "L", 
 "road_team": "Phoenix Coyotes", 
 "date": "2014-02-08", 
 "goals": [
  {
   "season_index": "7", 
   "strength": "(EV)", 
   "time": "2:10", 
   "period": "1", 
   "player": "R.Whitney", 
   "assists": "(J.Benn, B.Dillon)", 
   "game_index": "1", 
   "team": "DAL"
  }, 
  {
   "season_index": "13", 
   "strength": "(EV)", 
   "time": "19:26", 
   "period": "2", 
   "player": "V.Nichushkin", 
   "assists": "(T.Daley, J.Benn)", 
   "game_index": "2", 
   "team": "DAL"
  }, 
  {
   "season_index": "15", 
   "strength": "(PP)", 
   "time": "19:44", 
   "period": "3", 
   "player": "R.Vrbata", 
   "assists": "(A.Vermette, K.Yandle)", 
   "game_index": "3", 
   "team": "PHX"
  }
 ], 
 "tweets": [
  {
   "text": "LISTEN Vrbata on team inconsistency, #Coyotes right in the race looking ahead, resting over the break &amp; more http://t.co/LlwVXZPbC8", 
   "label": "O", 
   "id": 432371048923668480, 
   "hashtags": [
    "Coyotes"
   ], 
   "user_mentions": [], 
   "created_at": "Sun Feb 09 04:31:05 +0000 2014", 
   "retweet_count": 2, 
   "favorite_count": 3
  }, 
  {
   "text": "LISTEN Coach Tippett on #Coyotes chasing the game early, expecting better even on back-to-back &amp; pre-break assessment http://t.co/3X0wgqrjwX", 
   "label": "O", 
   "id": 432369534410833920, 
   "hashtags": [
    "Coyotes"
   ], 
   "user_mentions": [], 
   "created_at": "Sun Feb 09 04:25:04 +0000 2014", 
   "retweet_count": 2, 
   "favorite_count": 1
  }, 
  {
   "text": "Radim Vrbata: \"When you look at the standings we are right there with a couple other teams. Hopefully we can regroup (during the break).\"", 
   "label": "O", 
   "id": 432366315550957568, 
   "hashtags": [], 
   "user_mentions": [], 
   "created_at": "Sun Feb 09 04:12:17 +0000 2014", 
   "retweet_count": 4, 
   "favorite_count": 7
  }, 
  {
   "text": "Dave Tippett: \"We missed a play to give them their 1st goal &amp; it was a chase right from there... I'd like to see us play better than that.\"", 
   "label": "O", 
   "id": 432365357886480384, 
   "hashtags": [], 
   "user_mentions": [], 
   "created_at": "Sun Feb 09 04:08:28 +0000 2014", 
   "retweet_count": 4, 
   "favorite_count": 3
  }, 
  {
   "text": "#Coyotes now hit Olympic break, next gm is Feb. 27 @ WPG. They sit t-8th in West w/ DAL after tonight's result. RECAP http://t.co/CyRwrVd7ie", 
   "label": "O", 
   "id": 432359443020271616, 
   "hashtags": [
    "Coyotes"
   ], 
   "user_mentions": [], 
   "created_at": "Sun Feb 09 03:44:58 +0000 2014", 
   "retweet_count": 4, 
   "favorite_count": 1
  }, 
  {
   "text": "A late push from the #Coyotes fall short. PHX gets 31 saves from Smith, a goal from Vrbata, but fall 2-1 here in DAL http://t.co/eePD7CAdwi", 
   "label": "O", 
   "id": 432358992439164928, 
   "hashtags": [
    "Coyotes"
   ], 
   "user_mentions": [], 
   "created_at": "Sun Feb 09 03:43:11 +0000 2014", 
   "retweet_count": 8, 
   "favorite_count": 6
  }, 
  {
   "text": "#YotesGoal! Not quite over yet as Vrbata scores w/ 14s left with a snap shot past a screen. 2-1 game, still a 'miracle' away.", 
   "label": "O", 
   "id": 432358446705295360, 
   "hashtags": [
    "YotesGoal"
   ], 
   "user_mentions": [], 
   "created_at": "Sun Feb 09 03:41:01 +0000 2014", 
   "retweet_count": 8, 
   "favorite_count": 10
  }, 
  {
   "text": "Korpikoski gets a partial SH breakaway, but is slashed as he attempts a backhand shot on Lehtonen. PHX goes empty net making it 5-on-4.", 
   "label": "O", 
   "id": 432357387341549568, 
   "hashtags": [], 
   "user_mentions": [], 
   "created_at": "Sun Feb 09 03:36:48 +0000 2014", 
   "retweet_count": 2, 
   "favorite_count": 1
  }, 
  {
   "text": "2:48 left in regulation, #Coyotes trail DAL 2-0 and head to PK. The Yotes could use a SH goal now.", 
   "label": "O", 
   "id": 432356635764219905, 
   "hashtags": [
    "Coyotes"
   ], 
   "user_mentions": [], 
   "created_at": "Sun Feb 09 03:33:49 +0000 2014", 
   "retweet_count": 2, 
   "favorite_count": 1
  }, 
  {
   "text": "Just over 4 left to play, #Coyotes trail #Stars 2-0. Yotes w/ 10 SOG this frame but no goals as DAL keeping puck possession away from PHX.", 
   "label": "O", 
   "id": 432355747855208449, 
   "hashtags": [
    "Coyotes", 
    "Stars"
   ], 
   "user_mentions": [], 
   "created_at": "Sun Feb 09 03:30:17 +0000 2014", 
   "retweet_count": 2, 
   "favorite_count": 1
  }, 
  {
   "text": "The #Coyotes get great work from Smith, strong effort from PKers to get out of the 5-on-3 unscathed. PHX down 2-0, under 8 to play.", 
   "label": "O", 
   "id": 432353577688772608, 
   "hashtags": [
    "Coyotes"
   ], 
   "user_mentions": [], 
   "created_at": "Sun Feb 09 03:21:40 +0000 2014", 
   "retweet_count": 4, 
   "favorite_count": 2
  }, 
  {
   "text": "A pivotal PK coming up for #Coyotes with 2:00 of a 5-on-3 #Stars PP with 10:39 left in the 3rd. Dallas w/ no 5-on-3 goals this season.", 
   "label": "O", 
   "id": 432352619147706368, 
   "hashtags": [
    "Coyotes", 
    "Stars"
   ], 
   "user_mentions": [], 
   "created_at": "Sun Feb 09 03:17:51 +0000 2014", 
   "retweet_count": 3, 
   "favorite_count": 2
  }, 
  {
   "text": "A wide open Seguin in front is stoned by Smith as he 24th save of the night. #Coyotes down 2-0, 12:00 to play in regulation. Let's #GoYotes", 
   "label": "O", 
   "id": 432351875443085312, 
   "hashtags": [
    "Coyotes", 
    "GoYotes"
   ], 
   "user_mentions": [], 
   "created_at": "Sun Feb 09 03:14:54 +0000 2014", 
   "retweet_count": 2, 
   "favorite_count": 1
  }, 
  {
   "text": "#Coyotes get chances, but no score on PP; Lehtonen (who will be Korpikoski's teammate in Sochi) was good. Smith then comes up w/ great save.", 
   "label": "O", 
   "id": 432350590576766977, 
   "hashtags": [
    "Coyotes"
   ], 
   "user_mentions": [], 
   "created_at": "Sun Feb 09 03:09:48 +0000 2014", 
   "retweet_count": 2, 
   "favorite_count": 2
  }, 
  {
   "text": "#Coyotes get a vital PK and will now go on a PP of their own, down 2-0 in DAL. Yotes haven't converted on the PP yet tonight.", 
   "label": "O", 
   "id": 432349361012346880, 
   "hashtags": [
    "Coyotes"
   ], 
   "user_mentions": [], 
   "created_at": "Sun Feb 09 03:04:54 +0000 2014", 
   "retweet_count": 2, 
   "favorite_count": 3
  }, 
  {
   "text": "3rd pd begins, #Coyotes need to come back, trailing #Stars 2-0. Michalek now w/ 6 blocked shots, 3 hits. He'll be in Sochi next too", 
   "label": "O", 
   "id": 432348239128301568, 
   "hashtags": [
    "Coyotes", 
    "Stars"
   ], 
   "user_mentions": [], 
   "created_at": "Sun Feb 09 03:00:27 +0000 2014", 
   "retweet_count": 1, 
   "favorite_count": 3
  }, 
  {
   "text": "@DallasStars What, no 2nd intermission rock concert? http://t.co/p0OOVx89ds", 
   "label": "O", 
   "id": 432348213274611712, 
   "hashtags": [], 
   "user_mentions": [
    "DallasStars"
   ], 
   "created_at": "Sun Feb 09 03:00:21 +0000 2014", 
   "retweet_count": 1, 
   "favorite_count": 5
  }, 
  {
   "text": "STAT to tell your friends: After a 25% clip in faceoffs in the 1st, #Coyotes won 11 of 19 in the middle frame. Now just need goals, too.", 
   "label": "O", 
   "id": 432345126388506625, 
   "hashtags": [
    "Coyotes"
   ], 
   "user_mentions": [], 
   "created_at": "Sun Feb 09 02:48:05 +0000 2014", 
   "retweet_count": 1, 
   "favorite_count": 2
  }, 
  {
   "text": "2nd pd ends and #Coyotes will need to overcome a 2-0 deficit in Dallas. Yotes with 15 hits, 15 blocked shots, 13 SOG thru 40 min.", 
   "label": "O", 
   "id": 432343686769147904, 
   "hashtags": [
    "Coyotes"
   ], 
   "user_mentions": [], 
   "created_at": "Sun Feb 09 02:42:22 +0000 2014", 
   "retweet_count": 0, 
   "favorite_count": 1
  }, 
  {
   "text": "After review, goal stands and #Coyotes trail 2-0 to #Stars. Ruling was the stick was below the crossbar so goal was valid.", 
   "label": "O", 
   "id": 432343295323148289, 
   "hashtags": [
    "Coyotes", 
    "Stars"
   ], 
   "user_mentions": [], 
   "created_at": "Sun Feb 09 02:40:48 +0000 2014", 
   "retweet_count": 3, 
   "favorite_count": 1
  }, 
  {
   "text": "33s left in 2nd pd, Stars appear to have scored on a Nichuskin redirect of a point shot. Goal under review to check for high-stick. #Coyotes", 
   "label": "O", 
   "id": 432342796553302016, 
   "hashtags": [
    "Coyotes"
   ], 
   "user_mentions": [], 
   "created_at": "Sun Feb 09 02:38:49 +0000 2014", 
   "retweet_count": 1, 
   "favorite_count": 2
  }, 
  {
   "text": "Stoppage in play late in the 2nd as an official takes a big hit in a collision. Stick taps to him as he gets up &amp; stays in the game!", 
   "label": "O", 
   "id": 432342071173582849, 
   "hashtags": [], 
   "user_mentions": [], 
   "created_at": "Sun Feb 09 02:35:56 +0000 2014", 
   "retweet_count": 4, 
   "favorite_count": 3
  }, 
  {
   "text": "Late 2nd pd, #Coyotes down to Dallas 1-0,SOG 19-10 in favor of #Stars. STAT: Yotes are 16-7-3 when being out-shot by opponent this season.", 
   "label": "O", 
   "id": 432340213403111424, 
   "hashtags": [
    "Coyotes", 
    "Stars"
   ], 
   "user_mentions": [], 
   "created_at": "Sun Feb 09 02:28:34 +0000 2014", 
   "retweet_count": 2, 
   "favorite_count": 1
  }, 
  {
   "text": "#Coyotes not getting a lot of SOG, but staying in the game. Halfway thru the 2nd. OEL w/ 13:04 TOI already, he'll go to Sochi after the game", 
   "label": "O", 
   "id": 432338144306802688, 
   "hashtags": [
    "Coyotes"
   ], 
   "user_mentions": [], 
   "created_at": "Sun Feb 09 02:20:20 +0000 2014", 
   "retweet_count": 1, 
   "favorite_count": 0
  }, 
  {
   "text": "Huge glove save from Smith as snagged a laser from Gonchar, seeing it clearly all the way. #Coyotes trail 1-0, 12+ left in the 2nd pd.", 
   "label": "O", 
   "id": 432336993284927490, 
   "hashtags": [
    "Coyotes"
   ], 
   "user_mentions": [], 
   "created_at": "Sun Feb 09 02:15:46 +0000 2014", 
   "retweet_count": 5, 
   "favorite_count": 3
  }, 
  {
   "text": "#Coyotes get close but don't score on a PP; Yandle (2nd among NHL d-men in PP points) hit a post. Yotes trail #Stars 1-0, early 2nd.", 
   "label": "O", 
   "id": 432334841527271424, 
   "hashtags": [
    "Coyotes", 
    "Stars"
   ], 
   "user_mentions": [], 
   "created_at": "Sun Feb 09 02:07:13 +0000 2014", 
   "retweet_count": 2, 
   "favorite_count": 3
  }, 
  {
   "text": "2nd pd begins, #Coyotes trail #Stars 1-0. Stick taps to Kyle Chipchura, playing in his 56th game of the season, a career-best total.", 
   "label": "O", 
   "id": 432333195678199809, 
   "hashtags": [
    "Coyotes", 
    "Stars"
   ], 
   "user_mentions": [], 
   "created_at": "Sun Feb 09 02:00:40 +0000 2014", 
   "retweet_count": 3, 
   "favorite_count": 5
  }, 
  {
   "text": "During intermission, if you missed or wanna relive it, WATCH last night's fantastic pregame Olympic send-off: http://t.co/S9xQnkUyJg", 
   "label": "O", 
   "id": 432331606133452800, 
   "hashtags": [], 
   "user_mentions": [], 
   "created_at": "Sun Feb 09 01:54:21 +0000 2014", 
   "retweet_count": 0, 
   "favorite_count": 0
  }, 
  {
   "text": "Best PJs ever. RT @JakeThe_Snake11: This little Yotes fan is hoping for a comeback! #HungrierThanEver @phoenixcoyotes http://t.co/m6VMPkdoJ9", 
   "label": "O", 
   "id": 432330368599851008, 
   "hashtags": [
    "HungrierThanEver"
   ], 
   "user_mentions": [
    "JakeThe_Snake11", 
    "phoenixcoyotes"
   ], 
   "created_at": "Sun Feb 09 01:49:26 +0000 2014", 
   "retweet_count": 8, 
   "favorite_count": 30
  }, 
  {
   "text": "1st pd ends, #Coyotes will have 45s left on PK in 2nd. Not a lot of SOG from either team, but #Stars on top 1-0. http://t.co/tpc08Mpgld", 
   "label": "O", 
   "id": 432328849011908608, 
   "hashtags": [
    "Coyotes", 
    "Stars"
   ], 
   "user_mentions": [], 
   "created_at": "Sun Feb 09 01:43:24 +0000 2014", 
   "retweet_count": 2, 
   "favorite_count": 0
  }, 
  {
   "text": "RT @DallasStars: AAC crowd gives loud ovation for the Olympians from both teams. Good luck, boys!", 
   "label": "O", 
   "id": 432328323373350913, 
   "hashtags": [], 
   "user_mentions": [
    "DallasStars"
   ], 
   "created_at": "Sun Feb 09 01:41:19 +0000 2014", 
   "retweet_count": 24, 
   "favorite_count": 0
  }, 
  {
   "text": "#Coyotes continuing to block shots, but trail #Stars 1-0 w/ 1:15 to go in the 1st, but Hanzal is sent to the box for cross-check. PK for PHX", 
   "label": "O", 
   "id": 432328122260676608, 
   "hashtags": [
    "Coyotes", 
    "Stars"
   ], 
   "user_mentions": [], 
   "created_at": "Sun Feb 09 01:40:31 +0000 2014", 
   "retweet_count": 1, 
   "favorite_count": 1
  }, 
  {
   "text": "6:00 to go in the 1st, #Coyotes trail #Stars 1-0. Michalek with 2 blocked shots already, leads PHX with 107 of those on the season.", 
   "label": "O", 
   "id": 432326100253814784, 
   "hashtags": [
    "Coyotes", 
    "Stars"
   ], 
   "user_mentions": [], 
   "created_at": "Sun Feb 09 01:32:29 +0000 2014", 
   "retweet_count": 4, 
   "favorite_count": 4
  }, 
  {
   "text": "#Coyotes able to get a little zone time, force Lehtonen to make a good save. Halfway thru the 1st pd, PHX trails DAL 1-0. SOG at 3 apiece.", 
   "label": "O", 
   "id": 432324816763224065, 
   "hashtags": [
    "Coyotes"
   ], 
   "user_mentions": [], 
   "created_at": "Sun Feb 09 01:27:23 +0000 2014", 
   "retweet_count": 0, 
   "favorite_count": 0
  }, 
  {
   "text": "#Coyotes unable to score on an early PP (after 2 PP goals last night), trail #Stars 1-0. Talk about it- #YotesChat: http://t.co/WTOhsZTVKH", 
   "label": "O", 
   "id": 432323103956692992, 
   "hashtags": [
    "Coyotes", 
    "Stars", 
    "YotesChat"
   ], 
   "user_mentions": [], 
   "created_at": "Sun Feb 09 01:20:34 +0000 2014", 
   "retweet_count": 1, 
   "favorite_count": 1
  }, 
  {
   "text": "The #Stars strike first. On a delayed penalty, Ray Whitney beats Smith up high over the glove. #Coyotes down 1-0 early in the game.", 
   "label": "O", 
   "id": 432321468752351233, 
   "hashtags": [
    "Stars", 
    "Coyotes"
   ], 
   "user_mentions": [], 
   "created_at": "Sun Feb 09 01:14:04 +0000 2014", 
   "retweet_count": 1, 
   "favorite_count": 0
  }, 
  {
   "text": "@c8lino Channel 454 on Dish. Here's a channel guide for the game: http://t.co/tpc08Mpgld", 
   "label": "O", 
   "id": 432321039201075201, 
   "hashtags": [], 
   "user_mentions": [
    "c8lino"
   ], 
   "created_at": "Sun Feb 09 01:12:22 +0000 2014", 
   "retweet_count": 1, 
   "favorite_count": 0
  }, 
  {
   "text": "@YotesLove He suffered an upper body injury in last night's game vs. Chicago and did not make the trip to Dallas. #Coyotes", 
   "label": "O", 
   "id": 432320339566018560, 
   "hashtags": [
    "Coyotes"
   ], 
   "user_mentions": [
    "YotesLove"
   ], 
   "created_at": "Sun Feb 09 01:09:35 +0000 2014", 
   "retweet_count": 0, 
   "favorite_count": 0
  }, 
  {
   "text": "We're off, #Coyotes at @DallasStars, big 2 points! Vermette on a 9-game point streak, leads the Coyotes with 13 road goals this season.", 
   "label": "O", 
   "id": 432320158028136449, 
   "hashtags": [
    "Coyotes"
   ], 
   "user_mentions": [
    "DallasStars"
   ], 
   "created_at": "Sun Feb 09 01:08:52 +0000 2014", 
   "retweet_count": 3, 
   "favorite_count": 3
  }, 
  {
   "text": "CONGRATS to #Coyotes defenseman Michael Stone, set to play in his 100th career @NHL game tonight. http://t.co/vJehxODeWU", 
   "label": "O", 
   "id": 432318410806935552, 
   "hashtags": [
    "Coyotes"
   ], 
   "user_mentions": [
    "NHL"
   ], 
   "created_at": "Sun Feb 09 01:01:55 +0000 2014", 
   "retweet_count": 15, 
   "favorite_count": 25
  }, 
  {
   "text": "NOTE: Martin Hanzal is in tonight for the #Coyotes. He'd been a gametime decision. #HungrierThanEver", 
   "label": "O", 
   "id": 432317259063648256, 
   "hashtags": [
    "Coyotes", 
    "HungrierThanEver"
   ], 
   "user_mentions": [], 
   "created_at": "Sun Feb 09 00:57:21 +0000 2014", 
   "retweet_count": 4, 
   "favorite_count": 12
  }, 
  {
   "text": "#Coyotes at #Stars, let's go! STARTERS: Smith, OEL, Michalek, Chipchura, Halpern, Moss. Scratches: Morris, Rundblad, Bissonnette", 
   "label": "O", 
   "id": 432317118399254528, 
   "hashtags": [
    "Coyotes", 
    "Stars"
   ], 
   "user_mentions": [], 
   "created_at": "Sun Feb 09 00:56:47 +0000 2014", 
   "retweet_count": 8, 
   "favorite_count": 6
  }, 
  {
   "text": "Warming up, #Coyotes at #Stars. Flip on FS-AZ *Plus or tune in &amp; join #YotesChat NOW: http://t.co/9gmDWKXbXV http://t.co/645DfOwdfZ", 
   "label": "O", 
   "id": 432314236329394176, 
   "hashtags": [
    "Coyotes", 
    "Stars", 
    "YotesChat"
   ], 
   "user_mentions": [], 
   "created_at": "Sun Feb 09 00:45:20 +0000 2014", 
   "retweet_count": 0, 
   "favorite_count": 9
  }, 
  {
   "text": "~ 1 hour til #Coyotes puck drop! TV: FS-AZ *Plus;* Radio: 92.3 FM, Mobile App, online: http://t.co/J2X5m5zmuX; Chat: http://t.co/9gmDWKXbXV", 
   "label": "O", 
   "id": 432305018440384512, 
   "hashtags": [
    "Coyotes"
   ], 
   "user_mentions": [], 
   "created_at": "Sun Feb 09 00:08:42 +0000 2014", 
   "retweet_count": 6, 
   "favorite_count": 5
  }, 
  {
   "text": "#YotesChat is ON tonight  w/ team reporter @davest4yotes &amp; fans, starting at 5:45pm. What should we talk about? http://t.co/oQwRN0hGKN", 
   "label": "O", 
   "id": 432300421592252417, 
   "hashtags": [
    "YotesChat"
   ], 
   "user_mentions": [
    "davest4yotes"
   ], 
   "created_at": "Sat Feb 08 23:50:26 +0000 2014", 
   "retweet_count": 3, 
   "favorite_count": 6
  }, 
  {
   "text": "RT @YotesCommunity: Had a great time at @ArizonaSundogs &amp; @phoenixcoyotes hockey clinic. Thanks everyone who came out http://t.co/igaBpY2LYU", 
   "label": "O", 
   "id": 432294304166313984, 
   "hashtags": [], 
   "user_mentions": [
    "YotesCommunity", 
    "ArizonaSundogs", 
    "phoenixcoyotes"
   ], 
   "created_at": "Sat Feb 08 23:26:08 +0000 2014", 
   "retweet_count": 3, 
   "favorite_count": 9
  }, 
  {
   "text": "STAT to RT: Mike Smith (starting tonight) handed CHI their 1st shutout in 127 games last night. He enters tonight w/ .928 career SV% v. DAL", 
   "label": "O", 
   "id": 432289622916214785, 
   "hashtags": [], 
   "user_mentions": [], 
   "created_at": "Sat Feb 08 23:07:32 +0000 2014", 
   "retweet_count": 14, 
   "favorite_count": 13
  }, 
  {
   "text": "Of course. Right here: http://t.co/S9xQnkUyJg RT @Skylar_Peterson: Any way to watch the intro from last nights game? It was incredible!", 
   "label": "O", 
   "id": 432267167052996608, 
   "hashtags": [], 
   "user_mentions": [
    "Skylar_Peterson"
   ], 
   "created_at": "Sat Feb 08 21:38:18 +0000 2014", 
   "retweet_count": 5, 
   "favorite_count": 5
  }, 
  {
   "text": "@DallasStars Well, we ARE #HungrierThanEver. But we'll take two standings points tonight instead to satisfy our appettite. #Coyotes", 
   "label": "O", 
   "id": 432261354515222528, 
   "hashtags": [
    "HungrierThanEver", 
    "Coyotes"
   ], 
   "user_mentions": [
    "DallasStars"
   ], 
   "created_at": "Sat Feb 08 21:15:12 +0000 2014", 
   "retweet_count": 7, 
   "favorite_count": 7
  }, 
  {
   "text": "~ 4 hours til #Coyotes v. @DallasStars! NOTES: Smith back in goal for PHX, Morris out, Hanzal game-time decision. http://t.co/eBbDvQh4PY", 
   "label": "O", 
   "id": 432259404008660992, 
   "hashtags": [
    "Coyotes"
   ], 
   "user_mentions": [
    "DallasStars"
   ], 
   "created_at": "Sat Feb 08 21:07:27 +0000 2014", 
   "retweet_count": 10, 
   "favorite_count": 17
  }, 
  {
   "text": "@DallasStars Our submission for the #Sochi12014 send-off. Good luck to all Olympians! https://t.co/LCSjpQWVdo", 
   "label": "O", 
   "id": 432252982454132736, 
   "hashtags": [
    "Sochi12014"
   ], 
   "user_mentions": [
    "DallasStars"
   ], 
   "created_at": "Sat Feb 08 20:41:56 +0000 2014", 
   "retweet_count": 10, 
   "favorite_count": 22
  }, 
  {
   "text": "So this happened last night. Thanks to @RealAliceCooper on a great intermission show for #Coyotes fans! http://t.co/7aJ5fqrbbO", 
   "label": "O", 
   "id": 432228821236846592, 
   "hashtags": [
    "Coyotes"
   ], 
   "user_mentions": [
    "RealAliceCooper"
   ], 
   "created_at": "Sat Feb 08 19:05:56 +0000 2014", 
   "retweet_count": 18, 
   "favorite_count": 31
  }, 
  {
   "text": "A truly memorable night means great Tweets of the Game! Via @Jess_525 @JOVANA_Stewart @irishcream99 @MERUZIONE http://t.co/awKq3cQgz3", 
   "label": "O", 
   "id": 432198586445471744, 
   "hashtags": [], 
   "user_mentions": [
    "Jess_525", 
    "JOVANA_stewart", 
    "irishcream99", 
    "MERUZIONE"
   ], 
   "created_at": "Sat Feb 08 17:05:47 +0000 2014", 
   "retweet_count": 4, 
   "favorite_count": 9
  }, 
  {
   "text": "#Coyotes play @DallasStars @ 6pm looking to stay in playoff position before the break. PREVIEW http://t.co/kRdZqzyzMw http://t.co/ivEwFc27pM", 
   "label": "O", 
   "id": 432190597567234051, 
   "hashtags": [
    "Coyotes"
   ], 
   "user_mentions": [
    "DallasStars"
   ], 
   "created_at": "Sat Feb 08 16:34:02 +0000 2014", 
   "retweet_count": 7, 
   "favorite_count": 18
  }, 
  {
   "text": "RT @MERUZIONE: What an awesome night last night Phoenix coyotes are a first class organization my teammates and I had a blast thank you", 
   "label": "O", 
   "id": 432183760834936833, 
   "hashtags": [], 
   "user_mentions": [
    "MERUZIONE"
   ], 
   "created_at": "Sat Feb 08 16:06:52 +0000 2014", 
   "retweet_count": 10, 
   "favorite_count": 23
  }, 
  {
   "text": "We ran into some #Coyotes fans flying to Dallas for the Yotes game tonight. #HungrierThanEver http://t.co/oN7YoKkU7t", 
   "label": "O", 
   "id": 432181479238422528, 
   "hashtags": [
    "Coyotes", 
    "HungrierThanEver"
   ], 
   "user_mentions": [], 
   "created_at": "Sat Feb 08 15:57:48 +0000 2014", 
   "retweet_count": 6, 
   "favorite_count": 32
  }, 
  {
   "text": "WATCH and Read about the pregame #MiracleOnIce and Olympic send-off ceremony: http://t.co/zhj3EwARm6 You'll get goosebumps.", 
   "label": "O", 
   "id": 432169720809152513, 
   "hashtags": [
    "MiracleOnIce"
   ], 
   "user_mentions": [], 
   "created_at": "Sat Feb 08 15:11:05 +0000 2014", 
   "retweet_count": 4, 
   "favorite_count": 4
  }, 
  {
   "text": "Unreal pregame event, huge win, big crowd, surprise Alice Cooper concert? Yeah, that happened last night, GAME CLIPS http://t.co/y97koxv8zS", 
   "label": "O", 
   "id": 432166951612203009, 
   "hashtags": [], 
   "user_mentions": [], 
   "created_at": "Sat Feb 08 15:00:05 +0000 2014", 
   "retweet_count": 9, 
   "favorite_count": 9
  }, 
  {
   "text": "GREAT PIC - What inspired Yandle to score the GWG 1:09 into the game? Maybe meeting @MERUZIONE pregame. http://t.co/YvitwpMpJe", 
   "label": "O", 
   "id": 432040662117003264, 
   "hashtags": [], 
   "user_mentions": [
    "MERUZIONE"
   ], 
   "created_at": "Sat Feb 08 06:38:15 +0000 2014", 
   "retweet_count": 26, 
   "favorite_count": 49
  }, 
  {
   "text": "WATCH Coach Tippett on the #Coyotes winning battles, team health updates, d-men stepping up, quiet CHI fans &amp; more http://t.co/h6UEQbfhbP", 
   "label": "O", 
   "id": 432033316800172033, 
   "hashtags": [
    "Coyotes"
   ], 
   "user_mentions": [], 
   "created_at": "Sat Feb 08 06:09:04 +0000 2014", 
   "retweet_count": 3, 
   "favorite_count": 4
  }, 
  {
   "text": "WATCH Yandle on the big win tonight, a strong overall performance, &amp; more http://t.co/985F8P1qCy #Coyotes http://t.co/kFkRmr9LKW", 
   "label": "O", 
   "id": 432030642826526723, 
   "hashtags": [
    "Coyotes"
   ], 
   "user_mentions": [], 
   "created_at": "Sat Feb 08 05:58:26 +0000 2014", 
   "retweet_count": 12, 
   "favorite_count": 16
  }, 
  {
   "text": "WATCH Smith (after hearing from Doan) discuss his great game, silencing Hawks fans, &amp; more http://t.co/wPu6gx5la7 http://t.co/FYaQ3JUGXB", 
   "label": "O", 
   "id": 432029238548365312, 
   "hashtags": [], 
   "user_mentions": [], 
   "created_at": "Sat Feb 08 05:52:51 +0000 2014", 
   "retweet_count": 12, 
   "favorite_count": 30
  }, 
  {
   "text": "Keith Yandle: \"When you play teams like that you look at the roster before the game &amp; you know you have to be your best. Every play counts.\"", 
   "label": "O", 
   "id": 432022375853326337, 
   "hashtags": [], 
   "user_mentions": [], 
   "created_at": "Sat Feb 08 05:25:35 +0000 2014", 
   "retweet_count": 10, 
   "favorite_count": 27
  }, 
  {
   "text": "Radim Vrbata on 'Miracle on Ice' buzz in arena tonight: \"I thought it was great. Even though I'm Czech I can appreciate the atmosphere.\"", 
   "label": "O", 
   "id": 432021181986635776, 
   "hashtags": [], 
   "user_mentions": [], 
   "created_at": "Sat Feb 08 05:20:51 +0000 2014", 
   "retweet_count": 10, 
   "favorite_count": 17
  }, 
  {
   "text": "Mike Smith: \"I'm never satisfied. I played well but just when you think you've got it, it can turn so I'm not going to look too far ahead.\"", 
   "label": "O", 
   "id": 432020519194349568, 
   "hashtags": [], 
   "user_mentions": [], 
   "created_at": "Sat Feb 08 05:18:12 +0000 2014", 
   "retweet_count": 14, 
   "favorite_count": 23
  }, 
  {
   "text": "Dave Tippett: \"I thought our whole group battled hard...There was a good atmosphere in the building. I was glad we went out &amp; played well.\"", 
   "label": "O", 
   "id": 432019921317273600, 
   "hashtags": [], 
   "user_mentions": [], 
   "created_at": "Sat Feb 08 05:15:50 +0000 2014", 
   "retweet_count": 12, 
   "favorite_count": 18
  }, 
  {
   "text": "Head Coach Dave Tippett says: 1. Smith will start again in Dallas tomorrow, 2. Hanzal will go to Dallas and, 3. Morris will not go to Dallas", 
   "label": "O", 
   "id": 432019027200720898, 
   "hashtags": [], 
   "user_mentions": [], 
   "created_at": "Sat Feb 08 05:12:17 +0000 2014", 
   "retweet_count": 10, 
   "favorite_count": 20
  }, 
  {
   "text": "This guy was pretty good tonight. Retweet to congratulate Smitty on a strong shutout for the #Coyotes win! http://t.co/aY0qNsQRYQ", 
   "label": "O", 
   "id": 432018736178946048, 
   "hashtags": [
    "Coyotes"
   ], 
   "user_mentions": [], 
   "created_at": "Sat Feb 08 05:11:07 +0000 2014", 
   "retweet_count": 152, 
   "favorite_count": 92
  }, 
  {
   "text": "RT @Goz100: So proud of the @phoenixcoyotes and @usahockey.  How can you not be a fan of the greatest sport in the world after a night like\u2026", 
   "label": "O", 
   "id": 432016468964671488, 
   "hashtags": [], 
   "user_mentions": [
    "Goz100", 
    "phoenixcoyotes", 
    "usahockey"
   ], 
   "created_at": "Sat Feb 08 05:02:07 +0000 2014", 
   "retweet_count": 69, 
   "favorite_count": 0
  }
 ]
}