{
 "num_road_team_goals": "3", 
 "home_team": "Phoenix Coyotes", 
 "num_home_team_goals": "1", 
 "summary_url": "http://www.flyershistory.com/cgi-bin/poboxscore.cgi?H20130852", 
 "result": "L", 
 "road_team": "Dallas Stars", 
 "date": "2014-02-04", 
 "goals": [
  {
   "season_index": "21", 
   "strength": "(EV)", 
   "time": "9:18", 
   "period": "2", 
   "player": "A.Vermette", 
   "assists": null, 
   "game_index": "1", 
   "team": "PHX"
  }, 
  {
   "season_index": "7", 
   "strength": "(PP)", 
   "time": "12:32", 
   "period": "2", 
   "player": "S.Horcoff", 
   "assists": "(T.Seguin, R.Peverley)", 
   "game_index": "2", 
   "team": "DAL"
  }, 
  {
   "season_index": "9", 
   "strength": "(EV)", 
   "time": "3:25", 
   "period": "3", 
   "player": "A.Roussel", 
   "assists": "(R.Garbutt)", 
   "game_index": "3", 
   "team": "DAL"
  }, 
  {
   "season_index": "11", 
   "strength": "(EV-EN)", 
   "time": "19:33", 
   "period": "3", 
   "player": "R.Garbutt", 
   "assists": "(C.Eakin)", 
   "game_index": "4", 
   "team": "DAL"
  }
 ], 
 "tweets": [
  {
   "text": "@TylerMason Yep, looks like 37 is the final save tally for Smith tonight.", 
   "label": "O", 
   "id": 430924498909421568, 
   "hashtags": [], 
   "user_mentions": [
    "TylerMason"
   ], 
   "created_at": "Wed Feb 05 04:43:01 +0000 2014", 
   "retweet_count": 0, 
   "favorite_count": 0
  }, 
  {
   "text": "Smith made 38 saves in defeat (2nd star). #Coyotes fall &amp; will look for revenge Sat. @ DAL. http://t.co/P0kexFFYqD http://t.co/khN8juS0RE", 
   "label": "O", 
   "id": 430923727644008448, 
   "hashtags": [
    "Coyotes"
   ], 
   "user_mentions": [], 
   "created_at": "Wed Feb 05 04:39:57 +0000 2014", 
   "retweet_count": 8, 
   "favorite_count": 8
  }, 
  {
   "text": "The #Coyotes got a goal from Vermette and 38 saves from Smith, but they fall just short, going down 3-1 vs. Dallas. http://t.co/uGah9ucWWT", 
   "label": "O", 
   "id": 430922754045403136, 
   "hashtags": [
    "Coyotes"
   ], 
   "user_mentions": [], 
   "created_at": "Wed Feb 05 04:36:05 +0000 2014", 
   "retweet_count": 9, 
   "favorite_count": 6
  }, 
  {
   "text": "The #Stars score an empty-net goal to make it 3-1 with just 26 seconds left. #Coyotes comeback appears it'll fall short vs. Dallas tonight.", 
   "label": "O", 
   "id": 430922283595481088, 
   "hashtags": [
    "Stars", 
    "Coyotes"
   ], 
   "user_mentions": [], 
   "created_at": "Wed Feb 05 04:34:13 +0000 2014", 
   "retweet_count": 5, 
   "favorite_count": 2
  }, 
  {
   "text": "Smith heads to the bench, #Coyotes looking for the equalizer, down 2-1. 1:08 left to play.", 
   "label": "O", 
   "id": 430921925087358976, 
   "hashtags": [
    "Coyotes"
   ], 
   "user_mentions": [], 
   "created_at": "Wed Feb 05 04:32:47 +0000 2014", 
   "retweet_count": 3, 
   "favorite_count": 0
  }, 
  {
   "text": "Under 2 to play, #Coyotes peppering pucks into the #Stars zone, but need a goal, down 2-1, offensive zone faceoff upcoming. #GoYotes", 
   "label": "O", 
   "id": 430921653602643968, 
   "hashtags": [
    "Coyotes", 
    "Stars", 
    "GoYotes"
   ], 
   "user_mentions": [], 
   "created_at": "Wed Feb 05 04:31:43 +0000 2014", 
   "retweet_count": 2, 
   "favorite_count": 2
  }, 
  {
   "text": "Applause from an appreciative crowd as Smith makes back-to-back saves to keep it a 1-goal game. He has 35 stops now, but #Coyotes down 2-1.", 
   "label": "O", 
   "id": 430919386933628928, 
   "hashtags": [
    "Coyotes"
   ], 
   "user_mentions": [], 
   "created_at": "Wed Feb 05 04:22:42 +0000 2014", 
   "retweet_count": 0, 
   "favorite_count": 8
  }, 
  {
   "text": "#Coyotes pressuring the #Stars zone, down 2-1, while Smith makes some quick reaction saves at the other end to keep it close. 6:40 left.", 
   "label": "O", 
   "id": 430918982237818880, 
   "hashtags": [
    "Coyotes", 
    "Stars"
   ], 
   "user_mentions": [], 
   "created_at": "Wed Feb 05 04:21:06 +0000 2014", 
   "retweet_count": 0, 
   "favorite_count": 2
  }, 
  {
   "text": "11:32 left in regulation, #Coyotes trail the #Stars 2-1 as PHX starts to pinch up front, leting d-men get involved. #GoYotes", 
   "label": "O", 
   "id": 430916824880791553, 
   "hashtags": [
    "Coyotes", 
    "Stars", 
    "GoYotes"
   ], 
   "user_mentions": [], 
   "created_at": "Wed Feb 05 04:12:31 +0000 2014", 
   "retweet_count": 2, 
   "favorite_count": 3
  }, 
  {
   "text": "The #Coyotes turn the puck over during a line change and the #Stars cash in as Roussel beats Smith glove-side. PHX down 2-1, early 3rd.", 
   "label": "O", 
   "id": 430914385817509888, 
   "hashtags": [
    "Coyotes", 
    "Stars"
   ], 
   "user_mentions": [], 
   "created_at": "Wed Feb 05 04:02:50 +0000 2014", 
   "retweet_count": 1, 
   "favorite_count": 2
  }, 
  {
   "text": "@8tomcat Welcome to the pack.", 
   "label": "O", 
   "id": 430913282002538496, 
   "hashtags": [], 
   "user_mentions": [
    "8tomcat"
   ], 
   "created_at": "Wed Feb 05 03:58:27 +0000 2014", 
   "retweet_count": 0, 
   "favorite_count": 0
  }, 
  {
   "text": "3rd pd starts w/ #Coyotes &amp; #Stars tied 1-1, setting up for a close finish. In 2013-14, Yotes are 12-3-10 in 1-goal games, DAL is 10-6-9.", 
   "label": "O", 
   "id": 430912838182240258, 
   "hashtags": [
    "Coyotes", 
    "Stars"
   ], 
   "user_mentions": [], 
   "created_at": "Wed Feb 05 03:56:41 +0000 2014", 
   "retweet_count": 2, 
   "favorite_count": 0
  }, 
  {
   "text": "STAT to tell your friends: #Coyotes are 5-3-2 when tied after two periods this season; #Stars check in at 5-5-2. #GoYotes", 
   "label": "O", 
   "id": 430911654662914048, 
   "hashtags": [
    "Coyotes", 
    "Stars", 
    "GoYotes"
   ], 
   "user_mentions": [], 
   "created_at": "Wed Feb 05 03:51:59 +0000 2014", 
   "retweet_count": 4, 
   "favorite_count": 2
  }, 
  {
   "text": "WATCH Antoine Vermette score his 21st goal of the season: http://t.co/WKVLzbwbic He has one heck of a scoring touch right now. #Coyotes", 
   "label": "O", 
   "id": 430909892589658113, 
   "hashtags": [
    "Coyotes"
   ], 
   "user_mentions": [], 
   "created_at": "Wed Feb 05 03:44:58 +0000 2014", 
   "retweet_count": 7, 
   "favorite_count": 9
  }, 
  {
   "text": "A physical affair as the 2nd pd closes tied 1-1, #Coyotes getting a Vermette goal early. Howling extra loud tonight. http://t.co/a7NpetUrn1", 
   "label": "O", 
   "id": 430908195469402112, 
   "hashtags": [
    "Coyotes"
   ], 
   "user_mentions": [], 
   "created_at": "Wed Feb 05 03:38:14 +0000 2014", 
   "retweet_count": 2, 
   "favorite_count": 4
  }, 
  {
   "text": "@DallasStars Was that show still popular the last time you beat us in Phoenix? Four #Coyotes wins in a row over the #Stars @JobingArena...", 
   "label": "O", 
   "id": 430907128333606912, 
   "hashtags": [
    "Coyotes", 
    "Stars"
   ], 
   "user_mentions": [
    "DallasStars", 
    "JobingArena"
   ], 
   "created_at": "Wed Feb 05 03:33:59 +0000 2014", 
   "retweet_count": 9, 
   "favorite_count": 15
  }, 
  {
   "text": "#Coyotes get their first PP of the game. #Stars w/ 19th-ranked PK unit in NHL, but that drops to 24th on the road. 1-1 game. #GoYotes", 
   "label": "O", 
   "id": 430906137223774208, 
   "hashtags": [
    "Coyotes", 
    "Stars", 
    "GoYotes"
   ], 
   "user_mentions": [], 
   "created_at": "Wed Feb 05 03:30:03 +0000 2014", 
   "retweet_count": 1, 
   "favorite_count": 3
  }, 
  {
   "text": "#Stars out-shooting the #Coyotes so far in the 2nd, but Smith with 25 saves so far tonight &amp; has been active with the paddle. #GoYotes", 
   "label": "O", 
   "id": 430905562977402880, 
   "hashtags": [
    "Stars", 
    "Coyotes", 
    "GoYotes"
   ], 
   "user_mentions": [], 
   "created_at": "Wed Feb 05 03:27:46 +0000 2014", 
   "retweet_count": 0, 
   "favorite_count": 5
  }, 
  {
   "text": "@DallasStars Game on, #Stars. This one is huge for both clubs.", 
   "label": "O", 
   "id": 430905147024084992, 
   "hashtags": [
    "Stars"
   ], 
   "user_mentions": [
    "DallasStars"
   ], 
   "created_at": "Wed Feb 05 03:26:07 +0000 2014", 
   "retweet_count": 5, 
   "favorite_count": 8
  }, 
  {
   "text": "@Zia0n The fans in attendance sure didn't like the no-call nor did they like the penalty called on PHX earlier. Enthusiastic crowd tonight.", 
   "label": "O", 
   "id": 430904975036669952, 
   "hashtags": [], 
   "user_mentions": [
    "Zia0n"
   ], 
   "created_at": "Wed Feb 05 03:25:26 +0000 2014", 
   "retweet_count": 1, 
   "favorite_count": 0
  }, 
  {
   "text": "After a Moss SH breakaway is denied, the #Stars score on the PP when Horcoff beats Smith on a quick turnaround backhander. 1-1 now. #Coyotes", 
   "label": "O", 
   "id": 430904454355771392, 
   "hashtags": [
    "Stars", 
    "Coyotes"
   ], 
   "user_mentions": [], 
   "created_at": "Wed Feb 05 03:23:22 +0000 2014", 
   "retweet_count": 0, 
   "favorite_count": 3
  }, 
  {
   "text": "RT @DallasStars: Vermette opens scoring, validates Yotes' Twitter. RT @phoenixcoyotes: @DallasStars We'll start with a goal or two, then go\u2026", 
   "label": "O", 
   "id": 430903710168780800, 
   "hashtags": [], 
   "user_mentions": [
    "DallasStars", 
    "phoenixcoyotes", 
    "DallasStars"
   ], 
   "created_at": "Wed Feb 05 03:20:25 +0000 2014", 
   "retweet_count": 12, 
   "favorite_count": 0
  }, 
  {
   "text": "A chorus of disagreement among #Coyotes fans as PHX heads back on the PK looking to stop the #Stars PP for a third time tonight. 1-0 Yotes.", 
   "label": "O", 
   "id": 430903601150427136, 
   "hashtags": [
    "Coyotes", 
    "Stars"
   ], 
   "user_mentions": [], 
   "created_at": "Wed Feb 05 03:19:58 +0000 2014", 
   "retweet_count": 2, 
   "favorite_count": 2
  }, 
  {
   "text": "Vermette extends his career-long point streak to 8 games and now has 8-3-11 in the last 8 games. #Coyotes #HungrierThanEver", 
   "label": "O", 
   "id": 430903206386757633, 
   "hashtags": [
    "Coyotes", 
    "HungrierThanEver"
   ], 
   "user_mentions": [], 
   "created_at": "Wed Feb 05 03:18:24 +0000 2014", 
   "retweet_count": 9, 
   "favorite_count": 9
  }, 
  {
   "text": "#YotesGoal! Of course, it's Vermette as he picks a puck off the boards and speeds ahead before beating Lehtonen w/ a backhand. 1-0 #Coyotes!", 
   "label": "O", 
   "id": 430902690617376769, 
   "hashtags": [
    "YotesGoal", 
    "Coyotes"
   ], 
   "user_mentions": [], 
   "created_at": "Wed Feb 05 03:16:21 +0000 2014", 
   "retweet_count": 28, 
   "favorite_count": 27
  }, 
  {
   "text": "@DallasStars We'll start with a goal or two, then go from there.", 
   "label": "O", 
   "id": 430902408080678912, 
   "hashtags": [], 
   "user_mentions": [
    "DallasStars"
   ], 
   "created_at": "Wed Feb 05 03:15:14 +0000 2014", 
   "retweet_count": 2, 
   "favorite_count": 8
  }, 
  {
   "text": "Best scoring chance of the night for the #Coyotes as Moss gets sprung on a breakaway off a lead pass from Yandle, but Lehtonen stops it.", 
   "label": "O", 
   "id": 430901281394159616, 
   "hashtags": [
    "Coyotes"
   ], 
   "user_mentions": [], 
   "created_at": "Wed Feb 05 03:10:45 +0000 2014", 
   "retweet_count": 2, 
   "favorite_count": 5
  }, 
  {
   "text": "#Coyotes with a successful PK in the opening minutes of the 2nd. 0-0 game and PHX now 18-19 on PK over the last 7 games.", 
   "label": "O", 
   "id": 430900396584738816, 
   "hashtags": [
    "Coyotes"
   ], 
   "user_mentions": [], 
   "created_at": "Wed Feb 05 03:07:14 +0000 2014", 
   "retweet_count": 2, 
   "favorite_count": 4
  }, 
  {
   "text": "2nd pd underway, #Coyotes and #Stars scoreless. Hanzal with a busy opening frame, including 3 SOG, 1 hit, 1 takeaway, 4-6 in FO's. #GoYotes", 
   "label": "O", 
   "id": 430899192815296512, 
   "hashtags": [
    "Coyotes", 
    "Stars", 
    "GoYotes"
   ], 
   "user_mentions": [], 
   "created_at": "Wed Feb 05 03:02:27 +0000 2014", 
   "retweet_count": 2, 
   "favorite_count": 3
  }, 
  {
   "text": "2nd period the action period for each team. Both #Coyotes &amp; #Stars average more SOG and goals in the 2nd than any other period.", 
   "label": "O", 
   "id": 430898074022461440, 
   "hashtags": [
    "Coyotes", 
    "Stars"
   ], 
   "user_mentions": [], 
   "created_at": "Wed Feb 05 02:58:01 +0000 2014", 
   "retweet_count": 2, 
   "favorite_count": 2
  }, 
  {
   "text": "For you scoreboard watchers, VAN lost tonight, so a #Coyotes  win tonight means they can move into playoff position in the West.", 
   "label": "O", 
   "id": 430896408464740352, 
   "hashtags": [
    "Coyotes"
   ], 
   "user_mentions": [], 
   "created_at": "Wed Feb 05 02:51:24 +0000 2014", 
   "retweet_count": 24, 
   "favorite_count": 14
  }, 
  {
   "text": "Nice #BattleHowl from fans as the 1st pd ends 0-0. #Stars lead #Coyotes 13-11 in SOG, but a bit deceiving as PHX w/ more scoring chances.", 
   "label": "O", 
   "id": 430894696110366720, 
   "hashtags": [
    "BattleHowl", 
    "Stars", 
    "Coyotes"
   ], 
   "user_mentions": [], 
   "created_at": "Wed Feb 05 02:44:35 +0000 2014", 
   "retweet_count": 4, 
   "favorite_count": 6
  }, 
  {
   "text": "4:20 left in a scoreless 1st pd. #Coyotes, who talked about #Stars speed coming in, making it tough on DAL moving thru the neutral zone.", 
   "label": "O", 
   "id": 430892968296206337, 
   "hashtags": [
    "Coyotes", 
    "Stars"
   ], 
   "user_mentions": [], 
   "created_at": "Wed Feb 05 02:37:43 +0000 2014", 
   "retweet_count": 3, 
   "favorite_count": 2
  }, 
  {
   "text": "The #Coyotes Den Item of the Game (25% off tonight only) is just plain adorable: stuffed Howlers! #BestMascot http://t.co/I9DUcLrAEl", 
   "label": "O", 
   "id": 430892278433857536, 
   "hashtags": [
    "Coyotes", 
    "BestMascot"
   ], 
   "user_mentions": [], 
   "created_at": "Wed Feb 05 02:34:59 +0000 2014", 
   "retweet_count": 5, 
   "favorite_count": 4
  }, 
  {
   "text": "Mid-1st pd, most of the action at the #Coyotes offensive end but 0-0. Expect lots of SOG, each team averages taking + allowing ~32 SOG/game", 
   "label": "O", 
   "id": 430890377835315200, 
   "hashtags": [
    "Coyotes"
   ], 
   "user_mentions": [], 
   "created_at": "Wed Feb 05 02:27:26 +0000 2014", 
   "retweet_count": 2, 
   "favorite_count": 3
  }, 
  {
   "text": "#Coyotes fans get loud as a Vrbata takeaway in the Stars zone gets Hanzal an open look that Lehtonen stops. \"Let's Go Coyotes\" chants on now", 
   "label": "O", 
   "id": 430889048450686976, 
   "hashtags": [
    "Coyotes"
   ], 
   "user_mentions": [], 
   "created_at": "Wed Feb 05 02:22:09 +0000 2014", 
   "retweet_count": 3, 
   "favorite_count": 7
  }, 
  {
   "text": "0-0 six min in as neither team able to establish much zone time, but Smith makes the best save of the night so far w/ a glove snag. #Coyotes", 
   "label": "O", 
   "id": 430888303567437824, 
   "hashtags": [
    "Coyotes"
   ], 
   "user_mentions": [], 
   "created_at": "Wed Feb 05 02:19:11 +0000 2014", 
   "retweet_count": 2, 
   "favorite_count": 4
  }, 
  {
   "text": "#Coyotes will have a PK just 1:05 into the game. Both clubs coming off big wins their last time out (PHX over PIT, DAL over ANA).", 
   "label": "O", 
   "id": 430886549333344256, 
   "hashtags": [
    "Coyotes"
   ], 
   "user_mentions": [], 
   "created_at": "Wed Feb 05 02:12:13 +0000 2014", 
   "retweet_count": 1, 
   "favorite_count": 2
  }, 
  {
   "text": "Our entertainment team did a great job! Makes us #HungrierThanEver RT @solarcat: Okay the new @phoenixcoyotes pregame video is AMAZING!!! :D", 
   "label": "O", 
   "id": 430885851942240256, 
   "hashtags": [
    "HungrierThanEver"
   ], 
   "user_mentions": [
    "solarcat", 
    "phoenixcoyotes"
   ], 
   "created_at": "Wed Feb 05 02:09:27 +0000 2014", 
   "retweet_count": 5, 
   "favorite_count": 7
  }, 
  {
   "text": "#Coyotes - #Stars underway! PHX looks to make it 5 wins in a row at home v. DAL &amp; stay unbeaten in regulation wearing their black jerseys.", 
   "label": "O", 
   "id": 430885530784387072, 
   "hashtags": [
    "Coyotes", 
    "Stars"
   ], 
   "user_mentions": [], 
   "created_at": "Wed Feb 05 02:08:10 +0000 2014", 
   "retweet_count": 5, 
   "favorite_count": 7
  }, 
  {
   "text": "#Coyotes v. #Stars! Let's do this. STARTERS: Smith, Yandle, Morris, Vrbata, Hanzal, Doan. Scratches: Stone, Rundblad, Kennedy.", 
   "label": "O", 
   "id": 430883216484888576, 
   "hashtags": [
    "Coyotes", 
    "Stars"
   ], 
   "user_mentions": [], 
   "created_at": "Wed Feb 05 01:58:58 +0000 2014", 
   "retweet_count": 7, 
   "favorite_count": 10
  }, 
  {
   "text": "Almost hockey time. #Coyotes coverage- TV: Fox Sports AZ *Plus;* Radio: 860AM, Mobile App, online at http://t.co/5iuA11S31f #GoYotes", 
   "label": "O", 
   "id": 430882462474846208, 
   "hashtags": [
    "Coyotes", 
    "GoYotes"
   ], 
   "user_mentions": [], 
   "created_at": "Wed Feb 05 01:55:59 +0000 2014", 
   "retweet_count": 1, 
   "favorite_count": 3
  }, 
  {
   "text": "Nice birthday present! RT @Emma_blair00: thanks doaner! happy birthday to me .\ud83d\ude0a\ud83d\udc4c @phoenixcoyotes #LETSGOYOTES http://t.co/TUql5E02h2", 
   "label": "O", 
   "id": 430881424619470849, 
   "hashtags": [
    "LETSGOYOTES"
   ], 
   "user_mentions": [
    "phoenixcoyotes"
   ], 
   "created_at": "Wed Feb 05 01:51:51 +0000 2014", 
   "retweet_count": 0, 
   "favorite_count": 6
  }, 
  {
   "text": "RT @NBCSportsRoc: \u201c@NHL: The #Stars' dads are ready. Are you? #GoStars http://t.co/u6Vevi9A66\u201d Not in our House!!!!!!!! #Coyotes", 
   "label": "O", 
   "id": 430880006890196994, 
   "hashtags": [
    "Stars", 
    "GoStars", 
    "Coyotes"
   ], 
   "user_mentions": [
    "NBCSportsRoc", 
    "NHL"
   ], 
   "created_at": "Wed Feb 05 01:46:13 +0000 2014", 
   "retweet_count": 3, 
   "favorite_count": 0
  }, 
  {
   "text": "Warm-ups underway. Smith in goal for PHX, Lehtonen for DAL. Each owns a .926 career SV% vs. their opponent tonight. http://t.co/XrnJIMUUEw", 
   "label": "O", 
   "id": 430876641523294209, 
   "hashtags": [], 
   "user_mentions": [], 
   "created_at": "Wed Feb 05 01:32:51 +0000 2014", 
   "retweet_count": 0, 
   "favorite_count": 13
  }, 
  {
   "text": "Mike Ribeiro, Jeff Halpern, Mike Smith, &amp; Coach Tippett among the #Coyotes w/ ties to @DallasStars. #Flashback http://t.co/SOIb83ucPa", 
   "label": "O", 
   "id": 430874947615850496, 
   "hashtags": [
    "Coyotes", 
    "Flashback"
   ], 
   "user_mentions": [
    "DallasStars"
   ], 
   "created_at": "Wed Feb 05 01:26:07 +0000 2014", 
   "retweet_count": 5, 
   "favorite_count": 10
  }, 
  {
   "text": "If you haven't yet, get in FIRST GOAL PREDICTION to WIN a Coyotes hat signed by Vermette! You must enter at http://t.co/hDydArJ3eC", 
   "label": "O", 
   "id": 430873149953933312, 
   "hashtags": [], 
   "user_mentions": [], 
   "created_at": "Wed Feb 05 01:18:58 +0000 2014", 
   "retweet_count": 3, 
   "favorite_count": 2
  }, 
  {
   "text": "One hour til #Coyotes vs. #Stars puck drop! Coverage- TV: FS-AZ *Plus;* Radio: 860AM, Mobile App, online at http://t.co/5iuA11S31f", 
   "label": "O", 
   "id": 430869375361355777, 
   "hashtags": [
    "Coyotes", 
    "Stars"
   ], 
   "user_mentions": [], 
   "created_at": "Wed Feb 05 01:03:58 +0000 2014", 
   "retweet_count": 1, 
   "favorite_count": 1
  }, 
  {
   "text": "#Coyotes will sport their alternate black jerseys tonight (6-0-1 in those uniforms). Get set w/ the preview: http://t.co/VP5IpYtmhU", 
   "label": "O", 
   "id": 430862040626774016, 
   "hashtags": [
    "Coyotes"
   ], 
   "user_mentions": [], 
   "created_at": "Wed Feb 05 00:34:50 +0000 2014", 
   "retweet_count": 10, 
   "favorite_count": 16
  }, 
  {
   "text": "Yotes fans gonna join? RT @JTomaiko: Anyone going to the @phoenixcoyotes final student night for a while? I wanna go but don't want to solo.", 
   "label": "O", 
   "id": 430858302088437760, 
   "hashtags": [], 
   "user_mentions": [
    "JTomaiko", 
    "phoenixcoyotes"
   ], 
   "created_at": "Wed Feb 05 00:19:58 +0000 2014", 
   "retweet_count": 2, 
   "favorite_count": 4
  }, 
  {
   "text": "REMINDER: Pick up Standing Room Only tickets (starting @ $30) for Friday #Coyotes v. Chicago at the box office (while supplies last!).", 
   "label": "O", 
   "id": 430855533453508609, 
   "hashtags": [
    "Coyotes"
   ], 
   "user_mentions": [], 
   "created_at": "Wed Feb 05 00:08:58 +0000 2014", 
   "retweet_count": 1, 
   "favorite_count": 1
  }, 
  {
   "text": "Good luck bringing a medal back to AZ! RT @fry_X_cycle: Finished practice &amp; came outside to find this beautiful sight http://t.co/lO26oy9mrh", 
   "label": "O", 
   "id": 430851637087723520, 
   "hashtags": [], 
   "user_mentions": [
    "fry_X_cycle"
   ], 
   "created_at": "Tue Feb 04 23:53:29 +0000 2014", 
   "retweet_count": 15, 
   "favorite_count": 35
  }, 
  {
   "text": "@solarcat We only have 100 in supply so only those first 100 that get the 4-Pack will get one.", 
   "label": "O", 
   "id": 430846454836375552, 
   "hashtags": [], 
   "user_mentions": [
    "solarcat"
   ], 
   "created_at": "Tue Feb 04 23:32:54 +0000 2014", 
   "retweet_count": 0, 
   "favorite_count": 0
  }, 
  {
   "text": "Want a Coyotes Skate To Sochi poster (signed)? First 100 to get 4-game packs Thursday get one! http://t.co/qUWeReTp0R http://t.co/obcsFgZDyK", 
   "label": "O", 
   "id": 430843454822703104, 
   "hashtags": [], 
   "user_mentions": [], 
   "created_at": "Tue Feb 04 23:20:58 +0000 2014", 
   "retweet_count": 11, 
   "favorite_count": 27
  }, 
  {
   "text": "STAT to retweet: Mike Smith is 7-1-5 w/ 1.95 GAA in 13 career games v. @DallasStars. Smith is slated to start tonight. #HungrierThanEver", 
   "label": "O", 
   "id": 430831625849434112, 
   "hashtags": [
    "HungrierThanEver"
   ], 
   "user_mentions": [
    "DallasStars"
   ], 
   "created_at": "Tue Feb 04 22:33:58 +0000 2014", 
   "retweet_count": 14, 
   "favorite_count": 7
  }, 
  {
   "text": "CONGRATS to #Coyotes prospect Brendan Burke (w/ @pdxwinterhawks) on being named @CHLHockey Goalie of the Week! http://t.co/ogw5SFZEBn", 
   "label": "O", 
   "id": 430824963461767168, 
   "hashtags": [
    "Coyotes"
   ], 
   "user_mentions": [
    "pdxwinterhawks", 
    "CHLHockey"
   ], 
   "created_at": "Tue Feb 04 22:07:30 +0000 2014", 
   "retweet_count": 15, 
   "favorite_count": 26
  }, 
  {
   "text": "WATCH the #Coyotes vs. #Stars Preview: http://t.co/hl1NFXeV4g Shut down the Stars speed up front, need to win this \"four-point\" game...", 
   "label": "O", 
   "id": 430822817701957632, 
   "hashtags": [
    "Coyotes", 
    "Stars"
   ], 
   "user_mentions": [], 
   "created_at": "Tue Feb 04 21:58:58 +0000 2014", 
   "retweet_count": 3, 
   "favorite_count": 3
  }, 
  {
   "text": "WATCH Coach Tippett discuss the #Stars new look, Ribeiro's season &amp; facing his ex-squad, attention for OEL, &amp; more http://t.co/EvleVjhwGi", 
   "label": "O", 
   "id": 430817029755392002, 
   "hashtags": [
    "Stars"
   ], 
   "user_mentions": [], 
   "created_at": "Tue Feb 04 21:35:58 +0000 2014", 
   "retweet_count": 2, 
   "favorite_count": 2
  }, 
  {
   "text": "WATCH Korpikoski break down tonight's game vs. DAL, keeping Olympics out of mind, &amp; scoring on a fellow Finn: http://t.co/dXzFa7nddb", 
   "label": "O", 
   "id": 430804949841100801, 
   "hashtags": [], 
   "user_mentions": [], 
   "created_at": "Tue Feb 04 20:47:58 +0000 2014", 
   "retweet_count": 2, 
   "favorite_count": 2
  }, 
  {
   "text": "RT @KennyAndCrash: The 1980 Gold Medal Olympic hockey team is coming to PHX, &amp; THIS DUDE is responsible. Yup, @anthonydleblanc on next.", 
   "label": "O", 
   "id": 430803165626114048, 
   "hashtags": [], 
   "user_mentions": [
    "KennyAndCrash", 
    "anthonydleblanc"
   ], 
   "created_at": "Tue Feb 04 20:40:53 +0000 2014", 
   "retweet_count": 4, 
   "favorite_count": 2
  }, 
  {
   "text": "WATCH Ribeiro on facing his ex-team @DallasStars tonight &amp; how the #Coyotes can beat em by focusing on themselves http://t.co/9vgedR1TCC", 
   "label": "O", 
   "id": 430797110179819521, 
   "hashtags": [
    "Coyotes"
   ], 
   "user_mentions": [
    "DallasStars"
   ], 
   "created_at": "Tue Feb 04 20:16:49 +0000 2014", 
   "retweet_count": 2, 
   "favorite_count": 2
  }, 
  {
   "text": "RT @oldschoolgoalie: @phoenixcoyotes From what I can figure, the Student Rush record is 6-2-1-0.", 
   "label": "O", 
   "id": 430793551765843968, 
   "hashtags": [], 
   "user_mentions": [
    "oldschoolgoalie", 
    "phoenixcoyotes"
   ], 
   "created_at": "Tue Feb 04 20:02:41 +0000 2014", 
   "retweet_count": 2, 
   "favorite_count": 0
  }, 
  {
   "text": "Mike Ribeiro on playing vs. Stars for 1st time: \"It'll be interesting to play against old teammates. I think it's going to be a fun night.\"", 
   "label": "O", 
   "id": 430783256787570688, 
   "hashtags": [], 
   "user_mentions": [], 
   "created_at": "Tue Feb 04 19:21:46 +0000 2014", 
   "retweet_count": 11, 
   "favorite_count": 11
  }, 
  {
   "text": "@H3RBIEDETH College &amp; HS students can get $25 best seats left, starting at 6pm for tonight's game. More info: http://t.co/nMdOJYpTUq", 
   "label": "O", 
   "id": 430781306029350912, 
   "hashtags": [], 
   "user_mentions": [
    "H3RBIEDETH"
   ], 
   "created_at": "Tue Feb 04 19:14:01 +0000 2014", 
   "retweet_count": 0, 
   "favorite_count": 0
  }, 
  {
   "text": "Not sure what the #Coyotes record is on Student Rush nights, but we think it's good so keep it up tonight! Yotes ARE 9-3-1 in Tuesday games.", 
   "label": "O", 
   "id": 430778738725244929, 
   "hashtags": [
    "Coyotes"
   ], 
   "user_mentions": [], 
   "created_at": "Tue Feb 04 19:03:49 +0000 2014", 
   "retweet_count": 5, 
   "favorite_count": 10
  }, 
  {
   "text": "@ZachArty @rw223 @rocawill @josh_bosman Make sure to submit your prediction on our Facebook at http://t.co/hDydArJ3eC", 
   "label": "O", 
   "id": 430764188621762561, 
   "hashtags": [], 
   "user_mentions": [
    "ZachArty", 
    "rocawill", 
    "josh_bosman"
   ], 
   "created_at": "Tue Feb 04 18:06:00 +0000 2014", 
   "retweet_count": 0, 
   "favorite_count": 0
  }, 
  {
   "text": "FIRST GOAL PREDICTION on our Facebook. Winner gets this hat signed by Vermette! Predict at http://t.co/hDydArJ3eC http://t.co/JigqveBSdz", 
   "label": "O", 
   "id": 430763605605105664, 
   "hashtags": [], 
   "user_mentions": [], 
   "created_at": "Tue Feb 04 18:03:41 +0000 2014", 
   "retweet_count": 4, 
   "favorite_count": 7
  }, 
  {
   "text": "15 goals in 41 career games vs. Dallas! #HungrierThanEver RT @Donna_0903: @phoenixcoyotes Vrbata!!! Hopefully scores a few more tonight!", 
   "label": "O", 
   "id": 430758653210030080, 
   "hashtags": [
    "HungrierThanEver"
   ], 
   "user_mentions": [
    "Donna_0903", 
    "phoenixcoyotes"
   ], 
   "created_at": "Tue Feb 04 17:44:00 +0000 2014", 
   "retweet_count": 3, 
   "favorite_count": 8
  }, 
  {
   "text": "Hitting the ice for #Coyotes morning skate. Name this player pictured. Hint: He scored his 13th goal last game! http://t.co/Hpj6pDaUTs", 
   "label": "O", 
   "id": 430757507015798784, 
   "hashtags": [
    "Coyotes"
   ], 
   "user_mentions": [], 
   "created_at": "Tue Feb 04 17:39:27 +0000 2014", 
   "retweet_count": 3, 
   "favorite_count": 11
  }, 
  {
   "text": "#Coyotes could possibly climb into playoff position w/ a win tonight v. #Stars. Come howl http://t.co/DYlbeIZkJ2 http://t.co/IpFLt58fAg", 
   "label": "O", 
   "id": 430734953035210752, 
   "hashtags": [
    "Coyotes", 
    "Stars"
   ], 
   "user_mentions": [], 
   "created_at": "Tue Feb 04 16:09:50 +0000 2014", 
   "retweet_count": 29, 
   "favorite_count": 32
  }
 ]
}