{
 "num_road_team_goals": "1", 
 "home_team": "Philadelphia Flyers", 
 "num_home_team_goals": "2", 
 "summary_url": "http://www.flyershistory.com/cgi-bin/poboxscore.cgi?H20130872", 
 "result": "L", 
 "road_team": "Calgary Flames", 
 "date": "2014-02-08", 
 "goals": [
  {
   "season_index": "15", 
   "strength": "(EV)", 
   "time": "8:04", 
   "period": "2", 
   "player": "Brayden Schenn", 
   "assists": "(Wayne Simmonds, Andrej Meszaros)", 
   "game_index": "1", 
   "team": "PHI"
  }, 
  {
   "season_index": "15", 
   "strength": "(EV)", 
   "time": "4:04", 
   "period": "3", 
   "player": "Scott Hartnell", 
   "assists": "(Claude Giroux, Jakub Voracek)", 
   "game_index": "2", 
   "team": "PHI"
  }, 
  {
   "season_index": "10", 
   "strength": "(EV)", 
   "time": "17:34", 
   "period": "3", 
   "player": "M.Stajan", 
   "assists": "(T.Galiardi, J.Colborne)", 
   "game_index": "3", 
   "team": "CGY"
  }
 ], 
 "tweets": [
  {
   "text": "The #Flames are looking for passionate people to work in the food services dept! Attend our job fair, tomorrow at the 'Dome from 11-3!", 
   "label": "O", 
   "id": 432317967381315584, 
   "hashtags": [
    "Flames"
   ], 
   "user_mentions": [], 
   "created_at": "Sun Feb 09 01:00:10 +0000 2014", 
   "retweet_count": 5, 
   "favorite_count": 5
  }, 
  {
   "text": "#Flames pivot Matt Stajan talks about missed opportunities in Philly (VIDEO) ~ http://t.co/bvubejYxuT #CGYPHI", 
   "label": "O", 
   "id": 432306625928773632, 
   "hashtags": [
    "Flames", 
    "CGYPHI"
   ], 
   "user_mentions": [], 
   "created_at": "Sun Feb 09 00:15:06 +0000 2014", 
   "retweet_count": 2, 
   "favorite_count": 3
  }, 
  {
   "text": "Highlights from this morning's match-up with the #Flyers, right here ~ http://t.co/BQ6XKEjYnB #CGYPHI", 
   "label": "O", 
   "id": 432299102928633856, 
   "hashtags": [
    "Flyers", 
    "CGYPHI"
   ], 
   "user_mentions": [], 
   "created_at": "Sat Feb 08 23:45:12 +0000 2014", 
   "retweet_count": 1, 
   "favorite_count": 3
  }, 
  {
   "text": "Numerology: A numerological look at recently-signed d-man Kris Russell ~ http://t.co/YxL3KjbCjo", 
   "label": "O", 
   "id": 432291605949992960, 
   "hashtags": [], 
   "user_mentions": [], 
   "created_at": "Sat Feb 08 23:15:25 +0000 2014", 
   "retweet_count": 3, 
   "favorite_count": 3
  }, 
  {
   "text": "Reto Berra, #Sochi2014 bound tomorrow, talks about the 2-1 loss to the #Flyers (VIDEO) ~ http://t.co/8BEtt0NamR #CGYPHI", 
   "label": "O", 
   "id": 432283982257197056, 
   "hashtags": [
    "Sochi2014", 
    "Flyers", 
    "CGYPHI"
   ], 
   "user_mentions": [], 
   "created_at": "Sat Feb 08 22:45:07 +0000 2014", 
   "retweet_count": 2, 
   "favorite_count": 10
  }, 
  {
   "text": "Numerology: A by-the-numbers look at the 2-1 setback to the #Flyers ~ http://t.co/zJdVSwBI1m #CGYPHI", 
   "label": "O", 
   "id": 432276547102580736, 
   "hashtags": [
    "Flyers", 
    "CGYPHI"
   ], 
   "user_mentions": [], 
   "created_at": "Sat Feb 08 22:15:34 +0000 2014", 
   "retweet_count": 2, 
   "favorite_count": 0
  }, 
  {
   "text": "Inside The Game: The #Flames struggled to generate offence in Philly this morning ~ http://t.co/VL4rGkSKdZ #CGYPHI", 
   "label": "O", 
   "id": 432268926429708288, 
   "hashtags": [
    "Flames", 
    "CGYPHI"
   ], 
   "user_mentions": [], 
   "created_at": "Sat Feb 08 21:45:17 +0000 2014", 
   "retweet_count": 3, 
   "favorite_count": 0
  }, 
  {
   "text": "#Flames Snapshots: Photos from the Flames stop in Philly ~ http://t.co/OKdLucnfcC #CGYPHI", 
   "label": "O", 
   "id": 432262579843780608, 
   "hashtags": [
    "Flames", 
    "CGYPHI"
   ], 
   "user_mentions": [], 
   "created_at": "Sat Feb 08 21:20:04 +0000 2014", 
   "retweet_count": 2, 
   "favorite_count": 4
  }, 
  {
   "text": "The #Flames have signed Kris Russell to a two-year contract! Details ~ http://t.co/5nUGG9bRtO", 
   "label": "O", 
   "id": 432257271515471872, 
   "hashtags": [
    "Flames"
   ], 
   "user_mentions": [], 
   "created_at": "Sat Feb 08 20:58:59 +0000 2014", 
   "retweet_count": 35, 
   "favorite_count": 45
  }, 
  {
   "text": "The #Flames have assigned @JoniOrtio &amp; Chris Breen to the #AHLHeat ~ http://t.co/6lUCmHu4yH", 
   "label": "O", 
   "id": 432253776339017728, 
   "hashtags": [
    "Flames", 
    "AHLHeat"
   ], 
   "user_mentions": [
    "JoniOrtio"
   ], 
   "created_at": "Sat Feb 08 20:45:05 +0000 2014", 
   "retweet_count": 8, 
   "favorite_count": 2
  }, 
  {
   "text": "That's all she wrote - #Flyers win 2-1. Matt Stajan scored the #Flames goal late in the third period. #CGYPHI", 
   "label": "O", 
   "id": 432249658329403392, 
   "hashtags": [
    "Flyers", 
    "Flames", 
    "CGYPHI"
   ], 
   "user_mentions": [], 
   "created_at": "Sat Feb 08 20:28:44 +0000 2014", 
   "retweet_count": 6, 
   "favorite_count": 4
  }, 
  {
   "text": "#FLAMES GOAL! Ragin' Stajan pulls the Flames within a goal! #CGYPHI", 
   "label": "O", 
   "id": 432248458821378049, 
   "hashtags": [
    "FLAMES", 
    "CGYPHI"
   ], 
   "user_mentions": [], 
   "created_at": "Sat Feb 08 20:23:58 +0000 2014", 
   "retweet_count": 8, 
   "favorite_count": 13
  }, 
  {
   "text": "The power play comes to a close and it's still 2-0 #Flyers late in the third. #CGYPHI", 
   "label": "O", 
   "id": 432247111212490752, 
   "hashtags": [
    "Flyers", 
    "CGYPHI"
   ], 
   "user_mentions": [], 
   "created_at": "Sat Feb 08 20:18:36 +0000 2014", 
   "retweet_count": 1, 
   "favorite_count": 3
  }, 
  {
   "text": "The #Flames are heading to the PP in 6 seconds as the #Flyers take a delay of game call! #CGYPHI", 
   "label": "O", 
   "id": 432246446822150144, 
   "hashtags": [
    "Flames", 
    "Flyers", 
    "CGYPHI"
   ], 
   "user_mentions": [], 
   "created_at": "Sat Feb 08 20:15:58 +0000 2014", 
   "retweet_count": 1, 
   "favorite_count": 1
  }, 
  {
   "text": "RT @MissCarilee: Thanks for making our day, Mr. Malarchuk! You are the kindest! @nhlflames http://t.co/PmnXenpBjw", 
   "label": "O", 
   "id": 432245374095347712, 
   "hashtags": [], 
   "user_mentions": [
    "NHLFlames"
   ], 
   "created_at": "Sat Feb 08 20:11:42 +0000 2014", 
   "retweet_count": 4, 
   "favorite_count": 0
  }, 
  {
   "text": "#Flames back on the PK. Backlund is off for hooking. #CGYPHI", 
   "label": "O", 
   "id": 432245253471354883, 
   "hashtags": [
    "Flames", 
    "CGYPHI"
   ], 
   "user_mentions": [], 
   "created_at": "Sat Feb 08 20:11:13 +0000 2014", 
   "retweet_count": 2, 
   "favorite_count": 4
  }, 
  {
   "text": "Giroux makes it 2-0 for the home team. #CGYPHI", 
   "label": "O", 
   "id": 432242111614701569, 
   "hashtags": [
    "CGYPHI"
   ], 
   "user_mentions": [], 
   "created_at": "Sat Feb 08 19:58:44 +0000 2014", 
   "retweet_count": 1, 
   "favorite_count": 7
  }, 
  {
   "text": "The third period is a-go! #CGYPHI", 
   "label": "O", 
   "id": 432241295960981504, 
   "hashtags": [
    "CGYPHI"
   ], 
   "user_mentions": [], 
   "created_at": "Sat Feb 08 19:55:30 +0000 2014", 
   "retweet_count": 3, 
   "favorite_count": 5
  }, 
  {
   "text": "2ND PERIOD: 1-0 #Flyers after 40:00. #CGYPHI", 
   "label": "O", 
   "id": 432235952803549184, 
   "hashtags": [
    "Flyers", 
    "CGYPHI"
   ], 
   "user_mentions": [], 
   "created_at": "Sat Feb 08 19:34:16 +0000 2014", 
   "retweet_count": 1, 
   "favorite_count": 3
  }, 
  {
   "text": "Congrats to sisters Justine (@JDufourLapointe ) &amp; Chloe Dufour-Lapointe, who have won gold &amp; silver in women's moguls! #GoCanadaGo", 
   "label": "O", 
   "id": 432235179751399424, 
   "hashtags": [
    "GoCanadaGo"
   ], 
   "user_mentions": [
    "JDufourLapointe"
   ], 
   "created_at": "Sat Feb 08 19:31:12 +0000 2014", 
   "retweet_count": 83, 
   "favorite_count": 66
  }, 
  {
   "text": "Power play time! #CGYPHI", 
   "label": "O", 
   "id": 432231808013324288, 
   "hashtags": [
    "CGYPHI"
   ], 
   "user_mentions": [], 
   "created_at": "Sat Feb 08 19:17:48 +0000 2014", 
   "retweet_count": 1, 
   "favorite_count": 5
  }, 
  {
   "text": "B. Schenn opens the scoring. 1-0 #Flyers in the second frame. #CGYPHI", 
   "label": "O", 
   "id": 432230555132780544, 
   "hashtags": [
    "Flyers", 
    "CGYPHI"
   ], 
   "user_mentions": [], 
   "created_at": "Sat Feb 08 19:12:49 +0000 2014", 
   "retweet_count": 1, 
   "favorite_count": 3
  }, 
  {
   "text": "Penalty. Killed. #CGYPHI", 
   "label": "O", 
   "id": 432230118165991424, 
   "hashtags": [
    "CGYPHI"
   ], 
   "user_mentions": [], 
   "created_at": "Sat Feb 08 19:11:05 +0000 2014", 
   "retweet_count": 2, 
   "favorite_count": 3
  }, 
  {
   "text": "#Flames are heading to the PK as Russell is headed off for holding. #CGYPHI", 
   "label": "O", 
   "id": 432229301413363713, 
   "hashtags": [
    "Flames", 
    "CGYPHI"
   ], 
   "user_mentions": [], 
   "created_at": "Sat Feb 08 19:07:50 +0000 2014", 
   "retweet_count": 1, 
   "favorite_count": 2
  }, 
  {
   "text": "@babzerz Hey @DJWONGER, a red jersey would look better! #GoFlamesGo", 
   "label": "O", 
   "id": 432228821182320640, 
   "hashtags": [
    "GoFlamesGo"
   ], 
   "user_mentions": [
    "babzerz", 
    "DJWONGER"
   ], 
   "created_at": "Sat Feb 08 19:05:56 +0000 2014", 
   "retweet_count": 0, 
   "favorite_count": 0
  }, 
  {
   "text": "\"No.\" - Reto Berra #CGYPHI", 
   "label": "O", 
   "id": 432228604890456064, 
   "hashtags": [
    "CGYPHI"
   ], 
   "user_mentions": [], 
   "created_at": "Sat Feb 08 19:05:04 +0000 2014", 
   "retweet_count": 24, 
   "favorite_count": 29
  }, 
  {
   "text": "Down goes Downie! Gio takes the rugged forward to the ice in the corner. Still scoreless in Philly. #CGYPHI", 
   "label": "O", 
   "id": 432228458052071424, 
   "hashtags": [
    "CGYPHI"
   ], 
   "user_mentions": [], 
   "created_at": "Sat Feb 08 19:04:29 +0000 2014", 
   "retweet_count": 0, 
   "favorite_count": 4
  }, 
  {
   "text": "The second period is underway in Philly! Predictions for the second frame? #CGYPHI", 
   "label": "O", 
   "id": 432227186037121024, 
   "hashtags": [
    "CGYPHI"
   ], 
   "user_mentions": [], 
   "created_at": "Sat Feb 08 18:59:26 +0000 2014", 
   "retweet_count": 0, 
   "favorite_count": 1
  }, 
  {
   "text": "1ST PERIOD: We're scoreless in Philly. Thoughts on the opening stanza? #CGYPHI", 
   "label": "O", 
   "id": 432222574064316417, 
   "hashtags": [
    "CGYPHI"
   ], 
   "user_mentions": [], 
   "created_at": "Sat Feb 08 18:41:06 +0000 2014", 
   "retweet_count": 2, 
   "favorite_count": 4
  }, 
  {
   "text": "Ouch ... Gio takes a puck to the face but the captain seems to be okay. #CGYPHI", 
   "label": "O", 
   "id": 432219375144161281, 
   "hashtags": [
    "CGYPHI"
   ], 
   "user_mentions": [], 
   "created_at": "Sat Feb 08 18:28:23 +0000 2014", 
   "retweet_count": 6, 
   "favorite_count": 11
  }, 
  {
   "text": "@DjFlowe The last time we were in Philly was 2010 ... finding photos with both current #Flames &amp; #Flyers wasn't the easiest task.", 
   "label": "O", 
   "id": 432218454674767872, 
   "hashtags": [
    "Flames", 
    "Flyers"
   ], 
   "user_mentions": [
    "DjFlowe"
   ], 
   "created_at": "Sat Feb 08 18:24:44 +0000 2014", 
   "retweet_count": 5, 
   "favorite_count": 2
  }, 
  {
   "text": "@DarrylBosch @Sportsnet If you're on the HD channel, try the SD channel. That one seems to be working for others.", 
   "label": "O", 
   "id": 432218119768002560, 
   "hashtags": [], 
   "user_mentions": [
    "DarrylBosch", 
    "Sportsnet"
   ], 
   "created_at": "Sat Feb 08 18:23:24 +0000 2014", 
   "retweet_count": 0, 
   "favorite_count": 0
  }, 
  {
   "text": "@samarmoussa_ @Fan960Steinberg @FlamesJambalaya His estimated 8 weeks of recovery time ends around Feb. 15, barring any setbacks.", 
   "label": "O", 
   "id": 432218022267207682, 
   "hashtags": [], 
   "user_mentions": [
    "samarmoussa_", 
    "Fan960Steinberg", 
    "FlamesJambalaya"
   ], 
   "created_at": "Sat Feb 08 18:23:01 +0000 2014", 
   "retweet_count": 0, 
   "favorite_count": 2
  }, 
  {
   "text": "@Chenglishh If you're on the HD channel, try the SD channel. That one seems to be working for others.", 
   "label": "O", 
   "id": 432217485740212224, 
   "hashtags": [], 
   "user_mentions": [
    "Chenglishh"
   ], 
   "created_at": "Sat Feb 08 18:20:53 +0000 2014", 
   "retweet_count": 0, 
   "favorite_count": 1
  }, 
  {
   "text": "@TWRempel If you're on the HD channel, try the SD channel. That one seems to be working for others.", 
   "label": "O", 
   "id": 432217411509440512, 
   "hashtags": [], 
   "user_mentions": [
    "TWRempel"
   ], 
   "created_at": "Sat Feb 08 18:20:35 +0000 2014", 
   "retweet_count": 0, 
   "favorite_count": 0
  }, 
  {
   "text": "RT @SamJohnJoness: @NHLFlames Love the early puck drop! Watching from England #goflames", 
   "label": "O", 
   "id": 432216241562849280, 
   "hashtags": [
    "goflames"
   ], 
   "user_mentions": [
    "SamJohnJoness", 
    "NHLFlames"
   ], 
   "created_at": "Sat Feb 08 18:15:56 +0000 2014", 
   "retweet_count": 2, 
   "favorite_count": 0
  }, 
  {
   "text": "Denied! Reto Berra with a big pad save just over 3:00 into the game! #CGYPHI", 
   "label": "O", 
   "id": 432215972162707457, 
   "hashtags": [
    "CGYPHI"
   ], 
   "user_mentions": [], 
   "created_at": "Sat Feb 08 18:14:52 +0000 2014", 
   "retweet_count": 5, 
   "favorite_count": 6
  }, 
  {
   "text": "@WilldogMboy @Sportsnet If you're on the HD channel, try the SD channel. That one seems to be working for others.", 
   "label": "O", 
   "id": 432215733196427266, 
   "hashtags": [], 
   "user_mentions": [
    "WilldogMboy", 
    "Sportsnet"
   ], 
   "created_at": "Sat Feb 08 18:13:55 +0000 2014", 
   "retweet_count": 0, 
   "favorite_count": 0
  }, 
  {
   "text": "@DownWithPopo @Sportsnet If you're on the HD channel, try the SD channel. That one seems to be working for others.", 
   "label": "O", 
   "id": 432215578325950465, 
   "hashtags": [], 
   "user_mentions": [
    "DownWithPopo", 
    "Sportsnet"
   ], 
   "created_at": "Sat Feb 08 18:13:18 +0000 2014", 
   "retweet_count": 0, 
   "favorite_count": 0
  }, 
  {
   "text": "GAME ON! #CGYPHI", 
   "label": "O", 
   "id": 432214759488757760, 
   "hashtags": [
    "CGYPHI"
   ], 
   "user_mentions": [], 
   "created_at": "Sat Feb 08 18:10:03 +0000 2014", 
   "retweet_count": 10, 
   "favorite_count": 11
  }, 
  {
   "text": "@JohnKangles If you're on the HD channel, try the SD channel. That one seems to be working for others.", 
   "label": "O", 
   "id": 432214678320590848, 
   "hashtags": [], 
   "user_mentions": [
    "JohnKangles"
   ], 
   "created_at": "Sat Feb 08 18:09:44 +0000 2014", 
   "retweet_count": 0, 
   "favorite_count": 0
  }, 
  {
   "text": "@chrispb71 If you're on the HD channel, try the SD channel. That one seems to be working for others.", 
   "label": "O", 
   "id": 432214544044142592, 
   "hashtags": [], 
   "user_mentions": [
    "chrispb71"
   ], 
   "created_at": "Sat Feb 08 18:09:12 +0000 2014", 
   "retweet_count": 0, 
   "favorite_count": 0
  }, 
  {
   "text": "RT @NHL: Which #Flames player has 5 multi-point games in his last 6 contests? We're looking at you @mbacklund11. http://t.co/IgSpbHksSp", 
   "label": "O", 
   "id": 432212919414054912, 
   "hashtags": [
    "Flames"
   ], 
   "user_mentions": [
    "NHL", 
    "mbacklund11"
   ], 
   "created_at": "Sat Feb 08 18:02:44 +0000 2014", 
   "retweet_count": 65, 
   "favorite_count": 0
  }, 
  {
   "text": "RT @Rosso76s: #GoFlamesGo from Slovenian fan @NHLFlames", 
   "label": "O", 
   "id": 432211982788210688, 
   "hashtags": [
    "GoFlamesGo"
   ], 
   "user_mentions": [
    "Rosso76s", 
    "NHLFlames"
   ], 
   "created_at": "Sat Feb 08 17:59:01 +0000 2014", 
   "retweet_count": 4, 
   "favorite_count": 0
  }, 
  {
   "text": "RT @Seb_Moeller8607: Saturday, 7pm in Germany - its time to watch some @NHLFlames hockey #GoFlamesGo #GlobalCofRed", 
   "label": "O", 
   "id": 432211963012063232, 
   "hashtags": [
    "GoFlamesGo", 
    "GlobalCofRed"
   ], 
   "user_mentions": [
    "Seb_Moeller8607", 
    "NHLFlames"
   ], 
   "created_at": "Sat Feb 08 17:58:56 +0000 2014", 
   "retweet_count": 2, 
   "favorite_count": 0
  }, 
  {
   "text": "#Flames scratches: Byron, Breen, Ramo (MCL sprain) #CGYPHI", 
   "label": "O", 
   "id": 432210326046511105, 
   "hashtags": [
    "Flames", 
    "CGYPHI"
   ], 
   "user_mentions": [], 
   "created_at": "Sat Feb 08 17:52:26 +0000 2014", 
   "retweet_count": 4, 
   "favorite_count": 1
  }, 
  {
   "text": "It's almost game time in Philly! The #Flames starting lineup: Berra, Russell, @TheButler44, @KWesty19, @TJGaliardi &amp; @bigern10 #CGYPHI", 
   "label": "O", 
   "id": 432210241090891776, 
   "hashtags": [
    "Flames", 
    "CGYPHI"
   ], 
   "user_mentions": [
    "TheButler44", 
    "KWesty19", 
    "TJGaliardi", 
    "bigern10"
   ], 
   "created_at": "Sat Feb 08 17:52:06 +0000 2014", 
   "retweet_count": 8, 
   "favorite_count": 8
  }, 
  {
   "text": "RT @NLLRoughnecks: GAME DAY ~ The #NLLRoughnecks (2-3) are back in action tonight when they take on the @Minnesota_Swarm (1-4) in the Twin \u2026", 
   "label": "O", 
   "id": 432209586515611648, 
   "hashtags": [
    "NLLRoughnecks"
   ], 
   "user_mentions": [
    "NLLRoughnecks", 
    "Minnesota_Swarm"
   ], 
   "created_at": "Sat Feb 08 17:49:30 +0000 2014", 
   "retweet_count": 4, 
   "favorite_count": 0
  }, 
  {
   "text": "Warm ups are underway at the Wells Fargo Center in Philly! #CGYPHI http://t.co/6kiNC9q9DN", 
   "label": "O", 
   "id": 432206302459469824, 
   "hashtags": [
    "CGYPHI"
   ], 
   "user_mentions": [], 
   "created_at": "Sat Feb 08 17:36:27 +0000 2014", 
   "retweet_count": 10, 
   "favorite_count": 27
  }, 
  {
   "text": "RT @JonFOlsen: As a norwegian fan, I do appreciate an early face-off every now and then. Saturday and #Flames on the tv! #GoFlamesGo @NHLFl\u2026", 
   "label": "O", 
   "id": 432198723657945089, 
   "hashtags": [
    "Flames", 
    "GoFlamesGo"
   ], 
   "user_mentions": [
    "JonFOlsen", 
    "NHLFlames"
   ], 
   "created_at": "Sat Feb 08 17:06:20 +0000 2014", 
   "retweet_count": 3, 
   "favorite_count": 0
  }, 
  {
   "text": "The Scouting Report: http://t.co/gQywOSJFYT profiles the #Flyers ~ http://t.co/MYplhieRzf #CGYPHI", 
   "label": "O", 
   "id": 432197344185290752, 
   "hashtags": [
    "Flyers", 
    "CGYPHI"
   ], 
   "user_mentions": [], 
   "created_at": "Sat Feb 08 17:00:51 +0000 2014", 
   "retweet_count": 0, 
   "favorite_count": 1
  }, 
  {
   "text": "RT @TSPOON77: Hoping to wake up and see @markmcmorris with a a piece of #hardware #Sochi2014 #snowboarding", 
   "label": "O", 
   "id": 432194674271334400, 
   "hashtags": [
    "hardware", 
    "Sochi2014", 
    "snowboarding"
   ], 
   "user_mentions": [
    "TSPOON77", 
    "markmcmorris"
   ], 
   "created_at": "Sat Feb 08 16:50:14 +0000 2014", 
   "retweet_count": 6, 
   "favorite_count": 0
  }, 
  {
   "text": "#GoFlamesGo RT @trex93 repping that flames jersey today in Philly LETS GO", 
   "label": "O", 
   "id": 432194536366813184, 
   "hashtags": [
    "GoFlamesGo"
   ], 
   "user_mentions": [
    "trex93"
   ], 
   "created_at": "Sat Feb 08 16:49:41 +0000 2014", 
   "retweet_count": 4, 
   "favorite_count": 7
  }, 
  {
   "text": "If you didn't catch 'em yesterday, here are the #Flames projected lines for their match-up with the #Flyers ~ http://t.co/29Ix918Gi2 #CGYPHI", 
   "label": "O", 
   "id": 432193514357915648, 
   "hashtags": [
    "Flames", 
    "Flyers", 
    "CGYPHI"
   ], 
   "user_mentions": [], 
   "created_at": "Sat Feb 08 16:45:38 +0000 2014", 
   "retweet_count": 1, 
   "favorite_count": 2
  }, 
  {
   "text": "Congrats to @markmcmorris on winning Canada's first medal at #Sochi2014! He collected bronze in snowboard slopestyle! #GoCanadaGo", 
   "label": "O", 
   "id": 432191708227321856, 
   "hashtags": [
    "Sochi2014", 
    "GoCanadaGo"
   ], 
   "user_mentions": [
    "markmcmorris"
   ], 
   "created_at": "Sat Feb 08 16:38:27 +0000 2014", 
   "retweet_count": 38, 
   "favorite_count": 50
  }, 
  {
   "text": "Today's Game Day Report, from Philadelphia. The #Flames battle the red hot #Flyers at 11 AM MST ~ http://t.co/hCLmTaYtZ9 #CGYPHI", 
   "label": "O", 
   "id": 432189693678333952, 
   "hashtags": [
    "Flames", 
    "Flyers", 
    "CGYPHI"
   ], 
   "user_mentions": [], 
   "created_at": "Sat Feb 08 16:30:27 +0000 2014", 
   "retweet_count": 4, 
   "favorite_count": 1
  }, 
  {
   "text": "GAME DAY! Wait ... game morning! The #Flames take on the #Flyers at 11:00 AM MST (SNET-W, @Sportsnet960) ~ http://t.co/2WWRKJ4nkv #CGYPHI", 
   "label": "O", 
   "id": 432182312068190208, 
   "hashtags": [
    "Flames", 
    "Flyers", 
    "CGYPHI"
   ], 
   "user_mentions": [
    "Sportsnet960"
   ], 
   "created_at": "Sat Feb 08 16:01:07 +0000 2014", 
   "retweet_count": 4, 
   "favorite_count": 8
  }, 
  {
   "text": "GAME DAY from Philly! @Kristin_Hallett sets the stage for the battle vs. the #Flyers today (VIDEO) ~  http://t.co/XBYhYh0iyt #CGYPHI", 
   "label": "O", 
   "id": 432174679798067200, 
   "hashtags": [
    "Flyers", 
    "CGYPHI"
   ], 
   "user_mentions": [
    "Kristin_Hallett"
   ], 
   "created_at": "Sat Feb 08 15:30:47 +0000 2014", 
   "retweet_count": 1, 
   "favorite_count": 5
  }
 ]
}