{
 "num_road_team_goals": "3", 
 "home_team": "Calgary Flames", 
 "num_home_team_goals": "2", 
 "summary_url": "http://www.flyershistory.com/cgi-bin/poboxscore.cgi?H20131091", 
 "result": "L", 
 "road_team": "Anaheim Mighty Ducks", 
 "date": "2014-03-26", 
 "goals": [
  {
   "season_index": "18", 
   "strength": "(PP)", 
   "time": "18:57", 
   "period": "1", 
   "player": "N.Bonino", 
   "assists": "(S.Vatanen, J.Hiller)", 
   "game_index": "1", 
   "team": "ANA"
  }, 
  {
   "season_index": "4", 
   "strength": "(EV)", 
   "time": "4:44", 
   "period": "2", 
   "player": "B.McGrattan", 
   "assists": "(K.Westgarth, T.Wotherspoon)", 
   "game_index": "2", 
   "team": "CGY"
  }, 
  {
   "season_index": "16", 
   "strength": "(EV)", 
   "time": "19:34", 
   "period": "2", 
   "player": "J.Hudler", 
   "assists": "(L.Smid, M.Stajan)", 
   "game_index": "3", 
   "team": "CGY"
  }, 
  {
   "season_index": "16", 
   "strength": "(EV)", 
   "time": "5:32", 
   "period": "3", 
   "player": "M.Perreault", 
   "assists": "(S.Vatanen, P.Maroon)", 
   "game_index": "4", 
   "team": "ANA"
  }, 
  {
   "season_index": "21", 
   "strength": "(EV)", 
   "time": "14:41", 
   "period": "3", 
   "player": "A.Cogliano", 
   "assists": "(S.Robidas, J.Silfverberg)", 
   "game_index": "5", 
   "team": "ANA"
  }
 ], 
 "tweets": [
  {
   "text": "The third period is a-go! #CGYANA", 
   "label": "O", 
   "id": 449032947257991168, 
   "hashtags": [
    "CGYANA"
   ], 
   "user_mentions": [], 
   "created_at": "Thu Mar 27 03:59:31 +0000 2014", 
   "retweet_count": 1, 
   "favorite_count": 14
  }, 
  {
   "text": "RT @Snoopzs007: I love the the effort @NHLFlames are putting in. A new team. It's an exciting time #yyc #goflamesgo", 
   "label": "O", 
   "id": 449029359643283456, 
   "hashtags": [
    "yyc", 
    "goflamesgo"
   ], 
   "user_mentions": [
    "Snoopzs007", 
    "NHLFlames"
   ], 
   "created_at": "Thu Mar 27 03:45:16 +0000 2014", 
   "retweet_count": 8, 
   "favorite_count": 0
  }, 
  {
   "text": "RT @supermanshero17: @NHLFlames #Flames Harvey made my sons night! Now all we need is a win!! http://t.co/cMCMr9mYKE", 
   "label": "O", 
   "id": 449029288948293632, 
   "hashtags": [
    "Flames"
   ], 
   "user_mentions": [
    "supermanshero17", 
    "NHLFlames"
   ], 
   "created_at": "Thu Mar 27 03:44:59 +0000 2014", 
   "retweet_count": 2, 
   "favorite_count": 0
  }, 
  {
   "text": "How about that Karri Ramo kid? What a stanza from the netminder! He made 16 saves in the second period! #CGYANA http://t.co/9F1xNgSlH4", 
   "label": "O", 
   "id": 449029212003778560, 
   "hashtags": [
    "CGYANA"
   ], 
   "user_mentions": [], 
   "created_at": "Thu Mar 27 03:44:41 +0000 2014", 
   "retweet_count": 20, 
   "favorite_count": 43
  }, 
  {
   "text": "40:00 have gone by &amp; the #Flames lead the #NHLDucks 2-1! #CGYANA", 
   "label": "O", 
   "id": 449028505737519104, 
   "hashtags": [
    "Flames", 
    "NHLDucks", 
    "CGYANA"
   ], 
   "user_mentions": [], 
   "created_at": "Thu Mar 27 03:41:52 +0000 2014", 
   "retweet_count": 9, 
   "favorite_count": 16
  }, 
  {
   "text": "Smid and Stajan pick up the apples on Hudler's tally! #CGYANA", 
   "label": "O", 
   "id": 449028331376082944, 
   "hashtags": [
    "CGYANA"
   ], 
   "user_mentions": [], 
   "created_at": "Thu Mar 27 03:41:11 +0000 2014", 
   "retweet_count": 2, 
   "favorite_count": 16
  }, 
  {
   "text": "#FLAMES GOAL! HUDLER! 2-1 CALGARY! #CGYANA", 
   "label": "O", 
   "id": 449027940211105792, 
   "hashtags": [
    "FLAMES", 
    "CGYANA"
   ], 
   "user_mentions": [], 
   "created_at": "Thu Mar 27 03:39:38 +0000 2014", 
   "retweet_count": 29, 
   "favorite_count": 53
  }, 
  {
   "text": "RT @Chuck_Freund: Just sitting in maui watching the @NHLFlames game on tv.  Not a bad afternoon http://t.co/bIfK88fbuM", 
   "label": "O", 
   "id": 449025835832320002, 
   "hashtags": [], 
   "user_mentions": [
    "Chuck_Freund", 
    "NHLFlames"
   ], 
   "created_at": "Thu Mar 27 03:31:16 +0000 2014", 
   "retweet_count": 3, 
   "favorite_count": 0
  }, 
  {
   "text": "4-on-4 hockey as Westgarth and Vatanen take coincidental minors. #CGYANA", 
   "label": "O", 
   "id": 449025013950070784, 
   "hashtags": [
    "CGYANA"
   ], 
   "user_mentions": [], 
   "created_at": "Thu Mar 27 03:28:00 +0000 2014", 
   "retweet_count": 0, 
   "favorite_count": 2
  }, 
  {
   "text": "ROBBERY BY RAMO! #CGYANA", 
   "label": "O", 
   "id": 449023042161618944, 
   "hashtags": [
    "CGYANA"
   ], 
   "user_mentions": [], 
   "created_at": "Thu Mar 27 03:20:10 +0000 2014", 
   "retweet_count": 12, 
   "favorite_count": 32
  }, 
  {
   "text": "RT @JMetz93: Weeeoo!! What a way to celebrate you're 300th game than with a goal!! #GoFlamesGo @bigern10 @NHLFlames", 
   "label": "O", 
   "id": 449021651275882496, 
   "hashtags": [
    "GoFlamesGo"
   ], 
   "user_mentions": [
    "JMetz93", 
    "bigern10", 
    "NHLFlames"
   ], 
   "created_at": "Thu Mar 27 03:14:38 +0000 2014", 
   "retweet_count": 5, 
   "favorite_count": 0
  }, 
  {
   "text": ".@KWesty19 &amp; @TSPOON77 collect the assists on @bigern10's equalizer! #CGYANA", 
   "label": "O", 
   "id": 449021105752117249, 
   "hashtags": [
    "CGYANA"
   ], 
   "user_mentions": [
    "KWesty19", 
    "TSPOON77", 
    "bigern10"
   ], 
   "created_at": "Thu Mar 27 03:12:28 +0000 2014", 
   "retweet_count": 9, 
   "favorite_count": 17
  }, 
  {
   "text": "What a great play from rookie @TSPOON77 on that tally! #CGYANA", 
   "label": "O", 
   "id": 449020873110876161, 
   "hashtags": [
    "CGYANA"
   ], 
   "user_mentions": [
    "TSPOON77"
   ], 
   "created_at": "Thu Mar 27 03:11:33 +0000 2014", 
   "retweet_count": 6, 
   "favorite_count": 18
  }, 
  {
   "text": "#FLAMES GOAL! @bigern10 ties things up! #CGYANA", 
   "label": "O", 
   "id": 449020681858985984, 
   "hashtags": [
    "FLAMES", 
    "CGYANA"
   ], 
   "user_mentions": [
    "bigern10"
   ], 
   "created_at": "Thu Mar 27 03:10:47 +0000 2014", 
   "retweet_count": 40, 
   "favorite_count": 51
  }, 
  {
   "text": "@Frenchie_TO We hope that's the case.", 
   "label": "O", 
   "id": 449019530430255104, 
   "hashtags": [], 
   "user_mentions": [
    "Frenchie_TO"
   ], 
   "created_at": "Thu Mar 27 03:06:13 +0000 2014", 
   "retweet_count": 0, 
   "favorite_count": 0
  }, 
  {
   "text": "Gio is headed off after being called for interference. PK time. #CGYANA", 
   "label": "O", 
   "id": 449019380844613632, 
   "hashtags": [
    "CGYANA"
   ], 
   "user_mentions": [], 
   "created_at": "Thu Mar 27 03:05:37 +0000 2014", 
   "retweet_count": 0, 
   "favorite_count": 1
  }, 
  {
   "text": "The second period is underway! #CGYANA", 
   "label": "O", 
   "id": 449019094088429569, 
   "hashtags": [
    "CGYANA"
   ], 
   "user_mentions": [], 
   "created_at": "Thu Mar 27 03:04:29 +0000 2014", 
   "retweet_count": 1, 
   "favorite_count": 3
  }, 
  {
   "text": "Prior to puck drop, @mbacklund11 received the Ralph T. Scurfield Humanitarian Award! Congrats Backs! http://t.co/B7Fb5jBCKe", 
   "label": "O", 
   "id": 449015729812025344, 
   "hashtags": [], 
   "user_mentions": [
    "mbacklund11"
   ], 
   "created_at": "Thu Mar 27 02:51:07 +0000 2014", 
   "retweet_count": 25, 
   "favorite_count": 55
  }, 
  {
   "text": "After one period, the #Flames trail the #NHLDucks 1-0. Boxscore ~ http://t.co/iD4OuMWey0 #CGYANA http://t.co/8WQOIy4QyB", 
   "label": "O", 
   "id": 449014429930110976, 
   "hashtags": [
    "Flames", 
    "NHLDucks", 
    "CGYANA"
   ], 
   "user_mentions": [], 
   "created_at": "Thu Mar 27 02:45:57 +0000 2014", 
   "retweet_count": 5, 
   "favorite_count": 10
  }, 
  {
   "text": "#NHLDucks goal. Bonino capitalizes on the power play. 1-0 Anaheim late in the first period. #CGYANA", 
   "label": "O", 
   "id": 449013777099272192, 
   "hashtags": [
    "NHLDucks", 
    "CGYANA"
   ], 
   "user_mentions": [], 
   "created_at": "Thu Mar 27 02:43:21 +0000 2014", 
   "retweet_count": 3, 
   "favorite_count": 1
  }, 
  {
   "text": "Smid hits Jackman and is headed to the sin bin. #Flames PK, coming up. #CGYANA", 
   "label": "O", 
   "id": 449013119528878080, 
   "hashtags": [
    "Flames", 
    "CGYANA"
   ], 
   "user_mentions": [], 
   "created_at": "Thu Mar 27 02:40:44 +0000 2014", 
   "retweet_count": 0, 
   "favorite_count": 6
  }, 
  {
   "text": "What a shift from the Cammy-Backlund-Byron line! Nearly potted the game's first goal. #CGYANA", 
   "label": "O", 
   "id": 449012086719275009, 
   "hashtags": [
    "CGYANA"
   ], 
   "user_mentions": [], 
   "created_at": "Thu Mar 27 02:36:38 +0000 2014", 
   "retweet_count": 1, 
   "favorite_count": 8
  }, 
  {
   "text": "Congrats to @bigern10, who is playing in his 300th @NHL game tonight! #Beauty http://t.co/VgMxj6u5sS", 
   "label": "O", 
   "id": 449007262242050048, 
   "hashtags": [
    "Beauty"
   ], 
   "user_mentions": [
    "bigern10", 
    "NHL"
   ], 
   "created_at": "Thu Mar 27 02:17:28 +0000 2014", 
   "retweet_count": 151, 
   "favorite_count": 183
  }, 
  {
   "text": "The fists are flying! @KWesty19 drops 'em with former Flame Tim Jackman! #CGYANA", 
   "label": "O", 
   "id": 449006700146614274, 
   "hashtags": [
    "CGYANA"
   ], 
   "user_mentions": [
    "KWesty19"
   ], 
   "created_at": "Thu Mar 27 02:15:14 +0000 2014", 
   "retweet_count": 5, 
   "favorite_count": 14
  }, 
  {
   "text": "#Flames scratches: Wideman (upper body), Jones (upper body), Granlund (upper body), Agostino, Hanowski #CGYANA", 
   "label": "O", 
   "id": 449003580213587968, 
   "hashtags": [
    "Flames", 
    "CGYANA"
   ], 
   "user_mentions": [], 
   "created_at": "Thu Mar 27 02:02:50 +0000 2014", 
   "retweet_count": 2, 
   "favorite_count": 1
  }, 
  {
   "text": "It's almost game time! The #Flames starting lineup: @RamoKarri, Smid, @TSPOON77, Glencross, Stajan, &amp; Hudler #CGYANA http://t.co/5d5HnRQkRN", 
   "label": "O", 
   "id": 449002275466248192, 
   "hashtags": [
    "Flames", 
    "CGYANA"
   ], 
   "user_mentions": [
    "RamoKarri", 
    "TSPOON77"
   ], 
   "created_at": "Thu Mar 27 01:57:39 +0000 2014", 
   "retweet_count": 15, 
   "favorite_count": 23
  }, 
  {
   "text": ".@FedExCanada presents cheques to Skate To Great &amp; KidsSport Calgary prior to the game! Great work guys! http://t.co/Yq9rMPRffH", 
   "label": "O", 
   "id": 449001281655304192, 
   "hashtags": [], 
   "user_mentions": [
    "FedExCanada"
   ], 
   "created_at": "Thu Mar 27 01:53:42 +0000 2014", 
   "retweet_count": 11, 
   "favorite_count": 7
  }, 
  {
   "text": "ICYMI: The #Flames projected lines for tonight's game ~ http://t.co/jRMQtKm7aD #CGYANA", 
   "label": "O", 
   "id": 448995950774984705, 
   "hashtags": [
    "Flames", 
    "CGYANA"
   ], 
   "user_mentions": [], 
   "created_at": "Thu Mar 27 01:32:31 +0000 2014", 
   "retweet_count": 1, 
   "favorite_count": 2
  }, 
  {
   "text": "Can't catch the game on TV tonight? Download the #Flames official app &amp; listen to it live! #CGYANA", 
   "label": "O", 
   "id": 448988261810450432, 
   "hashtags": [
    "Flames", 
    "CGYANA"
   ], 
   "user_mentions": [], 
   "created_at": "Thu Mar 27 01:01:58 +0000 2014", 
   "retweet_count": 1, 
   "favorite_count": 2
  }, 
  {
   "text": "The #NHL Network previews tonight's game between the #Flames &amp; #NHLDucks (VIDEO) ~ http://t.co/izvxK1CQjn #CGYANA", 
   "label": "O", 
   "id": 448980341337096193, 
   "hashtags": [
    "NHL", 
    "Flames", 
    "NHLDucks", 
    "CGYANA"
   ], 
   "user_mentions": [], 
   "created_at": "Thu Mar 27 00:30:29 +0000 2014", 
   "retweet_count": 1, 
   "favorite_count": 5
  }, 
  {
   "text": ".@SNRobKerr gets you set for tonight's battle with the #NHLDucks (VIDEO) ~ http://t.co/W826QTaj0B #CGYANA", 
   "label": "O", 
   "id": 448973116757540864, 
   "hashtags": [
    "NHLDucks", 
    "CGYANA"
   ], 
   "user_mentions": [
    "SNRobKerr"
   ], 
   "created_at": "Thu Mar 27 00:01:47 +0000 2014", 
   "retweet_count": 0, 
   "favorite_count": 1
  }, 
  {
   "text": ".@mbacklund11 is honoured to receive the Ralph T. Scurfield Humanitarian Award ~ http://t.co/XIcfiLauwG", 
   "label": "O", 
   "id": 448965287241854976, 
   "hashtags": [], 
   "user_mentions": [
    "mbacklund11"
   ], 
   "created_at": "Wed Mar 26 23:30:40 +0000 2014", 
   "retweet_count": 8, 
   "favorite_count": 8
  }, 
  {
   "text": "#Flames prospect Johnny Gaudreau has won the Walter Brown Award ~ http://t.co/d0c7S2Bd44", 
   "label": "O", 
   "id": 448957744180383745, 
   "hashtags": [
    "Flames"
   ], 
   "user_mentions": [], 
   "created_at": "Wed Mar 26 23:00:42 +0000 2014", 
   "retweet_count": 18, 
   "favorite_count": 10
  }, 
  {
   "text": "The Other Side: Teemu Selanne shares his thoughts on playing in his last game at the Dome (VIDEO) ~ http://t.co/AlFnsADgKx #CGYANA", 
   "label": "O", 
   "id": 448950409047339008, 
   "hashtags": [
    "CGYANA"
   ], 
   "user_mentions": [], 
   "created_at": "Wed Mar 26 22:31:33 +0000 2014", 
   "retweet_count": 7, 
   "favorite_count": 14
  }, 
  {
   "text": "\"He's been battling all year to show us that he's an @NHL goalie.\" - Hartley on @RamoKarri (VIDEO) ~ http://t.co/IemKb7SBZ9", 
   "label": "O", 
   "id": 448943210304647169, 
   "hashtags": [], 
   "user_mentions": [
    "NHL", 
    "RamoKarri"
   ], 
   "created_at": "Wed Mar 26 22:02:56 +0000 2014", 
   "retweet_count": 3, 
   "favorite_count": 9
  }, 
  {
   "text": "Mark Giordano gives his take on the #Flames clash with the #NHLDucks (VIDEO) ~ http://t.co/Ds6jXY1w77 #CGYANA", 
   "label": "O", 
   "id": 448935041327173632, 
   "hashtags": [
    "Flames", 
    "NHLDucks", 
    "CGYANA"
   ], 
   "user_mentions": [], 
   "created_at": "Wed Mar 26 21:30:29 +0000 2014", 
   "retweet_count": 2, 
   "favorite_count": 4
  }, 
  {
   "text": "#Flames winger @MCammalleri13 discusses tonight's battle with the #NHLDucks (VIDEO) ~ http://t.co/2a0YyvCNaW #CGYANA", 
   "label": "O", 
   "id": 448927622899449856, 
   "hashtags": [
    "Flames", 
    "NHLDucks", 
    "CGYANA"
   ], 
   "user_mentions": [
    "MCammalleri13"
   ], 
   "created_at": "Wed Mar 26 21:01:00 +0000 2014", 
   "retweet_count": 1, 
   "favorite_count": 4
  }, 
  {
   "text": "#Flames TV goes one-on-one with @mbacklund11 to talk about receiving the Ralph T. Scurfield Award (VIDEO) ~ http://t.co/aLJtovK9Kx #CGYANA", 
   "label": "O", 
   "id": 448920345530347520, 
   "hashtags": [
    "Flames", 
    "CGYANA"
   ], 
   "user_mentions": [
    "mbacklund11"
   ], 
   "created_at": "Wed Mar 26 20:32:05 +0000 2014", 
   "retweet_count": 2, 
   "favorite_count": 3
  }, 
  {
   "text": "\"I\u2019ve already warned the guys, we have to be ready.\" - #Flames head coach Bob Hartley ~ http://t.co/RJVlhm7aH6 #CGYANA", 
   "label": "O", 
   "id": 448912566119841792, 
   "hashtags": [
    "Flames", 
    "CGYANA"
   ], 
   "user_mentions": [], 
   "created_at": "Wed Mar 26 20:01:10 +0000 2014", 
   "retweet_count": 3, 
   "favorite_count": 4
  }, 
  {
   "text": "Thanks to everyone who entered! #CGYANA", 
   "label": "O", 
   "id": 448909411147202560, 
   "hashtags": [
    "CGYANA"
   ], 
   "user_mentions": [], 
   "created_at": "Wed Mar 26 19:48:38 +0000 2014", 
   "retweet_count": 0, 
   "favorite_count": 5
  }, 
  {
   "text": "We have 3 winners! @TJSmith803 picked Cammy for MVP, @TysonMcNeill &amp; @shyanne_moore picked Backlund for MVP! #CGYANA", 
   "label": "O", 
   "id": 448909280918241280, 
   "hashtags": [
    "CGYANA"
   ], 
   "user_mentions": [
    "TJSmith803", 
    "TysonMcNeill", 
    "shyanne_moore"
   ], 
   "created_at": "Wed Mar 26 19:48:07 +0000 2014", 
   "retweet_count": 2, 
   "favorite_count": 13
  }, 
  {
   "text": "We will randomly select 3 winners from the entries at 1:45 PM MST! Good luck! #CGYANA", 
   "label": "O", 
   "id": 448904515794640896, 
   "hashtags": [
    "CGYANA"
   ], 
   "user_mentions": [], 
   "created_at": "Wed Mar 26 19:29:11 +0000 2014", 
   "retweet_count": 2, 
   "favorite_count": 6
  }, 
  {
   "text": "We have 3 pairs of tickets for tonight's game! Want to win a pair? Just tell us who you think the #Flames March MVP is - that is it! #CGYANA", 
   "label": "O", 
   "id": 448904409229950976, 
   "hashtags": [
    "Flames", 
    "CGYANA"
   ], 
   "user_mentions": [], 
   "created_at": "Wed Mar 26 19:28:46 +0000 2014", 
   "retweet_count": 8, 
   "favorite_count": 10
  }, 
  {
   "text": "RT @TJGaliardi: Only helmet we could find to fit his head @bigern10 #yeeeeaaaaaooooo http://t.co/nqVmcxuyqY", 
   "label": "O", 
   "id": 448900070901968896, 
   "hashtags": [
    "yeeeeaaaaaooooo"
   ], 
   "user_mentions": [
    "TJGaliardi", 
    "bigern10"
   ], 
   "created_at": "Wed Mar 26 19:11:31 +0000 2014", 
   "retweet_count": 32, 
   "favorite_count": 0
  }, 
  {
   "text": "Take a look at our updated lines for tonight's battle with the #NHLDucks ~ http://t.co/jRMQtKm7aD #CGYANA", 
   "label": "O", 
   "id": 448898198539886592, 
   "hashtags": [
    "NHLDucks", 
    "CGYANA"
   ], 
   "user_mentions": [], 
   "created_at": "Wed Mar 26 19:04:05 +0000 2014", 
   "retweet_count": 3, 
   "favorite_count": 5
  }, 
  {
   "text": ".@mbacklund11 goes one-on-one with #Flames TV this morning! http://t.co/zVDgKzjD26", 
   "label": "O", 
   "id": 448890761392558080, 
   "hashtags": [
    "Flames"
   ], 
   "user_mentions": [
    "mbacklund11"
   ], 
   "created_at": "Wed Mar 26 18:34:32 +0000 2014", 
   "retweet_count": 4, 
   "favorite_count": 8
  }, 
  {
   "text": "Peter Loubardias &amp; @SNRobKerr assess the #Flames 2013-14 season &amp; player development (AUDIO) ~ http://t.co/lK6SQGLG20", 
   "label": "O", 
   "id": 448883161054072833, 
   "hashtags": [
    "Flames"
   ], 
   "user_mentions": [
    "SNRobKerr"
   ], 
   "created_at": "Wed Mar 26 18:04:20 +0000 2014", 
   "retweet_count": 1, 
   "favorite_count": 3
  }, 
  {
   "text": "\"I'm very honoured.\" - @mbacklund11 on receiving the Ralph T. Scurfield Award http://t.co/xV7KeZFh3B", 
   "label": "O", 
   "id": 448871033848598528, 
   "hashtags": [], 
   "user_mentions": [
    "mbacklund11"
   ], 
   "created_at": "Wed Mar 26 17:16:08 +0000 2014", 
   "retweet_count": 2, 
   "favorite_count": 24
  }, 
  {
   "text": "\"He's a guy who battles through adversity ... He's a big reason for our success lately.\" - Gio on @RamoKarri http://t.co/LEgzlErDP1", 
   "label": "O", 
   "id": 448869672294039554, 
   "hashtags": [], 
   "user_mentions": [
    "RamoKarri"
   ], 
   "created_at": "Wed Mar 26 17:10:44 +0000 2014", 
   "retweet_count": 7, 
   "favorite_count": 25
  }, 
  {
   "text": "Projected lines for tonight's game? Here they are ~ http://t.co/jRMQtKm7aD #CGYANA", 
   "label": "O", 
   "id": 448867459639308288, 
   "hashtags": [
    "CGYANA"
   ], 
   "user_mentions": [], 
   "created_at": "Wed Mar 26 17:01:56 +0000 2014", 
   "retweet_count": 0, 
   "favorite_count": 5
  }, 
  {
   "text": "The #Flames &amp; @FedEx are collecting hockey equipment for Skate To Great &amp; KidSport tomorrow evening ~ http://t.co/3yKuH3gw57 #CGYANA", 
   "label": "O", 
   "id": 448860060081721346, 
   "hashtags": [
    "Flames", 
    "CGYANA"
   ], 
   "user_mentions": [
    "FedEx"
   ], 
   "created_at": "Wed Mar 26 16:32:32 +0000 2014", 
   "retweet_count": 3, 
   "favorite_count": 6
  }, 
  {
   "text": "Make sure to get your #Flames Fantasy Hockey roster in for tonight's game! http://t.co/ri4kegAbYd #CGYANA", 
   "label": "O", 
   "id": 448852936173826051, 
   "hashtags": [
    "Flames", 
    "CGYANA"
   ], 
   "user_mentions": [], 
   "created_at": "Wed Mar 26 16:04:13 +0000 2014", 
   "retweet_count": 1, 
   "favorite_count": 3
  }, 
  {
   "text": "The Scouting Report: http://t.co/gQywOT1Pd1 profiles tonight's opponents, the #NHLDucks ~ http://t.co/fPz5gHYqvJ #CGYANA", 
   "label": "O", 
   "id": 448844689769512960, 
   "hashtags": [
    "NHLDucks", 
    "CGYANA"
   ], 
   "user_mentions": [], 
   "created_at": "Wed Mar 26 15:31:27 +0000 2014", 
   "retweet_count": 1, 
   "favorite_count": 5
  }, 
  {
   "text": ".@mbacklund11 is the recipient of the 2014 Ralph T. Scurfield Humanitarian Award ~ http://t.co/S58uv8cYkN Great work, Backs!", 
   "label": "O", 
   "id": 448840490377420800, 
   "hashtags": [], 
   "user_mentions": [
    "mbacklund11"
   ], 
   "created_at": "Wed Mar 26 15:14:46 +0000 2014", 
   "retweet_count": 16, 
   "favorite_count": 25
  }, 
  {
   "text": "The #Flames take on the #NHLDucks tonight at 8:00 PM (SNET-W, @Sportsnet960) ~ http://t.co/2U5ikYa9yE #CGYANA", 
   "label": "O", 
   "id": 448837783613104128, 
   "hashtags": [
    "Flames", 
    "NHLDucks", 
    "CGYANA"
   ], 
   "user_mentions": [
    "Sportsnet960"
   ], 
   "created_at": "Wed Mar 26 15:04:01 +0000 2014", 
   "retweet_count": 3, 
   "favorite_count": 8
  }, 
  {
   "text": "RT @markdoiron: It's official. @bigern10 is the @NHLFlames Chuck Norris. #MeanMachine http://t.co/mJd7UaXk88", 
   "label": "O", 
   "id": 448820358934560768, 
   "hashtags": [
    "MeanMachine"
   ], 
   "user_mentions": [
    "markdoiron", 
    "bigern10", 
    "NHLFlames"
   ], 
   "created_at": "Wed Mar 26 13:54:46 +0000 2014", 
   "retweet_count": 37, 
   "favorite_count": 0
  }, 
  {
   "text": "The #AHLHeat have assigned Brendan Connolly to the @AlaskaAces ~ http://t.co/T4jEL5NEVE", 
   "label": "O", 
   "id": 448670838624366592, 
   "hashtags": [
    "AHLHeat"
   ], 
   "user_mentions": [
    "AlaskaAces"
   ], 
   "created_at": "Wed Mar 26 04:00:38 +0000 2014", 
   "retweet_count": 1, 
   "favorite_count": 4
  }
 ]
}