{
 "num_road_team_goals": "1", 
 "home_team": "St.Louis Blues", 
 "num_home_team_goals": "5", 
 "summary_url": "http://www.flyershistory.com/cgi-bin/poboxscore.cgi?H20131098", 
 "result": "L", 
 "road_team": "Minnesota Wild", 
 "date": "2014-03-27", 
 "goals": [
  {
   "season_index": "19", 
   "strength": "(EV)", 
   "time": "4:43", 
   "period": "1", 
   "player": "T.Oshie", 
   "assists": "(D.Backes, R.Polak)", 
   "game_index": "1", 
   "team": "STL"
  }, 
  {
   "season_index": "20", 
   "strength": "(SH)", 
   "time": "19:34", 
   "period": "1", 
   "player": "T.Oshie", 
   "assists": null, 
   "game_index": "2", 
   "team": "STL"
  }, 
  {
   "season_index": "23", 
   "strength": "(PP)", 
   "time": "13:10", 
   "period": "2", 
   "player": "J.Schwartz", 
   "assists": "(C.Colaiacovo, J.Bouwmeester)", 
   "game_index": "3", 
   "team": "STL"
  }, 
  {
   "season_index": "21", 
   "strength": "(EV)", 
   "time": "7:18", 
   "period": "3", 
   "player": "T.Oshie", 
   "assists": "(J.Bouwmeester, D.Backes)", 
   "game_index": "4", 
   "team": "STL"
  }, 
  {
   "season_index": "12", 
   "strength": "(PP)", 
   "time": "10:45", 
   "period": "3", 
   "player": "B.Morrow", 
   "assists": "(A.Steen, V.Sobotka)", 
   "game_index": "5", 
   "team": "STL"
  }, 
  {
   "season_index": "25", 
   "strength": "(EV)", 
   "time": "11:11", 
   "period": "3", 
   "player": "Z.Parise", 
   "assists": "(C.Coyle, M.Koivu)", 
   "game_index": "6", 
   "team": "MIN"
  }
 ], 
 "tweets": [
  {
   "text": "Blues take down #mnwild, 5-1. More in The 5 Hole: http://t.co/Yp65JeLxb7 http://t.co/ipDy8KjJO0", 
   "label": "O", 
   "id": 449380549199933441, 
   "hashtags": [
    "mnwild"
   ], 
   "user_mentions": [], 
   "created_at": "Fri Mar 28 03:00:46 +0000 2014", 
   "retweet_count": 8, 
   "favorite_count": 18
  }, 
  {
   "text": "#stlblues top #mnwild, 5-1. The Wild heads to Phoenix to take on the Coyotes on Saturday at 8 p.m. http://t.co/iQPj52E10r", 
   "label": "O", 
   "id": 449374046279729152, 
   "hashtags": [
    "stlblues", 
    "mnwild"
   ], 
   "user_mentions": [], 
   "created_at": "Fri Mar 28 02:34:56 +0000 2014", 
   "retweet_count": 8, 
   "favorite_count": 21
  }, 
  {
   "text": "PARISE! He gets the #mnwild on the board. Blues up 5-1 in the 3rd.", 
   "label": "O", 
   "id": 449370779290206208, 
   "hashtags": [
    "mnwild"
   ], 
   "user_mentions": [], 
   "created_at": "Fri Mar 28 02:21:57 +0000 2014", 
   "retweet_count": 19, 
   "favorite_count": 106
  }, 
  {
   "text": "RT @mnwildLIVE: Blues make it 5-0 on the PP", 
   "label": "O", 
   "id": 449370459860389890, 
   "hashtags": [], 
   "user_mentions": [
    "mnwildLIVE"
   ], 
   "created_at": "Fri Mar 28 02:20:41 +0000 2014", 
   "retweet_count": 3, 
   "favorite_count": 0
  }, 
  {
   "text": "Blues go up 4-0 in the 3rd.", 
   "label": "O", 
   "id": 449368055815340032, 
   "hashtags": [], 
   "user_mentions": [], 
   "created_at": "Fri Mar 28 02:11:08 +0000 2014", 
   "retweet_count": 7, 
   "favorite_count": 13
  }, 
  {
   "text": "Third period is underway", 
   "label": "O", 
   "id": 449365182721302529, 
   "hashtags": [], 
   "user_mentions": [], 
   "created_at": "Fri Mar 28 01:59:43 +0000 2014", 
   "retweet_count": 6, 
   "favorite_count": 17
  }, 
  {
   "text": "2nd period comes to a close with the Blues leading 3-0.", 
   "label": "O", 
   "id": 449360375021330432, 
   "hashtags": [], 
   "user_mentions": [], 
   "created_at": "Fri Mar 28 01:40:36 +0000 2014", 
   "retweet_count": 2, 
   "favorite_count": 8
  }, 
  {
   "text": "So close Coyle! #mnwild", 
   "label": "O", 
   "id": 449359207947841536, 
   "hashtags": [
    "mnwild"
   ], 
   "user_mentions": [], 
   "created_at": "Fri Mar 28 01:35:58 +0000 2014", 
   "retweet_count": 7, 
   "favorite_count": 45
  }, 
  {
   "text": "Schwartz gives the #stlblues the 3-0 lead with his PPG.", 
   "label": "O", 
   "id": 449357094756823040, 
   "hashtags": [
    "stlblues"
   ], 
   "user_mentions": [], 
   "created_at": "Fri Mar 28 01:27:34 +0000 2014", 
   "retweet_count": 2, 
   "favorite_count": 8
  }, 
  {
   "text": "2nd period has started.", 
   "label": "O", 
   "id": 449351580291448832, 
   "hashtags": [], 
   "user_mentions": [], 
   "created_at": "Fri Mar 28 01:05:39 +0000 2014", 
   "retweet_count": 2, 
   "favorite_count": 17
  }, 
  {
   "text": "Blues leading 2-0 after the first period.", 
   "label": "O", 
   "id": 449346836076445696, 
   "hashtags": [], 
   "user_mentions": [], 
   "created_at": "Fri Mar 28 00:46:48 +0000 2014", 
   "retweet_count": 4, 
   "favorite_count": 11
  }, 
  {
   "text": "Oshie makes it 2-0 late in the first period.", 
   "label": "O", 
   "id": 449346595365343233, 
   "hashtags": [], 
   "user_mentions": [], 
   "created_at": "Fri Mar 28 00:45:51 +0000 2014", 
   "retweet_count": 15, 
   "favorite_count": 37
  }, 
  {
   "text": "RT @mnwildLIVE: Brodziak gets 2 for roughing. For the Blues Shatenkirk gets 4 and Lapierre gets 2. #mnwild will have a 4 minute power play", 
   "label": "O", 
   "id": 449346239688376321, 
   "hashtags": [
    "mnwild"
   ], 
   "user_mentions": [
    "mnwildLIVE"
   ], 
   "created_at": "Fri Mar 28 00:44:26 +0000 2014", 
   "retweet_count": 2, 
   "favorite_count": 0
  }, 
  {
   "text": "Oshie makes it 1-0 for #stlblues.", 
   "label": "O", 
   "id": 449339269350690816, 
   "hashtags": [
    "stlblues"
   ], 
   "user_mentions": [], 
   "created_at": "Fri Mar 28 00:16:44 +0000 2014", 
   "retweet_count": 12, 
   "favorite_count": 40
  }, 
  {
   "text": "@sodaksusan Obvious answer...#mnwild", 
   "label": "O", 
   "id": 449337759640342528, 
   "hashtags": [
    "mnwild"
   ], 
   "user_mentions": [
    "sodaksusan"
   ], 
   "created_at": "Fri Mar 28 00:10:44 +0000 2014", 
   "retweet_count": 0, 
   "favorite_count": 0
  }, 
  {
   "text": "#mnwild and #stlblues underway!", 
   "label": "O", 
   "id": 449337724349476864, 
   "hashtags": [
    "mnwild", 
    "stlblues"
   ], 
   "user_mentions": [], 
   "created_at": "Fri Mar 28 00:10:36 +0000 2014", 
   "retweet_count": 14, 
   "favorite_count": 38
  }, 
  {
   "text": "@Aaronlawrenc That's some dedication!", 
   "label": "O", 
   "id": 449335891816087552, 
   "hashtags": [], 
   "user_mentions": [
    "Aaronlawrenc"
   ], 
   "created_at": "Fri Mar 28 00:03:19 +0000 2014", 
   "retweet_count": 0, 
   "favorite_count": 1
  }, 
  {
   "text": "Almost time for the #RedBaronRoadie on @FSNorth &amp; @KFAN1003. Where are you tuning in from? #mnwild", 
   "label": "O", 
   "id": 449334609755787264, 
   "hashtags": [
    "RedBaronRoadie", 
    "mnwild"
   ], 
   "user_mentions": [
    "fsnorth", 
    "KFAN1003"
   ], 
   "created_at": "Thu Mar 27 23:58:13 +0000 2014", 
   "retweet_count": 4, 
   "favorite_count": 10
  }, 
  {
   "text": "#mnwild ready for warmups in St. Louis. http://t.co/SOwcYuGDbT", 
   "label": "O", 
   "id": 449327347100303360, 
   "hashtags": [
    "mnwild"
   ], 
   "user_mentions": [], 
   "created_at": "Thu Mar 27 23:29:22 +0000 2014", 
   "retweet_count": 24, 
   "favorite_count": 89
  }, 
  {
   "text": "LAST CHANCE: This is the last entry period for a shot at the grand prize w/the #RedBaronRoadie contest: http://t.co/88vD0dqvIB", 
   "label": "O", 
   "id": 449310001363189760, 
   "hashtags": [
    "RedBaronRoadie"
   ], 
   "user_mentions": [], 
   "created_at": "Thu Mar 27 22:20:26 +0000 2014", 
   "retweet_count": 5, 
   "favorite_count": 8
  }, 
  {
   "text": "Dancing with @NordyWild, first games and more in @WasteManagement Tweets of the Week: http://t.co/xMQc9gDKJn", 
   "label": "O", 
   "id": 449289898663895040, 
   "hashtags": [], 
   "user_mentions": [
    "NordyWild", 
    "WasteManagement"
   ], 
   "created_at": "Thu Mar 27 21:00:33 +0000 2014", 
   "retweet_count": 2, 
   "favorite_count": 11
  }, 
  {
   "text": "Some new #mnwild #HockeyHugs pres. by @GilletteChildrn! Go check them out: http://t.co/7SdrETyjgE http://t.co/jfIUS6ZqVt", 
   "label": "O", 
   "id": 449267635461832704, 
   "hashtags": [
    "mnwild", 
    "HockeyHugs"
   ], 
   "user_mentions": [
    "GilletteChildrn"
   ], 
   "created_at": "Thu Mar 27 19:32:05 +0000 2014", 
   "retweet_count": 7, 
   "favorite_count": 43
  }, 
  {
   "text": "Ends tonight! #mnwild \"jerseys off our backs\" featuring Cooke, Spurgeon &amp; Prosser are up for auction. Bid before 10p: http://t.co/QbT64qxQgv", 
   "label": "O", 
   "id": 449258363038494720, 
   "hashtags": [
    "mnwild"
   ], 
   "user_mentions": [], 
   "created_at": "Thu Mar 27 18:55:15 +0000 2014", 
   "retweet_count": 3, 
   "favorite_count": 13
  }, 
  {
   "text": "It's the 1st of 4 straight road games for #mnwild at 7p, vs #stlblues. #RedBaronRoadie preview http://t.co/K8jIFzOn29 http://t.co/cDBVkg59Uh", 
   "label": "O", 
   "id": 449245690485817344, 
   "hashtags": [
    "mnwild", 
    "stlblues", 
    "RedBaronRoadie"
   ], 
   "user_mentions": [], 
   "created_at": "Thu Mar 27 18:04:53 +0000 2014", 
   "retweet_count": 12, 
   "favorite_count": 32
  }, 
  {
   "text": "Back at it! #mnwild is in St. Louis tonight to face the #stlblues at 7 p.m. on @fsnorth &amp; @KFAN1003. http://t.co/HUcSfLdzKt", 
   "label": "O", 
   "id": 449197030972612608, 
   "hashtags": [
    "mnwild", 
    "stlblues"
   ], 
   "user_mentions": [
    "fsnorth", 
    "KFAN1003"
   ], 
   "created_at": "Thu Mar 27 14:51:32 +0000 2014", 
   "retweet_count": 19, 
   "favorite_count": 57
  }
 ]
}