{
 "num_road_team_goals": "2", 
 "home_team": "Minnesota Wild", 
 "num_home_team_goals": "3", 
 "summary_url": "http://www.flyershistory.com/cgi-bin/poboxscore.cgi?H20130865", 
 "result": "W", 
 "road_team": "Nashville Predators", 
 "date": "2014-02-06", 
 "goals": [
  {
   "season_index": "8", 
   "strength": "(EV)", 
   "time": "4:05", 
   "period": "1", 
   "player": "J.Brodin", 
   "assists": "(N.Niederreiter)", 
   "game_index": "1", 
   "team": "MIN"
  }, 
  {
   "season_index": "17", 
   "strength": "(EV)", 
   "time": "5:50", 
   "period": "1", 
   "player": "C.Smith", 
   "assists": "(C.Hutton)", 
   "game_index": "2", 
   "team": "NSH"
  }, 
  {
   "season_index": "19", 
   "strength": "(PP)", 
   "time": "13:27", 
   "period": "1", 
   "player": "Z.Parise", 
   "assists": "(D.Heatley, J.Pominville)", 
   "game_index": "3", 
   "team": "MIN"
  }, 
  {
   "season_index": "18", 
   "strength": "(EV)", 
   "time": "7:40", 
   "period": "2", 
   "player": "C.Smith", 
   "assists": "(V.Bartley)", 
   "game_index": "4", 
   "team": "NSH"
  }, 
  {
   "season_index": "11", 
   "strength": "(EV)", 
   "time": "2:16", 
   "period": "OT", 
   "player": "N.Niederreiter", 
   "assists": "(K.Brodziak, J.Spurgeon)", 
   "game_index": "5", 
   "team": "MIN"
  }
 ], 
 "tweets": [
  {
   "text": "#mnwild heads into #Sochi2014 with another win. Full details in The 5 Hole: http://t.co/v4SxrXLv2L http://t.co/sBXgAQ56Bj", 
   "label": "O", 
   "id": 431651285000265728, 
   "hashtags": [
    "mnwild", 
    "Sochi2014"
   ], 
   "user_mentions": [], 
   "created_at": "Fri Feb 07 04:51:00 +0000 2014", 
   "retweet_count": 41, 
   "favorite_count": 107
  }, 
  {
   "text": "RT @mnwildLIVE: Epic #mnwild photobomb tonight. That and more in the 5 Takeways from OT win over Preds: http://t.co/Sx8g87NFQh http://t.co/\u2026", 
   "label": "O", 
   "id": 431648303659630592, 
   "hashtags": [
    "mnwild"
   ], 
   "user_mentions": [
    "mnwildLIVE"
   ], 
   "created_at": "Fri Feb 07 04:39:09 +0000 2014", 
   "retweet_count": 341, 
   "favorite_count": 0
  }, 
  {
   "text": "BY THE NUMBERS: #mnwild 11-4-2 in 2014 - check out the rest of the stats http://t.co/lVGJRY3MhX", 
   "label": "O", 
   "id": 431646832884981760, 
   "hashtags": [
    "mnwild"
   ], 
   "user_mentions": [], 
   "created_at": "Fri Feb 07 04:33:19 +0000 2014", 
   "retweet_count": 51, 
   "favorite_count": 86
  }, 
  {
   "text": "Just in to WildTV: @thelnino25 talks post-game about his GWG - http://t.co/3omqJEakhz #mnwild", 
   "label": "O", 
   "id": 431643987049730048, 
   "hashtags": [
    "mnwild"
   ], 
   "user_mentions": [
    "thelnino25"
   ], 
   "created_at": "Fri Feb 07 04:22:00 +0000 2014", 
   "retweet_count": 3, 
   "favorite_count": 23
  }, 
  {
   "text": "Yeo says Haula, Gustafsson have been reassigned. Zucker having \"minor procedure\" and expected to be fine for post-Sochi practice. #mnwild", 
   "label": "O", 
   "id": 431641068074180608, 
   "hashtags": [
    "mnwild"
   ], 
   "user_mentions": [], 
   "created_at": "Fri Feb 07 04:10:24 +0000 2014", 
   "retweet_count": 8, 
   "favorite_count": 27
  }, 
  {
   "text": "Believe it or not, March 3 will be here before you know it. Get your #mnwild tix now for post-Sochi action: http://t.co/CIPt1tggEA", 
   "label": "O", 
   "id": 431640357898821633, 
   "hashtags": [
    "mnwild"
   ], 
   "user_mentions": [], 
   "created_at": "Fri Feb 07 04:07:35 +0000 2014", 
   "retweet_count": 6, 
   "favorite_count": 23
  }, 
  {
   "text": "Yeo continued: ...That's a lot to ask in February when you're about to go on a long break #mnwild", 
   "label": "O", 
   "id": 431639254327111680, 
   "hashtags": [
    "mnwild"
   ], 
   "user_mentions": [], 
   "created_at": "Fri Feb 07 04:03:12 +0000 2014", 
   "retweet_count": 4, 
   "favorite_count": 20
  }, 
  {
   "text": "Yeo: Real impressed with our guys, the way they approached this week, this game. We asked them for playoff type mentality... #mnwild 1/2", 
   "label": "O", 
   "id": 431639184663912448, 
   "hashtags": [
    "mnwild"
   ], 
   "user_mentions": [], 
   "created_at": "Fri Feb 07 04:02:55 +0000 2014", 
   "retweet_count": 5, 
   "favorite_count": 26
  }, 
  {
   "text": "Moments away from #mnwild head coach Mike Yeo's press conference - http://t.co/yFIh3kxRvR", 
   "label": "O", 
   "id": 431638262982389760, 
   "hashtags": [
    "mnwild"
   ], 
   "user_mentions": [], 
   "created_at": "Fri Feb 07 03:59:16 +0000 2014", 
   "retweet_count": 0, 
   "favorite_count": 7
  }, 
  {
   "text": "RT @mnwildPR: .@rsuter20 with 35:11 TOI - 4th 35+ minute game of career (all this season). 30+ in 5 of 6, 15 of 26, and 29 times this seaso\u2026", 
   "label": "O", 
   "id": 431637821385113601, 
   "hashtags": [
    "mnwild"
   ], 
   "user_mentions": [
    "mnwildPR", 
    "rsuter20"
   ], 
   "created_at": "Fri Feb 07 03:57:30 +0000 2014", 
   "retweet_count": 18, 
   "favorite_count": 0
  }, 
  {
   "text": "WATCH on WildTV: @thelnino25 wins it in OT - http://t.co/C88NmQcDb9 #mnwild", 
   "label": "O", 
   "id": 431636659671941120, 
   "hashtags": [
    "mnwild"
   ], 
   "user_mentions": [
    "thelnino25"
   ], 
   "created_at": "Fri Feb 07 03:52:53 +0000 2014", 
   "retweet_count": 15, 
   "favorite_count": 27
  }, 
  {
   "text": "Not one but two Olympians scored for #mnwild tonight - nice goal Zach and good luck in #sochi2014 #CaptainAmerica http://t.co/nqTqbtHKZk", 
   "label": "O", 
   "id": 431634344307073024, 
   "hashtags": [
    "mnwild", 
    "sochi2014", 
    "CaptainAmerica"
   ], 
   "user_mentions": [], 
   "created_at": "Fri Feb 07 03:43:41 +0000 2014", 
   "retweet_count": 238, 
   "favorite_count": 345
  }, 
  {
   "text": "1st career OT goal for @thelnino25! Brodziak and Spurgeon with the helpers, 2:16 into extra session. #mnwild #polarvortex", 
   "label": "O", 
   "id": 431633170048749568, 
   "hashtags": [
    "mnwild", 
    "polarvortex"
   ], 
   "user_mentions": [
    "thelnino25"
   ], 
   "created_at": "Fri Feb 07 03:39:01 +0000 2014", 
   "retweet_count": 52, 
   "favorite_count": 107
  }, 
  {
   "text": "#mnwild wins 3-2!!!!! @thelnino25! We (and he) are off to #Sochi2014 http://t.co/Ri2hPA84Uu", 
   "label": "O", 
   "id": 431632850610573312, 
   "hashtags": [
    "mnwild", 
    "Sochi2014"
   ], 
   "user_mentions": [
    "thelnino25"
   ], 
   "created_at": "Fri Feb 07 03:37:45 +0000 2014", 
   "retweet_count": 277, 
   "favorite_count": 294
  }, 
  {
   "text": "RT @KFAN1003: Don't forget to tune in after the game for #MNWild Fanline with @patmick2626 and @RadioFalness live from the X!", 
   "label": "O", 
   "id": 431632153093603328, 
   "hashtags": [
    "MNWild"
   ], 
   "user_mentions": [
    "KFAN1003", 
    "patmick2626", 
    "RadioFalness"
   ], 
   "created_at": "Fri Feb 07 03:34:59 +0000 2014", 
   "retweet_count": 5, 
   "favorite_count": 0
  }, 
  {
   "text": "#mnwild outshot #predators 33-17 in regulation. OT is underway", 
   "label": "O", 
   "id": 431631824486686720, 
   "hashtags": [
    "mnwild", 
    "predators"
   ], 
   "user_mentions": [], 
   "created_at": "Fri Feb 07 03:33:40 +0000 2014", 
   "retweet_count": 8, 
   "favorite_count": 28
  }, 
  {
   "text": "To overtime we go! #mnwild #predators tied 2-2 on @FSNorth @KFAN1003", 
   "label": "O", 
   "id": 431631279034212353, 
   "hashtags": [
    "mnwild", 
    "predators"
   ], 
   "user_mentions": [
    "fsnorth", 
    "KFAN1003"
   ], 
   "created_at": "Fri Feb 07 03:31:30 +0000 2014", 
   "retweet_count": 20, 
   "favorite_count": 24
  }, 
  {
   "text": "PP over, 60 seconds left in 3rd of 2-2 game", 
   "label": "O", 
   "id": 431630856781041664, 
   "hashtags": [], 
   "user_mentions": [], 
   "created_at": "Fri Feb 07 03:29:50 +0000 2014", 
   "retweet_count": 2, 
   "favorite_count": 9
  }, 
  {
   "text": "Big #mnwild PP late in regulation - 3:17 left and Weber cross-checks Parise. 2-2 game", 
   "label": "O", 
   "id": 431629722406375425, 
   "hashtags": [
    "mnwild"
   ], 
   "user_mentions": [], 
   "created_at": "Fri Feb 07 03:25:19 +0000 2014", 
   "retweet_count": 5, 
   "favorite_count": 20
  }, 
  {
   "text": "4:24 left in regulation. Still 2-2", 
   "label": "O", 
   "id": 431628878374010880, 
   "hashtags": [], 
   "user_mentions": [], 
   "created_at": "Fri Feb 07 03:21:58 +0000 2014", 
   "retweet_count": 2, 
   "favorite_count": 12
  }, 
  {
   "text": "Penalty killed, back to even strength, 8:30 left. #mnwild #predators tied 2-2", 
   "label": "O", 
   "id": 431626991125950465, 
   "hashtags": [
    "mnwild", 
    "predators"
   ], 
   "user_mentions": [], 
   "created_at": "Fri Feb 07 03:14:28 +0000 2014", 
   "retweet_count": 5, 
   "favorite_count": 19
  }, 
  {
   "text": "@delanperera because our captain is injured", 
   "label": "O", 
   "id": 431626157965180928, 
   "hashtags": [], 
   "user_mentions": [
    "delanperera"
   ], 
   "created_at": "Fri Feb 07 03:11:09 +0000 2014", 
   "retweet_count": 1, 
   "favorite_count": 1
  }, 
  {
   "text": "#Predators about to go on 2nd straight PP (#mnwild had game's 1st 4). 2-2, 10:37 left in 3rd", 
   "label": "O", 
   "id": 431626082790682624, 
   "hashtags": [
    "Predators", 
    "mnwild"
   ], 
   "user_mentions": [], 
   "created_at": "Fri Feb 07 03:10:52 +0000 2014", 
   "retweet_count": 1, 
   "favorite_count": 7
  }, 
  {
   "text": "Ok here we go, #mnwild and #predators back on ice for 3rd. Tied 2-2, Wild on PP for 2 mins to begin 3rd. #freshice", 
   "label": "O", 
   "id": 431621943243313152, 
   "hashtags": [
    "mnwild", 
    "predators", 
    "freshice"
   ], 
   "user_mentions": [], 
   "created_at": "Fri Feb 07 02:54:25 +0000 2014", 
   "retweet_count": 8, 
   "favorite_count": 25
  }, 
  {
   "text": "Everyone got in to the #PolarVortex spirit tonight, even this little guy! #mnwild http://t.co/NPhoH1KUVQ", 
   "label": "O", 
   "id": 431619599868915712, 
   "hashtags": [
    "PolarVortex", 
    "mnwild"
   ], 
   "user_mentions": [], 
   "created_at": "Fri Feb 07 02:45:06 +0000 2014", 
   "retweet_count": 29, 
   "favorite_count": 122
  }, 
  {
   "text": "You saw the collage, now check out the gallery from the pre-game #Sochi2014 send-off: http://t.co/trHyChQT5Q  #mnwild http://t.co/eky2yqCTSl", 
   "label": "O", 
   "id": 431617932947636224, 
   "hashtags": [
    "Sochi2014", 
    "mnwild"
   ], 
   "user_mentions": [], 
   "created_at": "Fri Feb 07 02:38:28 +0000 2014", 
   "retweet_count": 9, 
   "favorite_count": 48
  }, 
  {
   "text": "End of 2, #mnwild and #predators tied 2-2. 2 minutes of PPG time for Wild to begin the 3rd.", 
   "label": "O", 
   "id": 431617527580737536, 
   "hashtags": [
    "mnwild", 
    "predators"
   ], 
   "user_mentions": [], 
   "created_at": "Fri Feb 07 02:36:52 +0000 2014", 
   "retweet_count": 7, 
   "favorite_count": 15
  }, 
  {
   "text": "Another sold-out #mnwild Ladies Night with @FSNorthGirls and @SaintPaulHotel http://t.co/MWZCepjKoI", 
   "label": "O", 
   "id": 431615066430259200, 
   "hashtags": [
    "mnwild"
   ], 
   "user_mentions": [
    "FSNorthGirls", 
    "SaintPaulHotel"
   ], 
   "created_at": "Fri Feb 07 02:27:05 +0000 2014", 
   "retweet_count": 5, 
   "favorite_count": 29
  }, 
  {
   "text": "#mnwild fans - swing by section 125 and take photos of #sochi2014 hockey jerseys from USA, Finland and Switzerland #mnwildinsochi", 
   "label": "O", 
   "id": 431614486689357824, 
   "hashtags": [
    "mnwild", 
    "sochi2014", 
    "mnwildinsochi"
   ], 
   "user_mentions": [], 
   "created_at": "Fri Feb 07 02:24:47 +0000 2014", 
   "retweet_count": 2, 
   "favorite_count": 8
  }, 
  {
   "text": "Craig Smith with his 2nd of night, redirection from between the circles, to tie it up 2-2. #predators #mnwild", 
   "label": "O", 
   "id": 431611930709856256, 
   "hashtags": [
    "predators", 
    "mnwild"
   ], 
   "user_mentions": [], 
   "created_at": "Fri Feb 07 02:14:37 +0000 2014", 
   "retweet_count": 3, 
   "favorite_count": 10
  }, 
  {
   "text": "#mnwild to the PP early in 2nd, Taylor Beck off for goalie interference.", 
   "label": "O", 
   "id": 431610190790930432, 
   "hashtags": [
    "mnwild"
   ], 
   "user_mentions": [], 
   "created_at": "Fri Feb 07 02:07:43 +0000 2014", 
   "retweet_count": 1, 
   "favorite_count": 11
  }, 
  {
   "text": "Puck has dropped on 2nd period. #mnwild up 2-1 over #predators", 
   "label": "O", 
   "id": 431609308338720768, 
   "hashtags": [
    "mnwild", 
    "predators"
   ], 
   "user_mentions": [], 
   "created_at": "Fri Feb 07 02:04:12 +0000 2014", 
   "retweet_count": 9, 
   "favorite_count": 29
  }, 
  {
   "text": "Olympians, from both teams, participating in tonight's #mnwild game were honored pre-game. #Sochi2014 http://t.co/MiSMAeDMEL", 
   "label": "O", 
   "id": 431604797100531712, 
   "hashtags": [
    "mnwild", 
    "Sochi2014"
   ], 
   "user_mentions": [], 
   "created_at": "Fri Feb 07 01:46:17 +0000 2014", 
   "retweet_count": 83, 
   "favorite_count": 155
  }, 
  {
   "text": "End of 1, #mnwild up 2-1. You've got 18 minutes to watch this Parise goal over, and over, and over: http://t.co/pa7w7n8TFn #polarvortex", 
   "label": "O", 
   "id": 431604561519071232, 
   "hashtags": [
    "mnwild", 
    "polarvortex"
   ], 
   "user_mentions": [], 
   "created_at": "Fri Feb 07 01:45:20 +0000 2014", 
   "retweet_count": 16, 
   "favorite_count": 27
  }, 
  {
   "text": "RT @mnwildPR: Zach Parise scores his 10th PPG of the season, T-3rd-most in #NHL. 19-17=36 points for #mnwild this season. Remember, he miss\u2026", 
   "label": "O", 
   "id": 431602230563975168, 
   "hashtags": [
    "NHL", 
    "mnwild"
   ], 
   "user_mentions": [
    "mnwildPR"
   ], 
   "created_at": "Fri Feb 07 01:36:05 +0000 2014", 
   "retweet_count": 31, 
   "favorite_count": 0
  }, 
  {
   "text": "Goal reads Parise from Heatley and Pominville. 19th of season for #captainamerica. #mnwild #polarvortex", 
   "label": "O", 
   "id": 431602153875320833, 
   "hashtags": [
    "captainamerica", 
    "mnwild", 
    "polarvortex"
   ], 
   "user_mentions": [], 
   "created_at": "Fri Feb 07 01:35:46 +0000 2014", 
   "retweet_count": 26, 
   "favorite_count": 65
  }, 
  {
   "text": "PARISE!!!!!!! From Heater. #captainamerica makes it 2-1 #mnwild over #Predators, 6:33 left in 1st. PPG", 
   "label": "O", 
   "id": 431601754309156864, 
   "hashtags": [
    "captainamerica", 
    "mnwild", 
    "Predators"
   ], 
   "user_mentions": [], 
   "created_at": "Fri Feb 07 01:34:11 +0000 2014", 
   "retweet_count": 86, 
   "favorite_count": 171
  }, 
  {
   "text": "Rich Clune to the box for hooking, #mnwild draws game's 1st PP. 7:47 left in 1st, tied 1-1", 
   "label": "O", 
   "id": 431601321394049024, 
   "hashtags": [
    "mnwild"
   ], 
   "user_mentions": [], 
   "created_at": "Fri Feb 07 01:32:28 +0000 2014", 
   "retweet_count": 5, 
   "favorite_count": 8
  }, 
  {
   "text": "WATCH: Brodin opens the scoring on WildTV - http://t.co/W6g3jwuEhX #mnwild #polarvortex", 
   "label": "O", 
   "id": 431599500533448705, 
   "hashtags": [
    "mnwild", 
    "polarvortex"
   ], 
   "user_mentions": [], 
   "created_at": "Fri Feb 07 01:25:14 +0000 2014", 
   "retweet_count": 5, 
   "favorite_count": 16
  }, 
  {
   "text": "Craig Smith answers back, rebounding his own miss for #Predators, 1-1, 5:50 into 1st. #mnwild #polarvortex", 
   "label": "O", 
   "id": 431598272973533184, 
   "hashtags": [
    "Predators", 
    "mnwild", 
    "polarvortex"
   ], 
   "user_mentions": [], 
   "created_at": "Fri Feb 07 01:20:21 +0000 2014", 
   "retweet_count": 5, 
   "favorite_count": 9
  }, 
  {
   "text": "BRODIN! Cuts across the blue line and beats Carter Hutton for 1-0 #mnwild lead, 4:05 in. #polarvortex", 
   "label": "O", 
   "id": 431597433974685696, 
   "hashtags": [
    "mnwild", 
    "polarvortex"
   ], 
   "user_mentions": [], 
   "created_at": "Fri Feb 07 01:17:01 +0000 2014", 
   "retweet_count": 42, 
   "favorite_count": 91
  }, 
  {
   "text": "And we're underway! #mnwild #predators", 
   "label": "O", 
   "id": 431596056665927680, 
   "hashtags": [
    "mnwild", 
    "predators"
   ], 
   "user_mentions": [], 
   "created_at": "Fri Feb 07 01:11:33 +0000 2014", 
   "retweet_count": 11, 
   "favorite_count": 31
  }, 
  {
   "text": "Flag bearers for each of countries represented in tonight's game #mnwild #Sochi2014 #polarvortex http://t.co/xfc14K3PJT", 
   "label": "O", 
   "id": 431595168290983937, 
   "hashtags": [
    "mnwild", 
    "Sochi2014", 
    "polarvortex"
   ], 
   "user_mentions": [], 
   "created_at": "Fri Feb 07 01:08:01 +0000 2014", 
   "retweet_count": 26, 
   "favorite_count": 99
  }, 
  {
   "text": "About 6 mins away from puck drop @xcelenergyctr. Cool #Sochi2014 send-off ceremony coming up in moments. #mnwild #polarvortex", 
   "label": "O", 
   "id": 431594427145269248, 
   "hashtags": [
    "Sochi2014", 
    "mnwild", 
    "polarvortex"
   ], 
   "user_mentions": [
    "XcelEnergyCtr"
   ], 
   "created_at": "Fri Feb 07 01:05:04 +0000 2014", 
   "retweet_count": 7, 
   "favorite_count": 17
  }, 
  {
   "text": "We're wearing white at home, so tweet a pic using #RedBaronRoadie to enter to win a #mnwild jersey! Rules: http://t.co/ugIknYdTgi", 
   "label": "O", 
   "id": 431578443323830273, 
   "hashtags": [
    "RedBaronRoadie", 
    "mnwild"
   ], 
   "user_mentions": [], 
   "created_at": "Fri Feb 07 00:01:33 +0000 2014", 
   "retweet_count": 2, 
   "favorite_count": 10
  }, 
  {
   "text": "Stop by The Hockey Lodge (@SOH_Store) for your Olympic gear! #mnwild http://t.co/uvMv2kPUBU", 
   "label": "O", 
   "id": 431578339003097088, 
   "hashtags": [
    "mnwild"
   ], 
   "user_mentions": [
    "SOH_Store"
   ], 
   "created_at": "Fri Feb 07 00:01:09 +0000 2014", 
   "retweet_count": 15, 
   "favorite_count": 50
  }, 
  {
   "text": "You can do this - or this - with tonight's #mnwild #PolarVortex t-shirts http://t.co/7ZoEtdcQta", 
   "label": "O", 
   "id": 431574030387511296, 
   "hashtags": [
    "mnwild", 
    "PolarVortex"
   ], 
   "user_mentions": [], 
   "created_at": "Thu Feb 06 23:44:01 +0000 2014", 
   "retweet_count": 6, 
   "favorite_count": 24
  }, 
  {
   "text": ".@WasteManagement Tweets of the Week is up. Check to see if yours made it: http://t.co/IJGNWzWyg0", 
   "label": "O", 
   "id": 431564255478161408, 
   "hashtags": [], 
   "user_mentions": [
    "WasteManagement"
   ], 
   "created_at": "Thu Feb 06 23:05:11 +0000 2014", 
   "retweet_count": 3, 
   "favorite_count": 6
  }, 
  {
   "text": "The locker room is set for tonight's #PolarVortex between the #mnwild &amp; Predators. http://t.co/toSjcftuiK", 
   "label": "O", 
   "id": 431551659362508800, 
   "hashtags": [
    "PolarVortex", 
    "mnwild"
   ], 
   "user_mentions": [], 
   "created_at": "Thu Feb 06 22:15:08 +0000 2014", 
   "retweet_count": 54, 
   "favorite_count": 162
  }, 
  {
   "text": "RT @mnwildPR: Tonight's #mnwild game program has Olympic flair. Special pre-game ceremony tonight, too. Be in your seats early! http://t.co\u2026", 
   "label": "O", 
   "id": 431550616964706304, 
   "hashtags": [
    "mnwild"
   ], 
   "user_mentions": [
    "mnwildPR"
   ], 
   "created_at": "Thu Feb 06 22:10:59 +0000 2014", 
   "retweet_count": 27, 
   "favorite_count": 0
  }, 
  {
   "text": "ALL fans in attendance tonight will receive this Olympic #mnwild poster thanks to @BlueCrossMN after the game. http://t.co/eg60hto02y", 
   "label": "O", 
   "id": 431534282398765056, 
   "hashtags": [
    "mnwild"
   ], 
   "user_mentions": [
    "BlueCrossMN"
   ], 
   "created_at": "Thu Feb 06 21:06:05 +0000 2014", 
   "retweet_count": 48, 
   "favorite_count": 114
  }, 
  {
   "text": "#mnwild's last game before the break is tonight. The Lighthouse has some important updates for you: http://t.co/NZEMVLtiXm", 
   "label": "O", 
   "id": 431529230531579904, 
   "hashtags": [
    "mnwild"
   ], 
   "user_mentions": [], 
   "created_at": "Thu Feb 06 20:46:00 +0000 2014", 
   "retweet_count": 7, 
   "favorite_count": 19
  }, 
  {
   "text": "1980 U.S. Olympian Dave Christian to do Let's Play Hockey tonight for #mnwild #sochi2014 sendoff", 
   "label": "O", 
   "id": 431523992504397826, 
   "hashtags": [
    "mnwild", 
    "sochi2014"
   ], 
   "user_mentions": [], 
   "created_at": "Thu Feb 06 20:25:11 +0000 2014", 
   "retweet_count": 36, 
   "favorite_count": 69
  }, 
  {
   "text": "Here's what we'd like you to do (and not do) with those #PolarVortex #mnwild t-shirts tonight http://t.co/VCvjPWp3eC", 
   "label": "O", 
   "id": 431516396917620736, 
   "hashtags": [
    "PolarVortex", 
    "mnwild"
   ], 
   "user_mentions": [], 
   "created_at": "Thu Feb 06 19:55:00 +0000 2014", 
   "retweet_count": 48, 
   "favorite_count": 78
  }, 
  {
   "text": "Parise talks about focusing on tonight's #mnwild game. WATCH: http://t.co/Pc5IRZyyDZ", 
   "label": "O", 
   "id": 431511489737150464, 
   "hashtags": [
    "mnwild"
   ], 
   "user_mentions": [], 
   "created_at": "Thu Feb 06 19:35:30 +0000 2014", 
   "retweet_count": 7, 
   "favorite_count": 33
  }, 
  {
   "text": "Only in #StateOfHockey. RT @minnhockey: \"Building the Foundation\" - An inside look at community based hockey http://t.co/lKO2nHws6A", 
   "label": "O", 
   "id": 431506493368967168, 
   "hashtags": [
    "StateOfHockey"
   ], 
   "user_mentions": [
    "MinnHockey"
   ], 
   "created_at": "Thu Feb 06 19:15:39 +0000 2014", 
   "retweet_count": 2, 
   "favorite_count": 15
  }, 
  {
   "text": "#mnwild hosts Predators for the #PolarVortex at 7p on @fsnorth &amp; @KFAN1003. Game preview: http://t.co/Qs4UOe9mTx http://t.co/VE5kjWGWPL", 
   "label": "O", 
   "id": 431499084663619584, 
   "hashtags": [
    "mnwild", 
    "PolarVortex"
   ], 
   "user_mentions": [
    "fsnorth", 
    "KFAN1003"
   ], 
   "created_at": "Thu Feb 06 18:46:13 +0000 2014", 
   "retweet_count": 18, 
   "favorite_count": 43
  }, 
  {
   "text": "Yeo: Backstrom won't back up tonight due to soreness. @dkuemps35 starts for #mnwild", 
   "label": "O", 
   "id": 431476221365727232, 
   "hashtags": [
    "mnwild"
   ], 
   "user_mentions": [
    "dkuemps35"
   ], 
   "created_at": "Thu Feb 06 17:15:22 +0000 2014", 
   "retweet_count": 15, 
   "favorite_count": 41
  }, 
  {
   "text": "#mnwild has recalled Gustafsson from @IAWild; reassigns Veilleux", 
   "label": "O", 
   "id": 431475453874806785, 
   "hashtags": [
    "mnwild"
   ], 
   "user_mentions": [
    "IAWild"
   ], 
   "created_at": "Thu Feb 06 17:12:19 +0000 2014", 
   "retweet_count": 14, 
   "favorite_count": 22
  }, 
  {
   "text": ".@dkuemps35 taking shots from D in morning skate. #polarvortex #mnwild http://t.co/zNPZ7rUHD1", 
   "label": "O", 
   "id": 431468288783032320, 
   "hashtags": [
    "polarvortex", 
    "mnwild"
   ], 
   "user_mentions": [
    "dkuemps35"
   ], 
   "created_at": "Thu Feb 06 16:43:51 +0000 2014", 
   "retweet_count": 12, 
   "favorite_count": 52
  }, 
  {
   "text": "WARNING: The #PolarVortex is here! #mnwild wearing road whites at home v. NSH. Game is on @fsnorth &amp; @KFAN1003 at 7. http://t.co/TpV0pMSTww", 
   "label": "O", 
   "id": 431458559763947521, 
   "hashtags": [
    "PolarVortex", 
    "mnwild"
   ], 
   "user_mentions": [
    "fsnorth", 
    "KFAN1003"
   ], 
   "created_at": "Thu Feb 06 16:05:11 +0000 2014", 
   "retweet_count": 23, 
   "favorite_count": 69
  }, 
  {
   "text": "#mnwild #PolarVortex is here! See you tonight; wear white. @redbaronpizza http://t.co/CIFPbADUeH", 
   "label": "O", 
   "id": 431449400960122880, 
   "hashtags": [
    "mnwild", 
    "PolarVortex"
   ], 
   "user_mentions": [
    "redbaronpizza"
   ], 
   "created_at": "Thu Feb 06 15:28:47 +0000 2014", 
   "retweet_count": 51, 
   "favorite_count": 105
  }, 
  {
   "text": "@JKaiser60 We did our giveaway yesterday. But you can still come tonight: http://t.co/MnaGggNIfP", 
   "label": "O", 
   "id": 431441416561381376, 
   "hashtags": [], 
   "user_mentions": [
    "JKaiser60"
   ], 
   "created_at": "Thu Feb 06 14:57:04 +0000 2014", 
   "retweet_count": 0, 
   "favorite_count": 2
  }, 
  {
   "text": "Celebrate #mnwild gameday with @PAKFANVikes and @KFAN1003 live from penalty box 9-noon. Yeo at 9:02, Fletcher 9:35, Parise after skate", 
   "label": "O", 
   "id": 431433429910306817, 
   "hashtags": [
    "mnwild"
   ], 
   "user_mentions": [
    "PAkfanvikes", 
    "KFAN1003"
   ], 
   "created_at": "Thu Feb 06 14:25:20 +0000 2014", 
   "retweet_count": 2, 
   "favorite_count": 15
  }
 ]
}