{
 "num_road_team_goals": "4", 
 "home_team": "Detroit Red Wings", 
 "num_home_team_goals": "3", 
 "summary_url": "http://www.flyershistory.com/cgi-bin/poboxscore.cgi?H20131070", 
 "result": "W", 
 "road_team": "Minnesota Wild", 
 "date": "2014-03-23", 
 "goals": [
  {
   "season_index": "22", 
   "strength": "(PP)", 
   "time": "13:45", 
   "period": "1", 
   "player": "G.Nyquist", 
   "assists": "(N.Kronwall, D.Alfredsson)", 
   "game_index": "1", 
   "team": "DET"
  }, 
  {
   "season_index": "23", 
   "strength": "(EV)", 
   "time": "18:27", 
   "period": "1", 
   "player": "G.Nyquist", 
   "assists": "(T.Tatar)", 
   "game_index": "2", 
   "team": "DET"
  }, 
  {
   "season_index": "27", 
   "strength": "(PP)", 
   "time": "11:57", 
   "period": "2", 
   "player": "J.Pominville", 
   "assists": "(R.Suter, M.Koivu)", 
   "game_index": "3", 
   "team": "MIN"
  }, 
  {
   "season_index": "9", 
   "strength": "(EV)", 
   "time": "4:33", 
   "period": "3", 
   "player": "C.Coyle", 
   "assists": "(M.Moulson, M.Koivu)", 
   "game_index": "4", 
   "team": "MIN"
  }, 
  {
   "season_index": "24", 
   "strength": "(EV)", 
   "time": "6:18", 
   "period": "3", 
   "player": "Z.Parise", 
   "assists": "(M.Granlund, J.Spurgeon)", 
   "game_index": "5", 
   "team": "MIN"
  }, 
  {
   "season_index": "16", 
   "strength": "(EV)", 
   "time": "11:43", 
   "period": "3", 
   "player": "T.Tatar", 
   "assists": "(B.Smith)", 
   "game_index": "6", 
   "team": "DET"
  }, 
  {
   "season_index": "21", 
   "strength": "(EV)", 
   "time": "2:15", 
   "period": "OT", 
   "player": "M.Moulson", 
   "assists": "(J.Brodin, C.Coyle)", 
   "game_index": "7", 
   "team": "MIN"
  }
 ], 
 "tweets": [
  {
   "text": "#mnwild wins a 4-3 OT thriller in Detroit as @mmoulson scores the GWG. More in The 5 Hole: http://t.co/jVaI25wHpV http://t.co/uJB8kkv2Od", 
   "label": "O", 
   "id": 447928044939145216, 
   "hashtags": [
    "mnwild"
   ], 
   "user_mentions": [
    "MMoulson"
   ], 
   "created_at": "Mon Mar 24 02:49:02 +0000 2014", 
   "retweet_count": 57, 
   "favorite_count": 142
  }, 
  {
   "text": "#mnwild holds #redwings to 16 shots - Detroit's 2nd-lowest shot total at home since Feb '91. LA held DRW to 15 on 3/9/12", 
   "label": "O", 
   "id": 447921453585801216, 
   "hashtags": [
    "mnwild", 
    "redwings"
   ], 
   "user_mentions": [], 
   "created_at": "Mon Mar 24 02:22:51 +0000 2014", 
   "retweet_count": 33, 
   "favorite_count": 65
  }, 
  {
   "text": "#mnwild wins in OT against the #redwings!!! @MMoulson with the GWG. Brodin picks up the assist. http://t.co/aXcPmLMJRK", 
   "label": "O", 
   "id": 447917847566905344, 
   "hashtags": [
    "mnwild", 
    "redwings"
   ], 
   "user_mentions": [
    "MMoulson"
   ], 
   "created_at": "Mon Mar 24 02:08:31 +0000 2014", 
   "retweet_count": 478, 
   "favorite_count": 692
  }, 
  {
   "text": "OT is underway. #mnwild", 
   "label": "O", 
   "id": 447917013902843904, 
   "hashtags": [
    "mnwild"
   ], 
   "user_mentions": [], 
   "created_at": "Mon Mar 24 02:05:12 +0000 2014", 
   "retweet_count": 13, 
   "favorite_count": 50
  }, 
  {
   "text": "We're heading to OT in Detroit. #mnwild and #redwings tied 3-3 after 60 minutes.", 
   "label": "O", 
   "id": 447916418965991424, 
   "hashtags": [
    "mnwild", 
    "redwings"
   ], 
   "user_mentions": [], 
   "created_at": "Mon Mar 24 02:02:50 +0000 2014", 
   "retweet_count": 24, 
   "favorite_count": 47
  }, 
  {
   "text": "And #redwings tie it up, 3-3 in the 3rd. #mnwild", 
   "label": "O", 
   "id": 447912820844548096, 
   "hashtags": [
    "redwings", 
    "mnwild"
   ], 
   "user_mentions": [], 
   "created_at": "Mon Mar 24 01:48:32 +0000 2014", 
   "retweet_count": 8, 
   "favorite_count": 31
  }, 
  {
   "text": "Parise's 24th of the year from Granlund and Spurgeon gives #mnwild the lead.", 
   "label": "O", 
   "id": 447910568788496386, 
   "hashtags": [
    "mnwild"
   ], 
   "user_mentions": [], 
   "created_at": "Mon Mar 24 01:39:36 +0000 2014", 
   "retweet_count": 51, 
   "favorite_count": 131
  }, 
  {
   "text": "GOAL! #mnwild up 3-2.", 
   "label": "O", 
   "id": 447909996224077824, 
   "hashtags": [
    "mnwild"
   ], 
   "user_mentions": [], 
   "created_at": "Mon Mar 24 01:37:19 +0000 2014", 
   "retweet_count": 139, 
   "favorite_count": 218
  }, 
  {
   "text": "RT @mnwildLIVE: Koivu with a one-timer, Moulson follows up and Coyle bangs home the rebound from the crease. Great pressure from that line", 
   "label": "O", 
   "id": 447909800274591745, 
   "hashtags": [], 
   "user_mentions": [
    "mnwildLIVE"
   ], 
   "created_at": "Mon Mar 24 01:36:32 +0000 2014", 
   "retweet_count": 14, 
   "favorite_count": 0
  }, 
  {
   "text": "TIE GAME! 2-2 between #mnwild and #redwings in the 3rd. Coyle gets the goal.", 
   "label": "O", 
   "id": 447909391602561025, 
   "hashtags": [
    "mnwild", 
    "redwings"
   ], 
   "user_mentions": [], 
   "created_at": "Mon Mar 24 01:34:55 +0000 2014", 
   "retweet_count": 47, 
   "favorite_count": 107
  }, 
  {
   "text": "#mnwild down by 1 to start the 3rd period. Who's going to tie it up for the road team?", 
   "label": "O", 
   "id": 447907183930642432, 
   "hashtags": [
    "mnwild"
   ], 
   "user_mentions": [], 
   "created_at": "Mon Mar 24 01:26:09 +0000 2014", 
   "retweet_count": 2, 
   "favorite_count": 24
  }, 
  {
   "text": "Through 40 minutes of play, the #mnwild trails, 2-1, in Detriot on the 2nd half of the home-and-home against the #redwings.", 
   "label": "O", 
   "id": 447902770759495681, 
   "hashtags": [
    "mnwild", 
    "redwings"
   ], 
   "user_mentions": [], 
   "created_at": "Mon Mar 24 01:08:36 +0000 2014", 
   "retweet_count": 6, 
   "favorite_count": 20
  }, 
  {
   "text": "Suter and Koivu assist Pominville's 27th of the year. #mnwild", 
   "label": "O", 
   "id": 447899391077396480, 
   "hashtags": [
    "mnwild"
   ], 
   "user_mentions": [], 
   "created_at": "Mon Mar 24 00:55:11 +0000 2014", 
   "retweet_count": 12, 
   "favorite_count": 69
  }, 
  {
   "text": "POMINVILLE! PPG for #mnwild to pull within one of the #redwings.", 
   "label": "O", 
   "id": 447899134964817920, 
   "hashtags": [
    "mnwild", 
    "redwings"
   ], 
   "user_mentions": [], 
   "created_at": "Mon Mar 24 00:54:10 +0000 2014", 
   "retweet_count": 52, 
   "favorite_count": 121
  }, 
  {
   "text": "Quincey heads to the box, #mnwild PP coming up.", 
   "label": "O", 
   "id": 447898613801549824, 
   "hashtags": [
    "mnwild"
   ], 
   "user_mentions": [], 
   "created_at": "Mon Mar 24 00:52:05 +0000 2014", 
   "retweet_count": 3, 
   "favorite_count": 16
  }, 
  {
   "text": "@LindaKenjoelin We think the answer is a little obvious... #mnwild", 
   "label": "O", 
   "id": 447896490305142784, 
   "hashtags": [
    "mnwild"
   ], 
   "user_mentions": [
    "LindaKenjoelin"
   ], 
   "created_at": "Mon Mar 24 00:43:39 +0000 2014", 
   "retweet_count": 0, 
   "favorite_count": 4
  }, 
  {
   "text": "Teams back on the ice for the start of the 2nd in Detroit.", 
   "label": "O", 
   "id": 447893842923384832, 
   "hashtags": [], 
   "user_mentions": [], 
   "created_at": "Mon Mar 24 00:33:08 +0000 2014", 
   "retweet_count": 5, 
   "favorite_count": 18
  }, 
  {
   "text": "That does it for the 1st in Detroit. #mnwild trails 2-0.", 
   "label": "O", 
   "id": 447889199694614529, 
   "hashtags": [
    "mnwild"
   ], 
   "user_mentions": [], 
   "created_at": "Mon Mar 24 00:14:41 +0000 2014", 
   "retweet_count": 2, 
   "favorite_count": 15
  }, 
  {
   "text": "Nyquist, on the breakaway, scores to make it 2-0 for Detroit.", 
   "label": "O", 
   "id": 447888580208500736, 
   "hashtags": [], 
   "user_mentions": [], 
   "created_at": "Mon Mar 24 00:12:13 +0000 2014", 
   "retweet_count": 3, 
   "favorite_count": 16
  }, 
  {
   "text": "Time for a #mnwild power play. Legwand goes off for goaltender interference.", 
   "label": "O", 
   "id": 447887301092601856, 
   "hashtags": [
    "mnwild"
   ], 
   "user_mentions": [], 
   "created_at": "Mon Mar 24 00:07:08 +0000 2014", 
   "retweet_count": 5, 
   "favorite_count": 15
  }, 
  {
   "text": "Nyquist scores the game's first goal and puts #redwings up 1-0. #mnwild", 
   "label": "O", 
   "id": 447886182194905088, 
   "hashtags": [
    "redwings", 
    "mnwild"
   ], 
   "user_mentions": [], 
   "created_at": "Mon Mar 24 00:02:41 +0000 2014", 
   "retweet_count": 3, 
   "favorite_count": 10
  }, 
  {
   "text": "RT @mnwildLIVE: Coyle heads to the box, #mnwild with the game's first penalty kill upcoming", 
   "label": "O", 
   "id": 447885060797399040, 
   "hashtags": [
    "mnwild"
   ], 
   "user_mentions": [
    "mnwildLIVE"
   ], 
   "created_at": "Sun Mar 23 23:58:14 +0000 2014", 
   "retweet_count": 1, 
   "favorite_count": 0
  }, 
  {
   "text": "#mnwild vs. #redwings underway on @NBCSN and @KFAN1003 now!", 
   "label": "O", 
   "id": 447880796867948544, 
   "hashtags": [
    "mnwild", 
    "redwings"
   ], 
   "user_mentions": [
    "NBCSN", 
    "KFAN1003"
   ], 
   "created_at": "Sun Mar 23 23:41:17 +0000 2014", 
   "retweet_count": 13, 
   "favorite_count": 18
  }, 
  {
   "text": "Moments away from puck drop in Detroit! #RedBaronRoadie is on @NBCSN and @KFAN1003. #mnwild", 
   "label": "O", 
   "id": 447877613223428096, 
   "hashtags": [
    "RedBaronRoadie", 
    "mnwild"
   ], 
   "user_mentions": [
    "NBCSN", 
    "KFAN1003"
   ], 
   "created_at": "Sun Mar 23 23:28:38 +0000 2014", 
   "retweet_count": 2, 
   "favorite_count": 20
  }, 
  {
   "text": "Hint: The #mnwild 2000-2001 inaugural team photo was taken within the walls of this historic arena.", 
   "label": "O", 
   "id": 447852845434699776, 
   "hashtags": [
    "mnwild"
   ], 
   "user_mentions": [], 
   "created_at": "Sun Mar 23 21:50:13 +0000 2014", 
   "retweet_count": 1, 
   "favorite_count": 16
  }, 
  {
   "text": "Last wk to enter! Where are @NordyWild &amp; @GoldnPlump's Cooper? Tweet w/ #NameTheMNRink. Rules http://t.co/se1MugVdIr http://t.co/GDiXfgA6KZ", 
   "label": "O", 
   "id": 447852560066830336, 
   "hashtags": [
    "NameTheMNRink"
   ], 
   "user_mentions": [
    "NordyWild", 
    "GoldnPlump"
   ], 
   "created_at": "Sun Mar 23 21:49:05 +0000 2014", 
   "retweet_count": 7, 
   "favorite_count": 26
  }, 
  {
   "text": "Yeo says Stoner is out week to week with a lower body injury. #mnwild", 
   "label": "O", 
   "id": 447849481053437952, 
   "hashtags": [
    "mnwild"
   ], 
   "user_mentions": [], 
   "created_at": "Sun Mar 23 21:36:51 +0000 2014", 
   "retweet_count": 17, 
   "favorite_count": 20
  }, 
  {
   "text": "#mnwild is in Detroit at 6:30 p.m. on @NBCSN and @KFAN1003. Check out the game preivew: http://t.co/K8jIFzOn29 http://t.co/NBbeGTSfiV", 
   "label": "O", 
   "id": 447762337966325760, 
   "hashtags": [
    "mnwild"
   ], 
   "user_mentions": [
    "NBCSN", 
    "KFAN1003"
   ], 
   "created_at": "Sun Mar 23 15:50:35 +0000 2014", 
   "retweet_count": 11, 
   "favorite_count": 31
  }, 
  {
   "text": "Back at it tonight on @NBCSN as #mnwild visists #redwings at 6:30 p.m. Listen on @KFAN1003. http://t.co/GKWi3y8vNM", 
   "label": "O", 
   "id": 447738322014973952, 
   "hashtags": [
    "mnwild", 
    "redwings"
   ], 
   "user_mentions": [
    "NBCSN", 
    "KFAN1003"
   ], 
   "created_at": "Sun Mar 23 14:15:09 +0000 2014", 
   "retweet_count": 21, 
   "favorite_count": 63
  }, 
  {
   "text": "#mnwild has recalled @JonBlum7 and Stephane Veilleux from @IAWild", 
   "label": "O", 
   "id": 447735495695413248, 
   "hashtags": [
    "mnwild"
   ], 
   "user_mentions": [
    "JonBlum7", 
    "IAWild"
   ], 
   "created_at": "Sun Mar 23 14:03:55 +0000 2014", 
   "retweet_count": 13, 
   "favorite_count": 33
  }
 ]
}