{
 "num_road_team_goals": "7", 
 "home_team": "Minnesota Wild", 
 "num_home_team_goals": "3", 
 "summary_url": "http://www.flyershistory.com/cgi-bin/poboxscore.cgi?H20131227", 
 "result": "L", 
 "road_team": "Nashville Predators", 
 "date": "2014-04-13", 
 "goals": [
  {
   "season_index": "6", 
   "strength": "(EV)", 
   "time": "5:13", 
   "period": "1", 
   "player": "E.Haula", 
   "assists": "(J.Pominville, J.Spurgeon)", 
   "game_index": "1", 
   "team": "MIN"
  }, 
  {
   "season_index": "30", 
   "strength": "(EV)", 
   "time": "12:13", 
   "period": "1", 
   "player": "J.Pominville", 
   "assists": "(M.Moulson, E.Haula)", 
   "game_index": "2", 
   "team": "MIN"
  }, 
  {
   "season_index": "3", 
   "strength": "(EV)", 
   "time": "14:57", 
   "period": "1", 
   "player": "R.Clune", 
   "assists": "(P.Gaustad)", 
   "game_index": "3", 
   "team": "NSH"
  }, 
  {
   "season_index": "29", 
   "strength": "(PP)", 
   "time": "2:10", 
   "period": "2", 
   "player": "Z.Parise", 
   "assists": "(M.Koivu, J.Pominville)", 
   "game_index": "4", 
   "team": "MIN"
  }, 
  {
   "season_index": "6", 
   "strength": "(EV)", 
   "time": "4:57", 
   "period": "2", 
   "player": "R.Ellis", 
   "assists": "(M.Ekholm, C.Smith)", 
   "game_index": "5", 
   "team": "NSH"
  }, 
  {
   "season_index": "23", 
   "strength": "(PP)", 
   "time": "6:22", 
   "period": "2", 
   "player": "S.Weber", 
   "assists": "(P.Hornqvist)", 
   "game_index": "6", 
   "team": "NSH"
  }, 
  {
   "season_index": "13", 
   "strength": "(EV)", 
   "time": "6:57", 
   "period": "2", 
   "player": "R.Josi", 
   "assists": "(C.Jarnkrok, N.Spaling)", 
   "game_index": "7", 
   "team": "NSH"
  }, 
  {
   "season_index": "23", 
   "strength": "(EV)", 
   "time": "14:53", 
   "period": "2", 
   "player": "C.Smith", 
   "assists": "(R.Josi, C.Wilson)", 
   "game_index": "8", 
   "team": "NSH"
  }, 
  {
   "season_index": "2", 
   "strength": "(EV)", 
   "time": "11:50", 
   "period": "3", 
   "player": "C.Jarnkrok", 
   "assists": "(C.Smith, R.Ellis)", 
   "game_index": "9", 
   "team": "NSH"
  }, 
  {
   "season_index": "24", 
   "strength": "(PP)", 
   "time": "15:41", 
   "period": "3", 
   "player": "C.Smith", 
   "assists": "(N.Spaling, C.Jarnkrok)", 
   "game_index": "10", 
   "team": "NSH"
  }
 ], 
 "tweets": [
  {
   "text": "How do #mnwild and #avs match up? Check out our Tale of the Tape series preview. #itsplayoffseason http://t.co/Zt0TDmYp5I", 
   "label": "O", 
   "id": 455551528817139713, 
   "hashtags": [
    "mnwild", 
    "avs", 
    "itsplayoffseason"
   ], 
   "user_mentions": [], 
   "created_at": "Mon Apr 14 03:42:02 +0000 2014", 
   "retweet_count": 99, 
   "favorite_count": 93
  }, 
  {
   "text": "Key to #mnwild 98-point season? How about the \"Quintessential Goalies\" collection. #NHL #itsplayoffseason http://t.co/yGxDk3l2Cj", 
   "label": "O", 
   "id": 455544448055668736, 
   "hashtags": [
    "mnwild", 
    "NHL", 
    "itsplayoffseason"
   ], 
   "user_mentions": [], 
   "created_at": "Mon Apr 14 03:13:54 +0000 2014", 
   "retweet_count": 87, 
   "favorite_count": 126
  }, 
  {
   "text": "The 5 Hole from the regular-season finale - http://t.co/t1RYgwx4In. #preds top #mnwild 7-3 http://t.co/V1TKgEqtl9", 
   "label": "O", 
   "id": 455542502314237952, 
   "hashtags": [
    "preds", 
    "mnwild"
   ], 
   "user_mentions": [], 
   "created_at": "Mon Apr 14 03:06:10 +0000 2014", 
   "retweet_count": 2, 
   "favorite_count": 25
  }, 
  {
   "text": "WATCH - Congrats to Jason Pominville, winner of @cokezero 3 #mnwild Three Star Award - http://t.co/9JCG7GUi3G", 
   "label": "O", 
   "id": 455540605318606848, 
   "hashtags": [
    "mnwild"
   ], 
   "user_mentions": [
    "CokeZero"
   ], 
   "created_at": "Mon Apr 14 02:58:38 +0000 2014", 
   "retweet_count": 7, 
   "favorite_count": 41
  }, 
  {
   "text": "#preds take regular-season finale from #mnwild 7-3. Playoff preview and much more in coming days from Wild digital http://t.co/m3uiAkuVcL", 
   "label": "O", 
   "id": 455536121712480256, 
   "hashtags": [
    "preds", 
    "mnwild"
   ], 
   "user_mentions": [], 
   "created_at": "Mon Apr 14 02:40:49 +0000 2014", 
   "retweet_count": 14, 
   "favorite_count": 28
  }, 
  {
   "text": "PPG for Smith, 7-3, 4:19 left", 
   "label": "O", 
   "id": 455534678876127232, 
   "hashtags": [], 
   "user_mentions": [], 
   "created_at": "Mon Apr 14 02:35:05 +0000 2014", 
   "retweet_count": 2, 
   "favorite_count": 18
  }, 
  {
   "text": "Preds make it 6-3 past midway point of 3rd", 
   "label": "O", 
   "id": 455532558600531969, 
   "hashtags": [], 
   "user_mentions": [], 
   "created_at": "Mon Apr 14 02:26:40 +0000 2014", 
   "retweet_count": 3, 
   "favorite_count": 15
  }, 
  {
   "text": "Curry in net to begin the 3rd for #mnwild", 
   "label": "O", 
   "id": 455527062246555648, 
   "hashtags": [
    "mnwild"
   ], 
   "user_mentions": [], 
   "created_at": "Mon Apr 14 02:04:49 +0000 2014", 
   "retweet_count": 14, 
   "favorite_count": 66
  }, 
  {
   "text": "Congratulations to #mnwild goalie, Josh Harding, on being the @NHL season-end leader in GAA and SV%. http://t.co/09JF73cjgM", 
   "label": "O", 
   "id": 455525155625005056, 
   "hashtags": [
    "mnwild"
   ], 
   "user_mentions": [
    "NHL"
   ], 
   "created_at": "Mon Apr 14 01:57:15 +0000 2014", 
   "retweet_count": 244, 
   "favorite_count": 372
  }, 
  {
   "text": "Second period comes to a close. Preds up 5-3.", 
   "label": "O", 
   "id": 455522759662391296, 
   "hashtags": [], 
   "user_mentions": [], 
   "created_at": "Mon Apr 14 01:47:43 +0000 2014", 
   "retweet_count": 3, 
   "favorite_count": 19
  }, 
  {
   "text": "#Preds go up 5-3 with 5:07 left in the 2nd. #mnwild", 
   "label": "O", 
   "id": 455520650443370496, 
   "hashtags": [
    "Preds", 
    "mnwild"
   ], 
   "user_mentions": [], 
   "created_at": "Mon Apr 14 01:39:20 +0000 2014", 
   "retweet_count": 4, 
   "favorite_count": 16
  }, 
  {
   "text": "#preds take 4-3 lead, Josi. We're nearing midway point of the 2nd", 
   "label": "O", 
   "id": 455516222910894080, 
   "hashtags": [
    "preds"
   ], 
   "user_mentions": [], 
   "created_at": "Mon Apr 14 01:21:45 +0000 2014", 
   "retweet_count": 3, 
   "favorite_count": 11
  }, 
  {
   "text": "Shea Weber PPG evens it up 3-3", 
   "label": "O", 
   "id": 455515075559030784, 
   "hashtags": [], 
   "user_mentions": [], 
   "created_at": "Mon Apr 14 01:17:11 +0000 2014", 
   "retweet_count": 6, 
   "favorite_count": 19
  }, 
  {
   "text": "Ryan Ellis with a howitzer from the point for a goal, #preds within 3-2, 15:03 left in 2nd. #mnwild", 
   "label": "O", 
   "id": 455514387277946880, 
   "hashtags": [
    "preds", 
    "mnwild"
   ], 
   "user_mentions": [], 
   "created_at": "Mon Apr 14 01:14:27 +0000 2014", 
   "retweet_count": 2, 
   "favorite_count": 12
  }, 
  {
   "text": "Pommer with the 2nd assist, he's got 3 points (1-2=3) through 2 periods. Pommer reaches 60 points for #mnwild", 
   "label": "O", 
   "id": 455513567568359424, 
   "hashtags": [
    "mnwild"
   ], 
   "user_mentions": [], 
   "created_at": "Mon Apr 14 01:11:12 +0000 2014", 
   "retweet_count": 10, 
   "favorite_count": 41
  }, 
  {
   "text": "PARISE from Koivu, what an incredible passing play. PPG, #mnwild up 3-1 on Parise's 29th of the season", 
   "label": "O", 
   "id": 455513257303097344, 
   "hashtags": [
    "mnwild"
   ], 
   "user_mentions": [], 
   "created_at": "Mon Apr 14 01:09:58 +0000 2014", 
   "retweet_count": 40, 
   "favorite_count": 106
  }, 
  {
   "text": "#mnwild and #preds have dropped the puck on the 2nd period. Wild up 2-1. 40 minutes until #itsplayoffseason", 
   "label": "O", 
   "id": 455512530417623040, 
   "hashtags": [
    "mnwild", 
    "preds", 
    "itsplayoffseason"
   ], 
   "user_mentions": [], 
   "created_at": "Mon Apr 14 01:07:04 +0000 2014", 
   "retweet_count": 8, 
   "favorite_count": 26
  }, 
  {
   "text": "ICYMI: #mnwild plays #avs in First Round of Stanley Cup Playoffs. Schedule: http://t.co/cBXTw7OQ5d #itsplayoffseason http://t.co/atiXeoDTyA", 
   "label": "O", 
   "id": 455507920516833281, 
   "hashtags": [
    "mnwild", 
    "avs", 
    "itsplayoffseason"
   ], 
   "user_mentions": [], 
   "created_at": "Mon Apr 14 00:48:45 +0000 2014", 
   "retweet_count": 108, 
   "favorite_count": 98
  }, 
  {
   "text": "#mnwild up 2-1 through 1", 
   "label": "O", 
   "id": 455507873406414848, 
   "hashtags": [
    "mnwild"
   ], 
   "user_mentions": [], 
   "created_at": "Mon Apr 14 00:48:34 +0000 2014", 
   "retweet_count": 19, 
   "favorite_count": 66
  }, 
  {
   "text": "No goal there for Parise on a tip, puck went off Hutton, then the far post. Still 2-1 #mnwild, 4:10 left in 1st", 
   "label": "O", 
   "id": 455506134942900225, 
   "hashtags": [
    "mnwild"
   ], 
   "user_mentions": [], 
   "created_at": "Mon Apr 14 00:41:40 +0000 2014", 
   "retweet_count": 8, 
   "favorite_count": 21
  }, 
  {
   "text": "WATCH - Haula's 6th: http://t.co/uT0P3kfhjw; Pommer's 30th: http://t.co/MxeKOpwqVU #mnwild", 
   "label": "O", 
   "id": 455505424792698880, 
   "hashtags": [
    "mnwild"
   ], 
   "user_mentions": [], 
   "created_at": "Mon Apr 14 00:38:50 +0000 2014", 
   "retweet_count": 8, 
   "favorite_count": 27
  }, 
  {
   "text": "Congrats to @purplelady816, @trishwise and @ztschwartz, F&amp;B/merch gift card winners for #mnwildsocial suite. We'll be down at intermission", 
   "label": "O", 
   "id": 455505174728286208, 
   "hashtags": [
    "mnwildsocial"
   ], 
   "user_mentions": [
    "purplelady816", 
    "trishwise", 
    "ztschwartz"
   ], 
   "created_at": "Mon Apr 14 00:37:51 +0000 2014", 
   "retweet_count": 4, 
   "favorite_count": 12
  }, 
  {
   "text": "Rich Clune gets #preds within 2-1. Bryz tried to go into the corner to play the puck and lost an edge. Empty-netter for Clune", 
   "label": "O", 
   "id": 455504823400812544, 
   "hashtags": [
    "preds"
   ], 
   "user_mentions": [], 
   "created_at": "Mon Apr 14 00:36:27 +0000 2014", 
   "retweet_count": 8, 
   "favorite_count": 13
  }, 
  {
   "text": "RT @mnwildPR: Jason Pominville nets his 30th goal of the season, becoming the 3rd player in #mnwild history to hit the mark - Gaborik (5x),\u2026", 
   "label": "O", 
   "id": 455503661033340928, 
   "hashtags": [
    "mnwild"
   ], 
   "user_mentions": [
    "mnwildPR"
   ], 
   "created_at": "Mon Apr 14 00:31:50 +0000 2014", 
   "retweet_count": 55, 
   "favorite_count": 0
  }, 
  {
   "text": "Pommer hits 30-goal mark! #mnwild up 2-0. Assisted by @MMoulson and Haula", 
   "label": "O", 
   "id": 455503604015583232, 
   "hashtags": [
    "mnwild"
   ], 
   "user_mentions": [
    "MMoulson"
   ], 
   "created_at": "Mon Apr 14 00:31:36 +0000 2014", 
   "retweet_count": 42, 
   "favorite_count": 107
  }, 
  {
   "text": "Haula with an off-balanced backhander, and #mnwild leads 1-0 before our 1st timeout. 6th goal of season for the Finnesotan", 
   "label": "O", 
   "id": 455499903389945856, 
   "hashtags": [
    "mnwild"
   ], 
   "user_mentions": [], 
   "created_at": "Mon Apr 14 00:16:54 +0000 2014", 
   "retweet_count": 40, 
   "favorite_count": 98
  }, 
  {
   "text": "Don't forget, if you're in #mnwildsocial suite, tweet because we've got some gift cards to give away at intermission! #mnwild", 
   "label": "O", 
   "id": 455499163007201280, 
   "hashtags": [
    "mnwildsocial", 
    "mnwild"
   ], 
   "user_mentions": [], 
   "created_at": "Mon Apr 14 00:13:57 +0000 2014", 
   "retweet_count": 0, 
   "favorite_count": 11
  }, 
  {
   "text": "UNDERWAY! #mnwild and #preds at @XcelEnergyCtr on @FSNorth @KFAN1003", 
   "label": "O", 
   "id": 455497914572623873, 
   "hashtags": [
    "mnwild", 
    "preds"
   ], 
   "user_mentions": [
    "XcelEnergyCtr", 
    "fsnorth", 
    "KFAN1003"
   ], 
   "created_at": "Mon Apr 14 00:09:00 +0000 2014", 
   "retweet_count": 9, 
   "favorite_count": 39
  }, 
  {
   "text": "@blaker916 #mnwild game, then homework", 
   "label": "O", 
   "id": 455497272894447616, 
   "hashtags": [
    "mnwild"
   ], 
   "user_mentions": [
    "blaker916"
   ], 
   "created_at": "Mon Apr 14 00:06:27 +0000 2014", 
   "retweet_count": 0, 
   "favorite_count": 6
  }, 
  {
   "text": "@1labare they're fixing on http://t.co/0btCliyeSe. Our graphic is right", 
   "label": "O", 
   "id": 455496334943219712, 
   "hashtags": [], 
   "user_mentions": [
    "1labare"
   ], 
   "created_at": "Mon Apr 14 00:02:43 +0000 2014", 
   "retweet_count": 0, 
   "favorite_count": 1
  }, 
  {
   "text": "BREAKING: #mnwild #avs First Rd. schedule is out. Begins Thursday in Denver: http://t.co/2717l0ueOj #itsplayoffseason http://t.co/arbHjYYIl6", 
   "label": "O", 
   "id": 455493457231216640, 
   "hashtags": [
    "mnwild", 
    "avs", 
    "itsplayoffseason"
   ], 
   "user_mentions": [], 
   "created_at": "Sun Apr 13 23:51:17 +0000 2014", 
   "retweet_count": 438, 
   "favorite_count": 268
  }, 
  {
   "text": "If you're lucky enough to be in #mnwildsocial suite, be sure to use the hashtag. We will give away F&amp;B/merch gift cards at intermission", 
   "label": "O", 
   "id": 455482797512069121, 
   "hashtags": [
    "mnwildsocial"
   ], 
   "user_mentions": [], 
   "created_at": "Sun Apr 13 23:08:56 +0000 2014", 
   "retweet_count": 0, 
   "favorite_count": 15
  }, 
  {
   "text": "View from tonight's #mnwildsocial suite. Congrats to all winners and enjoy the game! #mnwild http://t.co/dA7V0YkMqX", 
   "label": "O", 
   "id": 455479695576813568, 
   "hashtags": [
    "mnwildsocial", 
    "mnwild"
   ], 
   "user_mentions": [], 
   "created_at": "Sun Apr 13 22:56:36 +0000 2014", 
   "retweet_count": 7, 
   "favorite_count": 67
  }, 
  {
   "text": "@pork_chop hook up to the @ATT wi-fi here and you'll have no problems!", 
   "label": "O", 
   "id": 455458332263063552, 
   "hashtags": [], 
   "user_mentions": [
    "pork_chop", 
    "ATT"
   ], 
   "created_at": "Sun Apr 13 21:31:43 +0000 2014", 
   "retweet_count": 0, 
   "favorite_count": 1
  }, 
  {
   "text": "Members of @ChildrensMN #mnwild Kids Club had exclusive practice invite this morning http://t.co/M5vx12MK9f", 
   "label": "O", 
   "id": 455457826820075521, 
   "hashtags": [
    "mnwild"
   ], 
   "user_mentions": [
    "ChildrensMN"
   ], 
   "created_at": "Sun Apr 13 21:29:42 +0000 2014", 
   "retweet_count": 6, 
   "favorite_count": 35
  }, 
  {
   "text": ".@Avalanche just realized you guys are not following us. Is this a new development? #awkward", 
   "label": "O", 
   "id": 455453995990282240, 
   "hashtags": [
    "awkward"
   ], 
   "user_mentions": [
    "Avalanche"
   ], 
   "created_at": "Sun Apr 13 21:14:29 +0000 2014", 
   "retweet_count": 252, 
   "favorite_count": 399
  }, 
  {
   "text": "@Courtney_ARC03 he is out tonight", 
   "label": "O", 
   "id": 455453366127427584, 
   "hashtags": [], 
   "user_mentions": [
    "Courtney_ARC03"
   ], 
   "created_at": "Sun Apr 13 21:11:59 +0000 2014", 
   "retweet_count": 1, 
   "favorite_count": 2
  }, 
  {
   "text": "#mnwild fans - arrive early, Wild Happy Hour starts near Lighthouse on top of box office at 5pm - $3 Bud/Bud Light/Mich Golden Light", 
   "label": "O", 
   "id": 455427940374040576, 
   "hashtags": [
    "mnwild"
   ], 
   "user_mentions": [], 
   "created_at": "Sun Apr 13 19:30:57 +0000 2014", 
   "retweet_count": 5, 
   "favorite_count": 20
  }, 
  {
   "text": "@JacobRHughes1 we tweeted it a few hours ago", 
   "label": "O", 
   "id": 455424812958371840, 
   "hashtags": [], 
   "user_mentions": [
    "JacobRHughes1"
   ], 
   "created_at": "Sun Apr 13 19:18:31 +0000 2014", 
   "retweet_count": 0, 
   "favorite_count": 1
  }, 
  {
   "text": "#mnwild to face #avs in Round 1 of Stanley Cup Playoffs! Schedule expected to come later tonight http://t.co/dRR314JZYw", 
   "label": "O", 
   "id": 455419527661355008, 
   "hashtags": [
    "mnwild", 
    "avs"
   ], 
   "user_mentions": [], 
   "created_at": "Sun Apr 13 18:57:31 +0000 2014", 
   "retweet_count": 308, 
   "favorite_count": 240
  }, 
  {
   "text": "WATCH on WildTV - Mike Yeo previews #mnwild regular season finale: http://t.co/uW2f3O24N8", 
   "label": "O", 
   "id": 455415248988930048, 
   "hashtags": [
    "mnwild"
   ], 
   "user_mentions": [], 
   "created_at": "Sun Apr 13 18:40:31 +0000 2014", 
   "retweet_count": 0, 
   "favorite_count": 11
  }, 
  {
   "text": "#mnwild closes out the regular season tonight at @XcelEnergyCtr. Get ready with the preview: http://t.co/WUP9XpU7KE http://t.co/UQIryUmLqQ", 
   "label": "O", 
   "id": 455391539590868994, 
   "hashtags": [
    "mnwild"
   ], 
   "user_mentions": [
    "XcelEnergyCtr"
   ], 
   "created_at": "Sun Apr 13 17:06:18 +0000 2014", 
   "retweet_count": 16, 
   "favorite_count": 71
  }, 
  {
   "text": "Congrats to @Irish_Ghoul - our #mnwild ticket winner for tonight. #itsplayoffseason", 
   "label": "O", 
   "id": 455390049274961920, 
   "hashtags": [
    "mnwild", 
    "itsplayoffseason"
   ], 
   "user_mentions": [
    "Irish_Ghoul"
   ], 
   "created_at": "Sun Apr 13 17:00:23 +0000 2014", 
   "retweet_count": 5, 
   "favorite_count": 18
  }, 
  {
   "text": "Yeo will put @thelnino25 at center tonight with Brodziak out with minor discomfort. Same with Heatley. Bryz starts. #mnwild may play 7 D", 
   "label": "O", 
   "id": 455383760918155264, 
   "hashtags": [
    "mnwild"
   ], 
   "user_mentions": [
    "thelnino25"
   ], 
   "created_at": "Sun Apr 13 16:35:23 +0000 2014", 
   "retweet_count": 12, 
   "favorite_count": 38
  }, 
  {
   "text": ".@childrensMN Kids Club! MT @kmerten You could say my nephew is a little excited to watch @mnwild today! #mnwild http://t.co/O5WeiCAe1w", 
   "label": "O", 
   "id": 455373111987535873, 
   "hashtags": [
    "mnwild"
   ], 
   "user_mentions": [
    "ChildrensMN", 
    "kmerten", 
    "mnwild"
   ], 
   "created_at": "Sun Apr 13 15:53:04 +0000 2014", 
   "retweet_count": 8, 
   "favorite_count": 68
  }, 
  {
   "text": "@mike05tc no, the poster giveaway is exclusively for fans at the game", 
   "label": "O", 
   "id": 455369094859350016, 
   "hashtags": [], 
   "user_mentions": [
    "mike05tc"
   ], 
   "created_at": "Sun Apr 13 15:37:07 +0000 2014", 
   "retweet_count": 0, 
   "favorite_count": 1
  }, 
  {
   "text": "#mnwild on ice for morning skate - Wild Kids Club presented by @ChildrensMN in attendance to watch http://t.co/odfx3YOcvh", 
   "label": "O", 
   "id": 455368725462798337, 
   "hashtags": [
    "mnwild"
   ], 
   "user_mentions": [
    "ChildrensMN"
   ], 
   "created_at": "Sun Apr 13 15:35:39 +0000 2014", 
   "retweet_count": 6, 
   "favorite_count": 51
  }, 
  {
   "text": "@Ameer_E25 check our tweet from 20 minutes ago, we explained it all", 
   "label": "O", 
   "id": 455368249124085760, 
   "hashtags": [], 
   "user_mentions": [
    "Ameer_E25"
   ], 
   "created_at": "Sun Apr 13 15:33:45 +0000 2014", 
   "retweet_count": 0, 
   "favorite_count": 1
  }, 
  {
   "text": "@Acehawk74 no, just available for fans at the game", 
   "label": "O", 
   "id": 455367360925663233, 
   "hashtags": [], 
   "user_mentions": [
    "Acehawk74"
   ], 
   "created_at": "Sun Apr 13 15:30:13 +0000 2014", 
   "retweet_count": 0, 
   "favorite_count": 2
  }, 
  {
   "text": "@Cavedurtis no, there is no possible scenario left where #mnwild plays the Ducks, who hold all tiebreakers", 
   "label": "O", 
   "id": 455367217543413760, 
   "hashtags": [
    "mnwild"
   ], 
   "user_mentions": [
    "Cavedurtis"
   ], 
   "created_at": "Sun Apr 13 15:29:39 +0000 2014", 
   "retweet_count": 0, 
   "favorite_count": 2
  }, 
  {
   "text": "Free poster (@Arbys) to all fans @ tonight's game- 7pm vs. Preds. #mnwild looking for 100 pts: http://t.co/prej8VBFss http://t.co/DlvYgjwsPu", 
   "label": "O", 
   "id": 455367105840689153, 
   "hashtags": [
    "mnwild"
   ], 
   "user_mentions": [
    "Arbys"
   ], 
   "created_at": "Sun Apr 13 15:29:13 +0000 2014", 
   "retweet_count": 26, 
   "favorite_count": 95
  }, 
  {
   "text": "Scenarios, per @PR_NHL. #mnwild will play Central champ, either COL or STL http://t.co/ATWXFguOKM", 
   "label": "O", 
   "id": 455363806009360384, 
   "hashtags": [
    "mnwild"
   ], 
   "user_mentions": [
    "PR_NHL"
   ], 
   "created_at": "Sun Apr 13 15:16:06 +0000 2014", 
   "retweet_count": 50, 
   "favorite_count": 45
  }, 
  {
   "text": "Want 2 #mnwild tix tonight? Use #itsplayoffseason to tell us what you're most looking forward to this post-season. We'll pick winner @ noon", 
   "label": "O", 
   "id": 455341015281721344, 
   "hashtags": [
    "mnwild", 
    "itsplayoffseason"
   ], 
   "user_mentions": [], 
   "created_at": "Sun Apr 13 13:45:32 +0000 2014", 
   "retweet_count": 16, 
   "favorite_count": 66
  }
 ]
}