{
 "num_road_team_goals": "1", 
 "home_team": "Los Angeles Kings", 
 "num_home_team_goals": "3", 
 "summary_url": "http://www.flyershistory.com/cgi-bin/poboxscore.cgi?H20130908", 
 "result": "W", 
 "road_team": "Carolina Hurricanes", 
 "date": "2014-03-01", 
 "goals": [
  {
   "season_index": "8", 
   "strength": "(EV)", 
   "time": "19:04", 
   "period": "1", 
   "player": "M.Richards", 
   "assists": "(R.Regehr)", 
   "game_index": "1", 
   "team": "L.A"
  }, 
  {
   "season_index": "10", 
   "strength": "(EV)", 
   "time": "19:45", 
   "period": "1", 
   "player": "A.Sekera", 
   "assists": "(R.Nash, P.Dwyer)", 
   "game_index": "2", 
   "team": "CAR"
  }, 
  {
   "season_index": "5", 
   "strength": "(PP)", 
   "time": "8:15", 
   "period": "3", 
   "player": "A.Martinez", 
   "assists": "(D.Brown, J.Williams)", 
   "game_index": "3", 
   "team": "L.A"
  }, 
  {
   "season_index": "16", 
   "strength": "(EV-EN)", 
   "time": "18:59", 
   "period": "3", 
   "player": "J.Williams", 
   "assists": "(A.Kopitar, T.Lewis)", 
   "game_index": "4", 
   "team": "L.A"
  }
 ], 
 "tweets": [
  {
   "text": "RT @LAKingsIceCrew: We loved todays @LAKings win &amp; now we get to finish the day @ the 6th Annual #TasteOfTheSouthBay in Manhattan Beach! ht\u2026", 
   "label": "O", 
   "id": 439959168439447552, 
   "hashtags": [
    "TasteOfTheSouthBay"
   ], 
   "user_mentions": [
    "LAKingsIceCrew", 
    "LAKings"
   ], 
   "created_at": "Sun Mar 02 03:03:34 +0000 2014", 
   "retweet_count": 24, 
   "favorite_count": 0
  }, 
  {
   "text": "@AshWagner2010 you're always welcome! We're gonna go ahead and give you the 1st star of the game.", 
   "label": "O", 
   "id": 439926749246144512, 
   "hashtags": [], 
   "user_mentions": [
    "AshWagner2010"
   ], 
   "created_at": "Sun Mar 02 00:54:45 +0000 2014", 
   "retweet_count": 2, 
   "favorite_count": 12
  }, 
  {
   "text": "RT @KingsVision: INTERVIEW: Head Coach Sutter of the @LAKings spoke with the media following the game against the @NHLCanes on 3/1/14. http\u2026", 
   "label": "O", 
   "id": 439922677147398144, 
   "hashtags": [], 
   "user_mentions": [
    "KingsVision", 
    "LAKings", 
    "NHLCanes"
   ], 
   "created_at": "Sun Mar 02 00:38:34 +0000 2014", 
   "retweet_count": 10, 
   "favorite_count": 0
  }, 
  {
   "text": "We won! RECAP: http://t.co/15DBxQYthX http://t.co/o0USHhRBdN", 
   "label": "O", 
   "id": 439915121994133504, 
   "hashtags": [], 
   "user_mentions": [], 
   "created_at": "Sun Mar 02 00:08:32 +0000 2014", 
   "retweet_count": 102, 
   "favorite_count": 175
  }, 
  {
   "text": "RT @theroyalhalf: Hey LA Tweeps\u2026 be careful out there today. And make sure you use your windshield wipers. http://t.co/plmXry7nHB", 
   "label": "O", 
   "id": 439914205165420546, 
   "hashtags": [], 
   "user_mentions": [
    "theroyalhalf"
   ], 
   "created_at": "Sun Mar 02 00:04:54 +0000 2014", 
   "retweet_count": 8, 
   "favorite_count": 0
  }, 
  {
   "text": "Tweets Of The Game: #Streaking : http://t.co/77jw4FHc1X", 
   "label": "O", 
   "id": 439910739705614336, 
   "hashtags": [
    "Streaking"
   ], 
   "user_mentions": [], 
   "created_at": "Sat Mar 01 23:51:08 +0000 2014", 
   "retweet_count": 10, 
   "favorite_count": 21
  }, 
  {
   "text": "RT @KingsVision: HIGHLIGHT: Jonathan Quick makes a fantastic splits save to keep Carolina out of the net and keep the @LAKings lead. http:/\u2026", 
   "label": "O", 
   "id": 439907766627729408, 
   "hashtags": [], 
   "user_mentions": [
    "KingsVision", 
    "LAKings"
   ], 
   "created_at": "Sat Mar 01 23:39:19 +0000 2014", 
   "retweet_count": 32, 
   "favorite_count": 0
  }, 
  {
   "text": "empty net goal for Williams. This one is over baby. That's 4 in a row for the #LAKings", 
   "label": "O", 
   "id": 439906932724613121, 
   "hashtags": [
    "LAKings"
   ], 
   "user_mentions": [], 
   "created_at": "Sat Mar 01 23:36:00 +0000 2014", 
   "retweet_count": 229, 
   "favorite_count": 242
  }, 
  {
   "text": "@parenteau15 true", 
   "label": "O", 
   "id": 439906698766352384, 
   "hashtags": [], 
   "user_mentions": [
    "parenteau15"
   ], 
   "created_at": "Sat Mar 01 23:35:04 +0000 2014", 
   "retweet_count": 1, 
   "favorite_count": 2
  }, 
  {
   "text": "@zdeYES who's that", 
   "label": "O", 
   "id": 439903990227415040, 
   "hashtags": [], 
   "user_mentions": [
    "zdeYES"
   ], 
   "created_at": "Sat Mar 01 23:24:18 +0000 2014", 
   "retweet_count": 5, 
   "favorite_count": 11
  }, 
  {
   "text": "@hOcKeYmAn617 to score power play goals", 
   "label": "O", 
   "id": 439903294669205504, 
   "hashtags": [], 
   "user_mentions": [
    "hOcKeYmAn617"
   ], 
   "created_at": "Sat Mar 01 23:21:33 +0000 2014", 
   "retweet_count": 1, 
   "favorite_count": 2
  }, 
  {
   "text": "Martinez winds up! GIF: http://t.co/tFofANbJNK", 
   "label": "O", 
   "id": 439902736369594368, 
   "hashtags": [], 
   "user_mentions": [], 
   "created_at": "Sat Mar 01 23:19:20 +0000 2014", 
   "retweet_count": 23, 
   "favorite_count": 56
  }, 
  {
   "text": "6th times a charmer. A power play goal!", 
   "label": "O", 
   "id": 439900912912703488, 
   "hashtags": [], 
   "user_mentions": [], 
   "created_at": "Sat Mar 01 23:12:05 +0000 2014", 
   "retweet_count": 70, 
   "favorite_count": 137
  }, 
  {
   "text": "@Jeffkurk we aren't very reliable", 
   "label": "O", 
   "id": 439900132268834816, 
   "hashtags": [], 
   "user_mentions": [
    "Jeffkurk"
   ], 
   "created_at": "Sat Mar 01 23:08:59 +0000 2014", 
   "retweet_count": 1, 
   "favorite_count": 3
  }, 
  {
   "text": "@loveforthree leafs", 
   "label": "O", 
   "id": 439900078653050880, 
   "hashtags": [], 
   "user_mentions": [
    "loveforthree"
   ], 
   "created_at": "Sat Mar 01 23:08:46 +0000 2014", 
   "retweet_count": 54, 
   "favorite_count": 43
  }, 
  {
   "text": "@Siouxforever5 no opinion.", 
   "label": "O", 
   "id": 439899862864117760, 
   "hashtags": [], 
   "user_mentions": [
    "Siouxforever5"
   ], 
   "created_at": "Sat Mar 01 23:07:54 +0000 2014", 
   "retweet_count": 0, 
   "favorite_count": 0
  }, 
  {
   "text": "@mrsbschenn deal", 
   "label": "O", 
   "id": 439899753829400576, 
   "hashtags": [], 
   "user_mentions": [
    "mrsbschenn"
   ], 
   "created_at": "Sat Mar 01 23:07:28 +0000 2014", 
   "retweet_count": 1, 
   "favorite_count": 1
  }, 
  {
   "text": "@_EazyG sure!", 
   "label": "O", 
   "id": 439899633578684417, 
   "hashtags": [], 
   "user_mentions": [
    "_EazyG"
   ], 
   "created_at": "Sat Mar 01 23:07:00 +0000 2014", 
   "retweet_count": 1, 
   "favorite_count": 5
  }, 
  {
   "text": "@mrsbschenn if you buy dinner", 
   "label": "O", 
   "id": 439899525356871680, 
   "hashtags": [], 
   "user_mentions": [
    "mrsbschenn"
   ], 
   "created_at": "Sat Mar 01 23:06:34 +0000 2014", 
   "retweet_count": 0, 
   "favorite_count": 3
  }, 
  {
   "text": "@Siouxforever5 twitter accounts can't make trades... yet", 
   "label": "O", 
   "id": 439899427382493184, 
   "hashtags": [], 
   "user_mentions": [
    "Siouxforever5"
   ], 
   "created_at": "Sat Mar 01 23:06:11 +0000 2014", 
   "retweet_count": 2, 
   "favorite_count": 7
  }, 
  {
   "text": "It feels good to have @DieterRuehle back on the keys at @STAPLESCenter.", 
   "label": "O", 
   "id": 439899283945713665, 
   "hashtags": [], 
   "user_mentions": [
    "DieterRuehle", 
    "STAPLESCenter"
   ], 
   "created_at": "Sat Mar 01 23:05:36 +0000 2014", 
   "retweet_count": 11, 
   "favorite_count": 50
  }, 
  {
   "text": "@LeafsBeauty hi!", 
   "label": "O", 
   "id": 439899179423240193, 
   "hashtags": [], 
   "user_mentions": [
    "LeafsBeauty"
   ], 
   "created_at": "Sat Mar 01 23:05:11 +0000 2014", 
   "retweet_count": 0, 
   "favorite_count": 0
  }, 
  {
   "text": "@RobMullen1728 who hasent", 
   "label": "O", 
   "id": 439899089548095488, 
   "hashtags": [], 
   "user_mentions": [
    "RobMullen1728"
   ], 
   "created_at": "Sat Mar 01 23:04:50 +0000 2014", 
   "retweet_count": 2, 
   "favorite_count": 4
  }, 
  {
   "text": "@WSHCaps_Fan96 think so", 
   "label": "O", 
   "id": 439899025748525056, 
   "hashtags": [], 
   "user_mentions": [
    "WSHCaps_Fan96"
   ], 
   "created_at": "Sat Mar 01 23:04:35 +0000 2014", 
   "retweet_count": 0, 
   "favorite_count": 0
  }, 
  {
   "text": "@holliecrookss deep down he does", 
   "label": "O", 
   "id": 439898987769122816, 
   "hashtags": [], 
   "user_mentions": [], 
   "created_at": "Sat Mar 01 23:04:26 +0000 2014", 
   "retweet_count": 1, 
   "favorite_count": 3
  }, 
  {
   "text": "@TheAmericanBros Teemu!", 
   "label": "O", 
   "id": 439898666716106752, 
   "hashtags": [], 
   "user_mentions": [
    "TheAmericanBros"
   ], 
   "created_at": "Sat Mar 01 23:03:09 +0000 2014", 
   "retweet_count": 0, 
   "favorite_count": 0
  }, 
  {
   "text": "@nhIfIyers order pizza, watch Heavyweights", 
   "label": "O", 
   "id": 439898603545694208, 
   "hashtags": [], 
   "user_mentions": [
    "nhifiyers"
   ], 
   "created_at": "Sat Mar 01 23:02:54 +0000 2014", 
   "retweet_count": 1, 
   "favorite_count": 4
  }, 
  {
   "text": "@katiamaria92 yes please", 
   "label": "O", 
   "id": 439898441989103616, 
   "hashtags": [], 
   "user_mentions": [
    "katiamaria92"
   ], 
   "created_at": "Sat Mar 01 23:02:16 +0000 2014", 
   "retweet_count": 0, 
   "favorite_count": 0
  }, 
  {
   "text": "@ElijahQuesada sure!", 
   "label": "O", 
   "id": 439898320702808064, 
   "hashtags": [], 
   "user_mentions": [
    "ElijahQuesada"
   ], 
   "created_at": "Sat Mar 01 23:01:47 +0000 2014", 
   "retweet_count": 0, 
   "favorite_count": 0
  }, 
  {
   "text": "@AKGrinners Hawks. They always win it seems", 
   "label": "O", 
   "id": 439898290717749248, 
   "hashtags": [], 
   "user_mentions": [
    "AKGrinners"
   ], 
   "created_at": "Sat Mar 01 23:01:40 +0000 2014", 
   "retweet_count": 1, 
   "favorite_count": 1
  }, 
  {
   "text": "@kristin__54 haven't seen those in stores too much, know people will get them tailored. Would check NHL shop", 
   "label": "O", 
   "id": 439898047158697984, 
   "hashtags": [], 
   "user_mentions": [
    "kristin__54"
   ], 
   "created_at": "Sat Mar 01 23:00:42 +0000 2014", 
   "retweet_count": 0, 
   "favorite_count": 0
  }, 
  {
   "text": "@RyanDaGreat42 only with the Kings", 
   "label": "O", 
   "id": 439897856544342016, 
   "hashtags": [], 
   "user_mentions": [
    "RyanDaGreat42"
   ], 
   "created_at": "Sat Mar 01 22:59:56 +0000 2014", 
   "retweet_count": 1, 
   "favorite_count": 1
  }, 
  {
   "text": "@stephenowens_ pizza", 
   "label": "O", 
   "id": 439897812458020864, 
   "hashtags": [], 
   "user_mentions": [], 
   "created_at": "Sat Mar 01 22:59:46 +0000 2014", 
   "retweet_count": 1, 
   "favorite_count": 6
  }, 
  {
   "text": "@LauraLDuffy yes he's our favorite color", 
   "label": "O", 
   "id": 439897766387392513, 
   "hashtags": [], 
   "user_mentions": [
    "LauraLDuffy"
   ], 
   "created_at": "Sat Mar 01 22:59:35 +0000 2014", 
   "retweet_count": 0, 
   "favorite_count": 2
  }, 
  {
   "text": "@RyanDaGreat42 saffron", 
   "label": "O", 
   "id": 439897518659219456, 
   "hashtags": [], 
   "user_mentions": [
    "RyanDaGreat42"
   ], 
   "created_at": "Sat Mar 01 22:58:36 +0000 2014", 
   "retweet_count": 1, 
   "favorite_count": 1
  }, 
  {
   "text": "@brimurph24 Born to Run", 
   "label": "O", 
   "id": 439897480743108608, 
   "hashtags": [], 
   "user_mentions": [
    "brimurph24"
   ], 
   "created_at": "Sat Mar 01 22:58:26 +0000 2014", 
   "retweet_count": 1, 
   "favorite_count": 3
  }, 
  {
   "text": "@buuudsss #Lumbus", 
   "label": "O", 
   "id": 439897460153257984, 
   "hashtags": [
    "Lumbus"
   ], 
   "user_mentions": [
    "buuudsss"
   ], 
   "created_at": "Sat Mar 01 22:58:22 +0000 2014", 
   "retweet_count": 2, 
   "favorite_count": 6
  }, 
  {
   "text": "@shaekoho \"outdoor bbq\"", 
   "label": "O", 
   "id": 439897358927552512, 
   "hashtags": [], 
   "user_mentions": [
    "shaekoho"
   ], 
   "created_at": "Sat Mar 01 22:57:57 +0000 2014", 
   "retweet_count": 2, 
   "favorite_count": 4
  }, 
  {
   "text": "@LauraLDuffy obviously", 
   "label": "O", 
   "id": 439897282314768384, 
   "hashtags": [], 
   "user_mentions": [
    "LauraLDuffy"
   ], 
   "created_at": "Sat Mar 01 22:57:39 +0000 2014", 
   "retweet_count": 1, 
   "favorite_count": 4
  }, 
  {
   "text": "@yakcitybelieve like 700", 
   "label": "O", 
   "id": 439897252749135872, 
   "hashtags": [], 
   "user_mentions": [
    "yakcitybelieve"
   ], 
   "created_at": "Sat Mar 01 22:57:32 +0000 2014", 
   "retweet_count": 0, 
   "favorite_count": 3
  }, 
  {
   "text": "@savannahwong12 it's between Gravity and 12 Years; honestly not sure but would guess Gravity.", 
   "label": "O", 
   "id": 439897226996092928, 
   "hashtags": [], 
   "user_mentions": [
    "savannahwong12"
   ], 
   "created_at": "Sat Mar 01 22:57:26 +0000 2014", 
   "retweet_count": 1, 
   "favorite_count": 2
  }, 
  {
   "text": "@Gelman29 swirl", 
   "label": "O", 
   "id": 439896902327627776, 
   "hashtags": [], 
   "user_mentions": [
    "Gelman29"
   ], 
   "created_at": "Sat Mar 01 22:56:09 +0000 2014", 
   "retweet_count": 0, 
   "favorite_count": 0
  }, 
  {
   "text": "Who wins this one? Votes are all tied up at 50% each - http://t.co/mq3CgMDSvz", 
   "label": "O", 
   "id": 439896868613812225, 
   "hashtags": [], 
   "user_mentions": [], 
   "created_at": "Sat Mar 01 22:56:01 +0000 2014", 
   "retweet_count": 5, 
   "favorite_count": 12
  }, 
  {
   "text": "@ADMorrow we don't pick favorites", 
   "label": "O", 
   "id": 439896723394023424, 
   "hashtags": [], 
   "user_mentions": [
    "ADMorrow"
   ], 
   "created_at": "Sat Mar 01 22:55:26 +0000 2014", 
   "retweet_count": 0, 
   "favorite_count": 1
  }, 
  {
   "text": "@katiamaria92 what kinda sauce?", 
   "label": "O", 
   "id": 439896648890994688, 
   "hashtags": [], 
   "user_mentions": [
    "katiamaria92"
   ], 
   "created_at": "Sat Mar 01 22:55:08 +0000 2014", 
   "retweet_count": 0, 
   "favorite_count": 2
  }, 
  {
   "text": "@kristin__54 what do you mean \"womens design\"?", 
   "label": "O", 
   "id": 439896608919281664, 
   "hashtags": [], 
   "user_mentions": [
    "kristin__54"
   ], 
   "created_at": "Sat Mar 01 22:54:59 +0000 2014", 
   "retweet_count": 0, 
   "favorite_count": 1
  }, 
  {
   "text": "@LAWoman17 good luck", 
   "label": "O", 
   "id": 439896555861323776, 
   "hashtags": [], 
   "user_mentions": [], 
   "created_at": "Sat Mar 01 22:54:46 +0000 2014", 
   "retweet_count": 0, 
   "favorite_count": 0
  }, 
  {
   "text": "@LauraLDuffy brown", 
   "label": "O", 
   "id": 439896492065976320, 
   "hashtags": [], 
   "user_mentions": [
    "LauraLDuffy"
   ], 
   "created_at": "Sat Mar 01 22:54:31 +0000 2014", 
   "retweet_count": 0, 
   "favorite_count": 1
  }, 
  {
   "text": "@islesnews we have a no trade clause", 
   "label": "O", 
   "id": 439896418489098240, 
   "hashtags": [], 
   "user_mentions": [
    "islesnews"
   ], 
   "created_at": "Sat Mar 01 22:54:13 +0000 2014", 
   "retweet_count": 2, 
   "favorite_count": 5
  }, 
  {
   "text": "@JordanKaylie1 maybe if we do that one more time", 
   "label": "O", 
   "id": 439896364969754624, 
   "hashtags": [], 
   "user_mentions": [
    "JordanKaylie1"
   ], 
   "created_at": "Sat Mar 01 22:54:00 +0000 2014", 
   "retweet_count": 1, 
   "favorite_count": 1
  }, 
  {
   "text": "@meliwazhere a woman lion", 
   "label": "O", 
   "id": 439896267263836160, 
   "hashtags": [], 
   "user_mentions": [
    "meliwazhere"
   ], 
   "created_at": "Sat Mar 01 22:53:37 +0000 2014", 
   "retweet_count": 0, 
   "favorite_count": 3
  }, 
  {
   "text": "@vanessa54339971 far too many to name a favorite", 
   "label": "O", 
   "id": 439896191133032449, 
   "hashtags": [], 
   "user_mentions": [
    "vanessa54339971"
   ], 
   "created_at": "Sat Mar 01 22:53:19 +0000 2014", 
   "retweet_count": 0, 
   "favorite_count": 0
  }, 
  {
   "text": "@Pookeo9 sure!", 
   "label": "O", 
   "id": 439896078570508288, 
   "hashtags": [], 
   "user_mentions": [
    "Pookeo9"
   ], 
   "created_at": "Sat Mar 01 22:52:52 +0000 2014", 
   "retweet_count": 0, 
   "favorite_count": 1
  }, 
  {
   "text": "@SiouxsieSox definitely a bolo tie", 
   "label": "O", 
   "id": 439896014255046656, 
   "hashtags": [], 
   "user_mentions": [
    "SiouxsieSox"
   ], 
   "created_at": "Sat Mar 01 22:52:37 +0000 2014", 
   "retweet_count": 0, 
   "favorite_count": 1
  }, 
  {
   "text": "@LiveTweetingDoe 0 but that'd be amazing", 
   "label": "O", 
   "id": 439895739364569088, 
   "hashtags": [], 
   "user_mentions": [
    "LiveTweetingDoe"
   ], 
   "created_at": "Sat Mar 01 22:51:31 +0000 2014", 
   "retweet_count": 1, 
   "favorite_count": 1
  }, 
  {
   "text": "@Carey4Ever of course!", 
   "label": "O", 
   "id": 439895619189374976, 
   "hashtags": [], 
   "user_mentions": [
    "Carey4Ever"
   ], 
   "created_at": "Sat Mar 01 22:51:03 +0000 2014", 
   "retweet_count": 1, 
   "favorite_count": 3
  }, 
  {
   "text": "@SeanRohacik yes and yes", 
   "label": "O", 
   "id": 439895587723673601, 
   "hashtags": [], 
   "user_mentions": [
    "SeanRohacik"
   ], 
   "created_at": "Sat Mar 01 22:50:55 +0000 2014", 
   "retweet_count": 0, 
   "favorite_count": 0
  }, 
  {
   "text": "@shaekoho get a friend to spill sauce on their pants, all the cool kids do it.", 
   "label": "O", 
   "id": 439895497860726784, 
   "hashtags": [], 
   "user_mentions": [
    "shaekoho"
   ], 
   "created_at": "Sat Mar 01 22:50:34 +0000 2014", 
   "retweet_count": 5, 
   "favorite_count": 6
  }, 
  {
   "text": "@rvp29 #Lumbus would never leave us", 
   "label": "O", 
   "id": 439895390016786432, 
   "hashtags": [
    "Lumbus"
   ], 
   "user_mentions": [
    "rvp29"
   ], 
   "created_at": "Sat Mar 01 22:50:08 +0000 2014", 
   "retweet_count": 0, 
   "favorite_count": 0
  }, 
  {
   "text": "@AntiGlib oh it's VERY true", 
   "label": "O", 
   "id": 439895300422254592, 
   "hashtags": [], 
   "user_mentions": [
    "AntiGlib"
   ], 
   "created_at": "Sat Mar 01 22:49:47 +0000 2014", 
   "retweet_count": 0, 
   "favorite_count": 0
  }, 
  {
   "text": "@zourrycide of course!", 
   "label": "O", 
   "id": 439895173854937088, 
   "hashtags": [], 
   "user_mentions": [
    "zourrycide"
   ], 
   "created_at": "Sat Mar 01 22:49:16 +0000 2014", 
   "retweet_count": 1, 
   "favorite_count": 1
  }, 
  {
   "text": "@Lukeh555 there's another one?!", 
   "label": "O", 
   "id": 439894968673779713, 
   "hashtags": [], 
   "user_mentions": [
    "Lukeh555"
   ], 
   "created_at": "Sat Mar 01 22:48:28 +0000 2014", 
   "retweet_count": 0, 
   "favorite_count": 2
  }, 
  {
   "text": "@crisanol yes he did", 
   "label": "O", 
   "id": 439894854680973314, 
   "hashtags": [], 
   "user_mentions": [
    "crisanol"
   ], 
   "created_at": "Sat Mar 01 22:48:00 +0000 2014", 
   "retweet_count": 0, 
   "favorite_count": 0
  }, 
  {
   "text": "@KingFuckinCal bbq sauce", 
   "label": "O", 
   "id": 439894782656389121, 
   "hashtags": [], 
   "user_mentions": [
    "KingFuckinCal"
   ], 
   "created_at": "Sat Mar 01 22:47:43 +0000 2014", 
   "retweet_count": 0, 
   "favorite_count": 1
  }, 
  {
   "text": "@nihlus 2 goals", 
   "label": "O", 
   "id": 439894725819400192, 
   "hashtags": [], 
   "user_mentions": [
    "nihlus"
   ], 
   "created_at": "Sat Mar 01 22:47:30 +0000 2014", 
   "retweet_count": 1, 
   "favorite_count": 3
  }, 
  {
   "text": "@GaleanaAaron ryan miller is gonna get traded", 
   "label": "O", 
   "id": 439894533908987905, 
   "hashtags": [], 
   "user_mentions": [
    "GaleanaAaron"
   ], 
   "created_at": "Sat Mar 01 22:46:44 +0000 2014", 
   "retweet_count": 14, 
   "favorite_count": 15
  }, 
  {
   "text": "RT @LAKingsIceCrew: We're so excited to have @BaileyLAKings friends here for the game to celebrate his big day!!!#HappyBirthdayBailey http:\u2026", 
   "label": "O", 
   "id": 439894444163489792, 
   "hashtags": [
    "HappyBirthdayBailey"
   ], 
   "user_mentions": [
    "LAKingsIceCrew", 
    "BaileyLAKings"
   ], 
   "created_at": "Sat Mar 01 22:46:23 +0000 2014", 
   "retweet_count": 70, 
   "favorite_count": 0
  }, 
  {
   "text": "Alright time to put some spice into this game; it's the 2nd Intermission Q&amp;A!", 
   "label": "O", 
   "id": 439894045629095936, 
   "hashtags": [], 
   "user_mentions": [], 
   "created_at": "Sat Mar 01 22:44:47 +0000 2014", 
   "retweet_count": 6, 
   "favorite_count": 34
  }, 
  {
   "text": "@linda_24_ 1-1", 
   "label": "O", 
   "id": 439893868540989440, 
   "hashtags": [], 
   "user_mentions": [
    "linda_24_"
   ], 
   "created_at": "Sat Mar 01 22:44:05 +0000 2014", 
   "retweet_count": 0, 
   "favorite_count": 2
  }, 
  {
   "text": "@rvp29 YES!", 
   "label": "O", 
   "id": 439893743333044224, 
   "hashtags": [], 
   "user_mentions": [
    "rvp29"
   ], 
   "created_at": "Sat Mar 01 22:43:35 +0000 2014", 
   "retweet_count": 0, 
   "favorite_count": 0
  }, 
  {
   "text": "@EMA_GoKingsGo not like anything happened", 
   "label": "O", 
   "id": 439893720792838144, 
   "hashtags": [], 
   "user_mentions": [
    "EMA_GoKingsGo"
   ], 
   "created_at": "Sat Mar 01 22:43:30 +0000 2014", 
   "retweet_count": 0, 
   "favorite_count": 2
  }, 
  {
   "text": "Well that period is over! On to the next one!", 
   "label": "O", 
   "id": 439893096198066176, 
   "hashtags": [], 
   "user_mentions": [], 
   "created_at": "Sat Mar 01 22:41:01 +0000 2014", 
   "retweet_count": 19, 
   "favorite_count": 47
  }, 
  {
   "text": "@crisanol ya not sure how often that spin move really pays off", 
   "label": "O", 
   "id": 439888352314392576, 
   "hashtags": [], 
   "user_mentions": [
    "crisanol"
   ], 
   "created_at": "Sat Mar 01 22:22:10 +0000 2014", 
   "retweet_count": 0, 
   "favorite_count": 0
  }, 
  {
   "text": "RT @KingsVision: HIGHLIGHT: Mike Richards strikes late in the 1st period, blasting one from the corner to give the @LAKings a 1-0 lead http\u2026", 
   "label": "O", 
   "id": 439885513303265281, 
   "hashtags": [], 
   "user_mentions": [
    "KingsVision", 
    "LAKings"
   ], 
   "created_at": "Sat Mar 01 22:10:53 +0000 2014", 
   "retweet_count": 17, 
   "favorite_count": 0
  }, 
  {
   "text": "@weather7022 We have 3 this year, this is #2. next up is Mar 22nd", 
   "label": "O", 
   "id": 439881540546207744, 
   "hashtags": [], 
   "user_mentions": [
    "weather7022"
   ], 
   "created_at": "Sat Mar 01 21:55:06 +0000 2014", 
   "retweet_count": 1, 
   "favorite_count": 0
  }, 
  {
   "text": "tropical cyclone scores.", 
   "label": "O", 
   "id": 439879566526799872, 
   "hashtags": [], 
   "user_mentions": [], 
   "created_at": "Sat Mar 01 21:47:15 +0000 2014", 
   "retweet_count": 80, 
   "favorite_count": 119
  }, 
  {
   "text": "#LAKings goal! Regehr to Richards and it's in! Kings up 1-0 with less than a minute left in the 1st.", 
   "label": "O", 
   "id": 439879165802991616, 
   "hashtags": [
    "LAKings"
   ], 
   "user_mentions": [], 
   "created_at": "Sat Mar 01 21:45:40 +0000 2014", 
   "retweet_count": 78, 
   "favorite_count": 92
  }, 
  {
   "text": "@BurkeBeNice makin dreams come true", 
   "label": "O", 
   "id": 439878371900919808, 
   "hashtags": [], 
   "user_mentions": [
    "BurkeBeNice"
   ], 
   "created_at": "Sat Mar 01 21:42:31 +0000 2014", 
   "retweet_count": 0, 
   "favorite_count": 0
  }, 
  {
   "text": "@homeiceadvtge it's rained here for like a full 1 1/2 days", 
   "label": "O", 
   "id": 439878317215203328, 
   "hashtags": [], 
   "user_mentions": [
    "homeiceadvtge"
   ], 
   "created_at": "Sat Mar 01 21:42:18 +0000 2014", 
   "retweet_count": 0, 
   "favorite_count": 0
  }, 
  {
   "text": "RT @lakingsinsider: #LAKings on the PP. #Canes lead the NHL with nine shorthanded goals.", 
   "label": "O", 
   "id": 439876306160091137, 
   "hashtags": [
    "LAKings", 
    "Canes"
   ], 
   "user_mentions": [
    "lakingsinsider"
   ], 
   "created_at": "Sat Mar 01 21:34:18 +0000 2014", 
   "retweet_count": 8, 
   "favorite_count": 0
  }, 
  {
   "text": "@BurkeBeNice @wilw stream on Kings app! choose Kings radio.", 
   "label": "O", 
   "id": 439874499711082496, 
   "hashtags": [], 
   "user_mentions": [
    "BurkeBeNice", 
    "wilw"
   ], 
   "created_at": "Sat Mar 01 21:27:07 +0000 2014", 
   "retweet_count": 0, 
   "favorite_count": 0
  }, 
  {
   "text": "Nolan, Greene, and Frattin are scratched. Pearson, Vey, and Martinez are in.", 
   "label": "O", 
   "id": 439870411598491648, 
   "hashtags": [], 
   "user_mentions": [], 
   "created_at": "Sat Mar 01 21:10:53 +0000 2014", 
   "retweet_count": 25, 
   "favorite_count": 38
  }, 
  {
   "text": "It's time for a #hockeygame! Tune into @FoxSportsWest.", 
   "label": "O", 
   "id": 439870180643323904, 
   "hashtags": [
    "hockeygame"
   ], 
   "user_mentions": [
    "FoxSportsWest"
   ], 
   "created_at": "Sat Mar 01 21:09:58 +0000 2014", 
   "retweet_count": 28, 
   "favorite_count": 58
  }, 
  {
   "text": "@RPMSports18 you're right! not used to this. and no windows.", 
   "label": "O", 
   "id": 439867297994645505, 
   "hashtags": [], 
   "user_mentions": [
    "RPMSports18"
   ], 
   "created_at": "Sat Mar 01 20:58:30 +0000 2014", 
   "retweet_count": 1, 
   "favorite_count": 1
  }, 
  {
   "text": "Quick (17-13-2, 2.11GAA) vs Khudobin (13-7-0, 2.18GAA) between the pipes tonight - @CarlsJr Pregame Stats.", 
   "label": "O", 
   "id": 439866241692741632, 
   "hashtags": [], 
   "user_mentions": [
    "CarlsJr"
   ], 
   "created_at": "Sat Mar 01 20:54:19 +0000 2014", 
   "retweet_count": 34, 
   "favorite_count": 53
  }, 
  {
   "text": "Skating in circles! https://t.co/zCPoUsTjkG", 
   "label": "O", 
   "id": 439862868956430336, 
   "hashtags": [], 
   "user_mentions": [], 
   "created_at": "Sat Mar 01 20:40:54 +0000 2014", 
   "retweet_count": 49, 
   "favorite_count": 73
  }, 
  {
   "text": "RT @AshWagner2010: I've got my @LAKings jersey and I'm ready to go..puck drops at 1..let's go boys!! #gamefaceon @\u2026 http://t.co/8izGO2aDzn", 
   "label": "O", 
   "id": 439858883398758402, 
   "hashtags": [
    "gamefaceon"
   ], 
   "user_mentions": [
    "AshWagner2010", 
    "LAKings"
   ], 
   "created_at": "Sat Mar 01 20:25:04 +0000 2014", 
   "retweet_count": 26, 
   "favorite_count": 0
  }, 
  {
   "text": "Authentic &amp; premier jerseys are back in stock at @TEAMLA_Store! Gear up at the game today: http://t.co/X8qLGOQQYu http://t.co/7N5BsCF0L4", 
   "label": "O", 
   "id": 439846454103138304, 
   "hashtags": [], 
   "user_mentions": [
    "TEAMLA_Store"
   ], 
   "created_at": "Sat Mar 01 19:35:41 +0000 2014", 
   "retweet_count": 32, 
   "favorite_count": 101
  }, 
  {
   "text": "6 Today To Watch For Today On Fox Sports West - http://t.co/DVPo0ondPi", 
   "label": "O", 
   "id": 439837801514008576, 
   "hashtags": [], 
   "user_mentions": [], 
   "created_at": "Sat Mar 01 19:01:18 +0000 2014", 
   "retweet_count": 4, 
   "favorite_count": 10
  }, 
  {
   "text": "The Lil Kings hockey program had over 1,000 people flock to the equipment-fitting event at @HockeyMonkey. READ: http://t.co/Cbg0i414yD", 
   "label": "O", 
   "id": 439823775828541441, 
   "hashtags": [], 
   "user_mentions": [
    "HockeyMonkey"
   ], 
   "created_at": "Sat Mar 01 18:05:34 +0000 2014", 
   "retweet_count": 11, 
   "favorite_count": 29
  }, 
  {
   "text": "Today is Try Hockey For Free Day! children ages 4-9, find a rink at http://t.co/hgf79ZC8Jq", 
   "label": "O", 
   "id": 439803298581712896, 
   "hashtags": [], 
   "user_mentions": [], 
   "created_at": "Sat Mar 01 16:44:12 +0000 2014", 
   "retweet_count": 19, 
   "favorite_count": 29
  }
 ]
}