{
 "num_road_team_goals": "4", 
 "home_team": "Los Angeles Kings", 
 "num_home_team_goals": "3", 
 "summary_url": "http://www.flyershistory.com/cgi-bin/poboxscore.cgi?H20131220", 
 "result": "W (SO)", 
 "road_team": "Anaheim Mighty Ducks", 
 "date": "2014-04-12", 
 "goals": [
  {
   "season_index": "15", 
   "strength": "(EV)", 
   "time": "4:43", 
   "period": "1", 
   "player": "D.Brown", 
   "assists": "(W.Mitchell)", 
   "game_index": "1", 
   "team": "L.A"
  }, 
  {
   "season_index": "21", 
   "strength": "(EV)", 
   "time": "6:14", 
   "period": "1", 
   "player": "N.Bonino", 
   "assists": "(D.Winnik)", 
   "game_index": "2", 
   "team": "ANA"
  }, 
  {
   "season_index": "2", 
   "strength": "(EV)", 
   "time": "2:33", 
   "period": "2", 
   "player": "D.Smith-Pelly", 
   "assists": "(H.Lindholm, F.Beauchemin)", 
   "game_index": "3", 
   "team": "ANA"
  }, 
  {
   "season_index": "28", 
   "strength": "(EV)", 
   "time": "0:48", 
   "period": "3", 
   "player": "A.Kopitar", 
   "assists": "(J.Williams, M.Gaborik)", 
   "game_index": "4", 
   "team": "L.A"
  }, 
  {
   "season_index": "9", 
   "strength": "(EV)", 
   "time": "15:13", 
   "period": "3", 
   "player": "M.Beleskey", 
   "assists": null, 
   "game_index": "5", 
   "team": "ANA"
  }, 
  {
   "season_index": "29", 
   "strength": "(EV)", 
   "time": "16:48", 
   "period": "3", 
   "player": "A.Kopitar", 
   "assists": "(S.Voynov, R.Regehr)", 
   "game_index": "6", 
   "team": "L.A"
  }
 ], 
 "tweets": [
  {
   "text": "Francois Beauchemin. A great defenseman and a quality goalie. His sliding stop stones a wide open chance for the Kings. #ANAvsLAK", 
   "label": "O", 
   "id": 455191059572604928, 
   "hashtags": [
    "ANAvsLAK"
   ], 
   "user_mentions": [], 
   "created_at": "Sun Apr 13 03:49:40 +0000 2014", 
   "retweet_count": 25, 
   "favorite_count": 52
  }, 
  {
   "text": "#AnaheimDucksGoooaaalll Smith-Pelly gets on the board! Lindholm fires the rocket on net and DSP is there to deflect it home. It's 2-1 Ducks!", 
   "label": "O", 
   "id": 455187589885358080, 
   "hashtags": [
    "AnaheimDucksGoooaaalll"
   ], 
   "user_mentions": [], 
   "created_at": "Sun Apr 13 03:35:53 +0000 2014", 
   "retweet_count": 72, 
   "favorite_count": 85
  }, 
  {
   "text": "Second period underway here at Staples. #NHLDucks and Kings deadlocked at one in the regular season finale of the #FreewayFaceoff.", 
   "label": "O", 
   "id": 455186580853252096, 
   "hashtags": [
    "NHLDucks", 
    "FreewayFaceoff"
   ], 
   "user_mentions": [], 
   "created_at": "Sun Apr 13 03:31:52 +0000 2014", 
   "retweet_count": 10, 
   "favorite_count": 15
  }, 
  {
   "text": "We can't stop watching this @NickBonino goal. Take a look at it again and again in GIF form! http://t.co/lOj7AuFLBX #ANAvsLAK", 
   "label": "O", 
   "id": 455185426211287044, 
   "hashtags": [
    "ANAvsLAK"
   ], 
   "user_mentions": [
    "NickBonino"
   ], 
   "created_at": "Sun Apr 13 03:27:17 +0000 2014", 
   "retweet_count": 45, 
   "favorite_count": 54
  }, 
  {
   "text": "That's the end of one at Staples. The #NHLDucks and Kings are tied at one. @NickBonino (21) with a beauty of a goal in the opening frame.", 
   "label": "O", 
   "id": 455181761777897472, 
   "hashtags": [
    "NHLDucks"
   ], 
   "user_mentions": [
    "NickBonino"
   ], 
   "created_at": "Sun Apr 13 03:12:43 +0000 2014", 
   "retweet_count": 19, 
   "favorite_count": 27
  }, 
  {
   "text": "WATCH: #WelcomeToTheBoneyard, Jonathan Quick. A little added flare since we are in LA: http://t.co/NMYL2hHN5z #ANAvsLAK", 
   "label": "O", 
   "id": 455180021125357568, 
   "hashtags": [
    "WelcomeToTheBoneyard", 
    "ANAvsLAK"
   ], 
   "user_mentions": [], 
   "created_at": "Sun Apr 13 03:05:48 +0000 2014", 
   "retweet_count": 18, 
   "favorite_count": 24
  }, 
  {
   "text": "Nice to see the pipes like us here at Staples. Brown rings his attempt from the left circle off iron. That keeps it tied at one. #ANAvsLAK", 
   "label": "O", 
   "id": 455178971408515072, 
   "hashtags": [
    "ANAvsLAK"
   ], 
   "user_mentions": [], 
   "created_at": "Sun Apr 13 03:01:38 +0000 2014", 
   "retweet_count": 7, 
   "favorite_count": 19
  }, 
  {
   "text": "#AnaheimDucksGoooaaalll Save that for the highlight reel! Bonino, sliding on his knees, puts one backhanded past Quick to tie this at one!", 
   "label": "O", 
   "id": 455176168346763264, 
   "hashtags": [
    "AnaheimDucksGoooaaalll"
   ], 
   "user_mentions": [], 
   "created_at": "Sun Apr 13 02:50:29 +0000 2014", 
   "retweet_count": 97, 
   "favorite_count": 122
  }, 
  {
   "text": "Dustin Brown converts on a turnover in the neutral zone and beats Andersen. The #NHLDucks trail, 1-0, at the 4:43 mark of the first period.", 
   "label": "O", 
   "id": 455175597732667393, 
   "hashtags": [
    "NHLDucks"
   ], 
   "user_mentions": [], 
   "created_at": "Sun Apr 13 02:48:13 +0000 2014", 
   "retweet_count": 9, 
   "favorite_count": 7
  }, 
  {
   "text": "#NHLDucks @f_andersen30 welcomed back with two tough stops on Kopitar and Voynov early. He stood tall, as usual. #AndersMountain", 
   "label": "O", 
   "id": 455175092637794304, 
   "hashtags": [
    "NHLDucks", 
    "AndersMountain"
   ], 
   "user_mentions": [
    "f_andersen30"
   ], 
   "created_at": "Sun Apr 13 02:46:13 +0000 2014", 
   "retweet_count": 11, 
   "favorite_count": 19
  }, 
  {
   "text": "Puck drops for this one. Let's get that top spot in the West!\n\nLISTEN LIVE: http://t.co/WOTNhNaAWi\nLIVE GAME CHAT: http://t.co/XfjodrjzQk", 
   "label": "O", 
   "id": 455173461405888512, 
   "hashtags": [], 
   "user_mentions": [], 
   "created_at": "Sun Apr 13 02:39:44 +0000 2014", 
   "retweet_count": 9, 
   "favorite_count": 6
  }, 
  {
   "text": "Classy move by the @LAKings to honor #NHLDucks Selanne before tonight's game. Standing ovation from the crowd here at Staples.", 
   "label": "O", 
   "id": 455173040327106561, 
   "hashtags": [
    "NHLDucks"
   ], 
   "user_mentions": [
    "LAKings"
   ], 
   "created_at": "Sun Apr 13 02:38:04 +0000 2014", 
   "retweet_count": 153, 
   "favorite_count": 179
  }, 
  {
   "text": "#NHLDucks Scratches: Sbisa, Selanne, Koivu, Jackman, Fistric, Vatanen, Hiller. #ANAvsLAK", 
   "label": "O", 
   "id": 455172750844645376, 
   "hashtags": [
    "NHLDucks", 
    "ANAvsLAK"
   ], 
   "user_mentions": [], 
   "created_at": "Sun Apr 13 02:36:55 +0000 2014", 
   "retweet_count": 11, 
   "favorite_count": 11
  }, 
  {
   "text": "#NHLDucks Starters: @Matt_Beleskey, Getzlaf and Perry up front, @C_Fowler4 and @RevLovejoy6 on defense and @f_andersen30 in net. #ANAvsLAK", 
   "label": "O", 
   "id": 455172255790952448, 
   "hashtags": [
    "NHLDucks", 
    "ANAvsLAK"
   ], 
   "user_mentions": [
    "Matt_Beleskey", 
    "C_Fowler4", 
    "RevLovejoy6", 
    "f_andersen30"
   ], 
   "created_at": "Sun Apr 13 02:34:57 +0000 2014", 
   "retweet_count": 22, 
   "favorite_count": 23
  }, 
  {
   "text": "Live from LA, it's @AdamJBrady and his #NHLDucks Live Game Chat! Win a signed @RevLovejoy6 photo and #AD20 Yearbook: http://t.co/mWTQtdeSsg", 
   "label": "O", 
   "id": 455166982157897728, 
   "hashtags": [
    "NHLDucks", 
    "AD20"
   ], 
   "user_mentions": [
    "AdamJBrady", 
    "RevLovejoy6"
   ], 
   "created_at": "Sun Apr 13 02:13:59 +0000 2014", 
   "retweet_count": 7, 
   "favorite_count": 8
  }, 
  {
   "text": "REMINDER: Tonight's game can be seen on @LA56TV at 7:30 p.m. PT. Join @Duckscolorman now for the pregame show on @ESPNLA710. #ANAvsLAK", 
   "label": "O", 
   "id": 455164046950805504, 
   "hashtags": [
    "ANAvsLAK"
   ], 
   "user_mentions": [
    "LA56TV", 
    "Duckscolorman", 
    "ESPNLA710"
   ], 
   "created_at": "Sun Apr 13 02:02:19 +0000 2014", 
   "retweet_count": 7, 
   "favorite_count": 17
  }, 
  {
   "text": "#NHLDucks and Kings take the ice at Staples Center. @f_andersen30 and Quick the masked men for the regular season #FreewayFaceoff finale.", 
   "label": "O", 
   "id": 455163452047519744, 
   "hashtags": [
    "NHLDucks", 
    "FreewayFaceoff"
   ], 
   "user_mentions": [
    "f_andersen30"
   ], 
   "created_at": "Sun Apr 13 01:59:58 +0000 2014", 
   "retweet_count": 22, 
   "favorite_count": 32
  }, 
  {
   "text": "In tonight's #DucksQuackPack - Top spot within reach, streaking against the @LAKings and Perry stays hot. #ANAvsLAK http://t.co/mzGoGMTN53", 
   "label": "O", 
   "id": 455161731107397632, 
   "hashtags": [
    "DucksQuackPack", 
    "ANAvsLAK"
   ], 
   "user_mentions": [
    "LAKings"
   ], 
   "created_at": "Sun Apr 13 01:53:07 +0000 2014", 
   "retweet_count": 13, 
   "favorite_count": 35
  }, 
  {
   "text": "There's no better way to #PaintItOrange than a #NHLDucks Car Flag! Grab yours in the Team Store for just five dollars!", 
   "label": "O", 
   "id": 455105863699550208, 
   "hashtags": [
    "PaintItOrange", 
    "NHLDucks"
   ], 
   "user_mentions": [], 
   "created_at": "Sat Apr 12 22:11:08 +0000 2014", 
   "retweet_count": 12, 
   "favorite_count": 24
  }, 
  {
   "text": "The #NHLDucks can clinch the top seed in the Western Conference with a point tonight. The lastest: http://t.co/fqSORRrSEE", 
   "label": "O", 
   "id": 455047508566089728, 
   "hashtags": [
    "NHLDucks"
   ], 
   "user_mentions": [], 
   "created_at": "Sat Apr 12 18:19:15 +0000 2014", 
   "retweet_count": 39, 
   "favorite_count": 55
  }, 
  {
   "text": "WATCH: @Matt_Beleskey and the #NHLDucks discuss the regular season finale of the #FreewayFaceoff tonight: http://t.co/4Z3aEGAWVK #ANAvsLAK", 
   "label": "O", 
   "id": 455042693345718274, 
   "hashtags": [
    "NHLDucks", 
    "FreewayFaceoff", 
    "ANAvsLAK"
   ], 
   "user_mentions": [
    "Matt_Beleskey"
   ], 
   "created_at": "Sat Apr 12 18:00:07 +0000 2014", 
   "retweet_count": 8, 
   "favorite_count": 13
  }, 
  {
   "text": "Teemu Selanne and Saku Koivu did not skate this morning, but Bruce Boudreau said they will play in the regular season finale tomorrow night.", 
   "label": "O", 
   "id": 455036638599467008, 
   "hashtags": [], 
   "user_mentions": [], 
   "created_at": "Sat Apr 12 17:36:03 +0000 2014", 
   "retweet_count": 35, 
   "favorite_count": 75
  }, 
  {
   "text": "A chance to finish on top of the conference and a matchup with the rival @LAKings. It's all in the Morning Report: http://t.co/c5dGdVtrza", 
   "label": "O", 
   "id": 455029142975565824, 
   "hashtags": [], 
   "user_mentions": [
    "LAKings"
   ], 
   "created_at": "Sat Apr 12 17:06:16 +0000 2014", 
   "retweet_count": 8, 
   "favorite_count": 13
  }, 
  {
   "text": "Congrats to the Lefebvre family from Anaheim, winners of our #PaintItOrange Street Hit at today's @ocgoodwill drive! http://t.co/7dFXBifKG2", 
   "label": "O", 
   "id": 455020667696455680, 
   "hashtags": [
    "PaintItOrange"
   ], 
   "user_mentions": [
    "ocgoodwill"
   ], 
   "created_at": "Sat Apr 12 16:32:35 +0000 2014", 
   "retweet_count": 5, 
   "favorite_count": 42
  }, 
  {
   "text": "Make sure to head to @HondaCenter today for the @ocgoodwill Spring Cleaning donation event! There's still some great prizes left!", 
   "label": "O", 
   "id": 455020615666110464, 
   "hashtags": [], 
   "user_mentions": [
    "HondaCenter", 
    "ocgoodwill"
   ], 
   "created_at": "Sat Apr 12 16:32:23 +0000 2014", 
   "retweet_count": 3, 
   "favorite_count": 13
  }, 
  {
   "text": "Grab some friends and head to the @TiltedKiltPub in Orange for the final #NHLDucks Watch Part of the regular season! http://t.co/xgP8r5YewP", 
   "label": "O", 
   "id": 455013750219608064, 
   "hashtags": [
    "NHLDucks"
   ], 
   "user_mentions": [
    "TiltedKiltPub"
   ], 
   "created_at": "Sat Apr 12 16:05:06 +0000 2014", 
   "retweet_count": 10, 
   "favorite_count": 11
  }, 
  {
   "text": "BROADCAST SCHEDULE: Tonight's game can be seen on @LA56TV (no #DucksLive). @ESPNLA710 has the radio call, starting at 7 p.m. PT. #ANAvsLAK", 
   "label": "O", 
   "id": 455013246756352000, 
   "hashtags": [
    "DucksLive", 
    "ANAvsLAK"
   ], 
   "user_mentions": [
    "LA56TV", 
    "ESPNLA710"
   ], 
   "created_at": "Sat Apr 12 16:03:06 +0000 2014", 
   "retweet_count": 7, 
   "favorite_count": 13
  }, 
  {
   "text": "The #NHLDucks shoot for four straight wins over the rival @LAKings in the #FreewayFaceoff regular season finale: http://t.co/AzRwHKG8gq", 
   "label": "O", 
   "id": 455012495397117953, 
   "hashtags": [
    "NHLDucks", 
    "FreewayFaceoff"
   ], 
   "user_mentions": [
    "LAKings"
   ], 
   "created_at": "Sat Apr 12 16:00:07 +0000 2014", 
   "retweet_count": 21, 
   "favorite_count": 29
  }, 
  {
   "text": "We're also hosting another #PaintItOrange Street Hit with the OC Spring Cleaning event. Win a signed Getzlaf photo! http://t.co/cZJajgETu5", 
   "label": "O", 
   "id": 455006755496267778, 
   "hashtags": [
    "PaintItOrange"
   ], 
   "user_mentions": [], 
   "created_at": "Sat Apr 12 15:37:18 +0000 2014", 
   "retweet_count": 4, 
   "favorite_count": 13
  }, 
  {
   "text": "Head to @HondaCenter for the @ocgoodwill Spring Cleaning Event! Exclusive prizes for the first 100 cars! INFO: http://t.co/nIPdx311yb", 
   "label": "O", 
   "id": 454997394057199616, 
   "hashtags": [], 
   "user_mentions": [
    "HondaCenter", 
    "ocgoodwill"
   ], 
   "created_at": "Sat Apr 12 15:00:06 +0000 2014", 
   "retweet_count": 4, 
   "favorite_count": 8
  }
 ]
}