{
 "num_road_team_goals": "2", 
 "home_team": "Columbus Blue Jackets", 
 "num_home_team_goals": "1", 
 "summary_url": "http://www.flyershistory.com/cgi-bin/poboxscore.cgi?H20131103", 
 "result": "W", 
 "road_team": "Pittsburgh Penguins", 
 "date": "2014-03-28", 
 "goals": [
  {
   "season_index": "34", 
   "strength": "(EV)", 
   "time": "10:35", 
   "period": "3", 
   "player": "C.Kunitz", 
   "assists": "(S.Crosby, D.Engelland)", 
   "game_index": "1", 
   "team": "PIT"
  }, 
  {
   "season_index": "2", 
   "strength": "(EV)", 
   "time": "11:22", 
   "period": "3", 
   "player": "B.Bennett", 
   "assists": "(R.Bortuzzo)", 
   "game_index": "2", 
   "team": "PIT"
  }, 
  {
   "season_index": "8", 
   "strength": "(PP)", 
   "time": "16:54", 
   "period": "3", 
   "player": "M.Calvert", 
   "assists": "(J.Wisniewski, J.Johnson)", 
   "game_index": "3", 
   "team": "CBJ"
  }
 ], 
 "tweets": [
  {
   "text": "@NoPucksGivenn *&lt;(\")", 
   "label": "O", 
   "id": 449745140698349568, 
   "hashtags": [], 
   "user_mentions": [
    "NoPucksGivenn"
   ], 
   "created_at": "Sat Mar 29 03:09:32 +0000 2014", 
   "retweet_count": 4, 
   "favorite_count": 8
  }, 
  {
   "text": "Here are the highlights: http://t.co/D4JCX7nRY5 Give 'em a watch and then go celebrate. Playoffs, here we come!", 
   "label": "O", 
   "id": 449743945611083776, 
   "hashtags": [], 
   "user_mentions": [], 
   "created_at": "Sat Mar 29 03:04:47 +0000 2014", 
   "retweet_count": 47, 
   "favorite_count": 94
  }, 
  {
   "text": "RT @BeauBennett19: That was fun, thanks for all the support", 
   "label": "O", 
   "id": 449739547061260288, 
   "hashtags": [], 
   "user_mentions": [
    "BeauBennett19"
   ], 
   "created_at": "Sat Mar 29 02:47:18 +0000 2014", 
   "retweet_count": 446, 
   "favorite_count": 0
  }, 
  {
   "text": "A deeper look at tonight's #Pens game vs. the #CBJ: http://t.co/GzrDZL5g2f http://t.co/Y5CX9rCfJN", 
   "label": "O", 
   "id": 449739463300624385, 
   "hashtags": [
    "Pens", 
    "CBJ"
   ], 
   "user_mentions": [], 
   "created_at": "Sat Mar 29 02:46:58 +0000 2014", 
   "retweet_count": 51, 
   "favorite_count": 102
  }, 
  {
   "text": "Love it. Kunitz Vid: http://t.co/AoCRWlnVNj Gif: http://t.co/g3C1Njrtbj. Bennett Vid: http://t.co/lMl6JibBLP Gif: http://t.co/87lOPNNaN7", 
   "label": "O", 
   "id": 449734979401302016, 
   "hashtags": [], 
   "user_mentions": [], 
   "created_at": "Sat Mar 29 02:29:09 +0000 2014", 
   "retweet_count": 30, 
   "favorite_count": 72
  }, 
  {
   "text": "Guess what... http://t.co/tAk4ypkPHP", 
   "label": "O", 
   "id": 449730869612122112, 
   "hashtags": [], 
   "user_mentions": [], 
   "created_at": "Sat Mar 29 02:12:49 +0000 2014", 
   "retweet_count": 1751, 
   "favorite_count": 1460
  }, 
  {
   "text": "\"[Fleury] was outstanding all game long in tough spots...I don't know if you named him first star, but he probably was.\" -Bylsma on Fleury", 
   "label": "O", 
   "id": 449729802694828033, 
   "hashtags": [], 
   "user_mentions": [], 
   "created_at": "Sat Mar 29 02:08:35 +0000 2014", 
   "retweet_count": 74, 
   "favorite_count": 225
  }, 
  {
   "text": "@Mackenzie8729 Would anyone really mind? Kidding Potash...", 
   "label": "O", 
   "id": 449729186329292800, 
   "hashtags": [], 
   "user_mentions": [
    "Mackenzie8729"
   ], 
   "created_at": "Sat Mar 29 02:06:08 +0000 2014", 
   "retweet_count": 0, 
   "favorite_count": 1
  }, 
  {
   "text": "\"I thought that was a real strong game from Beau. Real authoritative. One of the better games I've seen him play\"-Dan Bylsma on #19's return", 
   "label": "O", 
   "id": 449729000991371264, 
   "hashtags": [], 
   "user_mentions": [], 
   "created_at": "Sat Mar 29 02:05:24 +0000 2014", 
   "retweet_count": 87, 
   "favorite_count": 271
  }, 
  {
   "text": "RT @WBSPenguins: Organizational Sweep!  @WBSPenguins @WheelingNailers and @penguins all win tonight!", 
   "label": "O", 
   "id": 449728473398251520, 
   "hashtags": [], 
   "user_mentions": [
    "WBSPenguins", 
    "WBSPenguins", 
    "WheelingNailers", 
    "penguins"
   ], 
   "created_at": "Sat Mar 29 02:03:18 +0000 2014", 
   "retweet_count": 118, 
   "favorite_count": 0
  }, 
  {
   "text": "Tonight's Three Stars in #Pens vs. #CBJ:\n3) James Wisniewski\n2) Chris Kunitz\n1) Marc-Andre Fleury", 
   "label": "O", 
   "id": 449726947565002752, 
   "hashtags": [
    "Pens", 
    "CBJ"
   ], 
   "user_mentions": [], 
   "created_at": "Sat Mar 29 01:57:14 +0000 2014", 
   "retweet_count": 75, 
   "favorite_count": 213
  }, 
  {
   "text": "@estuarypalomino We tried to unsee that before. Now we have to unsee it again.", 
   "label": "O", 
   "id": 449721542046666752, 
   "hashtags": [], 
   "user_mentions": [
    "estuarypalomino"
   ], 
   "created_at": "Sat Mar 29 01:35:45 +0000 2014", 
   "retweet_count": 2, 
   "favorite_count": 16
  }, 
  {
   "text": "Who are your three stars?", 
   "label": "O", 
   "id": 449720935558696960, 
   "hashtags": [], 
   "user_mentions": [], 
   "created_at": "Sat Mar 29 01:33:21 +0000 2014", 
   "retweet_count": 14, 
   "favorite_count": 101
  }, 
  {
   "text": "#Pens WIN! A 2-1 victory over the #CBJ and the Penguins sweep the season series.", 
   "label": "O", 
   "id": 449720823847591937, 
   "hashtags": [
    "Pens", 
    "CBJ"
   ], 
   "user_mentions": [], 
   "created_at": "Sat Mar 29 01:32:54 +0000 2014", 
   "retweet_count": 495, 
   "favorite_count": 500
  }, 
  {
   "text": "Wisniewski cuts the #Pens lead in half. It's a 2-1 game with less than 3 minutes to play.", 
   "label": "O", 
   "id": 449719355115577345, 
   "hashtags": [
    "Pens"
   ], 
   "user_mentions": [], 
   "created_at": "Sat Mar 29 01:27:04 +0000 2014", 
   "retweet_count": 22, 
   "favorite_count": 41
  }, 
  {
   "text": "RT @tarrynsaurusrex: I #beau-lieve! Welcome back Bennett!! #letsgopens", 
   "label": "O", 
   "id": 449717414339813376, 
   "hashtags": [
    "beau", 
    "letsgopens"
   ], 
   "user_mentions": [
    "tarrynsaurusrex"
   ], 
   "created_at": "Sat Mar 29 01:19:21 +0000 2014", 
   "retweet_count": 61, 
   "favorite_count": 0
  }, 
  {
   "text": "@WarlokkLLE Nah, let's keep it going", 
   "label": "O", 
   "id": 449716542100750337, 
   "hashtags": [], 
   "user_mentions": [
    "WarlokkLLE"
   ], 
   "created_at": "Sat Mar 29 01:15:53 +0000 2014", 
   "retweet_count": 4, 
   "favorite_count": 6
  }, 
  {
   "text": "RT @PensInsideScoop: Great effort by Bortuzzo in his own zone to get the puck out and ahead. 2on1. Bennett keeps and snipes -SK", 
   "label": "O", 
   "id": 449716424161103872, 
   "hashtags": [], 
   "user_mentions": [
    "PensInsideScoop"
   ], 
   "created_at": "Sat Mar 29 01:15:25 +0000 2014", 
   "retweet_count": 36, 
   "favorite_count": 0
  }, 
  {
   "text": "@bayli1127 60% of the time he scores every time. Or something like that.", 
   "label": "O", 
   "id": 449716340547670017, 
   "hashtags": [], 
   "user_mentions": [
    "bayli1127"
   ], 
   "created_at": "Sat Mar 29 01:15:05 +0000 2014", 
   "retweet_count": 1, 
   "favorite_count": 8
  }, 
  {
   "text": "A BEAU-TIFUL SIGHT! Bennett makes it 2-0, just seconds after Kunitz puts the Penguins on the board. Welcome back, #19!", 
   "label": "O", 
   "id": 449716204450893824, 
   "hashtags": [], 
   "user_mentions": [], 
   "created_at": "Sat Mar 29 01:14:33 +0000 2014", 
   "retweet_count": 659, 
   "favorite_count": 704
  }, 
  {
   "text": "CHRIS KUNITZ! It's 1-0 Pittsburgh with 9:25 to go in regulation.", 
   "label": "O", 
   "id": 449715688467607552, 
   "hashtags": [], 
   "user_mentions": [], 
   "created_at": "Sat Mar 29 01:12:30 +0000 2014", 
   "retweet_count": 231, 
   "favorite_count": 342
  }, 
  {
   "text": "Here we go for the third. #Pens 0, #CBJ 0.", 
   "label": "O", 
   "id": 449711597477707776, 
   "hashtags": [
    "Pens", 
    "CBJ"
   ], 
   "user_mentions": [], 
   "created_at": "Sat Mar 29 00:56:14 +0000 2014", 
   "retweet_count": 37, 
   "favorite_count": 76
  }, 
  {
   "text": "@lipitor29 Is everything ok?", 
   "label": "O", 
   "id": 449709556290322432, 
   "hashtags": [], 
   "user_mentions": [
    "lipitor29"
   ], 
   "created_at": "Sat Mar 29 00:48:08 +0000 2014", 
   "retweet_count": 2, 
   "favorite_count": 8
  }, 
  {
   "text": "END 2: Still scoreless in Columbus. #Pens had the 9-8 edge in shots during the second.", 
   "label": "O", 
   "id": 449707292238557184, 
   "hashtags": [
    "Pens"
   ], 
   "user_mentions": [], 
   "created_at": "Sat Mar 29 00:39:08 +0000 2014", 
   "retweet_count": 28, 
   "favorite_count": 42
  }, 
  {
   "text": "@Niki_Horan13 @JacobJanish Not for anything, but we aren't very big fans of that other hockey team in PA (unless it's @WBSPenguins. &lt;3 them)", 
   "label": "O", 
   "id": 449705140069867520, 
   "hashtags": [], 
   "user_mentions": [
    "Niki_Horan13", 
    "JacobJanish", 
    "WBSPenguins"
   ], 
   "created_at": "Sat Mar 29 00:30:35 +0000 2014", 
   "retweet_count": 3, 
   "favorite_count": 4
  }, 
  {
   "text": "Just under 6 minutes to go in the second. Still no score between the #Pens and #CBJ.", 
   "label": "O", 
   "id": 449703991015116800, 
   "hashtags": [
    "Pens", 
    "CBJ"
   ], 
   "user_mentions": [], 
   "created_at": "Sat Mar 29 00:26:01 +0000 2014", 
   "retweet_count": 24, 
   "favorite_count": 43
  }, 
  {
   "text": "@JacobJanish Why would you even want that?", 
   "label": "O", 
   "id": 449701325836926976, 
   "hashtags": [], 
   "user_mentions": [
    "JacobJanish"
   ], 
   "created_at": "Sat Mar 29 00:15:25 +0000 2014", 
   "retweet_count": 1, 
   "favorite_count": 20
  }, 
  {
   "text": "@That_Mormon_Kid Oh wait. THAT Sweet 16. Ha!", 
   "label": "O", 
   "id": 449701092323254272, 
   "hashtags": [], 
   "user_mentions": [
    "That_Mormon_Kid"
   ], 
   "created_at": "Sat Mar 29 00:14:30 +0000 2014", 
   "retweet_count": 1, 
   "favorite_count": 5
  }, 
  {
   "text": "RT @auntieseashell: Hearing the #letsgopens chant echoing thru Nationwide Arena, loudly I should add, is so awesome!!! Love that @penguins \u2026", 
   "label": "O", 
   "id": 449701018696437760, 
   "hashtags": [
    "letsgopens"
   ], 
   "user_mentions": [
    "auntieseashell", 
    "penguins"
   ], 
   "created_at": "Sat Mar 29 00:14:12 +0000 2014", 
   "retweet_count": 22, 
   "favorite_count": 0
  }, 
  {
   "text": "@CoderreJustin \"Trenches\" by @PopEvil. Glad you like it!", 
   "label": "O", 
   "id": 449699148271742976, 
   "hashtags": [], 
   "user_mentions": [
    "CoderreJustin", 
    "PopEvil"
   ], 
   "created_at": "Sat Mar 29 00:06:46 +0000 2014", 
   "retweet_count": 0, 
   "favorite_count": 2
  }, 
  {
   "text": "Puck drops for the second period. #Pens and #CBJ scoreless.", 
   "label": "O", 
   "id": 449698392764321793, 
   "hashtags": [
    "Pens", 
    "CBJ"
   ], 
   "user_mentions": [], 
   "created_at": "Sat Mar 29 00:03:46 +0000 2014", 
   "retweet_count": 29, 
   "favorite_count": 75
  }, 
  {
   "text": "Beau Bennett, who is appearing in his first @NHL game since 11/22, played 3:30 in the first, including :42 on the PP. Thoughts so far?", 
   "label": "O", 
   "id": 449696270941454336, 
   "hashtags": [], 
   "user_mentions": [
    "NHL"
   ], 
   "created_at": "Fri Mar 28 23:55:20 +0000 2014", 
   "retweet_count": 42, 
   "favorite_count": 168
  }, 
  {
   "text": "END 1: #Pens and #CBJ scoreless after 20. Shots favor the Blue Jackets 13 to 9.", 
   "label": "O", 
   "id": 449693875415027712, 
   "hashtags": [
    "Pens", 
    "CBJ"
   ], 
   "user_mentions": [], 
   "created_at": "Fri Mar 28 23:45:49 +0000 2014", 
   "retweet_count": 28, 
   "favorite_count": 44
  }, 
  {
   "text": "@Tyler_xMauds No problem? Let's go #Pens of course...", 
   "label": "O", 
   "id": 449692286683996160, 
   "hashtags": [
    "Pens"
   ], 
   "user_mentions": [
    "Tyler_xMauds"
   ], 
   "created_at": "Fri Mar 28 23:39:30 +0000 2014", 
   "retweet_count": 1, 
   "favorite_count": 1
  }, 
  {
   "text": "@DaveWTatar It's a sight to beau-hold! (Definitely using that one again tonight)", 
   "label": "O", 
   "id": 449690868610768896, 
   "hashtags": [], 
   "user_mentions": [
    "DaveWTatar"
   ], 
   "created_at": "Fri Mar 28 23:33:52 +0000 2014", 
   "retweet_count": 0, 
   "favorite_count": 2
  }, 
  {
   "text": "Our turn on the PP! Seconds after Despres returns to the ice, MacKenzie called for tripping. #Pens 5-for-15 on the PP v. #CBJ this season", 
   "label": "O", 
   "id": 449690638775496704, 
   "hashtags": [
    "Pens", 
    "CBJ"
   ], 
   "user_mentions": [], 
   "created_at": "Fri Mar 28 23:32:57 +0000 2014", 
   "retweet_count": 12, 
   "favorite_count": 32
  }, 
  {
   "text": "@smuuthie #Pens do not have an alternate jersey this year, although there was the one-time only Stadium Series jersey on 3/1.", 
   "label": "O", 
   "id": 449689352155987968, 
   "hashtags": [
    "Pens"
   ], 
   "user_mentions": [
    "smuuthie"
   ], 
   "created_at": "Fri Mar 28 23:27:51 +0000 2014", 
   "retweet_count": 1, 
   "favorite_count": 0
  }, 
  {
   "text": "Despres joining Bortuzzo in the box, giving #CBJ their second power play of the game. 10:55 remaining in the first.", 
   "label": "O", 
   "id": 449689148660924416, 
   "hashtags": [
    "CBJ"
   ], 
   "user_mentions": [], 
   "created_at": "Fri Mar 28 23:27:02 +0000 2014", 
   "retweet_count": 8, 
   "favorite_count": 20
  }, 
  {
   "text": "Bortuzzo and Folingo exchanges punches and land themselves in their respective boxes with 11:17 to go in the first. #Pens and #CBJ scoreless", 
   "label": "O", 
   "id": 449688900236476416, 
   "hashtags": [
    "Pens", 
    "CBJ"
   ], 
   "user_mentions": [], 
   "created_at": "Fri Mar 28 23:26:03 +0000 2014", 
   "retweet_count": 17, 
   "favorite_count": 49
  }, 
  {
   "text": "@brittbish_ Thanks for the support! New handle?", 
   "label": "O", 
   "id": 449687520817987585, 
   "hashtags": [], 
   "user_mentions": [
    "brittbish_"
   ], 
   "created_at": "Fri Mar 28 23:20:34 +0000 2014", 
   "retweet_count": 2, 
   "favorite_count": 2
  }, 
  {
   "text": "@That_Mormon_Kid Happy birthday! Sorry you couldn't spent it with us, but we're digging the jersey", 
   "label": "O", 
   "id": 449686947502772224, 
   "hashtags": [], 
   "user_mentions": [
    "That_Mormon_Kid"
   ], 
   "created_at": "Fri Mar 28 23:18:17 +0000 2014", 
   "retweet_count": 1, 
   "favorite_count": 4
  }, 
  {
   "text": "@Jillian_Vandyyy Noooo! Can you listen? Try the #Pens iPhone app or tune in here: http://t.co/lHW4dLowf2", 
   "label": "O", 
   "id": 449686395813371904, 
   "hashtags": [
    "Pens"
   ], 
   "user_mentions": [
    "Jillian_Vandyyy"
   ], 
   "created_at": "Fri Mar 28 23:16:06 +0000 2014", 
   "retweet_count": 0, 
   "favorite_count": 1
  }, 
  {
   "text": "@Kindvh We do! &lt;3 our fans", 
   "label": "O", 
   "id": 449685957584109568, 
   "hashtags": [], 
   "user_mentions": [
    "Kindvh"
   ], 
   "created_at": "Fri Mar 28 23:14:21 +0000 2014", 
   "retweet_count": 1, 
   "favorite_count": 1
  }, 
  {
   "text": "And we're off! Let's go #Pens!", 
   "label": "O", 
   "id": 449684588487786496, 
   "hashtags": [
    "Pens"
   ], 
   "user_mentions": [], 
   "created_at": "Fri Mar 28 23:08:55 +0000 2014", 
   "retweet_count": 146, 
   "favorite_count": 177
  }, 
  {
   "text": "@SarasTonedSmile Make good decisions.", 
   "label": "O", 
   "id": 449684443750752256, 
   "hashtags": [], 
   "user_mentions": [
    "SarasTonedSmile"
   ], 
   "created_at": "Fri Mar 28 23:08:20 +0000 2014", 
   "retweet_count": 0, 
   "favorite_count": 1
  }, 
  {
   "text": "Hey #Pens fans in Columbus, give us a shout!", 
   "label": "O", 
   "id": 449683524376092672, 
   "hashtags": [
    "Pens"
   ], 
   "user_mentions": [], 
   "created_at": "Fri Mar 28 23:04:41 +0000 2014", 
   "retweet_count": 25, 
   "favorite_count": 93
  }, 
  {
   "text": "@sophieweingrad So ready.", 
   "label": "O", 
   "id": 449682134757036032, 
   "hashtags": [], 
   "user_mentions": [
    "sophieweingrad"
   ], 
   "created_at": "Fri Mar 28 22:59:10 +0000 2014", 
   "retweet_count": 0, 
   "favorite_count": 3
  }, 
  {
   "text": "@VesaPerkio @DJShawww Healthy scratch. A little rest for a first year pro.", 
   "label": "O", 
   "id": 449681751745785856, 
   "hashtags": [], 
   "user_mentions": [
    "VesaPerkio", 
    "DJShawww"
   ], 
   "created_at": "Fri Mar 28 22:57:38 +0000 2014", 
   "retweet_count": 2, 
   "favorite_count": 3
  }, 
  {
   "text": "@lipitor29 Hey there, what's going on?", 
   "label": "O", 
   "id": 449681596602667009, 
   "hashtags": [], 
   "user_mentions": [
    "lipitor29"
   ], 
   "created_at": "Fri Mar 28 22:57:01 +0000 2014", 
   "retweet_count": 1, 
   "favorite_count": 5
  }, 
  {
   "text": "Digital 411: @penguins = goal &amp; period updates, @PensInsideScoop = play-by-play. Hashtags: #Pens #CBJ Radio: http://t.co/lHW4dLowf2", 
   "label": "O", 
   "id": 449681100479430657, 
   "hashtags": [
    "Pens", 
    "CBJ"
   ], 
   "user_mentions": [
    "penguins", 
    "PensInsideScoop"
   ], 
   "created_at": "Fri Mar 28 22:55:03 +0000 2014", 
   "retweet_count": 3, 
   "favorite_count": 19
  }, 
  {
   "text": "@lacking_tabasco There goes Fleury, stopping the shots.", 
   "label": "O", 
   "id": 449680686568734720, 
   "hashtags": [], 
   "user_mentions": [
    "lacking_tabasco"
   ], 
   "created_at": "Fri Mar 28 22:53:25 +0000 2014", 
   "retweet_count": 0, 
   "favorite_count": 0
  }, 
  {
   "text": "Almost go time. http://t.co/eZM2iJwWoz", 
   "label": "O", 
   "id": 449680338525380608, 
   "hashtags": [], 
   "user_mentions": [], 
   "created_at": "Fri Mar 28 22:52:02 +0000 2014", 
   "retweet_count": 62, 
   "favorite_count": 231
  }, 
  {
   "text": "@KeithHartman4 #Pens + CBJ shots on goal", 
   "label": "O", 
   "id": 449679735606767618, 
   "hashtags": [
    "Pens"
   ], 
   "user_mentions": [
    "KeithHartman4"
   ], 
   "created_at": "Fri Mar 28 22:49:38 +0000 2014", 
   "retweet_count": 0, 
   "favorite_count": 0
  }, 
  {
   "text": "Tonight's #Pens D: Bortuzzo-Orpik, Niskanen-Scuderi, Despres-Engelland. Fleury in net.", 
   "label": "O", 
   "id": 449678888453820417, 
   "hashtags": [
    "Pens"
   ], 
   "user_mentions": [], 
   "created_at": "Fri Mar 28 22:46:16 +0000 2014", 
   "retweet_count": 39, 
   "favorite_count": 69
  }, 
  {
   "text": "Tonight's #Pens lineup: Kunitz-Crosby-Stempniak, Bennett (he's back!)-Jokinen-Neal, Pyatt-Sutter-Gibbons, Glass-Adams-Megna", 
   "label": "O", 
   "id": 449678706794328064, 
   "hashtags": [
    "Pens"
   ], 
   "user_mentions": [], 
   "created_at": "Fri Mar 28 22:45:32 +0000 2014", 
   "retweet_count": 78, 
   "favorite_count": 142
  }, 
  {
   "text": "Bennett will play with Jokinen (center) and Neal. Despres will play in place of Maatta, per coach Bylsma #Pens", 
   "label": "O", 
   "id": 449653570456264704, 
   "hashtags": [
    "Pens"
   ], 
   "user_mentions": [], 
   "created_at": "Fri Mar 28 21:05:40 +0000 2014", 
   "retweet_count": 145, 
   "favorite_count": 221
  }, 
  {
   "text": "#Pens Marcel Goc out 3 weeks with foot injury. Beau Bennett will play tonight vs CBJ. Olli Maatta will be healthy scratch.", 
   "label": "O", 
   "id": 449653175386386433, 
   "hashtags": [
    "Pens"
   ], 
   "user_mentions": [], 
   "created_at": "Fri Mar 28 21:04:05 +0000 2014", 
   "retweet_count": 153, 
   "favorite_count": 163
  }, 
  {
   "text": "It's #Pens vs. #CBJ tonight at 7PM EDT. Marc-Andre Fleury starting in net. http://t.co/dEWi7XcnMr", 
   "label": "O", 
   "id": 449642945223065600, 
   "hashtags": [
    "Pens", 
    "CBJ"
   ], 
   "user_mentions": [], 
   "created_at": "Fri Mar 28 20:23:26 +0000 2014", 
   "retweet_count": 34, 
   "favorite_count": 61
  }, 
  {
   "text": "Kuni\u2019s career year, #Pens celebrity look-alikes, and more on a new Inside Penguins Hockey tonight after post-game on @ROOTSPORTSPIT.", 
   "label": "O", 
   "id": 449637375971688448, 
   "hashtags": [
    "Pens"
   ], 
   "user_mentions": [
    "ROOTSPORTSPIT"
   ], 
   "created_at": "Fri Mar 28 20:01:18 +0000 2014", 
   "retweet_count": 13, 
   "favorite_count": 50
  }, 
  {
   "text": "#Pens battle #CBJ at 7PM EDT in Columbus. Watch on @ROOTSPORTSPIT or listen on @1059theX (http://t.co/lHW4dLowf2). http://t.co/zvBZVNmr41", 
   "label": "O", 
   "id": 449625994459361280, 
   "hashtags": [
    "Pens", 
    "CBJ"
   ], 
   "user_mentions": [
    "ROOTSPORTSPIT", 
    "1059thex"
   ], 
   "created_at": "Fri Mar 28 19:16:05 +0000 2014", 
   "retweet_count": 66, 
   "favorite_count": 152
  }, 
  {
   "text": "@SuperTankerO Just 1!", 
   "label": "O", 
   "id": 449578957139378176, 
   "hashtags": [], 
   "user_mentions": [], 
   "created_at": "Fri Mar 28 16:09:10 +0000 2014", 
   "retweet_count": 2, 
   "favorite_count": 3
  }, 
  {
   "text": "If James Neal plays anything like he did the last time the #Pens took on #CBJ, we are going to be in good shape. http://t.co/bZwYfb2I2X", 
   "label": "O", 
   "id": 449578437599330304, 
   "hashtags": [
    "Pens", 
    "CBJ"
   ], 
   "user_mentions": [], 
   "created_at": "Fri Mar 28 16:07:06 +0000 2014", 
   "retweet_count": 113, 
   "favorite_count": 200
  }, 
  {
   "text": "@NikkiSconzz Hey, we\u2019d approve it. &lt;(\u201c)", 
   "label": "O", 
   "id": 449577729802125312, 
   "hashtags": [], 
   "user_mentions": [
    "NikkiSconzz"
   ], 
   "created_at": "Fri Mar 28 16:04:18 +0000 2014", 
   "retweet_count": 1, 
   "favorite_count": 4
  }, 
  {
   "text": "@CapChoirGirl You know who to root for\u2026 &lt;(\u201c)", 
   "label": "O", 
   "id": 449576392708354048, 
   "hashtags": [], 
   "user_mentions": [
    "CapChoirGirl"
   ], 
   "created_at": "Fri Mar 28 15:58:59 +0000 2014", 
   "retweet_count": 0, 
   "favorite_count": 2
  }, 
  {
   "text": "RT @PensInsideScoop: 5th straight game the Pens will play the opponent's backup goalie -SK \u201c@smitchcd: #CBJ G Curtis McElhinney will start \u2026", 
   "label": "O", 
   "id": 449575457084936192, 
   "hashtags": [
    "CBJ", 
    "Pens"
   ], 
   "user_mentions": [
    "PensInsideScoop", 
    "smitchcd"
   ], 
   "created_at": "Fri Mar 28 15:55:16 +0000 2014", 
   "retweet_count": 17, 
   "favorite_count": 0
  }, 
  {
   "text": "@THE_TimFritz Has our injury situation ever been good this season?", 
   "label": "O", 
   "id": 449570176179396608, 
   "hashtags": [], 
   "user_mentions": [
    "THE_TimFritz"
   ], 
   "created_at": "Fri Mar 28 15:34:17 +0000 2014", 
   "retweet_count": 6, 
   "favorite_count": 12
  }, 
  {
   "text": "Take a quick glance at these reassuring numbers from #Pens vs. #CBJ games this season. http://t.co/bCyvSziKwa", 
   "label": "O", 
   "id": 449569431635521536, 
   "hashtags": [
    "Pens", 
    "CBJ"
   ], 
   "user_mentions": [], 
   "created_at": "Fri Mar 28 15:31:19 +0000 2014", 
   "retweet_count": 105, 
   "favorite_count": 146
  }, 
  {
   "text": "Trottier, Clackson, Leroux, Larouche, Kachowski &amp; more! It'll be a full house tomorrow for the #Pens Alumni Poker Tournament @WinBigRivers!", 
   "label": "O", 
   "id": 449564600556871680, 
   "hashtags": [
    "Pens"
   ], 
   "user_mentions": [
    "WinBigRivers"
   ], 
   "created_at": "Fri Mar 28 15:12:07 +0000 2014", 
   "retweet_count": 6, 
   "favorite_count": 28
  }, 
  {
   "text": "Tonight is a @MillerLite Instant Win Night! Join us at Texas Roadhouse for drink specials, #PensPoints, and more. 21+ http://t.co/gioqAbeLzI", 
   "label": "O", 
   "id": 449558040048861184, 
   "hashtags": [
    "PensPoints"
   ], 
   "user_mentions": [
    "MillerLite"
   ], 
   "created_at": "Fri Mar 28 14:46:03 +0000 2014", 
   "retweet_count": 5, 
   "favorite_count": 22
  }, 
  {
   "text": "Need to start visualizing success for the #Pens? This UPMC Ultimate Highlight might help: http://t.co/BUaHKNnh2O", 
   "label": "O", 
   "id": 449557794312949761, 
   "hashtags": [
    "Pens"
   ], 
   "user_mentions": [], 
   "created_at": "Fri Mar 28 14:45:05 +0000 2014", 
   "retweet_count": 8, 
   "favorite_count": 23
  }, 
  {
   "text": "@93NikolaC Happy birthday Nikola! Have an awesome day. Let's get a win to celebrate! &lt;(\")", 
   "label": "O", 
   "id": 449554977913319424, 
   "hashtags": [], 
   "user_mentions": [
    "93NikolaC"
   ], 
   "created_at": "Fri Mar 28 14:33:53 +0000 2014", 
   "retweet_count": 2, 
   "favorite_count": 8
  }, 
  {
   "text": "It\u2019s get to know your #Pens Ice Crew day! Anne (http://t.co/5nu9FZLnWb) &amp; Steve (http://t.co/oN166Qhrxo) both have law-related dream jobs!", 
   "label": "O", 
   "id": 449540868685717504, 
   "hashtags": [
    "Pens"
   ], 
   "user_mentions": [], 
   "created_at": "Fri Mar 28 13:37:49 +0000 2014", 
   "retweet_count": 13, 
   "favorite_count": 35
  }, 
  {
   "text": "@Bottegal9 Not true. Highlights and endgame story here: http://t.co/TpvJC5VGdc (Sutter no-goal play starts right around 3:26).", 
   "label": "O", 
   "id": 449534290251251712, 
   "hashtags": [], 
   "user_mentions": [
    "Bottegal9"
   ], 
   "created_at": "Fri Mar 28 13:11:41 +0000 2014", 
   "retweet_count": 0, 
   "favorite_count": 1
  }, 
  {
   "text": "This has to be the best photo from last night\u2019s #Pens vs. #LAKings game. Full gallery here: http://t.co/dbfvzjWxTc http://t.co/l8mHob2PQT", 
   "label": "O", 
   "id": 449530891258167298, 
   "hashtags": [
    "Pens", 
    "LAKings"
   ], 
   "user_mentions": [], 
   "created_at": "Fri Mar 28 12:58:11 +0000 2014", 
   "retweet_count": 64, 
   "favorite_count": 185
  }
 ]
}