{
 "num_road_team_goals": "0", 
 "home_team": "Minnesota Wild", 
 "num_home_team_goals": "4", 
 "summary_url": "http://www.flyershistory.com/cgi-bin/poboxscore.cgi?H20131168", 
 "result": "L", 
 "road_team": "Pittsburgh Penguins", 
 "date": "2014-04-05", 
 "goals": [
  {
   "season_index": "5", 
   "strength": "(EV)", 
   "time": "1:42", 
   "period": "1", 
   "player": "E.Haula", 
   "assists": "(M.Moulson, J.Pominville)", 
   "game_index": "1", 
   "team": "MIN"
  }, 
  {
   "season_index": "11", 
   "strength": "(EV)", 
   "time": "8:47", 
   "period": "1", 
   "player": "M.Koivu", 
   "assists": "(Z.Parise, C.Coyle)", 
   "game_index": "2", 
   "team": "MIN"
  }, 
  {
   "season_index": "3", 
   "strength": "(EV)", 
   "time": "14:56", 
   "period": "1", 
   "player": "S.Veilleux", 
   "assists": "(C.McCormick)", 
   "game_index": "3", 
   "team": "MIN"
  }, 
  {
   "season_index": "2", 
   "strength": "(EV)", 
   "time": "6:24", 
   "period": "2", 
   "player": "C.McCormick", 
   "assists": "(Z.Parise, C.Coyle)", 
   "game_index": "4", 
   "team": "MIN"
  }
 ], 
 "tweets": [
  {
   "text": "Tonight was rough, but we are hoping tomorrow is much, much better. Check out the Scouting Report on the #Avs: http://t.co/U7l46l6C50", 
   "label": "O", 
   "id": 452651275415334912, 
   "hashtags": [
    "Avs"
   ], 
   "user_mentions": [], 
   "created_at": "Sun Apr 06 03:37:28 +0000 2014", 
   "retweet_count": 15, 
   "favorite_count": 62
  }, 
  {
   "text": "Olli Maatta has an upper-body injury and is day-to-day, per #Pens coach Dan Bylsma. Not expected to be long-term.", 
   "label": "O", 
   "id": 452637369750265856, 
   "hashtags": [
    "Pens"
   ], 
   "user_mentions": [], 
   "created_at": "Sun Apr 06 02:42:13 +0000 2014", 
   "retweet_count": 68, 
   "favorite_count": 109
  }, 
  {
   "text": "FINAL: #Pens fall to #MNWild, 4-0. http://t.co/yrRomvCnZs", 
   "label": "O", 
   "id": 452633169934561280, 
   "hashtags": [
    "Pens", 
    "MNWild"
   ], 
   "user_mentions": [], 
   "created_at": "Sun Apr 06 02:25:31 +0000 2014", 
   "retweet_count": 48, 
   "favorite_count": 86
  }, 
  {
   "text": "@PensInsideScoop So close! http://t.co/8iNHmHFA05", 
   "label": "O", 
   "id": 452632877423800320, 
   "hashtags": [], 
   "user_mentions": [
    "PensInsideScoop"
   ], 
   "created_at": "Sun Apr 06 02:24:22 +0000 2014", 
   "retweet_count": 11, 
   "favorite_count": 58
  }, 
  {
   "text": "RT @PensInsideScoop: #Pens need to concentrate on building some good habits this period &amp; hope for the best. See what happens -SK", 
   "label": "O", 
   "id": 452626163530469377, 
   "hashtags": [
    "Pens"
   ], 
   "user_mentions": [
    "PensInsideScoop"
   ], 
   "created_at": "Sun Apr 06 01:57:41 +0000 2014", 
   "retweet_count": 22, 
   "favorite_count": 0
  }, 
  {
   "text": "Puck drops and the 3rd period is underway. Bortuzzo still in the box for the #Pens. http://t.co/ZGtt6ARS0b", 
   "label": "O", 
   "id": 452625280557805568, 
   "hashtags": [
    "Pens"
   ], 
   "user_mentions": [], 
   "created_at": "Sun Apr 06 01:54:10 +0000 2014", 
   "retweet_count": 33, 
   "favorite_count": 83
  }, 
  {
   "text": "END 2: #Pens trail #MNWild, 4-0. Robert Bortuzzo will be in the box for 1:43 at the start of the 3rd.", 
   "label": "O", 
   "id": 452620630832476161, 
   "hashtags": [
    "Pens", 
    "MNWild"
   ], 
   "user_mentions": [], 
   "created_at": "Sun Apr 06 01:35:42 +0000 2014", 
   "retweet_count": 21, 
   "favorite_count": 32
  }, 
  {
   "text": "McCormick scores for #MNWild, his 2nd of the season. #Pens trailing 4-0 with 13:36 remaining in the 2nd.", 
   "label": "O", 
   "id": 452614309953404929, 
   "hashtags": [
    "MNWild", 
    "Pens"
   ], 
   "user_mentions": [], 
   "created_at": "Sun Apr 06 01:10:35 +0000 2014", 
   "retweet_count": 16, 
   "favorite_count": 20
  }, 
  {
   "text": "Puck drops for the 2nd period and #Pens vs. #MNWild is underway. Time to regroup and take this one back!", 
   "label": "O", 
   "id": 452612346947829760, 
   "hashtags": [
    "Pens", 
    "MNWild"
   ], 
   "user_mentions": [], 
   "created_at": "Sun Apr 06 01:02:47 +0000 2014", 
   "retweet_count": 22, 
   "favorite_count": 47
  }, 
  {
   "text": "#Pens Ebbett between periods: \u201cI think you saw a team on their side that is battling for their playoff spot\u2026 We gotta kinda regroup here.\"", 
   "label": "O", 
   "id": 452609221251833856, 
   "hashtags": [
    "Pens"
   ], 
   "user_mentions": [], 
   "created_at": "Sun Apr 06 00:50:22 +0000 2014", 
   "retweet_count": 19, 
   "favorite_count": 43
  }, 
  {
   "text": "END 1: #Pens down 3-0 to #MNWild.", 
   "label": "O", 
   "id": 452607652913479680, 
   "hashtags": [
    "Pens", 
    "MNWild"
   ], 
   "user_mentions": [], 
   "created_at": "Sun Apr 06 00:44:08 +0000 2014", 
   "retweet_count": 36, 
   "favorite_count": 46
  }, 
  {
   "text": "Crosby draws a penalty. Brodziak goes to the box and the #Pens start on the PP. Pens PP is 23.3% &amp; 2nd in league rankings. 4:28 left in 1st.", 
   "label": "O", 
   "id": 452606260618481664, 
   "hashtags": [
    "Pens"
   ], 
   "user_mentions": [], 
   "created_at": "Sun Apr 06 00:38:36 +0000 2014", 
   "retweet_count": 23, 
   "favorite_count": 52
  }, 
  {
   "text": "#MNWild get their 3rd of the night. Goal scored by Veilleux. #Pens trailing 3-0 with 5:04 remaining in the 1st.", 
   "label": "O", 
   "id": 452605717132759040, 
   "hashtags": [
    "MNWild", 
    "Pens"
   ], 
   "user_mentions": [], 
   "created_at": "Sun Apr 06 00:36:26 +0000 2014", 
   "retweet_count": 15, 
   "favorite_count": 21
  }, 
  {
   "text": "Minnesota scores another with 11:13 to go in the 1st. Goal scored by Koivu, his 11th of the season. #Pens trail 2-0. Time to play catch up!", 
   "label": "O", 
   "id": 452603116417212417, 
   "hashtags": [
    "Pens"
   ], 
   "user_mentions": [], 
   "created_at": "Sun Apr 06 00:26:06 +0000 2014", 
   "retweet_count": 19, 
   "favorite_count": 41
  }, 
  {
   "text": "#Pens successfully kill off the penalty on Stempniak. Penguins PK is 85.3%, 4th in league rankings. 12:27 remaining in the 1st.", 
   "label": "O", 
   "id": 452601685769457664, 
   "hashtags": [
    "Pens"
   ], 
   "user_mentions": [], 
   "created_at": "Sun Apr 06 00:20:25 +0000 2014", 
   "retweet_count": 18, 
   "favorite_count": 56
  }, 
  {
   "text": "#MNWild registers an early goal with 18:18 remaining in the 1st. Goal scored by Erik Haula, his 5th of the season. #Pens trailing 1-0.", 
   "label": "O", 
   "id": 452599919225094144, 
   "hashtags": [
    "MNWild", 
    "Pens"
   ], 
   "user_mentions": [], 
   "created_at": "Sun Apr 06 00:13:24 +0000 2014", 
   "retweet_count": 9, 
   "favorite_count": 20
  }, 
  {
   "text": "Puck drops and we are underway!", 
   "label": "O", 
   "id": 452598765535657984, 
   "hashtags": [], 
   "user_mentions": [], 
   "created_at": "Sun Apr 06 00:08:49 +0000 2014", 
   "retweet_count": 74, 
   "favorite_count": 133
  }, 
  {
   "text": "@tracy_britt See tweet from earlier today:  http://t.co/NIQ5Klc2tT", 
   "label": "O", 
   "id": 452597926653853696, 
   "hashtags": [], 
   "user_mentions": [
    "tracy_britt"
   ], 
   "created_at": "Sun Apr 06 00:05:29 +0000 2014", 
   "retweet_count": 0, 
   "favorite_count": 0
  }, 
  {
   "text": "Olli Maatta is out tonight due to injury. Head coach Dan Bylsma will provide an update after the game #Pens", 
   "label": "O", 
   "id": 452595867535425536, 
   "hashtags": [
    "Pens"
   ], 
   "user_mentions": [], 
   "created_at": "Sat Apr 05 23:57:18 +0000 2014", 
   "retweet_count": 83, 
   "favorite_count": 79
  }, 
  {
   "text": "Digital 411: @penguins = goal &amp; period updates, @PensInsideScoop = play-by-play. Hashtags: #Pens #mnwild Radio: http://t.co/8hwEQYhbJv", 
   "label": "O", 
   "id": 452595154323374080, 
   "hashtags": [
    "Pens", 
    "mnwild"
   ], 
   "user_mentions": [
    "penguins", 
    "PensInsideScoop"
   ], 
   "created_at": "Sat Apr 05 23:54:28 +0000 2014", 
   "retweet_count": 3, 
   "favorite_count": 20
  }, 
  {
   "text": "Tonight's #Pens D: Orpik-Martin, Niskanen-Despres, Scuderi-Bortuzzo. Zatkoff in net.", 
   "label": "O", 
   "id": 452593320842502144, 
   "hashtags": [
    "Pens"
   ], 
   "user_mentions": [], 
   "created_at": "Sat Apr 05 23:47:11 +0000 2014", 
   "retweet_count": 40, 
   "favorite_count": 74
  }, 
  {
   "text": "Tonight's #Pens lines: Kunitz-Crosby-Bennett, Gibbons-Sutter-Neal, Megna-Ebbett-Stempniak, Pyatt-Adams-Glass.", 
   "label": "O", 
   "id": 452592920353603584, 
   "hashtags": [
    "Pens"
   ], 
   "user_mentions": [], 
   "created_at": "Sat Apr 05 23:45:35 +0000 2014", 
   "retweet_count": 66, 
   "favorite_count": 122
  }, 
  {
   "text": "@Jrogo75 @scotter21 We like his style! But he needs a new hat...", 
   "label": "O", 
   "id": 452591279197945856, 
   "hashtags": [], 
   "user_mentions": [
    "Jrogo75", 
    "scotter21"
   ], 
   "created_at": "Sat Apr 05 23:39:04 +0000 2014", 
   "retweet_count": 0, 
   "favorite_count": 2
  }, 
  {
   "text": "RT @PensInsideScoop: BREAKING: Sources tell me Dan Potash of @ROOTSPORTSPIT is out of the lineup tonight with an upper-body injury (illness\u2026", 
   "label": "O", 
   "id": 452589836315406337, 
   "hashtags": [], 
   "user_mentions": [
    "PensInsideScoop", 
    "ROOTSPORTSPIT"
   ], 
   "created_at": "Sat Apr 05 23:33:20 +0000 2014", 
   "retweet_count": 87, 
   "favorite_count": 0
  }, 
  {
   "text": "Game day fact: #Pens have already amassed the third-highest single-season win total and the fifth-highest point total in franchise history.", 
   "label": "O", 
   "id": 452586383744708608, 
   "hashtags": [
    "Pens"
   ], 
   "user_mentions": [], 
   "created_at": "Sat Apr 05 23:19:37 +0000 2014", 
   "retweet_count": 47, 
   "favorite_count": 84
  }, 
  {
   "text": "Stats upon stats upon stats heading into tonight\u2019s #Pens vs. #mnwild game. Let\u2019s Go Pens! http://t.co/g1w54MiROG", 
   "label": "O", 
   "id": 452574712812404737, 
   "hashtags": [
    "Pens", 
    "mnwild"
   ], 
   "user_mentions": [], 
   "created_at": "Sat Apr 05 22:33:14 +0000 2014", 
   "retweet_count": 59, 
   "favorite_count": 105
  }, 
  {
   "text": "#Pens take on #mnwild at 8PM EDT in Minnesota. Watch on @ROOTSPORTSPIT or listen on @1059theX: http://t.co/lHW4dLowf2.", 
   "label": "O", 
   "id": 452556296664141824, 
   "hashtags": [
    "Pens", 
    "mnwild"
   ], 
   "user_mentions": [
    "ROOTSPORTSPIT", 
    "1059thex"
   ], 
   "created_at": "Sat Apr 05 21:20:03 +0000 2014", 
   "retweet_count": 26, 
   "favorite_count": 52
  }, 
  {
   "text": "Player interviews with Pauly &amp; Nisky and a pre-game chat with former Penguin, Matt Cooke, in today\u2019s Game Day Report: http://t.co/6P0dFovhW4", 
   "label": "O", 
   "id": 452550610030559232, 
   "hashtags": [], 
   "user_mentions": [], 
   "created_at": "Sat Apr 05 20:57:28 +0000 2014", 
   "retweet_count": 12, 
   "favorite_count": 42
  }, 
  {
   "text": "@xtravralstonx You know what to do! &lt;(\u201c)", 
   "label": "O", 
   "id": 452540294987526144, 
   "hashtags": [], 
   "user_mentions": [
    "xtravralstonx"
   ], 
   "created_at": "Sat Apr 05 20:16:28 +0000 2014", 
   "retweet_count": 1, 
   "favorite_count": 4
  }, 
  {
   "text": "Niskanen: \u201cIt\u2019s always fun playing in your home state. I have a lot of people that I know in the building tonight.\u201d http://t.co/svs8xbGpaQ", 
   "label": "O", 
   "id": 452540039965061120, 
   "hashtags": [], 
   "user_mentions": [], 
   "created_at": "Sat Apr 05 20:15:27 +0000 2014", 
   "retweet_count": 33, 
   "favorite_count": 98
  }, 
  {
   "text": "FedEx PENS PREDICTOR: Who will score #Pens first goal? Txt Jersey # to 32623. You could win a stay @CambriaPIT. Rules http://t.co/EPNjlWOLJi", 
   "label": "O", 
   "id": 452536215699730432, 
   "hashtags": [
    "Pens"
   ], 
   "user_mentions": [
    "CambriaPIT"
   ], 
   "created_at": "Sat Apr 05 20:00:16 +0000 2014", 
   "retweet_count": 9, 
   "favorite_count": 26
  }, 
  {
   "text": "Martin on tix for tonight: \u201cMy dad got 160\u2026 There will be a lot of family and friends tonight cheering for the #Pens\u201d http://t.co/xnM7XzFeKr", 
   "label": "O", 
   "id": 452531430166630400, 
   "hashtags": [
    "Pens"
   ], 
   "user_mentions": [], 
   "created_at": "Sat Apr 05 19:41:15 +0000 2014", 
   "retweet_count": 44, 
   "favorite_count": 118
  }, 
  {
   "text": "Players tell how they got their hockey numbers &amp; tons more on a NEW Inside Penguins Hockey TONIGHT after the post-game on @ROOTSPORTSPIT.", 
   "label": "O", 
   "id": 452525134612791296, 
   "hashtags": [], 
   "user_mentions": [
    "ROOTSPORTSPIT"
   ], 
   "created_at": "Sat Apr 05 19:16:14 +0000 2014", 
   "retweet_count": 16, 
   "favorite_count": 59
  }, 
  {
   "text": "#Pens LEARN TO PLAY DEK HOCKEY program registration is up now at 7 local Dek Hockey centers for kids ages 4-9. Info: http://t.co/5G9d3sGVhj", 
   "label": "O", 
   "id": 452518541527613441, 
   "hashtags": [
    "Pens"
   ], 
   "user_mentions": [], 
   "created_at": "Sat Apr 05 18:50:02 +0000 2014", 
   "retweet_count": 11, 
   "favorite_count": 33
  }, 
  {
   "text": "#Pens starting goalie Jeff Zatkoff will start tonight vs #mnwild", 
   "label": "O", 
   "id": 452500373807173632, 
   "hashtags": [
    "Pens", 
    "mnwild"
   ], 
   "user_mentions": [], 
   "created_at": "Sat Apr 05 17:37:50 +0000 2014", 
   "retweet_count": 67, 
   "favorite_count": 144
  }, 
  {
   "text": "Head coach Dan Bylsma said Jussi Jokinen's upper-body injury is \"not long term at this point.\" #Pens", 
   "label": "O", 
   "id": 452498806094180352, 
   "hashtags": [
    "Pens"
   ], 
   "user_mentions": [], 
   "created_at": "Sat Apr 05 17:31:37 +0000 2014", 
   "retweet_count": 43, 
   "favorite_count": 80
  }, 
  {
   "text": "Joe Vitale returned to Pittsburgh for further evaluation for mid-body injury. Jussi Jokinen out tonight with upper-body injury #Pens", 
   "label": "O", 
   "id": 452497814652583938, 
   "hashtags": [
    "Pens"
   ], 
   "user_mentions": [], 
   "created_at": "Sat Apr 05 17:27:40 +0000 2014", 
   "retweet_count": 68, 
   "favorite_count": 73
  }, 
  {
   "text": "@dachow90 He's injured so he is not on the trip.", 
   "label": "O", 
   "id": 452492924060971008, 
   "hashtags": [], 
   "user_mentions": [
    "dachow90"
   ], 
   "created_at": "Sat Apr 05 17:08:14 +0000 2014", 
   "retweet_count": 0, 
   "favorite_count": 2
  }, 
  {
   "text": "Scuderi winds up and practices his slapshot at #Pens morning skate. http://t.co/UG6jAl1gDj", 
   "label": "O", 
   "id": 452490797179744256, 
   "hashtags": [
    "Pens"
   ], 
   "user_mentions": [], 
   "created_at": "Sat Apr 05 16:59:47 +0000 2014", 
   "retweet_count": 6, 
   "favorite_count": 44
  }, 
  {
   "text": "Tonight is the front end of the #Pens fifteenth set of back-to-back games. Thus far, they have a record of 18-9-1. http://t.co/3L3NGGOd8v", 
   "label": "O", 
   "id": 452489516381519872, 
   "hashtags": [
    "Pens"
   ], 
   "user_mentions": [], 
   "created_at": "Sat Apr 05 16:54:42 +0000 2014", 
   "retweet_count": 29, 
   "favorite_count": 126
  }, 
  {
   "text": "The #Pens are not running line rushes at morning skate today.", 
   "label": "O", 
   "id": 452486900163809280, 
   "hashtags": [
    "Pens"
   ], 
   "user_mentions": [], 
   "created_at": "Sat Apr 05 16:44:18 +0000 2014", 
   "retweet_count": 9, 
   "favorite_count": 67
  }, 
  {
   "text": "Want #PensPoints &amp; the chance to win tix? Tonight is a @MillerLite Instant Win! Join us at Main Street Brewhouse, 21+ http://t.co/gioqAbeLzI", 
   "label": "O", 
   "id": 452485328113516544, 
   "hashtags": [
    "PensPoints"
   ], 
   "user_mentions": [
    "MillerLite"
   ], 
   "created_at": "Sat Apr 05 16:38:03 +0000 2014", 
   "retweet_count": 7, 
   "favorite_count": 28
  }, 
  {
   "text": "#Pens D Paul Martin is back in his home state, and is ready to take on the Minnesota Wild later tonight. http://t.co/7MxlQYHFzm", 
   "label": "O", 
   "id": 452484994938576897, 
   "hashtags": [
    "Pens"
   ], 
   "user_mentions": [], 
   "created_at": "Sat Apr 05 16:36:44 +0000 2014", 
   "retweet_count": 57, 
   "favorite_count": 242
  }, 
  {
   "text": "Help animals, win prizes/@PensPoints! Join #Pens &amp; @Walgreens for Pet Supplies Collection for @AnimalRescueLg on 4/12 http://t.co/jeW1ABpo5r", 
   "label": "O", 
   "id": 452457904004939776, 
   "hashtags": [
    "Pens"
   ], 
   "user_mentions": [
    "PensPoints", 
    "Walgreens", 
    "AnimalRescueLg"
   ], 
   "created_at": "Sat Apr 05 14:49:05 +0000 2014", 
   "retweet_count": 19, 
   "favorite_count": 34
  }, 
  {
   "text": "Tonight marks the #Pens first visit back to Minnesota since Oct. 18, 2011. In that game, the Penguins earned a 4-2 victory over the Wild.", 
   "label": "O", 
   "id": 452436820132102144, 
   "hashtags": [
    "Pens"
   ], 
   "user_mentions": [], 
   "created_at": "Sat Apr 05 13:25:18 +0000 2014", 
   "retweet_count": 62, 
   "favorite_count": 125
  }, 
  {
   "text": "Good morning, #Pens fans! Get your game day started with Pensweek presented by @iwlocal3. LISTEN: http://t.co/UUHdtcNMgM!", 
   "label": "O", 
   "id": 452429964668059648, 
   "hashtags": [
    "Pens"
   ], 
   "user_mentions": [
    "iwlocal3"
   ], 
   "created_at": "Sat Apr 05 12:58:03 +0000 2014", 
   "retweet_count": 8, 
   "favorite_count": 55
  }
 ]
}