{
 "num_road_team_goals": "2", 
 "home_team": "Dallas Stars", 
 "num_home_team_goals": "3", 
 "summary_url": "http://www.flyershistory.com/cgi-bin/poboxscore.cgi?H20130921", 
 "result": "L", 
 "road_team": "Buffalo Sabres", 
 "date": "2014-03-03", 
 "goals": [
  {
   "season_index": "15", 
   "strength": "(EV)", 
   "time": "17:17", 
   "period": "1", 
   "player": "T.Ennis", 
   "assists": "(D.Stafford, M.Moulson)", 
   "game_index": "1", 
   "team": "BUF"
  }, 
  {
   "season_index": "3", 
   "strength": "(EV)", 
   "time": "1:30", 
   "period": "2", 
   "player": "J.Benn", 
   "assists": "(R.Whitney, T.Seguin)", 
   "game_index": "2", 
   "team": "DAL"
  }, 
  {
   "season_index": "3", 
   "strength": "(EV)", 
   "time": "19:54", 
   "period": "2", 
   "player": "A.Goligoski", 
   "assists": "(S.Horcoff, R.Garbutt)", 
   "game_index": "3", 
   "team": "DAL"
  }, 
  {
   "season_index": "16", 
   "strength": "(EV)", 
   "time": "3:23", 
   "period": "3", 
   "player": "T.Ennis", 
   "assists": "(M.Moulson, J.McBain)", 
   "game_index": "4", 
   "team": "BUF"
  }, 
  {
   "season_index": "10", 
   "strength": "(PP)", 
   "time": "10:25", 
   "period": "3", 
   "player": "A.Chiasson", 
   "assists": "(J.Benn, R.Whitney)", 
   "game_index": "5", 
   "team": "DAL"
  }
 ], 
 "tweets": [
  {
   "text": "Enroth named 1st star as #Sabres fall just short of #Stars. http://t.co/q9etb8ecTZ", 
   "label": "O", 
   "id": 440697648970887169, 
   "hashtags": [
    "Sabres", 
    "Stars"
   ], 
   "user_mentions": [], 
   "created_at": "Tue Mar 04 03:58:01 +0000 2014", 
   "retweet_count": 29, 
   "favorite_count": 64
  }, 
  {
   "text": "You've got to see this again. Drew Stafford's nifty saucer to Tyler Ennis for #Sabres 1st goal http://t.co/0MhR3rbSuu http://t.co/m2ckFUwk6u", 
   "label": "O", 
   "id": 440696038564069376, 
   "hashtags": [
    "Sabres"
   ], 
   "user_mentions": [], 
   "created_at": "Tue Mar 04 03:51:37 +0000 2014", 
   "retweet_count": 59, 
   "favorite_count": 102
  }, 
  {
   "text": "Ennis finished with 2 goals, Moulson 2 assists tonight. #Sabres", 
   "label": "O", 
   "id": 440693712922767360, 
   "hashtags": [
    "Sabres"
   ], 
   "user_mentions": [], 
   "created_at": "Tue Mar 04 03:42:23 +0000 2014", 
   "retweet_count": 22, 
   "favorite_count": 70
  }, 
  {
   "text": "@CMLamarca :-/", 
   "label": "O", 
   "id": 440693399843127296, 
   "hashtags": [], 
   "user_mentions": [
    "CMLamarca"
   ], 
   "created_at": "Tue Mar 04 03:41:08 +0000 2014", 
   "retweet_count": 1, 
   "favorite_count": 7
  }, 
  {
   "text": "Official scoresheet gives Enroth another save. Well deserved 36 stops. #Sabres", 
   "label": "O", 
   "id": 440693205818822656, 
   "hashtags": [
    "Sabres"
   ], 
   "user_mentions": [], 
   "created_at": "Tue Mar 04 03:40:22 +0000 2014", 
   "retweet_count": 15, 
   "favorite_count": 55
  }, 
  {
   "text": "That's it. #Stars prevail 3-2 over #Sabres. Enroth 35 saves.", 
   "label": "O", 
   "id": 440692470955782144, 
   "hashtags": [
    "Stars", 
    "Sabres"
   ], 
   "user_mentions": [], 
   "created_at": "Tue Mar 04 03:37:27 +0000 2014", 
   "retweet_count": 15, 
   "favorite_count": 23
  }, 
  {
   "text": "#Sabres kill the penalty. Final 20 seconds. Empty net.", 
   "label": "O", 
   "id": 440692278898614274, 
   "hashtags": [
    "Sabres"
   ], 
   "user_mentions": [], 
   "created_at": "Tue Mar 04 03:36:41 +0000 2014", 
   "retweet_count": 3, 
   "favorite_count": 13
  }, 
  {
   "text": "@RobertForrest12 it's OK, you? We're just playing hockey.", 
   "label": "O", 
   "id": 440691851633258496, 
   "hashtags": [], 
   "user_mentions": [
    "RobertForrest12"
   ], 
   "created_at": "Tue Mar 04 03:34:59 +0000 2014", 
   "retweet_count": 1, 
   "favorite_count": 4
  }, 
  {
   "text": "Tyler Ennis can penalty kill too.", 
   "label": "O", 
   "id": 440691612025245696, 
   "hashtags": [], 
   "user_mentions": [], 
   "created_at": "Tue Mar 04 03:34:02 +0000 2014", 
   "retweet_count": 21, 
   "favorite_count": 59
  }, 
  {
   "text": "Too many men on the ice called on #Sabres with 2:20 left in the 3rd.", 
   "label": "O", 
   "id": 440691397725679616, 
   "hashtags": [
    "Sabres"
   ], 
   "user_mentions": [], 
   "created_at": "Tue Mar 04 03:33:11 +0000 2014", 
   "retweet_count": 4, 
   "favorite_count": 10
  }, 
  {
   "text": "@TheJessieJoy Thank you! We try!", 
   "label": "O", 
   "id": 440690887526346752, 
   "hashtags": [], 
   "user_mentions": [
    "TheJessieJoy"
   ], 
   "created_at": "Tue Mar 04 03:31:09 +0000 2014", 
   "retweet_count": 0, 
   "favorite_count": 1
  }, 
  {
   "text": "Knuckle-puck turned aside by Enroth.", 
   "label": "O", 
   "id": 440690286553858048, 
   "hashtags": [], 
   "user_mentions": [], 
   "created_at": "Tue Mar 04 03:28:46 +0000 2014", 
   "retweet_count": 5, 
   "favorite_count": 32
  }, 
  {
   "text": "Extracurriculars. Refs break it up. #Sabres #Stars", 
   "label": "O", 
   "id": 440688521926295552, 
   "hashtags": [
    "Sabres", 
    "Stars"
   ], 
   "user_mentions": [], 
   "created_at": "Tue Mar 04 03:21:45 +0000 2014", 
   "retweet_count": 10, 
   "favorite_count": 32
  }, 
  {
   "text": "@AnnaBreed @thereal_fredo What? No. Not us.", 
   "label": "O", 
   "id": 440688398081073152, 
   "hashtags": [], 
   "user_mentions": [
    "AnnaBreed", 
    "thereal_fredo"
   ], 
   "created_at": "Tue Mar 04 03:21:16 +0000 2014", 
   "retweet_count": 2, 
   "favorite_count": 7
  }, 
  {
   "text": "Good goal for Dallas. #Sabres trail 3-2 with 9:35 left in the 3rd.", 
   "label": "O", 
   "id": 440687210749100032, 
   "hashtags": [
    "Sabres"
   ], 
   "user_mentions": [], 
   "created_at": "Tue Mar 04 03:16:33 +0000 2014", 
   "retweet_count": 5, 
   "favorite_count": 14
  }, 
  {
   "text": "Long shot from the point with traffic in front fools the goalie, and #Stars take a 3-2 lead (maybe?). Under review.", 
   "label": "O", 
   "id": 440687046319820800, 
   "hashtags": [
    "Stars"
   ], 
   "user_mentions": [], 
   "created_at": "Tue Mar 04 03:15:54 +0000 2014", 
   "retweet_count": 4, 
   "favorite_count": 17
  }, 
  {
   "text": "RT @KevinWeekes: Great patience,feel,control by Enroth.Last of 5'10 goalies in @NHL but plays way bigger than his height.\n@BuffaloSabres", 
   "label": "O", 
   "id": 440686465488388096, 
   "hashtags": [], 
   "user_mentions": [
    "KevinWeekes", 
    "NHL", 
    "BuffaloSabres"
   ], 
   "created_at": "Tue Mar 04 03:13:35 +0000 2014", 
   "retweet_count": 31, 
   "favorite_count": 0
  }, 
  {
   "text": "@KFanning8271 @stevensnyderxx We love all our fans.", 
   "label": "O", 
   "id": 440686312337575936, 
   "hashtags": [], 
   "user_mentions": [
    "KFanning8271", 
    "stevensnyderxx"
   ], 
   "created_at": "Tue Mar 04 03:12:59 +0000 2014", 
   "retweet_count": 2, 
   "favorite_count": 2
  }, 
  {
   "text": "Enroth 29 saves on 31 shots for .935 SV % halfway through the 3rd.", 
   "label": "O", 
   "id": 440686145970507777, 
   "hashtags": [], 
   "user_mentions": [], 
   "created_at": "Tue Mar 04 03:12:19 +0000 2014", 
   "retweet_count": 17, 
   "favorite_count": 44
  }, 
  {
   "text": "@stevensnyderxx thanks Steven for the support", 
   "label": "O", 
   "id": 440685924456742913, 
   "hashtags": [], 
   "user_mentions": [
    "stevensnyderxx"
   ], 
   "created_at": "Tue Mar 04 03:11:26 +0000 2014", 
   "retweet_count": 3, 
   "favorite_count": 7
  }, 
  {
   "text": "RT @NHLonNBCSports: What a save by Enroth! #NHLonNBC #HighlightReel", 
   "label": "O", 
   "id": 440685706164588544, 
   "hashtags": [
    "NHLonNBC", 
    "HighlightReel"
   ], 
   "user_mentions": [
    "NHLonNBCSports"
   ], 
   "created_at": "Tue Mar 04 03:10:34 +0000 2014", 
   "retweet_count": 77, 
   "favorite_count": 0
  }, 
  {
   "text": "@AjDiRienzo93 cool, thank you for being a dedicated fan.", 
   "label": "O", 
   "id": 440685644163985408, 
   "hashtags": [], 
   "user_mentions": [
    "AjDiRienzo93"
   ], 
   "created_at": "Tue Mar 04 03:10:19 +0000 2014", 
   "retweet_count": 1, 
   "favorite_count": 12
  }, 
  {
   "text": "SAVE OF THE GAME BY ENROTH!", 
   "label": "O", 
   "id": 440685412466446338, 
   "hashtags": [], 
   "user_mentions": [], 
   "created_at": "Tue Mar 04 03:09:24 +0000 2014", 
   "retweet_count": 81, 
   "favorite_count": 136
  }, 
  {
   "text": "Keep an eye out for #80 Chris Stewart, making his #Sabres debut tonight.", 
   "label": "O", 
   "id": 440684982575456257, 
   "hashtags": [
    "Sabres"
   ], 
   "user_mentions": [], 
   "created_at": "Tue Mar 04 03:07:42 +0000 2014", 
   "retweet_count": 16, 
   "favorite_count": 52
  }, 
  {
   "text": "Pass. Pass. Shoot. Goalie holds on. #Sabres pressuring on the PP.", 
   "label": "O", 
   "id": 440684176157577216, 
   "hashtags": [
    "Sabres"
   ], 
   "user_mentions": [], 
   "created_at": "Tue Mar 04 03:04:29 +0000 2014", 
   "retweet_count": 7, 
   "favorite_count": 19
  }, 
  {
   "text": "And now... #Sabres headed to their first power play of the game. 2 for hooking on Roussel.", 
   "label": "O", 
   "id": 440683875681845248, 
   "hashtags": [
    "Sabres"
   ], 
   "user_mentions": [], 
   "created_at": "Tue Mar 04 03:03:18 +0000 2014", 
   "retweet_count": 8, 
   "favorite_count": 23
  }, 
  {
   "text": "GOAL!!! Tyler Ennis buries it -- AGAIN! #Sabres tie it 2-2 just 3:23 into the 3rd.", 
   "label": "O", 
   "id": 440683429844111360, 
   "hashtags": [
    "Sabres"
   ], 
   "user_mentions": [], 
   "created_at": "Tue Mar 04 03:01:31 +0000 2014", 
   "retweet_count": 122, 
   "favorite_count": 144
  }, 
  {
   "text": "#Sabres prospect Mikhail Grigorenko fattens his stat line to 13 goals, 26 points in 17 games. http://t.co/oKZyGQVtBb", 
   "label": "O", 
   "id": 440683294984638464, 
   "hashtags": [
    "Sabres"
   ], 
   "user_mentions": [], 
   "created_at": "Tue Mar 04 03:00:59 +0000 2014", 
   "retweet_count": 40, 
   "favorite_count": 41
  }, 
  {
   "text": "3rd period starts right now. #Sabres #Stars", 
   "label": "O", 
   "id": 440682001650024448, 
   "hashtags": [
    "Sabres", 
    "Stars"
   ], 
   "user_mentions": [], 
   "created_at": "Tue Mar 04 02:55:51 +0000 2014", 
   "retweet_count": 7, 
   "favorite_count": 20
  }, 
  {
   "text": "@3rdManIn Goligoski #yourewelcome", 
   "label": "O", 
   "id": 440680572130582528, 
   "hashtags": [
    "yourewelcome"
   ], 
   "user_mentions": [
    "3rdManIn"
   ], 
   "created_at": "Tue Mar 04 02:50:10 +0000 2014", 
   "retweet_count": 0, 
   "favorite_count": 1
  }, 
  {
   "text": "@3rdManIn Jordie", 
   "label": "O", 
   "id": 440679951516184576, 
   "hashtags": [], 
   "user_mentions": [
    "3rdManIn"
   ], 
   "created_at": "Tue Mar 04 02:47:42 +0000 2014", 
   "retweet_count": 0, 
   "favorite_count": 0
  }, 
  {
   "text": "@stevensnyderxx yeah, just laying it all out there", 
   "label": "O", 
   "id": 440679701917335552, 
   "hashtags": [], 
   "user_mentions": [
    "stevensnyderxx"
   ], 
   "created_at": "Tue Mar 04 02:46:43 +0000 2014", 
   "retweet_count": 2, 
   "favorite_count": 8
  }, 
  {
   "text": "If we're going to win our 4th straight, we'll need a comeback tonight.", 
   "label": "O", 
   "id": 440679500418789377, 
   "hashtags": [], 
   "user_mentions": [], 
   "created_at": "Tue Mar 04 02:45:54 +0000 2014", 
   "retweet_count": 37, 
   "favorite_count": 72
  }, 
  {
   "text": "@ZadorovShoulder #symmetrical", 
   "label": "O", 
   "id": 440678622227992576, 
   "hashtags": [
    "symmetrical"
   ], 
   "user_mentions": [
    "ZadorovShoulder"
   ], 
   "created_at": "Tue Mar 04 02:42:25 +0000 2014", 
   "retweet_count": 0, 
   "favorite_count": 7
  }, 
  {
   "text": "RT @ChuckyT12: @BuffaloSabres Let's Go Buffalo!!!! http://t.co/GjGOm8SeMQ", 
   "label": "O", 
   "id": 440677890871402496, 
   "hashtags": [], 
   "user_mentions": [
    "ChuckyT12", 
    "BuffaloSabres"
   ], 
   "created_at": "Tue Mar 04 02:39:31 +0000 2014", 
   "retweet_count": 4, 
   "favorite_count": 0
  }, 
  {
   "text": "Shots on goal are 28-14 #Stars after 40 minutes. 2-1 Dallas leads.", 
   "label": "O", 
   "id": 440677747057106944, 
   "hashtags": [
    "Stars"
   ], 
   "user_mentions": [], 
   "created_at": "Tue Mar 04 02:38:56 +0000 2014", 
   "retweet_count": 2, 
   "favorite_count": 8
  }, 
  {
   "text": "The #Stars with overwhelming pressure and finally get one to the net with 5 seconds left in the 2nd. 2-1 Dallas.", 
   "label": "O", 
   "id": 440677286350581760, 
   "hashtags": [
    "Stars"
   ], 
   "user_mentions": [], 
   "created_at": "Tue Mar 04 02:37:07 +0000 2014", 
   "retweet_count": 3, 
   "favorite_count": 7
  }, 
  {
   "text": "*copies, pastes*\nENROTH THE STOP!", 
   "label": "O", 
   "id": 440676970892759040, 
   "hashtags": [], 
   "user_mentions": [], 
   "created_at": "Tue Mar 04 02:35:51 +0000 2014", 
   "retweet_count": 28, 
   "favorite_count": 90
  }, 
  {
   "text": "Score is still 1-1 in Enroth vs. Dallas. #Sabres #Stars", 
   "label": "O", 
   "id": 440674788751589376, 
   "hashtags": [
    "Sabres", 
    "Stars"
   ], 
   "user_mentions": [], 
   "created_at": "Tue Mar 04 02:27:11 +0000 2014", 
   "retweet_count": 51, 
   "favorite_count": 54
  }, 
  {
   "text": "Shout out to the #Sabres fans behind the Buffalo bench, just shown on national TV on @NBCSN.", 
   "label": "O", 
   "id": 440674260609036288, 
   "hashtags": [
    "Sabres"
   ], 
   "user_mentions": [
    "NBCSN"
   ], 
   "created_at": "Tue Mar 04 02:25:05 +0000 2014", 
   "retweet_count": 23, 
   "favorite_count": 86
  }, 
  {
   "text": "RT @kevsylvester: Great sequence of saves @JEnroth125", 
   "label": "O", 
   "id": 440671568641814528, 
   "hashtags": [], 
   "user_mentions": [
    "kevsylvester", 
    "JEnroth125"
   ], 
   "created_at": "Tue Mar 04 02:14:23 +0000 2014", 
   "retweet_count": 27, 
   "favorite_count": 0
  }, 
  {
   "text": "!!! #ENROTH", 
   "label": "O", 
   "id": 440671222389424129, 
   "hashtags": [
    "ENROTH"
   ], 
   "user_mentions": [], 
   "created_at": "Tue Mar 04 02:13:01 +0000 2014", 
   "retweet_count": 151, 
   "favorite_count": 170
  }, 
  {
   "text": "McCormick gets 2 for slashing. #Sabres back to PK.", 
   "label": "O", 
   "id": 440670392248569856, 
   "hashtags": [
    "Sabres"
   ], 
   "user_mentions": [], 
   "created_at": "Tue Mar 04 02:09:43 +0000 2014", 
   "retweet_count": 4, 
   "favorite_count": 10
  }, 
  {
   "text": "Benn ties it 1:30 into the 2nd. 1-1 hockey game. #Sabres #Stars", 
   "label": "O", 
   "id": 440668791488266241, 
   "hashtags": [
    "Sabres", 
    "Stars"
   ], 
   "user_mentions": [], 
   "created_at": "Tue Mar 04 02:03:21 +0000 2014", 
   "retweet_count": 0, 
   "favorite_count": 1
  }, 
  {
   "text": "Puck is on the ice for the 2nd period. #Sabres #Stars", 
   "label": "O", 
   "id": 440668286259167233, 
   "hashtags": [
    "Sabres", 
    "Stars"
   ], 
   "user_mentions": [], 
   "created_at": "Tue Mar 04 02:01:21 +0000 2014", 
   "retweet_count": 9, 
   "favorite_count": 20
  }, 
  {
   "text": "Moulson and Stafford picked up assists on the Ennis goal. Weber and Ehrhoff +1 after one. #Sabres", 
   "label": "O", 
   "id": 440667257941676032, 
   "hashtags": [
    "Sabres"
   ], 
   "user_mentions": [], 
   "created_at": "Tue Mar 04 01:57:16 +0000 2014", 
   "retweet_count": 3, 
   "favorite_count": 30
  }, 
  {
   "text": "Horn sounds. #Sabres lead 1-0. Shots are 16-5 Dallas, but Jhonas Enroth stops all the pucks.", 
   "label": "O", 
   "id": 440663947629195264, 
   "hashtags": [
    "Sabres"
   ], 
   "user_mentions": [], 
   "created_at": "Tue Mar 04 01:44:06 +0000 2014", 
   "retweet_count": 34, 
   "favorite_count": 55
  }, 
  {
   "text": "ENROTH THE STOP!", 
   "label": "O", 
   "id": 440663636852224000, 
   "hashtags": [], 
   "user_mentions": [], 
   "created_at": "Tue Mar 04 01:42:52 +0000 2014", 
   "retweet_count": 58, 
   "favorite_count": 118
  }, 
  {
   "text": "GOAL!!!! Tyler Ennis on a 2-on-1 with Drew Stafford.. perfect pass.. and Enzo has #Sabres up 1-0! 2:43 left in 1st.", 
   "label": "O", 
   "id": 440662589014417408, 
   "hashtags": [
    "Sabres"
   ], 
   "user_mentions": [], 
   "created_at": "Tue Mar 04 01:38:42 +0000 2014", 
   "retweet_count": 138, 
   "favorite_count": 181
  }, 
  {
   "text": "Ding. Ding. Posts on each end. #Sabres back to full strength.", 
   "label": "O", 
   "id": 440662475000647681, 
   "hashtags": [
    "Sabres"
   ], 
   "user_mentions": [], 
   "created_at": "Tue Mar 04 01:38:15 +0000 2014", 
   "retweet_count": 8, 
   "favorite_count": 31
  }, 
  {
   "text": "Girgensons called 2 for tripping with 4:59 left in the 1st. #Sabres looking to kill 3rd penalty this period.", 
   "label": "O", 
   "id": 440661945587208192, 
   "hashtags": [
    "Sabres"
   ], 
   "user_mentions": [], 
   "created_at": "Tue Mar 04 01:36:09 +0000 2014", 
   "retweet_count": 0, 
   "favorite_count": 2
  }, 
  {
   "text": "RT @Josh_ruisi: @BuffaloSabres #sabres http://t.co/qTY9ohsHSv", 
   "label": "O", 
   "id": 440661106475171840, 
   "hashtags": [
    "sabres"
   ], 
   "user_mentions": [
    "Josh_ruisi", 
    "BuffaloSabres"
   ], 
   "created_at": "Tue Mar 04 01:32:49 +0000 2014", 
   "retweet_count": 7, 
   "favorite_count": 0
  }, 
  {
   "text": "Dallas has 13 shots in the first 13 minutes. Enroth has 13 saves. 0-0. #Sabres", 
   "label": "O", 
   "id": 440660471918510080, 
   "hashtags": [
    "Sabres"
   ], 
   "user_mentions": [], 
   "created_at": "Tue Mar 04 01:30:18 +0000 2014", 
   "retweet_count": 13, 
   "favorite_count": 20
  }, 
  {
   "text": "Shots are 9-2 Dallas; he's stopped 'em all. --&gt; @Sabresmann Enroth's playing great! #Sabres", 
   "label": "O", 
   "id": 440659166839844865, 
   "hashtags": [
    "Sabres"
   ], 
   "user_mentions": [
    "Sabresmann"
   ], 
   "created_at": "Tue Mar 04 01:25:07 +0000 2014", 
   "retweet_count": 10, 
   "favorite_count": 20
  }, 
  {
   "text": "Unbelievable save by Enroth! #Sabres", 
   "label": "O", 
   "id": 440658512754921473, 
   "hashtags": [
    "Sabres"
   ], 
   "user_mentions": [], 
   "created_at": "Tue Mar 04 01:22:31 +0000 2014", 
   "retweet_count": 24, 
   "favorite_count": 69
  }, 
  {
   "text": "Hodgson called for hooking sends the #Stars right back to the power play. 13:41 left in the 1st.", 
   "label": "O", 
   "id": 440658305556312064, 
   "hashtags": [
    "Stars"
   ], 
   "user_mentions": [], 
   "created_at": "Tue Mar 04 01:21:41 +0000 2014", 
   "retweet_count": 1, 
   "favorite_count": 3
  }, 
  {
   "text": "Penalty is over. #Stars outshooting #Sabres 5-1 but Enroth with all the saves.", 
   "label": "O", 
   "id": 440657209458823168, 
   "hashtags": [
    "Stars", 
    "Sabres"
   ], 
   "user_mentions": [], 
   "created_at": "Tue Mar 04 01:17:20 +0000 2014", 
   "retweet_count": 5, 
   "favorite_count": 19
  }, 
  {
   "text": "John Scott called for tripping. Dallas to PP just 2:39 in. #Sabres on PK.", 
   "label": "O", 
   "id": 440656430173921280, 
   "hashtags": [
    "Sabres"
   ], 
   "user_mentions": [], 
   "created_at": "Tue Mar 04 01:14:14 +0000 2014", 
   "retweet_count": 11, 
   "favorite_count": 9
  }, 
  {
   "text": "@NHLonNBCSports Us too!", 
   "label": "O", 
   "id": 440656062820003840, 
   "hashtags": [], 
   "user_mentions": [
    "NHLonNBCSports"
   ], 
   "created_at": "Tue Mar 04 01:12:47 +0000 2014", 
   "retweet_count": 2, 
   "favorite_count": 2
  }, 
  {
   "text": "Who's ready for hockey? #LetsGoBuffalo \n#Sabres #Stars", 
   "label": "O", 
   "id": 440655532706111488, 
   "hashtags": [
    "LetsGoBuffalo", 
    "Sabres", 
    "Stars"
   ], 
   "user_mentions": [], 
   "created_at": "Tue Mar 04 01:10:40 +0000 2014", 
   "retweet_count": 53, 
   "favorite_count": 102
  }, 
  {
   "text": "RT @SamKorotkin: National anthem at the American Airlines Center in the Big D. #LetsGoBuffalo https://t.co/cgd86VPpvf", 
   "label": "O", 
   "id": 440655399927033856, 
   "hashtags": [
    "LetsGoBuffalo"
   ], 
   "user_mentions": [
    "SamKorotkin"
   ], 
   "created_at": "Tue Mar 04 01:10:09 +0000 2014", 
   "retweet_count": 6, 
   "favorite_count": 0
  }, 
  {
   "text": "Tonight's goaltending match-up:\nJhonas Enroth (2.90 GAA, .906 SV%)\nvs.\nKari Lehtonen (2.48 GAA, .916 SV%)", 
   "label": "O", 
   "id": 440652534160441344, 
   "hashtags": [], 
   "user_mentions": [], 
   "created_at": "Tue Mar 04 00:58:45 +0000 2014", 
   "retweet_count": 12, 
   "favorite_count": 24
  }, 
  {
   "text": "#Sabres starters: Moulson-Ennis-Stafford up top. Ehrhoff/Weber on D. Enroth in goal. Scratches: Konopka and Sulzer (both healthy). -CR", 
   "label": "O", 
   "id": 440652532323319809, 
   "hashtags": [
    "Sabres"
   ], 
   "user_mentions": [], 
   "created_at": "Tue Mar 04 00:58:45 +0000 2014", 
   "retweet_count": 8, 
   "favorite_count": 14
  }, 
  {
   "text": "Seven D in warmups \nEhrhoff - Weber \nTallinder - Myers  \nScott and Sulzer rotating on a pair w/ McBain \nEnroth in goal.", 
   "label": "O", 
   "id": 440647908090576896, 
   "hashtags": [], 
   "user_mentions": [], 
   "created_at": "Tue Mar 04 00:40:22 +0000 2014", 
   "retweet_count": 16, 
   "favorite_count": 23
  }, 
  {
   "text": "Moulson - Ennis - Stafford \nStewart - Hodgson - D'Agostini \nFoligno - Girgensons - Flynn \nEllis - Leino - McCormick", 
   "label": "O", 
   "id": 440647614967459840, 
   "hashtags": [], 
   "user_mentions": [], 
   "created_at": "Tue Mar 04 00:39:12 +0000 2014", 
   "retweet_count": 32, 
   "favorite_count": 44
  }, 
  {
   "text": "RT @dan_dunleavy: Enroth and Halak the @BuffaloSabres goalie tandem here in Dallas. 8pm RJ and @robray32 on WGR550. http://t.co/h2xjL07DKe", 
   "label": "O", 
   "id": 440646067860680705, 
   "hashtags": [], 
   "user_mentions": [
    "dan_dunleavy", 
    "BuffaloSabres", 
    "robray32"
   ], 
   "created_at": "Tue Mar 04 00:33:04 +0000 2014", 
   "retweet_count": 12, 
   "favorite_count": 0
  }, 
  {
   "text": "Jhonas Enroth leads the #Sabres onto the ice as warmups get underway.", 
   "label": "O", 
   "id": 440645145944264704, 
   "hashtags": [
    "Sabres"
   ], 
   "user_mentions": [], 
   "created_at": "Tue Mar 04 00:29:24 +0000 2014", 
   "retweet_count": 20, 
   "favorite_count": 67
  }, 
  {
   "text": "Live outside the #Buffalo area? You can stream tonight's #Sabres game online with @LiveExtra here - http://t.co/ahQNpH2qma", 
   "label": "O", 
   "id": 440644898816282624, 
   "hashtags": [
    "Buffalo", 
    "Sabres"
   ], 
   "user_mentions": [
    "LiveExtra"
   ], 
   "created_at": "Tue Mar 04 00:28:25 +0000 2014", 
   "retweet_count": 4, 
   "favorite_count": 6
  }, 
  {
   "text": "RT @mdemayo123: RJ!!!! @BuffaloSabres @SabresCommunity http://t.co/Tlqf9wo4nG", 
   "label": "O", 
   "id": 440641458257657856, 
   "hashtags": [], 
   "user_mentions": [
    "mdemayo123", 
    "BuffaloSabres", 
    "SabresCommunity"
   ], 
   "created_at": "Tue Mar 04 00:14:45 +0000 2014", 
   "retweet_count": 9, 
   "favorite_count": 0
  }, 
  {
   "text": "RJ and @robray32 are meeting #Sabres fans here in Dallas at American Airlines Center. http://t.co/96oAs2PA3L", 
   "label": "O", 
   "id": 440633572706111488, 
   "hashtags": [
    "Sabres"
   ], 
   "user_mentions": [
    "robray32"
   ], 
   "created_at": "Mon Mar 03 23:43:24 +0000 2014", 
   "retweet_count": 11, 
   "favorite_count": 38
  }, 
  {
   "text": "#Sabres stay focused on hockey. \"We\u2019re having fun and dealing with it the best we can.\" http://t.co/nAgPZHBFKA", 
   "label": "O", 
   "id": 440631416746172416, 
   "hashtags": [
    "Sabres"
   ], 
   "user_mentions": [], 
   "created_at": "Mon Mar 03 23:34:50 +0000 2014", 
   "retweet_count": 8, 
   "favorite_count": 16
  }, 
  {
   "text": "RT @Hockeyequipmgr: American Airlines scoreboard http://t.co/Br3yJSllvq", 
   "label": "O", 
   "id": 440630809251160064, 
   "hashtags": [], 
   "user_mentions": [
    "Hockeyequipmgr"
   ], 
   "created_at": "Mon Mar 03 23:32:26 +0000 2014", 
   "retweet_count": 18, 
   "favorite_count": 0
  }, 
  {
   "text": "WATCH: A pregame interview with #Sabres Assistant Coach Teppo Numminen http://t.co/TvLCJPoZTc", 
   "label": "O", 
   "id": 440626326933082112, 
   "hashtags": [
    "Sabres"
   ], 
   "user_mentions": [], 
   "created_at": "Mon Mar 03 23:14:37 +0000 2014", 
   "retweet_count": 4, 
   "favorite_count": 7
  }, 
  {
   "text": "RT @dan_dunleavy: Spoke with @BuffaloSabres assistant coach Teppo Numminen. Pre game interview up soon on http://t.co/bzpyKJrHrB. Buffalo v\u2026", 
   "label": "O", 
   "id": 440621462698074112, 
   "hashtags": [], 
   "user_mentions": [
    "dan_dunleavy", 
    "BuffaloSabres"
   ], 
   "created_at": "Mon Mar 03 22:55:17 +0000 2014", 
   "retweet_count": 3, 
   "favorite_count": 0
  }, 
  {
   "text": "Cody Hodgson hopes that in a few years, we can all look back and laugh. http://t.co/nAgPZHBFKA", 
   "label": "O", 
   "id": 440614508302569473, 
   "hashtags": [], 
   "user_mentions": [], 
   "created_at": "Mon Mar 03 22:27:39 +0000 2014", 
   "retweet_count": 38, 
   "favorite_count": 55
  }, 
  {
   "text": "@TylerMiller_26 Enroth", 
   "label": "O", 
   "id": 440603437621710848, 
   "hashtags": [], 
   "user_mentions": [
    "TylerMiller_26"
   ], 
   "created_at": "Mon Mar 03 21:43:40 +0000 2014", 
   "retweet_count": 0, 
   "favorite_count": 3
  }, 
  {
   "text": "#Sabres pregame comments:\nEnnis http://t.co/zeX47QhQOu\nHodgson http://t.co/BBtA72jGQT\nStewart http://t.co/aT0nnRhVpp", 
   "label": "O", 
   "id": 440600466331013121, 
   "hashtags": [
    "Sabres"
   ], 
   "user_mentions": [], 
   "created_at": "Mon Mar 03 21:31:51 +0000 2014", 
   "retweet_count": 5, 
   "favorite_count": 11
  }, 
  {
   "text": "#Sabres prep for 8pm ET start vs. #Stars on @NBCSN. \"It\u2019s going to be a true test tonight.\u201d http://t.co/nAgPZHBFKA", 
   "label": "O", 
   "id": 440599408971743232, 
   "hashtags": [
    "Sabres", 
    "Stars"
   ], 
   "user_mentions": [
    "NBCSN"
   ], 
   "created_at": "Mon Mar 03 21:27:39 +0000 2014", 
   "retweet_count": 9, 
   "favorite_count": 9
  }, 
  {
   "text": "WATCH: @dan_dunleavy previews tonight's #Sabres #Stars game + sound bites from Stewart, Hodgson + Ennis. http://t.co/ZcmHDjUWpo", 
   "label": "O", 
   "id": 440593775086551040, 
   "hashtags": [
    "Sabres", 
    "Stars"
   ], 
   "user_mentions": [
    "dan_dunleavy"
   ], 
   "created_at": "Mon Mar 03 21:05:16 +0000 2014", 
   "retweet_count": 4, 
   "favorite_count": 4
  }, 
  {
   "text": "RT @Hockeyequipmgr: My work area for the day. http://t.co/gMVsJmHrda", 
   "label": "O", 
   "id": 440590904945283072, 
   "hashtags": [], 
   "user_mentions": [
    "Hockeyequipmgr"
   ], 
   "created_at": "Mon Mar 03 20:53:52 +0000 2014", 
   "retweet_count": 9, 
   "favorite_count": 0
  }, 
  {
   "text": "Ennis set to return tonight as Stewart makes debut + more #Sabres updates: http://t.co/LQcFSfvNiJ", 
   "label": "O", 
   "id": 440587695602298880, 
   "hashtags": [
    "Sabres"
   ], 
   "user_mentions": [], 
   "created_at": "Mon Mar 03 20:41:07 +0000 2014", 
   "retweet_count": 18, 
   "favorite_count": 27
  }, 
  {
   "text": "RT @PegulaSE: The HARBORCENTER project is flying by! In the next month you will likely start to see the hotel tower floors start to commenc\u2026", 
   "label": "O", 
   "id": 440584619118034944, 
   "hashtags": [
    "HARBORCENTER"
   ], 
   "user_mentions": [
    "PegulaSE"
   ], 
   "created_at": "Mon Mar 03 20:28:53 +0000 2014", 
   "retweet_count": 12, 
   "favorite_count": 0
  }, 
  {
   "text": "WATCH: #Sabres Interim Coach Ted Nolan's comments after morning skate http://t.co/KKH2XaZgRP", 
   "label": "O", 
   "id": 440577687791603712, 
   "hashtags": [
    "Sabres"
   ], 
   "user_mentions": [], 
   "created_at": "Mon Mar 03 20:01:20 +0000 2014", 
   "retweet_count": 6, 
   "favorite_count": 10
  }, 
  {
   "text": "#Sabres prospect @NickBaptiste continues to score goals, notching 41st of the season for OHL's Sudbury http://t.co/qW79xwW2dn", 
   "label": "O", 
   "id": 440569971891265537, 
   "hashtags": [
    "Sabres"
   ], 
   "user_mentions": [
    "NickBaptiste"
   ], 
   "created_at": "Mon Mar 03 19:30:41 +0000 2014", 
   "retweet_count": 40, 
   "favorite_count": 48
  }, 
  {
   "text": "Stewart will play with Hodgson and D'Agostini. Konopka skated with the assistant coaches after practice and is expected to be scratched. -CR", 
   "label": "O", 
   "id": 440556244684664832, 
   "hashtags": [], 
   "user_mentions": [], 
   "created_at": "Mon Mar 03 18:36:08 +0000 2014", 
   "retweet_count": 28, 
   "favorite_count": 36
  }, 
  {
   "text": "Nolan says Matt Moulson will play tonight on a line with Ennis and Stafford. Today's morning skate was optional.  #sabres -CR", 
   "label": "O", 
   "id": 440555836574683137, 
   "hashtags": [
    "sabres"
   ], 
   "user_mentions": [], 
   "created_at": "Mon Mar 03 18:34:31 +0000 2014", 
   "retweet_count": 64, 
   "favorite_count": 63
  }, 
  {
   "text": "RT @dan_dunleavy: Waiting outside @BuffaloSabres room to talk with head coach Ted Nolan. Chats with Stewart, Hodgson and Ennis already.  3 \u2026", 
   "label": "O", 
   "id": 440551974082068480, 
   "hashtags": [], 
   "user_mentions": [
    "dan_dunleavy", 
    "BuffaloSabres"
   ], 
   "created_at": "Mon Mar 03 18:19:10 +0000 2014", 
   "retweet_count": 6, 
   "favorite_count": 0
  }, 
  {
   "text": "No line rushes yet, but with Moulson not skating, that's not too surprising. #sabres -CR", 
   "label": "O", 
   "id": 440543742827589632, 
   "hashtags": [
    "sabres"
   ], 
   "user_mentions": [], 
   "created_at": "Mon Mar 03 17:46:27 +0000 2014", 
   "retweet_count": 21, 
   "favorite_count": 16
  }, 
  {
   "text": "John Scott is taking reps with Christian Ehrhoff. Tallinder with McBain. Myers, Weber and Sulzer rotating on the other pair. -CR", 
   "label": "O", 
   "id": 440542984015077376, 
   "hashtags": [], 
   "user_mentions": [], 
   "created_at": "Mon Mar 03 17:43:26 +0000 2014", 
   "retweet_count": 14, 
   "favorite_count": 25
  }, 
  {
   "text": "#Sabres on the ice at American Airlines Center. http://t.co/kY5dRLQUeK", 
   "label": "O", 
   "id": 440541467824508928, 
   "hashtags": [
    "Sabres"
   ], 
   "user_mentions": [], 
   "created_at": "Mon Mar 03 17:37:25 +0000 2014", 
   "retweet_count": 6, 
   "favorite_count": 40
  }, 
  {
   "text": "#Sabres are on the ice for the morning skate in Dallas. Everyone is present except for Matt Moulson. -CR", 
   "label": "O", 
   "id": 440540192542167040, 
   "hashtags": [
    "Sabres"
   ], 
   "user_mentions": [], 
   "created_at": "Mon Mar 03 17:32:21 +0000 2014", 
   "retweet_count": 129, 
   "favorite_count": 43
  }, 
  {
   "text": "RT @BuffaloJrSabres: We'd like to clarify the remaining schedule: Game 3 is Wednesday in Mississauga; Game 4 is Thursday at @FirstNiagaraCt\u2026", 
   "label": "O", 
   "id": 440529850080956416, 
   "hashtags": [], 
   "user_mentions": [
    "BuffaloJrSabres", 
    "FirstNiagaraCtr", 
    "OJHLOfficial"
   ], 
   "created_at": "Mon Mar 03 16:51:15 +0000 2014", 
   "retweet_count": 9, 
   "favorite_count": 0
  }, 
  {
   "text": "#Sabres look to win 4th straight. 8pm start in Dallas. The game will be nationally broadcast on @NBCSN. http://t.co/JPJZAcGsmM", 
   "label": "O", 
   "id": 440516114842656768, 
   "hashtags": [
    "Sabres"
   ], 
   "user_mentions": [
    "NBCSN"
   ], 
   "created_at": "Mon Mar 03 15:56:40 +0000 2014", 
   "retweet_count": 36, 
   "favorite_count": 30
  }, 
  {
   "text": "RT @Hockeyequipmgr: We are ready in Dallas for morning skate http://t.co/utepqZoHTM", 
   "label": "O", 
   "id": 440512985321443328, 
   "hashtags": [], 
   "user_mentions": [
    "Hockeyequipmgr"
   ], 
   "created_at": "Mon Mar 03 15:44:14 +0000 2014", 
   "retweet_count": 23, 
   "favorite_count": 0
  }, 
  {
   "text": "The #Sabres hosted the first annual #SabresUnPucked on Saturday night. HIGHLIGHTS: http://t.co/AyrrLjMRyf http://t.co/LZbDJbY9Bk", 
   "label": "O", 
   "id": 440492871939268608, 
   "hashtags": [
    "Sabres", 
    "SabresUnPucked"
   ], 
   "user_mentions": [], 
   "created_at": "Mon Mar 03 14:24:19 +0000 2014", 
   "retweet_count": 16, 
   "favorite_count": 57
  }, 
  {
   "text": "@edvanberg Nolan discussed this briefly at press conference yesterday. Watch it here: http://t.co/pZsHvnle8L", 
   "label": "O", 
   "id": 440488167846596609, 
   "hashtags": [], 
   "user_mentions": [
    "edvanberg"
   ], 
   "created_at": "Mon Mar 03 14:05:37 +0000 2014", 
   "retweet_count": 1, 
   "favorite_count": 0
  }, 
  {
   "text": "GAME DAY: #Sabres in Dallas today to face #Stars. Preview http://t.co/YrCl8D6VPJ", 
   "label": "O", 
   "id": 440487688014413824, 
   "hashtags": [
    "Sabres", 
    "Stars"
   ], 
   "user_mentions": [], 
   "created_at": "Mon Mar 03 14:03:43 +0000 2014", 
   "retweet_count": 13, 
   "favorite_count": 20
  }
 ]
}