{
 "num_road_team_goals": "4", 
 "home_team": "Buffalo Sabres", 
 "num_home_team_goals": "3", 
 "summary_url": "http://www.flyershistory.com/cgi-bin/poboxscore.cgi?H20131110", 
 "result": "L", 
 "road_team": "Tampa Bay Lightning", 
 "date": "2014-03-29", 
 "goals": [
  {
   "season_index": "5", 
   "strength": "(EV)", 
   "time": "12:20", 
   "period": "1", 
   "player": "M.D'agostini", 
   "assists": "(R.Ristolainen, J.Larsson)", 
   "game_index": "1", 
   "team": "BUF"
  }, 
  {
   "season_index": "17", 
   "strength": "(EV)", 
   "time": "14:07", 
   "period": "1", 
   "player": "C.Hodgson", 
   "assists": "(C.Ehrhoff)", 
   "game_index": "2", 
   "team": "BUF"
  }, 
  {
   "season_index": "16", 
   "strength": "(EV)", 
   "time": "17:52", 
   "period": "1", 
   "player": "A.Killorn", 
   "assists": "(N.Kucherov, M.Carle)", 
   "game_index": "3", 
   "team": "T.B"
  }, 
  {
   "season_index": "22", 
   "strength": "(EV)", 
   "time": "19:46", 
   "period": "1", 
   "player": "S.Stamkos", 
   "assists": "(J.Brown, R.Gudas)", 
   "game_index": "4", 
   "team": "T.B"
  }, 
  {
   "season_index": "7", 
   "strength": "(EV-EN)", 
   "time": "8:14", 
   "period": "3", 
   "player": "C.Conacher", 
   "assists": null, 
   "game_index": "5", 
   "team": "BUF"
  }, 
  {
   "season_index": "16", 
   "strength": "(PP)", 
   "time": "10:07", 
   "period": "3", 
   "player": "R.Callahan", 
   "assists": "(T.Purcell, S.Stamkos)", 
   "game_index": "6", 
   "team": "T.B"
  }, 
  {
   "season_index": "23", 
   "strength": "(PP)", 
   "time": "1:53", 
   "period": "OT", 
   "player": "S.Stamkos", 
   "assists": "(V.Filppula, T.Purcell)", 
   "game_index": "7", 
   "team": "T.B"
  }
 ], 
 "tweets": [
  {
   "text": "One more postgame interview from the locker room.. Hear what #Sabres goaltender Matt Hackett had to say: http://t.co/tQbvhF47wj", 
   "label": "O", 
   "id": 450119407810134016, 
   "hashtags": [
    "Sabres"
   ], 
   "user_mentions": [], 
   "created_at": "Sun Mar 30 03:56:44 +0000 2014", 
   "retweet_count": 3, 
   "favorite_count": 3
  }, 
  {
   "text": "Postgame:\nConacher http://t.co/G3Jx4m1bcG\nHodgson http://t.co/NvyGMdRNr7\nGirgensons http://t.co/64snerCMhK\nStafford http://t.co/xRiZyR31Ra", 
   "label": "O", 
   "id": 450118456789454848, 
   "hashtags": [], 
   "user_mentions": [], 
   "created_at": "Sun Mar 30 03:52:57 +0000 2014", 
   "retweet_count": 6, 
   "favorite_count": 9
  }, 
  {
   "text": "RT @NHL: Great gift. RT @BuffaloSabres: #TheDominator raises his sabre. #Sabres #HOF http://t.co/MWVyKbUju4", 
   "label": "O", 
   "id": 450115707737743360, 
   "hashtags": [
    "TheDominator", 
    "Sabres", 
    "HOF"
   ], 
   "user_mentions": [
    "NHL", 
    "BuffaloSabres"
   ], 
   "created_at": "Sun Mar 30 03:42:02 +0000 2014", 
   "retweet_count": 211, 
   "favorite_count": 0
  }, 
  {
   "text": "Happy birthday to #Sabres fan @Leno_Krawczyk; we're glad @bwipp captured your enthusiasm in pics, including this one. http://t.co/c4xXQ4paYB", 
   "label": "O", 
   "id": 450113866962202624, 
   "hashtags": [
    "Sabres"
   ], 
   "user_mentions": [
    "Leno_Krawczyk", 
    "BWipp"
   ], 
   "created_at": "Sun Mar 30 03:34:43 +0000 2014", 
   "retweet_count": 54, 
   "favorite_count": 105
  }, 
  {
   "text": ".@dan_dunleavy recaps tonight's loss: http://t.co/xI2c2AbCfR", 
   "label": "O", 
   "id": 450110841057464320, 
   "hashtags": [], 
   "user_mentions": [
    "dan_dunleavy"
   ], 
   "created_at": "Sun Mar 30 03:22:41 +0000 2014", 
   "retweet_count": 0, 
   "favorite_count": 2
  }, 
  {
   "text": "Lucky bounce not enough as #Sabres fall in OT. http://t.co/e90kz5fHxQ", 
   "label": "O", 
   "id": 450110073608867840, 
   "hashtags": [
    "Sabres"
   ], 
   "user_mentions": [], 
   "created_at": "Sun Mar 30 03:19:38 +0000 2014", 
   "retweet_count": 5, 
   "favorite_count": 5
  }, 
  {
   "text": "@Leno_Krawczyk PRIZE for you! We'll DM.", 
   "label": "O", 
   "id": 450106971346460674, 
   "hashtags": [], 
   "user_mentions": [
    "Leno_Krawczyk"
   ], 
   "created_at": "Sun Mar 30 03:07:19 +0000 2014", 
   "retweet_count": 5, 
   "favorite_count": 20
  }, 
  {
   "text": "@Leno_Krawczyk You are famous. #allthepictures", 
   "label": "O", 
   "id": 450104067608813568, 
   "hashtags": [
    "allthepictures"
   ], 
   "user_mentions": [
    "Leno_Krawczyk"
   ], 
   "created_at": "Sun Mar 30 02:55:46 +0000 2014", 
   "retweet_count": 9, 
   "favorite_count": 18
  }, 
  {
   "text": ".@zemgus94 is back. He finished tonight +1 with a team-leading 5 shots, 2 hits &amp; a takeaway. (@BWipp) http://t.co/xXPDjHszRX", 
   "label": "O", 
   "id": 450101725697830912, 
   "hashtags": [], 
   "user_mentions": [
    "zemgus94", 
    "BWipp"
   ], 
   "created_at": "Sun Mar 30 02:46:28 +0000 2014", 
   "retweet_count": 60, 
   "favorite_count": 91
  }, 
  {
   "text": "Watch #Sabres Interim Coach Ted Nolan's postgame comments: http://t.co/rJnhhRXun2", 
   "label": "O", 
   "id": 450100632306069504, 
   "hashtags": [
    "Sabres"
   ], 
   "user_mentions": [], 
   "created_at": "Sun Mar 30 02:42:07 +0000 2014", 
   "retweet_count": 2, 
   "favorite_count": 5
  }, 
  {
   "text": "WATCH: The Hasek tribute displayed in-arena tonight. http://t.co/074APq9Juc http://t.co/mPqiUt7uEF", 
   "label": "O", 
   "id": 450098229875453952, 
   "hashtags": [], 
   "user_mentions": [], 
   "created_at": "Sun Mar 30 02:32:35 +0000 2014", 
   "retweet_count": 129, 
   "favorite_count": 128
  }, 
  {
   "text": "@LAKings Why is this not our goal? http://t.co/vFq0fwQ6pa", 
   "label": "O", 
   "id": 450097606702944256, 
   "hashtags": [], 
   "user_mentions": [
    "LAKings"
   ], 
   "created_at": "Sun Mar 30 02:30:06 +0000 2014", 
   "retweet_count": 6, 
   "favorite_count": 26
  }, 
  {
   "text": "SEE IT AGAIN: @conhockey19's empty net goal on his delayed penalty http://t.co/vFq0fwQ6pa  #YouReadThatRight #Sabres", 
   "label": "O", 
   "id": 450095249495707649, 
   "hashtags": [
    "YouReadThatRight", 
    "Sabres"
   ], 
   "user_mentions": [
    "conhockey19"
   ], 
   "created_at": "Sun Mar 30 02:20:44 +0000 2014", 
   "retweet_count": 39, 
   "favorite_count": 42
  }, 
  {
   "text": "RT @SabresPR: Cory Conacher is the first player to score a goal on his own delayed penalty since Viktor Tikhonov (PHX) on 3/21/09 vs. VAN. \u2026", 
   "label": "O", 
   "id": 450094004601118721, 
   "hashtags": [], 
   "user_mentions": [
    "SabresPR", 
    "EliasSports"
   ], 
   "created_at": "Sun Mar 30 02:15:47 +0000 2014", 
   "retweet_count": 40, 
   "favorite_count": 0
  }, 
  {
   "text": "Nolan says at this point in the season, \"We're watching certain individuals to see how they respond.\" #Sabres", 
   "label": "O", 
   "id": 450091945831198720, 
   "hashtags": [
    "Sabres"
   ], 
   "user_mentions": [], 
   "created_at": "Sun Mar 30 02:07:36 +0000 2014", 
   "retweet_count": 4, 
   "favorite_count": 25
  }, 
  {
   "text": "@MikeACase a fave? #doingitwrong", 
   "label": "O", 
   "id": 450091807419154433, 
   "hashtags": [
    "doingitwrong"
   ], 
   "user_mentions": [
    "MikeACase"
   ], 
   "created_at": "Sun Mar 30 02:07:03 +0000 2014", 
   "retweet_count": 0, 
   "favorite_count": 0
  }, 
  {
   "text": "Nolan liked Hodgson's game, Girgensons, Ristolainen &amp; Larsson. \"Going forward, you're starting to see bright lights.\" #Sabres", 
   "label": "O", 
   "id": 450091630276907008, 
   "hashtags": [
    "Sabres"
   ], 
   "user_mentions": [], 
   "created_at": "Sun Mar 30 02:06:21 +0000 2014", 
   "retweet_count": 9, 
   "favorite_count": 24
  }, 
  {
   "text": "Hackett on empty net for #Sabres: \"I was trying to think if I touched it last. I thought, please let it be me?\"", 
   "label": "O", 
   "id": 450090594812325888, 
   "hashtags": [
    "Sabres"
   ], 
   "user_mentions": [], 
   "created_at": "Sun Mar 30 02:02:14 +0000 2014", 
   "retweet_count": 20, 
   "favorite_count": 72
  }, 
  {
   "text": "Hackett: The boys battled hard. We came out to play tonight, much better start, and we were focused I thought.", 
   "label": "O", 
   "id": 450090347985911808, 
   "hashtags": [], 
   "user_mentions": [], 
   "created_at": "Sun Mar 30 02:01:15 +0000 2014", 
   "retweet_count": 7, 
   "favorite_count": 23
  }, 
  {
   "text": "Conacher: I think if we take that level of play, competitiveness and effort to other games, we'll have success.", 
   "label": "O", 
   "id": 450089334784667648, 
   "hashtags": [], 
   "user_mentions": [], 
   "created_at": "Sun Mar 30 01:57:14 +0000 2014", 
   "retweet_count": 9, 
   "favorite_count": 23
  }, 
  {
   "text": "Foligno: I was on the bench but as soon as I saw it go off the boards, I got up and started cheering. Knew it was going in.", 
   "label": "O", 
   "id": 450089037710508032, 
   "hashtags": [], 
   "user_mentions": [], 
   "created_at": "Sun Mar 30 01:56:03 +0000 2014", 
   "retweet_count": 13, 
   "favorite_count": 47
  }, 
  {
   "text": "Stafford says empty net goal lucky: \"We were due for one of those; it's just too bad we couldn't capitalize on the 2 points.\"", 
   "label": "O", 
   "id": 450088618988937216, 
   "hashtags": [], 
   "user_mentions": [], 
   "created_at": "Sun Mar 30 01:54:23 +0000 2014", 
   "retweet_count": 3, 
   "favorite_count": 27
  }, 
  {
   "text": "Stamkos wins it for the #TBLightning. 4-3 final in overtime.", 
   "label": "O", 
   "id": 450086753249267712, 
   "hashtags": [
    "TBLightning"
   ], 
   "user_mentions": [], 
   "created_at": "Sun Mar 30 01:46:58 +0000 2014", 
   "retweet_count": 23, 
   "favorite_count": 25
  }, 
  {
   "text": "Stafford called for a hook 59 seconds into OT. #TBLightning with a power play. #Sabres", 
   "label": "O", 
   "id": 450086702489829376, 
   "hashtags": [
    "TBLightning", 
    "Sabres"
   ], 
   "user_mentions": [], 
   "created_at": "Sun Mar 30 01:46:46 +0000 2014", 
   "retweet_count": 1, 
   "favorite_count": 9
  }, 
  {
   "text": "On to ooovertime... #Sabres #TBLightning", 
   "label": "O", 
   "id": 450085971200311296, 
   "hashtags": [
    "Sabres", 
    "TBLightning"
   ], 
   "user_mentions": [], 
   "created_at": "Sun Mar 30 01:43:52 +0000 2014", 
   "retweet_count": 13, 
   "favorite_count": 29
  }, 
  {
   "text": "Ben Bishop was like... #3rdSabresGoal (@BWipp) http://t.co/9ilrKBAzEs", 
   "label": "O", 
   "id": 450085104790929408, 
   "hashtags": [
    "3rdSabresGoal"
   ], 
   "user_mentions": [
    "BWipp"
   ], 
   "created_at": "Sun Mar 30 01:40:25 +0000 2014", 
   "retweet_count": 72, 
   "favorite_count": 95
  }, 
  {
   "text": "The ref was like... #3rdSabresGoal (@BWipp) http://t.co/fqrvIyaZmF", 
   "label": "O", 
   "id": 450084903468560386, 
   "hashtags": [
    "3rdSabresGoal"
   ], 
   "user_mentions": [
    "BWipp"
   ], 
   "created_at": "Sun Mar 30 01:39:37 +0000 2014", 
   "retweet_count": 40, 
   "favorite_count": 71
  }, 
  {
   "text": "Stafford and Conacher were like.. #3rdSabresGoal (@BWipp) http://t.co/FYZLHgQg68", 
   "label": "O", 
   "id": 450084718889820160, 
   "hashtags": [
    "3rdSabresGoal"
   ], 
   "user_mentions": [
    "BWipp"
   ], 
   "created_at": "Sun Mar 30 01:38:53 +0000 2014", 
   "retweet_count": 41, 
   "favorite_count": 73
  }, 
  {
   "text": "The puck was like.. #3rdSabresGoal (@BWipp) http://t.co/nIe64CFEoU", 
   "label": "O", 
   "id": 450084499557072896, 
   "hashtags": [
    "3rdSabresGoal"
   ], 
   "user_mentions": [
    "BWipp"
   ], 
   "created_at": "Sun Mar 30 01:38:01 +0000 2014", 
   "retweet_count": 88, 
   "favorite_count": 112
  }, 
  {
   "text": "We're going to tell the story of the empty net own goal through pics from @BWipp in the next few tweets... #3rdSabresGoal", 
   "label": "O", 
   "id": 450084297014538240, 
   "hashtags": [
    "3rdSabresGoal"
   ], 
   "user_mentions": [
    "BWipp"
   ], 
   "created_at": "Sun Mar 30 01:37:13 +0000 2014", 
   "retweet_count": 5, 
   "favorite_count": 28
  }, 
  {
   "text": "RT @IanSabresPR: This one wasn't a delayed penalty, but that goal brings back a good memory: http://t.co/E8aHdCkQDP", 
   "label": "O", 
   "id": 450083373495902208, 
   "hashtags": [], 
   "user_mentions": [
    "IanSabresPR"
   ], 
   "created_at": "Sun Mar 30 01:33:33 +0000 2014", 
   "retweet_count": 12, 
   "favorite_count": 0
  }, 
  {
   "text": "@AcuallyIsKeele That's just not right.", 
   "label": "O", 
   "id": 450083000550973440, 
   "hashtags": [], 
   "user_mentions": [
    "AcuallyIsKeele"
   ], 
   "created_at": "Sun Mar 30 01:32:04 +0000 2014", 
   "retweet_count": 1, 
   "favorite_count": 8
  }, 
  {
   "text": "RT if when you saw the puck gliding you were thinking.. come on, come on, go in the net, go in the net. #Sabres", 
   "label": "O", 
   "id": 450082787136393216, 
   "hashtags": [
    "Sabres"
   ], 
   "user_mentions": [], 
   "created_at": "Sun Mar 30 01:31:13 +0000 2014", 
   "retweet_count": 73, 
   "favorite_count": 47
  }, 
  {
   "text": "RT @SConacher19: Sweet goal @conhockey19", 
   "label": "O", 
   "id": 450082287527657473, 
   "hashtags": [], 
   "user_mentions": [
    "SConacher19", 
    "conhockey19"
   ], 
   "created_at": "Sun Mar 30 01:29:14 +0000 2014", 
   "retweet_count": 27, 
   "favorite_count": 0
  }, 
  {
   "text": "OFFICIAL SCORING: Cory Conacher @conhockey19 gets credit for the empty net goal. #Sabres", 
   "label": "O", 
   "id": 450081934769926144, 
   "hashtags": [
    "Sabres"
   ], 
   "user_mentions": [
    "conhockey19"
   ], 
   "created_at": "Sun Mar 30 01:27:50 +0000 2014", 
   "retweet_count": 22, 
   "favorite_count": 51
  }, 
  {
   "text": "ICYMI, Stamkos dropped a pass back, it missed everyone, banked off boards, glided into empty net on #Sabres delayed penalty.", 
   "label": "O", 
   "id": 450081254277660672, 
   "hashtags": [
    "Sabres"
   ], 
   "user_mentions": [], 
   "created_at": "Sun Mar 30 01:25:07 +0000 2014", 
   "retweet_count": 38, 
   "favorite_count": 40
  }, 
  {
   "text": "Now Ryan Callahan scores. But it's still tied. 3-3. #Sabres #TBLightning", 
   "label": "O", 
   "id": 450080575618310145, 
   "hashtags": [
    "Sabres", 
    "TBLightning"
   ], 
   "user_mentions": [], 
   "created_at": "Sun Mar 30 01:22:25 +0000 2014", 
   "retweet_count": 9, 
   "favorite_count": 16
  }, 
  {
   "text": "Official @NHL scoresheet as of now for #Sabres 3rd goal: BUF .(0) unassisted. Don't worry, guys. It'll change. We promise.", 
   "label": "O", 
   "id": 450080265055268864, 
   "hashtags": [
    "Sabres"
   ], 
   "user_mentions": [
    "NHL"
   ], 
   "created_at": "Sun Mar 30 01:21:11 +0000 2014", 
   "retweet_count": 18, 
   "favorite_count": 34
  }, 
  {
   "text": "Now Weber gets 2 for cross-checking. 1 minute 5-on-3 coming up for #TBLightning. Timeout Tampa.", 
   "label": "O", 
   "id": 450080041784082434, 
   "hashtags": [
    "TBLightning"
   ], 
   "user_mentions": [], 
   "created_at": "Sun Mar 30 01:20:18 +0000 2014", 
   "retweet_count": 3, 
   "favorite_count": 7
  }, 
  {
   "text": "And Conacher gets a penalty and so much has just happened. #Sabres", 
   "label": "O", 
   "id": 450079735385964544, 
   "hashtags": [
    "Sabres"
   ], 
   "user_mentions": [], 
   "created_at": "Sun Mar 30 01:19:05 +0000 2014", 
   "retweet_count": 11, 
   "favorite_count": 27
  }, 
  {
   "text": "No idea who scored. Stamkos put it in his own net. We'll let you know who gets credit soon. #Sabres #Goal", 
   "label": "O", 
   "id": 450079377800560642, 
   "hashtags": [
    "Sabres", 
    "Goal"
   ], 
   "user_mentions": [], 
   "created_at": "Sun Mar 30 01:17:40 +0000 2014", 
   "retweet_count": 96, 
   "favorite_count": 89
  }, 
  {
   "text": "IT'S A GOOD GOAL!! #Sabres", 
   "label": "O", 
   "id": 450079223055925250, 
   "hashtags": [
    "Sabres"
   ], 
   "user_mentions": [], 
   "created_at": "Sun Mar 30 01:17:03 +0000 2014", 
   "retweet_count": 53, 
   "favorite_count": 78
  }, 
  {
   "text": "GOOOOOAAALLL!!!  #Sabres score AN EMPTY NETTER on DELAYED PENALTY!!", 
   "label": "O", 
   "id": 450079060270792704, 
   "hashtags": [
    "Sabres"
   ], 
   "user_mentions": [], 
   "created_at": "Sun Mar 30 01:16:24 +0000 2014", 
   "retweet_count": 136, 
   "favorite_count": 117
  }, 
  {
   "text": "#LetsGoBuffalo", 
   "label": "O", 
   "id": 450078914594213888, 
   "hashtags": [
    "LetsGoBuffalo"
   ], 
   "user_mentions": [], 
   "created_at": "Sun Mar 30 01:15:49 +0000 2014", 
   "retweet_count": 37, 
   "favorite_count": 47
  }, 
  {
   "text": "RT @NHL: Dominik Hasek. The @BuffaloSabres Hall of Fame. And an actual sabre. Watch: http://t.co/uXSnxgNLrS #Sabres", 
   "label": "O", 
   "id": 450077647054573568, 
   "hashtags": [
    "Sabres"
   ], 
   "user_mentions": [
    "NHL", 
    "BuffaloSabres"
   ], 
   "created_at": "Sun Mar 30 01:10:47 +0000 2014", 
   "retweet_count": 54, 
   "favorite_count": 0
  }, 
  {
   "text": "#Sabres to the PP. Stamkos guilty of tripping 1:07 into the 3rd. #NewWavePP", 
   "label": "O", 
   "id": 450076319230210049, 
   "hashtags": [
    "Sabres", 
    "NewWavePP"
   ], 
   "user_mentions": [], 
   "created_at": "Sun Mar 30 01:05:31 +0000 2014", 
   "retweet_count": 5, 
   "favorite_count": 9
  }, 
  {
   "text": "3rd period is starting now in Buffalo. All tied up. #Sabres #Lightning", 
   "label": "O", 
   "id": 450075584501387264, 
   "hashtags": [
    "Sabres", 
    "Lightning"
   ], 
   "user_mentions": [], 
   "created_at": "Sun Mar 30 01:02:36 +0000 2014", 
   "retweet_count": 4, 
   "favorite_count": 13
  }, 
  {
   "text": "Ristolainen leads all #Sabres skates with 16:53 of ice time through two periods. He also has an assist.", 
   "label": "O", 
   "id": 450074731375767553, 
   "hashtags": [
    "Sabres"
   ], 
   "user_mentions": [], 
   "created_at": "Sun Mar 30 00:59:12 +0000 2014", 
   "retweet_count": 9, 
   "favorite_count": 17
  }, 
  {
   "text": "2-2 after 40 minutes. 22-20 shots on goal for the visitors. #Sabres #TBLightning", 
   "label": "O", 
   "id": 450071717831262208, 
   "hashtags": [
    "Sabres", 
    "TBLightning"
   ], 
   "user_mentions": [], 
   "created_at": "Sun Mar 30 00:47:14 +0000 2014", 
   "retweet_count": 9, 
   "favorite_count": 8
  }, 
  {
   "text": "RT @MSGNetworks: #ICYMI @BuffaloSabres honored legendary goaltender Dominik Hasek before tonight's game. Here's the entire ceremony: http:/\u2026", 
   "label": "O", 
   "id": 450070643032461312, 
   "hashtags": [
    "ICYMI"
   ], 
   "user_mentions": [
    "MSGNetworks", 
    "BuffaloSabres"
   ], 
   "created_at": "Sun Mar 30 00:42:57 +0000 2014", 
   "retweet_count": 13, 
   "favorite_count": 0
  }, 
  {
   "text": "First #Sabres penalty of the game is to Larsson, 2 for holding at 14:46.", 
   "label": "O", 
   "id": 450069086425608192, 
   "hashtags": [
    "Sabres"
   ], 
   "user_mentions": [], 
   "created_at": "Sun Mar 30 00:36:46 +0000 2014", 
   "retweet_count": 2, 
   "favorite_count": 6
  }, 
  {
   "text": "Meet a hero at the game tonight, #TicketsForTroops recipient Dan Page. http://t.co/XnlZ8cDAY0 #ThankYouForYourService (@SamKorotkin)", 
   "label": "O", 
   "id": 450068316821131264, 
   "hashtags": [
    "TicketsForTroops", 
    "ThankYouForYourService"
   ], 
   "user_mentions": [
    "SamKorotkin"
   ], 
   "created_at": "Sun Mar 30 00:33:43 +0000 2014", 
   "retweet_count": 5, 
   "favorite_count": 16
  }, 
  {
   "text": "2 legends in the building tonight with #Sabres owner Terry Pegula. #Hasek #Perreault (@BWipp) http://t.co/YCYenmj6d9", 
   "label": "O", 
   "id": 450065083012358145, 
   "hashtags": [
    "Sabres", 
    "Hasek", 
    "Perreault"
   ], 
   "user_mentions": [
    "BWipp"
   ], 
   "created_at": "Sun Mar 30 00:20:52 +0000 2014", 
   "retweet_count": 77, 
   "favorite_count": 132
  }, 
  {
   "text": "#Sabres back to the PP. Hedman guilty of knocking the net off its moorings. #YouCantDoThat #NewWavePP", 
   "label": "O", 
   "id": 450064324825219072, 
   "hashtags": [
    "Sabres", 
    "YouCantDoThat", 
    "NewWavePP"
   ], 
   "user_mentions": [], 
   "created_at": "Sun Mar 30 00:17:51 +0000 2014", 
   "retweet_count": 5, 
   "favorite_count": 8
  }, 
  {
   "text": "RT to congratulate the newest member of the Buffalo #Sabres HALL OF FAME: Dominik Hasek! #39 http://t.co/STbgYkf2pm", 
   "label": "O", 
   "id": 450062073263697921, 
   "hashtags": [
    "Sabres"
   ], 
   "user_mentions": [], 
   "created_at": "Sun Mar 30 00:08:54 +0000 2014", 
   "retweet_count": 264, 
   "favorite_count": 144
  }, 
  {
   "text": "@CaptainRed716 No, tweeted that when they made it 2-2. #atthegame", 
   "label": "O", 
   "id": 450058603249278976, 
   "hashtags": [
    "atthegame"
   ], 
   "user_mentions": [
    "CaptainRed716"
   ], 
   "created_at": "Sat Mar 29 23:55:07 +0000 2014", 
   "retweet_count": 0, 
   "favorite_count": 0
  }, 
  {
   "text": "Did you miss the Hasek pregame ceremony? Watch it in full here: http://t.co/8litgpN4Jl http://t.co/B6IaBtrZU8", 
   "label": "O", 
   "id": 450058497187532800, 
   "hashtags": [], 
   "user_mentions": [], 
   "created_at": "Sat Mar 29 23:54:42 +0000 2014", 
   "retweet_count": 65, 
   "favorite_count": 109
  }, 
  {
   "text": "2-2 after 20 minutes. Shots on goal 9-8 for the visitors. #Sabres #TBLightning", 
   "label": "O", 
   "id": 450057943447527425, 
   "hashtags": [
    "Sabres", 
    "TBLightning"
   ], 
   "user_mentions": [], 
   "created_at": "Sat Mar 29 23:52:30 +0000 2014", 
   "retweet_count": 10, 
   "favorite_count": 8
  }, 
  {
   "text": "#Sabres 2-0 lead evaporates in 2 minutes. Stamkos now makes it 2-2.", 
   "label": "O", 
   "id": 450057572096442369, 
   "hashtags": [
    "Sabres"
   ], 
   "user_mentions": [], 
   "created_at": "Sat Mar 29 23:51:01 +0000 2014", 
   "retweet_count": 19, 
   "favorite_count": 21
  }, 
  {
   "text": "#worstleadinhockey", 
   "label": "O", 
   "id": 450057475551940608, 
   "hashtags": [
    "worstleadinhockey"
   ], 
   "user_mentions": [], 
   "created_at": "Sat Mar 29 23:50:38 +0000 2014", 
   "retweet_count": 73, 
   "favorite_count": 78
  }, 
  {
   "text": "The #TBLightning are on the board. Killorn flips one by Hackett with 2:08 remaining in the 1st. Still 2-1 #Sabres.", 
   "label": "O", 
   "id": 450056934448984064, 
   "hashtags": [
    "TBLightning", 
    "Sabres"
   ], 
   "user_mentions": [], 
   "created_at": "Sat Mar 29 23:48:29 +0000 2014", 
   "retweet_count": 3, 
   "favorite_count": 9
  }, 
  {
   "text": "RT @lkoch13: Dominik Hasek's Miraculous Save #TheDominator @buffalosabres http://t.co/vkqC7iDcKF", 
   "label": "O", 
   "id": 450056233022914560, 
   "hashtags": [
    "TheDominator"
   ], 
   "user_mentions": [
    "lkoch13", 
    "BuffaloSabres"
   ], 
   "created_at": "Sat Mar 29 23:45:42 +0000 2014", 
   "retweet_count": 17, 
   "favorite_count": 0
  }, 
  {
   "text": "WATCH: The pregame ceremony for Dominik Hasek in its entirety. http://t.co/8litgpN4Jl http://t.co/duDh5zIs5V", 
   "label": "O", 
   "id": 450055763889647616, 
   "hashtags": [], 
   "user_mentions": [], 
   "created_at": "Sat Mar 29 23:43:50 +0000 2014", 
   "retweet_count": 60, 
   "favorite_count": 90
  }, 
  {
   "text": "Cody Hodgson does get credit for the goal at 14:07. 2-0 Buffalo. #CoHo #Sabres", 
   "label": "O", 
   "id": 450055344958746624, 
   "hashtags": [
    "CoHo", 
    "Sabres"
   ], 
   "user_mentions": [], 
   "created_at": "Sat Mar 29 23:42:10 +0000 2014", 
   "retweet_count": 22, 
   "favorite_count": 43
  }, 
  {
   "text": "2-0 #SABRES! @zemgus94 forces a turnover, Ehrhoff shoots from the point, Hodgson in front. #GOAL", 
   "label": "O", 
   "id": 450055103933087744, 
   "hashtags": [
    "SABRES", 
    "GOAL"
   ], 
   "user_mentions": [
    "zemgus94"
   ], 
   "created_at": "Sat Mar 29 23:41:13 +0000 2014", 
   "retweet_count": 50, 
   "favorite_count": 69
  }, 
  {
   "text": "There is a Time Warner Cable issue for the SD feed of tonight's #Sabres game. They are working to resolve the issue.", 
   "label": "O", 
   "id": 450054461915156481, 
   "hashtags": [
    "Sabres"
   ], 
   "user_mentions": [], 
   "created_at": "Sat Mar 29 23:38:39 +0000 2014", 
   "retweet_count": 10, 
   "favorite_count": 13
  }, 
  {
   "text": "GOAL! #Sabres strike first 12:20 into the game. It's Matt D'Agostini's 5th of the season.", 
   "label": "O", 
   "id": 450053954546966528, 
   "hashtags": [
    "Sabres"
   ], 
   "user_mentions": [], 
   "created_at": "Sat Mar 29 23:36:39 +0000 2014", 
   "retweet_count": 40, 
   "favorite_count": 68
  }, 
  {
   "text": "From one #Sabres legend to another. RJ gives Hasek his sabre. #HOF (@BWipp) http://t.co/yju11NfWBQ", 
   "label": "O", 
   "id": 450052607394848768, 
   "hashtags": [
    "Sabres", 
    "HOF"
   ], 
   "user_mentions": [
    "BWipp"
   ], 
   "created_at": "Sat Mar 29 23:31:17 +0000 2014", 
   "retweet_count": 104, 
   "favorite_count": 174
  }, 
  {
   "text": "Palat, 2 for interference 8:31 into the 1st. #Sabres get the first PP. #NewWavePP", 
   "label": "O", 
   "id": 450052059770146816, 
   "hashtags": [
    "Sabres", 
    "NewWavePP"
   ], 
   "user_mentions": [], 
   "created_at": "Sat Mar 29 23:29:07 +0000 2014", 
   "retweet_count": 1, 
   "favorite_count": 8
  }, 
  {
   "text": "Many of you still want to talk about Hasek. No prob. What's your favorite Hasek highlight of all time? Send us the clip with #TheDominator.", 
   "label": "O", 
   "id": 450051372227239937, 
   "hashtags": [
    "TheDominator"
   ], 
   "user_mentions": [], 
   "created_at": "Sat Mar 29 23:26:23 +0000 2014", 
   "retweet_count": 1, 
   "favorite_count": 22
  }, 
  {
   "text": "There's also a hockey game tonight, and that's underway now. #Sabres #TBLightning", 
   "label": "O", 
   "id": 450049847375433728, 
   "hashtags": [
    "Sabres", 
    "TBLightning"
   ], 
   "user_mentions": [], 
   "created_at": "Sat Mar 29 23:20:19 +0000 2014", 
   "retweet_count": 6, 
   "favorite_count": 33
  }, 
  {
   "text": "WATCH: Here is the Dominik Hasek tribute shown on the HD video board tonight. http://t.co/074APq9Juc http://t.co/x3zebTzig9", 
   "label": "O", 
   "id": 450049272877047809, 
   "hashtags": [], 
   "user_mentions": [], 
   "created_at": "Sat Mar 29 23:18:02 +0000 2014", 
   "retweet_count": 151, 
   "favorite_count": 190
  }, 
  {
   "text": "#TheDominator raises his sabre. #Sabres #HOF http://t.co/Ww4v6mtNF2", 
   "label": "O", 
   "id": 450048402714148864, 
   "hashtags": [
    "TheDominator", 
    "Sabres", 
    "HOF"
   ], 
   "user_mentions": [], 
   "created_at": "Sat Mar 29 23:14:35 +0000 2014", 
   "retweet_count": 199, 
   "favorite_count": 220
  }, 
  {
   "text": "Moment of silence for @buffalobills owner Ralph Wilson here at the arena.", 
   "label": "O", 
   "id": 450047522309144576, 
   "hashtags": [], 
   "user_mentions": [
    "buffalobills"
   ], 
   "created_at": "Sat Mar 29 23:11:05 +0000 2014", 
   "retweet_count": 149, 
   "favorite_count": 348
  }, 
  {
   "text": "Final two words of Hasek's speech: \"Thank you.\" No, Dominik, thank YOU! #Sabres http://t.co/JvM1NbKDqG", 
   "label": "O", 
   "id": 450047279521886208, 
   "hashtags": [
    "Sabres"
   ], 
   "user_mentions": [], 
   "created_at": "Sat Mar 29 23:10:07 +0000 2014", 
   "retweet_count": 127, 
   "favorite_count": 190
  }, 
  {
   "text": "Hasek: Thank you, #Sabres fans! This city is the best of hockey. I'll never forget the memories of playing for such a passionate fan base.", 
   "label": "O", 
   "id": 450046941628735488, 
   "hashtags": [
    "Sabres"
   ], 
   "user_mentions": [], 
   "created_at": "Sat Mar 29 23:08:47 +0000 2014", 
   "retweet_count": 92, 
   "favorite_count": 124
  }, 
  {
   "text": "\"I will always remember our time together and the things we were able to accomplish.\" -Hasek on his time in Buffalo. #Sabres", 
   "label": "O", 
   "id": 450046672010502145, 
   "hashtags": [
    "Sabres"
   ], 
   "user_mentions": [], 
   "created_at": "Sat Mar 29 23:07:42 +0000 2014", 
   "retweet_count": 37, 
   "favorite_count": 76
  }, 
  {
   "text": "\"I have never slam-dunk, flat-out seen a better goaltender than Dominik Hasek.\" -Rick Jeanneret #Sabres", 
   "label": "O", 
   "id": 450046372973400064, 
   "hashtags": [
    "Sabres"
   ], 
   "user_mentions": [], 
   "created_at": "Sat Mar 29 23:06:31 +0000 2014", 
   "retweet_count": 146, 
   "favorite_count": 112
  }, 
  {
   "text": "Hallway to the ice looks a little different for the #Sabres tonight. See plaque on the right. (@BWipp) http://t.co/cZQR3yeBtI", 
   "label": "O", 
   "id": 450043242097033216, 
   "hashtags": [
    "Sabres"
   ], 
   "user_mentions": [
    "BWipp"
   ], 
   "created_at": "Sat Mar 29 22:54:04 +0000 2014", 
   "retweet_count": 44, 
   "favorite_count": 78
  }, 
  {
   "text": "Tonight's goaltending match-up: #Sabres Hackett (3.02 GAA, .919 save %) vs. #TBLightning Bishop (2.17 GAA, .926 save %)", 
   "label": "O", 
   "id": 450042444969943040, 
   "hashtags": [
    "Sabres", 
    "TBLightning"
   ], 
   "user_mentions": [], 
   "created_at": "Sat Mar 29 22:50:54 +0000 2014", 
   "retweet_count": 1, 
   "favorite_count": 9
  }, 
  {
   "text": "RT @MGibbyGilbert: Three Buffalo Sabres Hall of Famers....Gare, Jeanneret and The Dominator. Ceremony coming up in 10 mins on MSG. http://t\u2026", 
   "label": "O", 
   "id": 450041503852015616, 
   "hashtags": [], 
   "user_mentions": [
    "MGibbyGilbert"
   ], 
   "created_at": "Sat Mar 29 22:47:10 +0000 2014", 
   "retweet_count": 74, 
   "favorite_count": 0
  }, 
  {
   "text": "RT @laurenmariehall: Fun fact: you get an actual SABRE (like, the sword) when you get inducted into the @BuffaloSabres Hall of Fame. Turn #\u2026", 
   "label": "O", 
   "id": 450040876065366016, 
   "hashtags": [
    "MSG"
   ], 
   "user_mentions": [
    "laurenmariehall", 
    "BuffaloSabres"
   ], 
   "created_at": "Sat Mar 29 22:44:40 +0000 2014", 
   "retweet_count": 25, 
   "favorite_count": 0
  }, 
  {
   "text": "#Sabres scratches: Mitchell, Leino, Konopka, Sulzer, Myers, Stewart, Enroth, Neuvirth.", 
   "label": "O", 
   "id": 450040648503398401, 
   "hashtags": [
    "Sabres"
   ], 
   "user_mentions": [], 
   "created_at": "Sat Mar 29 22:43:46 +0000 2014", 
   "retweet_count": 11, 
   "favorite_count": 13
  }, 
  {
   "text": "@thekassmonster HASEK for the save!", 
   "label": "O", 
   "id": 450039570584059904, 
   "hashtags": [], 
   "user_mentions": [
    "thekassmonster"
   ], 
   "created_at": "Sat Mar 29 22:39:29 +0000 2014", 
   "retweet_count": 0, 
   "favorite_count": 0
  }, 
  {
   "text": "#Sabres D pairings vs. Tampa: \n Ehrhoff-Ristolainen \n Weber-McBain \n Tallinder-Ruhwedel", 
   "label": "O", 
   "id": 450039489155829761, 
   "hashtags": [
    "Sabres"
   ], 
   "user_mentions": [], 
   "created_at": "Sat Mar 29 22:39:10 +0000 2014", 
   "retweet_count": 13, 
   "favorite_count": 7
  }, 
  {
   "text": "Tonight's #Sabres lines:\n Conacher-Ennis-Stafford \n Hodgson-Girgensons-Flynn \n Foligno-Larsson-D'Agostini \n Scott-Ellis-Deslauriers", 
   "label": "O", 
   "id": 450039375858921472, 
   "hashtags": [
    "Sabres"
   ], 
   "user_mentions": [], 
   "created_at": "Sat Mar 29 22:38:43 +0000 2014", 
   "retweet_count": 12, 
   "favorite_count": 18
  }, 
  {
   "text": "How many of these jerseys will be in the arena tonight? #39 http://t.co/mzNStlYz1B", 
   "label": "O", 
   "id": 450038165894889474, 
   "hashtags": [], 
   "user_mentions": [], 
   "created_at": "Sat Mar 29 22:33:54 +0000 2014", 
   "retweet_count": 16, 
   "favorite_count": 60
  }, 
  {
   "text": ".@MattHackett31 leads the #Sabres onto the ice for warmups. #HereWeGo", 
   "label": "O", 
   "id": 450036979351437312, 
   "hashtags": [
    "Sabres", 
    "HereWeGo"
   ], 
   "user_mentions": [
    "MattHackett31"
   ], 
   "created_at": "Sat Mar 29 22:29:11 +0000 2014", 
   "retweet_count": 4, 
   "favorite_count": 17
  }, 
  {
   "text": "Fan of bubble hockey? During tonight's game, order a custom Super Chexx from @icecoinop + get free shipping http://t.co/QENzKjg5gO", 
   "label": "O", 
   "id": 450032978391875585, 
   "hashtags": [], 
   "user_mentions": [
    "ICEcoinop"
   ], 
   "created_at": "Sat Mar 29 22:13:17 +0000 2014", 
   "retweet_count": 2, 
   "favorite_count": 7
  }, 
  {
   "text": "Less than an hour to go until a pregame ceremony for Dominik Hasek! Please be in your seats by 6:50pm. You can also watch on MSG.", 
   "label": "O", 
   "id": 450031215945740288, 
   "hashtags": [], 
   "user_mentions": [], 
   "created_at": "Sat Mar 29 22:06:17 +0000 2014", 
   "retweet_count": 9, 
   "favorite_count": 25
  }, 
  {
   "text": "#Sabres Interim Coach Ted Nolan addresses participants at the Willie O'Ree skills competition today. http://t.co/mfR5iDnehJ", 
   "label": "O", 
   "id": 450025793994113024, 
   "hashtags": [
    "Sabres"
   ], 
   "user_mentions": [], 
   "created_at": "Sat Mar 29 21:44:45 +0000 2014", 
   "retweet_count": 4, 
   "favorite_count": 22
  }, 
  {
   "text": "#Sabres Asst. Coach Teppo Numminen discusses fellow Finn @rasmrist55 in tonight's pregame interview http://t.co/Lw7oSYHm6p (@SamKorotkin)", 
   "label": "O", 
   "id": 450022184237694977, 
   "hashtags": [
    "Sabres"
   ], 
   "user_mentions": [
    "rasmrist55", 
    "SamKorotkin"
   ], 
   "created_at": "Sat Mar 29 21:30:24 +0000 2014", 
   "retweet_count": 1, 
   "favorite_count": 6
  }, 
  {
   "text": "This is the sabre Dominik Hasek will be presented when he is inducted into the #Sabres HOF tonight. (@ChrisRyndak) http://t.co/SpZ3S0GLVy", 
   "label": "O", 
   "id": 450020321194946560, 
   "hashtags": [
    "Sabres"
   ], 
   "user_mentions": [
    "ChrisRyndak"
   ], 
   "created_at": "Sat Mar 29 21:23:00 +0000 2014", 
   "retweet_count": 109, 
   "favorite_count": 135
  }, 
  {
   "text": "Calm before the storm. Lightning in town tonight. #Sabres http://t.co/77r2xN3wRL", 
   "label": "O", 
   "id": 450016459532828672, 
   "hashtags": [
    "Sabres"
   ], 
   "user_mentions": [], 
   "created_at": "Sat Mar 29 21:07:39 +0000 2014", 
   "retweet_count": 18, 
   "favorite_count": 74
  }, 
  {
   "text": "Projected lineup for the #Sabres + what you need to know for tonight's game: http://t.co/EMHGgUnE1y", 
   "label": "O", 
   "id": 450011838571241472, 
   "hashtags": [
    "Sabres"
   ], 
   "user_mentions": [], 
   "created_at": "Sat Mar 29 20:49:17 +0000 2014", 
   "retweet_count": 3, 
   "favorite_count": 7
  }, 
  {
   "text": "Kids participating in the Willie O'Ree Weekend at @FirstNiagaraCtr today http://t.co/SesinbfQ88", 
   "label": "O", 
   "id": 450003422675480576, 
   "hashtags": [], 
   "user_mentions": [
    "FirstNiagaraCtr"
   ], 
   "created_at": "Sat Mar 29 20:15:51 +0000 2014", 
   "retweet_count": 4, 
   "favorite_count": 17
  }, 
  {
   "text": "@lastubbe @mjgatas No, sorry! All Ropeline passes are going to #SabresStyle participants tonight.", 
   "label": "O", 
   "id": 449994305885569024, 
   "hashtags": [
    "SabresStyle"
   ], 
   "user_mentions": [
    "lastubbe", 
    "mjgatas"
   ], 
   "created_at": "Sat Mar 29 19:39:37 +0000 2014", 
   "retweet_count": 0, 
   "favorite_count": 1
  }, 
  {
   "text": "Pregame locker room interviews:\n Larsson http://t.co/L47hz3Cs5X\n Hodgson http://t.co/LoWGIUFUgt\n Girgensons http://t.co/dF1m3hfi9o", 
   "label": "O", 
   "id": 449991574962053120, 
   "hashtags": [], 
   "user_mentions": [], 
   "created_at": "Sat Mar 29 19:28:46 +0000 2014", 
   "retweet_count": 7, 
   "favorite_count": 7
  }, 
  {
   "text": "Dominik Hasek to be honored in pregame ceremony tonight. http://t.co/EMHGgUnE1y http://t.co/lcqhIfID74", 
   "label": "O", 
   "id": 449988562352492545, 
   "hashtags": [], 
   "user_mentions": [], 
   "created_at": "Sat Mar 29 19:16:48 +0000 2014", 
   "retweet_count": 123, 
   "favorite_count": 167
  }, 
  {
   "text": "@chazadams @kevinrkennedy Pregame.", 
   "label": "O", 
   "id": 449985001413541888, 
   "hashtags": [], 
   "user_mentions": [
    "chazadams", 
    "kevinrkennedy"
   ], 
   "created_at": "Sat Mar 29 19:02:39 +0000 2014", 
   "retweet_count": 0, 
   "favorite_count": 1
  }, 
  {
   "text": "RT @kevinrkennedy: 4 hrs away from Dominik Hasek being inducted into the @buffalosabres Hall of Fame! #Sabres http://t.co/BrawKyzoT1", 
   "label": "O", 
   "id": 449984943121117184, 
   "hashtags": [
    "Sabres"
   ], 
   "user_mentions": [
    "kevinrkennedy", 
    "BuffaloSabres"
   ], 
   "created_at": "Sat Mar 29 19:02:25 +0000 2014", 
   "retweet_count": 25, 
   "favorite_count": 0
  }, 
  {
   "text": "Watch @SamKorotkin's game preview for tonight: http://t.co/Y6xPNieqPD  #Sabres", 
   "label": "O", 
   "id": 449978452415094784, 
   "hashtags": [
    "Sabres"
   ], 
   "user_mentions": [
    "SamKorotkin"
   ], 
   "created_at": "Sat Mar 29 18:36:37 +0000 2014", 
   "retweet_count": 3, 
   "favorite_count": 8
  }, 
  {
   "text": "Nolan shares an update on Leino's injury. \"We\u2019re going to be very, very cautious on this one.\" http://t.co/3E3mKxdd3E", 
   "label": "O", 
   "id": 449969904801042432, 
   "hashtags": [], 
   "user_mentions": [], 
   "created_at": "Sat Mar 29 18:02:40 +0000 2014", 
   "retweet_count": 6, 
   "favorite_count": 5
  }, 
  {
   "text": "@Aemm1005 no, sorry Ashley", 
   "label": "O", 
   "id": 449969252045299712, 
   "hashtags": [], 
   "user_mentions": [
    "Aemm1005"
   ], 
   "created_at": "Sat Mar 29 18:00:04 +0000 2014", 
   "retweet_count": 0, 
   "favorite_count": 0
  }, 
  {
   "text": "RT @Hockeyequipmgr: #55 stall http://t.co/hxLqvLWzIy", 
   "label": "O", 
   "id": 449968947098439682, 
   "hashtags": [], 
   "user_mentions": [
    "Hockeyequipmgr"
   ], 
   "created_at": "Sat Mar 29 17:58:51 +0000 2014", 
   "retweet_count": 24, 
   "favorite_count": 0
  }, 
  {
   "text": "RT @SamKorotkin: Making my on-camera debut for the @BuffaloSabres today #heregoesnothing http://t.co/lEAR85r8hf", 
   "label": "O", 
   "id": 449966569838243840, 
   "hashtags": [
    "heregoesnothing"
   ], 
   "user_mentions": [
    "SamKorotkin", 
    "BuffaloSabres"
   ], 
   "created_at": "Sat Mar 29 17:49:24 +0000 2014", 
   "retweet_count": 5, 
   "favorite_count": 0
  }, 
  {
   "text": "Girgensons set to return after missing 11 games. http://t.co/3E3mKxdd3E http://t.co/4u9ws1ZCqy", 
   "label": "O", 
   "id": 449955375627112448, 
   "hashtags": [], 
   "user_mentions": [], 
   "created_at": "Sat Mar 29 17:04:55 +0000 2014", 
   "retweet_count": 117, 
   "favorite_count": 167
  }, 
  {
   "text": "How would you like 4 round trip tickets courtesy of @delta? Sign up for our Fan Appreciation contest for a chance: http://t.co/gtqIiuEPpU", 
   "label": "O", 
   "id": 449950814875172865, 
   "hashtags": [], 
   "user_mentions": [
    "Delta"
   ], 
   "created_at": "Sat Mar 29 16:46:48 +0000 2014", 
   "retweet_count": 7, 
   "favorite_count": 20
  }, 
  {
   "text": "RT @SamKorotkin: What does Zemgus Girgensons bring to the @BuffaloSabres in his return from injury tonight? Nolan's pre-game presser: http:\u2026", 
   "label": "O", 
   "id": 449942541455327232, 
   "hashtags": [], 
   "user_mentions": [
    "SamKorotkin", 
    "BuffaloSabres"
   ], 
   "created_at": "Sat Mar 29 16:13:56 +0000 2014", 
   "retweet_count": 9, 
   "favorite_count": 0
  }, 
  {
   "text": "Nolan impressed by Ristolainen's development since early in the season. Big goal at #WorldJuniors, play with @AmerksHockey, bright future.", 
   "label": "O", 
   "id": 449930479723352064, 
   "hashtags": [
    "WorldJuniors"
   ], 
   "user_mentions": [
    "AmerksHockey"
   ], 
   "created_at": "Sat Mar 29 15:26:00 +0000 2014", 
   "retweet_count": 14, 
   "favorite_count": 40
  }, 
  {
   "text": "MSG will carry the Hasek pregame ceremony in its entirety tonight. Please tune in early because it begins before 7pm. #Sabres", 
   "label": "O", 
   "id": 449928624821764096, 
   "hashtags": [
    "Sabres"
   ], 
   "user_mentions": [], 
   "created_at": "Sat Mar 29 15:18:38 +0000 2014", 
   "retweet_count": 25, 
   "favorite_count": 54
  }, 
  {
   "text": "@matt_bartosz14 no, sorry; all given out already for #SabresStyle", 
   "label": "O", 
   "id": 449925865544351744, 
   "hashtags": [
    "SabresStyle"
   ], 
   "user_mentions": [
    "matt_bartosz14"
   ], 
   "created_at": "Sat Mar 29 15:07:40 +0000 2014", 
   "retweet_count": 0, 
   "favorite_count": 1
  }, 
  {
   "text": "@robertjanish Hackett", 
   "label": "O", 
   "id": 449925740608618496, 
   "hashtags": [], 
   "user_mentions": [
    "robertjanish"
   ], 
   "created_at": "Sat Mar 29 15:07:10 +0000 2014", 
   "retweet_count": 0, 
   "favorite_count": 3
  }, 
  {
   "text": "We really don't want you to miss the Hasek pregame ceremony tonight. So please remember to be in your seats by 6:50pm. #Sabres", 
   "label": "O", 
   "id": 449923307761319936, 
   "hashtags": [
    "Sabres"
   ], 
   "user_mentions": [], 
   "created_at": "Sat Mar 29 14:57:30 +0000 2014", 
   "retweet_count": 30, 
   "favorite_count": 26
  }, 
  {
   "text": "Hackett first goalie off the ice. He will start tonight for the #Sabres.", 
   "label": "O", 
   "id": 449922169947295744, 
   "hashtags": [
    "Sabres"
   ], 
   "user_mentions": [], 
   "created_at": "Sat Mar 29 14:52:59 +0000 2014", 
   "retweet_count": 7, 
   "favorite_count": 22
  }, 
  {
   "text": "@edwar_81 no, sorry; all going to #SabresStyle tonight.", 
   "label": "O", 
   "id": 449921336392294400, 
   "hashtags": [
    "SabresStyle"
   ], 
   "user_mentions": [
    "edwar_81"
   ], 
   "created_at": "Sat Mar 29 14:49:40 +0000 2014", 
   "retweet_count": 0, 
   "favorite_count": 2
  }, 
  {
   "text": "#Sabres defensemen now on ice at AM skate are Ehrhoff, McBain, Ristolainen, Ruhwedel, Tallinder, Weber.", 
   "label": "O", 
   "id": 449920530293211136, 
   "hashtags": [
    "Sabres"
   ], 
   "user_mentions": [], 
   "created_at": "Sat Mar 29 14:46:28 +0000 2014", 
   "retweet_count": 5, 
   "favorite_count": 10
  }, 
  {
   "text": "@ajange14 no, sorry; #SabresStyle has all the VIP Ropeline passes tonight.", 
   "label": "O", 
   "id": 449920224033533952, 
   "hashtags": [
    "SabresStyle"
   ], 
   "user_mentions": [
    "ajange14"
   ], 
   "created_at": "Sat Mar 29 14:45:15 +0000 2014", 
   "retweet_count": 0, 
   "favorite_count": 1
  }, 
  {
   "text": "In case you missed it yesterday, Girgensons is expected to return to action for the #Sabres tonight. He's skating now at AM skate.", 
   "label": "O", 
   "id": 449919885859385344, 
   "hashtags": [
    "Sabres"
   ], 
   "user_mentions": [], 
   "created_at": "Sat Mar 29 14:43:54 +0000 2014", 
   "retweet_count": 31, 
   "favorite_count": 68
  }, 
  {
   "text": "All #Sabres forwards accounted for at AM skate with the exception of Leino, Mitchell &amp; Stewart who are injured.", 
   "label": "O", 
   "id": 449919221385162752, 
   "hashtags": [
    "Sabres"
   ], 
   "user_mentions": [], 
   "created_at": "Sat Mar 29 14:41:16 +0000 2014", 
   "retweet_count": 3, 
   "favorite_count": 14
  }, 
  {
   "text": "@CPanek23 yes", 
   "label": "O", 
   "id": 449918754026422272, 
   "hashtags": [], 
   "user_mentions": [
    "CPanek23"
   ], 
   "created_at": "Sat Mar 29 14:39:24 +0000 2014", 
   "retweet_count": 1, 
   "favorite_count": 2
  }, 
  {
   "text": "Morning skate underway at @FirstNiagaraCtr. #Sabres have 12 forwards, 5 D, Hackett &amp; Lieuwen on the ice. http://t.co/HgQ5hFzjFV", 
   "label": "O", 
   "id": 449918414984065024, 
   "hashtags": [
    "Sabres"
   ], 
   "user_mentions": [
    "FirstNiagaraCtr"
   ], 
   "created_at": "Sat Mar 29 14:38:03 +0000 2014", 
   "retweet_count": 10, 
   "favorite_count": 22
  }, 
  {
   "text": "#Sabres return home to face streaking Lightning. PREVIEW: http://t.co/0udXGy8EA3  #GameDay", 
   "label": "O", 
   "id": 449908166806228992, 
   "hashtags": [
    "Sabres", 
    "GameDay"
   ], 
   "user_mentions": [], 
   "created_at": "Sat Mar 29 13:57:20 +0000 2014", 
   "retweet_count": 10, 
   "favorite_count": 10
  }
 ]
}