{
 "num_road_team_goals": "1", 
 "home_team": "New York Rangers", 
 "num_home_team_goals": "2", 
 "summary_url": "http://www.flyershistory.com/cgi-bin/poboxscore.cgi?H20131194", 
 "result": "W", 
 "road_team": "Buffalo Sabres", 
 "date": "2014-04-10", 
 "goals": [
  {
   "season_index": "16", 
   "strength": "(EV)", 
   "time": "9:06", 
   "period": "2", 
   "player": "D.Stafford", 
   "assists": "(M.Weber, T.Ennis)", 
   "game_index": "1", 
   "team": "BUF"
  }, 
  {
   "season_index": "15", 
   "strength": "(EV)", 
   "time": "19:29", 
   "period": "2", 
   "player": "B.Pouliot", 
   "assists": "(M.Zuccarello, D.Brassard)", 
   "game_index": "2", 
   "team": "NYR"
  }, 
  {
   "season_index": "26", 
   "strength": "(EV)", 
   "time": "18:18", 
   "period": "3", 
   "player": "R.Nash", 
   "assists": "(Mark Streit, D.Stepan)", 
   "game_index": "3", 
   "team": "NYR"
  }
 ], 
 "tweets": [
  {
   "text": "VIDEO: \"We stayed with it\"- complete Alain Vigneault postgame press conference:  http://t.co/kyHQPSgEJt  #NYR", 
   "label": "O", 
   "id": 454455616472612864, 
   "hashtags": [
    "NYR"
   ], 
   "user_mentions": [], 
   "created_at": "Fri Apr 11 03:07:17 +0000 2014", 
   "retweet_count": 17, 
   "favorite_count": 37
  }, 
  {
   "text": "VIDEO: \"We came up with some big plays\"- @HLundqvist30 (23 saves) meets reporters after 2-1 #NYR win http://t.co/pP7rhzAo9B", 
   "label": "O", 
   "id": 454454869861351424, 
   "hashtags": [
    "NYR"
   ], 
   "user_mentions": [
    "HLundqvist30"
   ], 
   "created_at": "Fri Apr 11 03:04:18 +0000 2014", 
   "retweet_count": 9, 
   "favorite_count": 44
  }, 
  {
   "text": "VIDEO: @MSGNetworks provides all of the highlights &amp; analysis of tonight's 2-1 #NYR win over Buffalo http://t.co/g5bMO8d8wP", 
   "label": "O", 
   "id": 454453520553750528, 
   "hashtags": [
    "NYR"
   ], 
   "user_mentions": [
    "MSGNetworks"
   ], 
   "created_at": "Fri Apr 11 02:58:57 +0000 2014", 
   "retweet_count": 11, 
   "favorite_count": 28
  }, 
  {
   "text": "VIDEO: #NYR Rick Nash scores game-winner, then chats about it with @MSGNetworks b-day boy @jaygeemsg http://t.co/oO1ZlXZOey", 
   "label": "O", 
   "id": 454451265121296384, 
   "hashtags": [
    "NYR"
   ], 
   "user_mentions": [
    "MSGNetworks", 
    "jaygeemsg"
   ], 
   "created_at": "Fri Apr 11 02:49:59 +0000 2014", 
   "retweet_count": 21, 
   "favorite_count": 60
  }, 
  {
   "text": "RECAP: \"To play at home is just a great feeling..you get goose bumps\"-Lundqvist; #NYR clinch 1st round home ice:  http://t.co/sxm1yazuuU", 
   "label": "O", 
   "id": 454449718509469697, 
   "hashtags": [
    "NYR"
   ], 
   "user_mentions": [], 
   "created_at": "Fri Apr 11 02:43:50 +0000 2014", 
   "retweet_count": 46, 
   "favorite_count": 101
  }, 
  {
   "text": "VIDEO: Worth another look as Rick Nash's 26th goal of the season wins it tonight for the #NYR:  http://t.co/rfSxQaAPMb", 
   "label": "O", 
   "id": 454444285468106752, 
   "hashtags": [
    "NYR"
   ], 
   "user_mentions": [], 
   "created_at": "Fri Apr 11 02:22:15 +0000 2014", 
   "retweet_count": 37, 
   "favorite_count": 57
  }, 
  {
   "text": "#NYR have officially clinched the 2 seed in the Metro Division!!! See you @TheGarden for Game 1 of the #NYRPlayoffs! http://t.co/LkUqEQVhS2", 
   "label": "O", 
   "id": 454439804252745728, 
   "hashtags": [
    "NYR", 
    "NYRPlayoffs"
   ], 
   "user_mentions": [
    "TheGarden"
   ], 
   "created_at": "Fri Apr 11 02:04:27 +0000 2014", 
   "retweet_count": 819, 
   "favorite_count": 667
  }, 
  {
   "text": "#NYR Blueshirts off our Backs ceremony @TheGarden! http://t.co/ca2DmP5DyZ http://t.co/TixQteCAW0", 
   "label": "O", 
   "id": 454434292148748288, 
   "hashtags": [
    "NYR"
   ], 
   "user_mentions": [
    "TheGarden"
   ], 
   "created_at": "Fri Apr 11 01:42:32 +0000 2014", 
   "retweet_count": 134, 
   "favorite_count": 305
  }, 
  {
   "text": "YES!! #NYR win their final regular season home game 2-1 tonight over the Sabres!!", 
   "label": "O", 
   "id": 454432140596625408, 
   "hashtags": [
    "NYR"
   ], 
   "user_mentions": [], 
   "created_at": "Fri Apr 11 01:33:59 +0000 2014", 
   "retweet_count": 565, 
   "favorite_count": 511
  }, 
  {
   "text": "GOAL!!! Rick Nash blasts right wing shot past Hackett with 1:42 to play and the #NYR lead 2-1!! what a feed from Marty St. Louis!  #Nashty", 
   "label": "O", 
   "id": 454430803179884544, 
   "hashtags": [
    "NYR", 
    "Nashty"
   ], 
   "user_mentions": [], 
   "created_at": "Fri Apr 11 01:28:41 +0000 2014", 
   "retweet_count": 383, 
   "favorite_count": 404
  }, 
  {
   "text": "2:40 to play and the #NYR have killed off the penalty to Pouliot..still 1-1 game", 
   "label": "O", 
   "id": 454430356905951232, 
   "hashtags": [
    "NYR"
   ], 
   "user_mentions": [], 
   "created_at": "Fri Apr 11 01:26:54 +0000 2014", 
   "retweet_count": 11, 
   "favorite_count": 37
  }, 
  {
   "text": "Pouliot whistled for slashing penalty at 15:10  #NYR", 
   "label": "O", 
   "id": 454429244081602560, 
   "hashtags": [
    "NYR"
   ], 
   "user_mentions": [], 
   "created_at": "Fri Apr 11 01:22:29 +0000 2014", 
   "retweet_count": 5, 
   "favorite_count": 22
  }, 
  {
   "text": "As we reach the #FoxwoodsFinalFive the #NYR and Sabres are tied 1-1 still, after an excellent scoring chance for Hagelin", 
   "label": "O", 
   "id": 454429055878983681, 
   "hashtags": [
    "FoxwoodsFinalFive", 
    "NYR"
   ], 
   "user_mentions": [], 
   "created_at": "Fri Apr 11 01:21:44 +0000 2014", 
   "retweet_count": 7, 
   "favorite_count": 31
  }, 
  {
   "text": "KILL!! back to 5 on 5 with 7:30 to play in third, tied 1-1  #NYR", 
   "label": "O", 
   "id": 454428419435290625, 
   "hashtags": [
    "NYR"
   ], 
   "user_mentions": [], 
   "created_at": "Fri Apr 11 01:19:12 +0000 2014", 
   "retweet_count": 10, 
   "favorite_count": 47
  }, 
  {
   "text": "Dominic Moore called for hooking penalty at 10:13..first penalty kill in two games for the #NYR..still 1-1 here @TheGarden tonight", 
   "label": "O", 
   "id": 454427142886293504, 
   "hashtags": [
    "NYR"
   ], 
   "user_mentions": [
    "TheGarden"
   ], 
   "created_at": "Fri Apr 11 01:14:08 +0000 2014", 
   "retweet_count": 5, 
   "favorite_count": 18
  }, 
  {
   "text": "Third period underway @TheGarden with the #NYR and Sabres tied 1-1", 
   "label": "O", 
   "id": 454423139632840704, 
   "hashtags": [
    "NYR"
   ], 
   "user_mentions": [
    "TheGarden"
   ], 
   "created_at": "Fri Apr 11 00:58:13 +0000 2014", 
   "retweet_count": 25, 
   "favorite_count": 38
  }, 
  {
   "text": "#NYR Stats: #NYR outshot the Sabres 18-1 in that second period..one shot against is fewest allowed in a period by #NYR this season", 
   "label": "O", 
   "id": 454419470275317762, 
   "hashtags": [
    "NYR", 
    "NYR", 
    "NYR"
   ], 
   "user_mentions": [], 
   "created_at": "Fri Apr 11 00:43:39 +0000 2014", 
   "retweet_count": 61, 
   "favorite_count": 75
  }, 
  {
   "text": "#NYR Facts: Benoit Pouliot now has a career-high seven-game point-scoring streak! credit @zuccarello36 &amp; Derick Brassard with the assists", 
   "label": "O", 
   "id": 454419162665091072, 
   "hashtags": [
    "NYR"
   ], 
   "user_mentions": [
    "zuccarello36"
   ], 
   "created_at": "Fri Apr 11 00:42:25 +0000 2014", 
   "retweet_count": 27, 
   "favorite_count": 73
  }, 
  {
   "text": "#NYR tie it at 1 on the Pouliot goal! http://t.co/cD4lmobGS0 http://t.co/NRGism791m", 
   "label": "O", 
   "id": 454418809013932032, 
   "hashtags": [
    "NYR"
   ], 
   "user_mentions": [], 
   "created_at": "Fri Apr 11 00:41:01 +0000 2014", 
   "retweet_count": 67, 
   "favorite_count": 158
  }, 
  {
   "text": "GOAL!!! Benoit Pouliot buries his 15th with 30.4 seconds to play in the period and we are tied 1-1!! #NYR", 
   "label": "O", 
   "id": 454418369517989889, 
   "hashtags": [
    "NYR"
   ], 
   "user_mentions": [], 
   "created_at": "Fri Apr 11 00:39:16 +0000 2014", 
   "retweet_count": 157, 
   "favorite_count": 211
  }, 
  {
   "text": "Richards slap shot hits Hackett square in the mask and Hackett is shaken up, though will stay in the game  #NYR", 
   "label": "O", 
   "id": 454417398037487617, 
   "hashtags": [
    "NYR"
   ], 
   "user_mentions": [], 
   "created_at": "Fri Apr 11 00:35:25 +0000 2014", 
   "retweet_count": 8, 
   "favorite_count": 32
  }, 
  {
   "text": "Foligno to the box for high sticking Klein at 16:51..#NYR power play", 
   "label": "O", 
   "id": 454417117409210368, 
   "hashtags": [
    "NYR"
   ], 
   "user_mentions": [], 
   "created_at": "Fri Apr 11 00:34:18 +0000 2014", 
   "retweet_count": 6, 
   "favorite_count": 18
  }, 
  {
   "text": "Drew Stafford on a deflection gives Sabres a 1-0 lead over the #NYR at 9:06 of second period...first Buffalo shot of the period", 
   "label": "O", 
   "id": 454412797133471744, 
   "hashtags": [
    "NYR"
   ], 
   "user_mentions": [], 
   "created_at": "Fri Apr 11 00:17:08 +0000 2014", 
   "retweet_count": 15, 
   "favorite_count": 17
  }, 
  {
   "text": "Back to even strength..7 minutes gone by in second, #NYR and Sabres remain tied 0-0", 
   "label": "O", 
   "id": 454411321929650176, 
   "hashtags": [
    "NYR"
   ], 
   "user_mentions": [], 
   "created_at": "Fri Apr 11 00:11:16 +0000 2014", 
   "retweet_count": 9, 
   "favorite_count": 29
  }, 
  {
   "text": "after Fast sets up Klein for scoring chance, Sabres called for hooking penalty and #NYR head to third power play tonight...", 
   "label": "O", 
   "id": 454410561913372674, 
   "hashtags": [
    "NYR"
   ], 
   "user_mentions": [], 
   "created_at": "Fri Apr 11 00:08:15 +0000 2014", 
   "retweet_count": 7, 
   "favorite_count": 26
  }, 
  {
   "text": "second period underway with the #NYR and Sabres scoreless here @TheGarden", 
   "label": "O", 
   "id": 454408783360708608, 
   "hashtags": [
    "NYR"
   ], 
   "user_mentions": [
    "TheGarden"
   ], 
   "created_at": "Fri Apr 11 00:01:11 +0000 2014", 
   "retweet_count": 12, 
   "favorite_count": 29
  }, 
  {
   "text": "End of a scoreless first period here @TheGarden...#NYR with 9 shots, Lundqvist with 12 saves", 
   "label": "O", 
   "id": 454404244901494784, 
   "hashtags": [
    "NYR"
   ], 
   "user_mentions": [
    "TheGarden"
   ], 
   "created_at": "Thu Apr 10 23:43:09 +0000 2014", 
   "retweet_count": 10, 
   "favorite_count": 45
  }, 
  {
   "text": "Ehrhoff to the box for slashing, #NYR power play with 1:31 to play in first...", 
   "label": "O", 
   "id": 454403572575522816, 
   "hashtags": [
    "NYR"
   ], 
   "user_mentions": [], 
   "created_at": "Thu Apr 10 23:40:28 +0000 2014", 
   "retweet_count": 12, 
   "favorite_count": 20
  }, 
  {
   "text": "Lundqvist denies Stewart on a Buffalo 3 on 1 opportunity..#NYR", 
   "label": "O", 
   "id": 454403081355415553, 
   "hashtags": [
    "NYR"
   ], 
   "user_mentions": [], 
   "created_at": "Thu Apr 10 23:38:31 +0000 2014", 
   "retweet_count": 14, 
   "favorite_count": 48
  }, 
  {
   "text": "4:16 to play in scoreless first period..Lundqvist now with 11 saves already...", 
   "label": "O", 
   "id": 454401973820063744, 
   "hashtags": [], 
   "user_mentions": [], 
   "created_at": "Thu Apr 10 23:34:07 +0000 2014", 
   "retweet_count": 13, 
   "favorite_count": 42
  }, 
  {
   "text": "#NYR skating on game's first power play..0-0 contest in first", 
   "label": "O", 
   "id": 454400476000550912, 
   "hashtags": [
    "NYR"
   ], 
   "user_mentions": [], 
   "created_at": "Thu Apr 10 23:28:10 +0000 2014", 
   "retweet_count": 11, 
   "favorite_count": 33
  }, 
  {
   "text": "Happy fan appreciation day to all the #NYR fans!!! Can't wait to see you all for #NYRPlayoffs!!", 
   "label": "O", 
   "id": 454398031929307136, 
   "hashtags": [
    "NYR", 
    "NYRPlayoffs"
   ], 
   "user_mentions": [], 
   "created_at": "Thu Apr 10 23:18:27 +0000 2014", 
   "retweet_count": 74, 
   "favorite_count": 150
  }, 
  {
   "text": "6:38 into scoreless first, #NYR searching still for first shot on goal...Lundqvist with 5 saves so far", 
   "label": "O", 
   "id": 454397903050924032, 
   "hashtags": [
    "NYR"
   ], 
   "user_mentions": [], 
   "created_at": "Thu Apr 10 23:17:57 +0000 2014", 
   "retweet_count": 14, 
   "favorite_count": 30
  }, 
  {
   "text": "Here..we..go! #NYR and Sabres drop the puck @TheGarden...catch the action on @MSGNetworks", 
   "label": "O", 
   "id": 454395540214906880, 
   "hashtags": [
    "NYR"
   ], 
   "user_mentions": [
    "TheGarden", 
    "MSGNetworks"
   ], 
   "created_at": "Thu Apr 10 23:08:33 +0000 2014", 
   "retweet_count": 35, 
   "favorite_count": 79
  }, 
  {
   "text": "#NYR starters: Lundqvist, Staal, Stralman, Nash, Stepan, St. Louis  Scratches: Carcillo, Falk, Haggerty, McDonagh, Kreider", 
   "label": "O", 
   "id": 454393121099751424, 
   "hashtags": [
    "NYR"
   ], 
   "user_mentions": [], 
   "created_at": "Thu Apr 10 22:58:56 +0000 2014", 
   "retweet_count": 54, 
   "favorite_count": 106
  }, 
  {
   "text": "Happy Birthday @jaygeemsg! Watch him between the benches tonight on @MSGNetworks! #NYR", 
   "label": "O", 
   "id": 454392430318874624, 
   "hashtags": [
    "NYR"
   ], 
   "user_mentions": [
    "jaygeemsg", 
    "MSGNetworks"
   ], 
   "created_at": "Thu Apr 10 22:56:12 +0000 2014", 
   "retweet_count": 25, 
   "favorite_count": 64
  }, 
  {
   "text": "Pregame warmups @TheGarden for #NYR http://t.co/673UwMr7iI http://t.co/KuphsjGqcr", 
   "label": "O", 
   "id": 454388721467793409, 
   "hashtags": [
    "NYR"
   ], 
   "user_mentions": [
    "TheGarden"
   ], 
   "created_at": "Thu Apr 10 22:41:27 +0000 2014", 
   "retweet_count": 52, 
   "favorite_count": 154
  }, 
  {
   "text": "#NYR and Sabres pre-game warmups underway @TheGarden..Goalies Tonight: @HLundqvist30 and Matt Hackett", 
   "label": "O", 
   "id": 454386115055992832, 
   "hashtags": [
    "NYR"
   ], 
   "user_mentions": [
    "TheGarden", 
    "HLundqvist30"
   ], 
   "created_at": "Thu Apr 10 22:31:06 +0000 2014", 
   "retweet_count": 21, 
   "favorite_count": 56
  }, 
  {
   "text": "#NYR Facts: Rick Nash has only faced the Buffalo Sabres 14 times in his career, but he has 9 goals and 13 points in those games", 
   "label": "O", 
   "id": 454361626435915776, 
   "hashtags": [
    "NYR"
   ], 
   "user_mentions": [], 
   "created_at": "Thu Apr 10 20:53:48 +0000 2014", 
   "retweet_count": 60, 
   "favorite_count": 127
  }, 
  {
   "text": "The Official Viewing Party Headquarters for the @NYRangers home finale is @whiskeyamerican. Meet our Legends &amp; win some great prizes! #NYRHQ", 
   "label": "O", 
   "id": 454344055686959104, 
   "hashtags": [
    "NYRHQ"
   ], 
   "user_mentions": [
    "NYRangers", 
    "whiskeyamerican"
   ], 
   "created_at": "Thu Apr 10 19:43:58 +0000 2014", 
   "retweet_count": 20, 
   "favorite_count": 43
  }, 
  {
   "text": "VIDEO: \"We want to continue playing well\"- Alain Vigneault morning press conference today:  http://t.co/TT5aQDm354  #NYR", 
   "label": "O", 
   "id": 454326533294161920, 
   "hashtags": [
    "NYR"
   ], 
   "user_mentions": [], 
   "created_at": "Thu Apr 10 18:34:21 +0000 2014", 
   "retweet_count": 15, 
   "favorite_count": 27
  }, 
  {
   "text": "VIDEO: \"This is still an important week\"- @BRichards_1991 meets with reporters after #NYR morning skate today:  http://t.co/bQKx4SSgFA", 
   "label": "O", 
   "id": 454315768944283648, 
   "hashtags": [
    "NYR"
   ], 
   "user_mentions": [
    "BRichards_1991"
   ], 
   "created_at": "Thu Apr 10 17:51:34 +0000 2014", 
   "retweet_count": 15, 
   "favorite_count": 27
  }, 
  {
   "text": "Don\u2019t miss the 2013-14 #NYRPlayoffs Tickets Pre-Sale today @ 2pm. Availability extremely lmtd http://t.co/IZE8J6owdq http://t.co/yJMFLBAcbD", 
   "label": "O", 
   "id": 454314001196138496, 
   "hashtags": [
    "NYRPlayoffs"
   ], 
   "user_mentions": [], 
   "created_at": "Thu Apr 10 17:44:33 +0000 2014", 
   "retweet_count": 63, 
   "favorite_count": 139
  }, 
  {
   "text": "Congratulations to all of the #FastAdvil Trivia Tuesday winners the past month! To see all questions &amp; answers visit http://t.co/LdJj1dPU9J.", 
   "label": "O", 
   "id": 454273744887115777, 
   "hashtags": [
    "FastAdvil"
   ], 
   "user_mentions": [], 
   "created_at": "Thu Apr 10 15:04:35 +0000 2014", 
   "retweet_count": 10, 
   "favorite_count": 26
  }, 
  {
   "text": "AV will decide after morning skate Saturday if McDonagh will play for the #NYR that night against Canadiens", 
   "label": "O", 
   "id": 454272226536480768, 
   "hashtags": [
    "NYR"
   ], 
   "user_mentions": [], 
   "created_at": "Thu Apr 10 14:58:33 +0000 2014", 
   "retweet_count": 31, 
   "favorite_count": 61
  }, 
  {
   "text": "AV says #NYR  Ryan McDonagh is focusing on off-ice workouts today, then will skate on own tomorrow and at AM skate Saturday in Montreal...", 
   "label": "O", 
   "id": 454272058500071424, 
   "hashtags": [
    "NYR"
   ], 
   "user_mentions": [], 
   "created_at": "Thu Apr 10 14:57:53 +0000 2014", 
   "retweet_count": 29, 
   "favorite_count": 51
  }, 
  {
   "text": "Optional morning skate for the #NYR as they get set to host the Sabres tonight @TheGarden...@ChrisKreider is out there on the ice", 
   "label": "O", 
   "id": 454267555562397699, 
   "hashtags": [
    "NYR"
   ], 
   "user_mentions": [
    "TheGarden", 
    "ChrisKreider"
   ], 
   "created_at": "Thu Apr 10 14:39:59 +0000 2014", 
   "retweet_count": 37, 
   "favorite_count": 73
  }, 
  {
   "text": "#NYR on the ice for morning skate http://t.co/GJsTPR3f8C http://t.co/SfQFPECbIs", 
   "label": "O", 
   "id": 454267476134858754, 
   "hashtags": [
    "NYR"
   ], 
   "user_mentions": [], 
   "created_at": "Thu Apr 10 14:39:40 +0000 2014", 
   "retweet_count": 21, 
   "favorite_count": 98
  }, 
  {
   "text": "W2W4: Last home game of the regular season is still an important one for #NYR tonight; here's your game primer:  http://t.co/QBqy9t1olZ", 
   "label": "O", 
   "id": 454264709517426689, 
   "hashtags": [
    "NYR"
   ], 
   "user_mentions": [], 
   "created_at": "Thu Apr 10 14:28:41 +0000 2014", 
   "retweet_count": 25, 
   "favorite_count": 44
  }
 ]
}