{
 "num_road_team_goals": "2", 
 "home_team": "New York Rangers", 
 "num_home_team_goals": "1", 
 "summary_url": "http://www.flyershistory.com/cgi-bin/poboxscore.cgi?H20130857", 
 "result": "L", 
 "road_team": "Edmonton Oilers", 
 "date": "2014-02-06", 
 "goals": [
  {
   "season_index": "8", 
   "strength": "(EV)", 
   "time": "2:56", 
   "period": "1", 
   "player": "R.Smyth", 
   "assists": "(D.Perron)", 
   "game_index": "1", 
   "team": "EDM"
  }, 
  {
   "season_index": "11", 
   "strength": "(EV)", 
   "time": "0:22", 
   "period": "2", 
   "player": "D.Brassard", 
   "assists": "(M.Zuccarello, B.Pouliot)", 
   "game_index": "2", 
   "team": "NYR"
  }, 
  {
   "season_index": "11", 
   "strength": "(EV)", 
   "time": "18:22", 
   "period": "3", 
   "player": "N.Yakupov", 
   "assists": "(S.Gagner, T.Hall)", 
   "game_index": "3", 
   "team": "EDM"
  }
 ], 
 "tweets": [
  {
   "text": "RECAP: Late goal snaps #NYR win streak at four in 2-1 loss to the Oilers, despite 29 saves for @ctalbot33; full story http://t.co/QxriNGbVLo", 
   "label": "O", 
   "id": 431619706328743937, 
   "hashtags": [
    "NYR"
   ], 
   "user_mentions": [
    "ctalbot33"
   ], 
   "created_at": "Fri Feb 07 02:45:31 +0000 2014", 
   "retweet_count": 13, 
   "favorite_count": 21
  }, 
  {
   "text": "#NYR fall to the Oilers 2-1 tonight @TheGarden", 
   "label": "O", 
   "id": 431616369252392960, 
   "hashtags": [
    "NYR"
   ], 
   "user_mentions": [
    "TheGarden"
   ], 
   "created_at": "Fri Feb 07 02:32:16 +0000 2014", 
   "retweet_count": 33, 
   "favorite_count": 55
  }, 
  {
   "text": "Talbot to the bench for 6th attacker..face off in Edmonton end with 49 seconds to play  #NYR", 
   "label": "O", 
   "id": 431615766111485952, 
   "hashtags": [
    "NYR"
   ], 
   "user_mentions": [], 
   "created_at": "Fri Feb 07 02:29:52 +0000 2014", 
   "retweet_count": 4, 
   "favorite_count": 23
  }, 
  {
   "text": "Nail Yakupov scores with 1:38 to play in regulation and the #NYR trail 2-1", 
   "label": "O", 
   "id": 431615353731706880, 
   "hashtags": [
    "NYR"
   ], 
   "user_mentions": [], 
   "created_at": "Fri Feb 07 02:28:14 +0000 2014", 
   "retweet_count": 10, 
   "favorite_count": 26
  }, 
  {
   "text": "#NYR and Oilers remain tied 1-1 as we reach the #FoxwoodsFinalFive..Talbot with 29 saves, Scrivens with 33", 
   "label": "O", 
   "id": 431614184317804544, 
   "hashtags": [
    "NYR", 
    "FoxwoodsFinalFive"
   ], 
   "user_mentions": [], 
   "created_at": "Fri Feb 07 02:23:35 +0000 2014", 
   "retweet_count": 12, 
   "favorite_count": 28
  }, 
  {
   "text": "Hagelin stopped on the doorstep by Scrivens with 7:27 to play in regulation..#NYR and Oilers still tied 1-1", 
   "label": "O", 
   "id": 431613155756998656, 
   "hashtags": [
    "NYR"
   ], 
   "user_mentions": [], 
   "created_at": "Fri Feb 07 02:19:29 +0000 2014", 
   "retweet_count": 9, 
   "favorite_count": 41
  }, 
  {
   "text": "Boyle shot through traffic saved, then Dom Moore chips rebound wide at 9:30..#NYR and Oilers still tied 1-1", 
   "label": "O", 
   "id": 431610924555067392, 
   "hashtags": [
    "NYR"
   ], 
   "user_mentions": [], 
   "created_at": "Fri Feb 07 02:10:38 +0000 2014", 
   "retweet_count": 12, 
   "favorite_count": 32
  }, 
  {
   "text": "Talbot with 25 saves as #NYR and Oilers remain tied 1-1", 
   "label": "O", 
   "id": 431609291527979009, 
   "hashtags": [
    "NYR"
   ], 
   "user_mentions": [], 
   "created_at": "Fri Feb 07 02:04:08 +0000 2014", 
   "retweet_count": 16, 
   "favorite_count": 44
  }, 
  {
   "text": "Talbot gobbles up Yakupov shot after #NYR turnover at 5:04..stilled tied 1-1 here @TheGarden", 
   "label": "O", 
   "id": 431608969543843840, 
   "hashtags": [
    "NYR"
   ], 
   "user_mentions": [
    "TheGarden"
   ], 
   "created_at": "Fri Feb 07 02:02:51 +0000 2014", 
   "retweet_count": 14, 
   "favorite_count": 29
  }, 
  {
   "text": "Here we go! Third period underway, #NYR and Oilers are tied 1-1", 
   "label": "O", 
   "id": 431607047831175170, 
   "hashtags": [
    "NYR"
   ], 
   "user_mentions": [], 
   "created_at": "Fri Feb 07 01:55:13 +0000 2014", 
   "retweet_count": 31, 
   "favorite_count": 58
  }, 
  {
   "text": "The #NYR Emile Francis Award winner is George McCafferty of Howell NJ for 45 years of volunteerism in youth hockey as coach &amp; administrator.", 
   "label": "O", 
   "id": 431603199133638657, 
   "hashtags": [
    "NYR"
   ], 
   "user_mentions": [], 
   "created_at": "Fri Feb 07 01:39:56 +0000 2014", 
   "retweet_count": 22, 
   "favorite_count": 40
  }, 
  {
   "text": "After two periods @TheGarden #NYR and Oilers are tied 1-1..Talbot with 20 saves, Scrivens with 23", 
   "label": "O", 
   "id": 431602609766793217, 
   "hashtags": [
    "NYR"
   ], 
   "user_mentions": [
    "TheGarden"
   ], 
   "created_at": "Fri Feb 07 01:37:35 +0000 2014", 
   "retweet_count": 27, 
   "favorite_count": 39
  }, 
  {
   "text": "KILL!! back to 5-on-5 as #NYR kill off penalty to Carcillo..6:50 to play in second tied 1-1", 
   "label": "O", 
   "id": 431599472473554944, 
   "hashtags": [
    "NYR"
   ], 
   "user_mentions": [], 
   "created_at": "Fri Feb 07 01:25:07 +0000 2014", 
   "retweet_count": 20, 
   "favorite_count": 41
  }, 
  {
   "text": "Callahan shorthanded breakaway, but Scrivens makes lunging left skate save  #NYR", 
   "label": "O", 
   "id": 431599020604395521, 
   "hashtags": [
    "NYR"
   ], 
   "user_mentions": [], 
   "created_at": "Fri Feb 07 01:23:19 +0000 2014", 
   "retweet_count": 8, 
   "favorite_count": 44
  }, 
  {
   "text": "puck rolls over the goal line but only after the whistle had blown..score remains 1-1  #NYR", 
   "label": "O", 
   "id": 431598310412259328, 
   "hashtags": [
    "NYR"
   ], 
   "user_mentions": [], 
   "created_at": "Fri Feb 07 01:20:30 +0000 2014", 
   "retweet_count": 14, 
   "favorite_count": 44
  }, 
  {
   "text": "First penalty of the game assessed to Daniel Carcillo, a slash at 10:22, and #NYR head to the penalty kill tied 1-1", 
   "label": "O", 
   "id": 431597605744017408, 
   "hashtags": [
    "NYR"
   ], 
   "user_mentions": [], 
   "created_at": "Fri Feb 07 01:17:42 +0000 2014", 
   "retweet_count": 8, 
   "favorite_count": 31
  }, 
  {
   "text": "David Perron shot ticks off crossbar..5:15 gone by in the second, #NYR and Oilers tied at 1-1", 
   "label": "O", 
   "id": 431595191745904640, 
   "hashtags": [
    "NYR"
   ], 
   "user_mentions": [], 
   "created_at": "Fri Feb 07 01:08:07 +0000 2014", 
   "retweet_count": 6, 
   "favorite_count": 25
  }, 
  {
   "text": "PHOTO: Brass ties the game at 1!! http://t.co/bHH7GkBqdE #NYR http://t.co/uj7fbn81Nd", 
   "label": "O", 
   "id": 431594349819076608, 
   "hashtags": [
    "NYR"
   ], 
   "user_mentions": [], 
   "created_at": "Fri Feb 07 01:04:46 +0000 2014", 
   "retweet_count": 54, 
   "favorite_count": 135
  }, 
  {
   "text": "Credit @zuccarello36 and Benoit Pouliot with the assists on Brassard's 11th goal..Brassard and Zucc both with 5-game point streaks", 
   "label": "O", 
   "id": 431593920691441664, 
   "hashtags": [], 
   "user_mentions": [
    "zuccarello36"
   ], 
   "created_at": "Fri Feb 07 01:03:03 +0000 2014", 
   "retweet_count": 33, 
   "favorite_count": 88
  }, 
  {
   "text": "GOAL!!! just 22 seconds into the second period Derick Brassard beats Ben Scrivens and the #NYR have pulled even 1-1!!  #Brass", 
   "label": "O", 
   "id": 431593512287875072, 
   "hashtags": [
    "NYR", 
    "Brass"
   ], 
   "user_mentions": [], 
   "created_at": "Fri Feb 07 01:01:26 +0000 2014", 
   "retweet_count": 185, 
   "favorite_count": 242
  }, 
  {
   "text": "Second period is underway with the #NYR trailing the Oilers 1-0", 
   "label": "O", 
   "id": 431593161207840768, 
   "hashtags": [
    "NYR"
   ], 
   "user_mentions": [], 
   "created_at": "Fri Feb 07 01:00:02 +0000 2014", 
   "retweet_count": 9, 
   "favorite_count": 30
  }, 
  {
   "text": "#NYR Stats: @ChrisKreider led #NYR with 3 shots on goal in first period; Ryan Callahan had 3 hits; @DerekStepan21 won five of six faceoffs", 
   "label": "O", 
   "id": 431592376378068992, 
   "hashtags": [
    "NYR", 
    "NYR"
   ], 
   "user_mentions": [
    "ChrisKreider", 
    "DerekStepan21"
   ], 
   "created_at": "Fri Feb 07 00:56:55 +0000 2014", 
   "retweet_count": 17, 
   "favorite_count": 51
  }, 
  {
   "text": "After one period @TheGarden tonight the #NYR trail the Oilers 1-0, though ahead in shots 11-8", 
   "label": "O", 
   "id": 431588765392715776, 
   "hashtags": [
    "NYR"
   ], 
   "user_mentions": [
    "TheGarden"
   ], 
   "created_at": "Fri Feb 07 00:42:34 +0000 2014", 
   "retweet_count": 11, 
   "favorite_count": 29
  }, 
  {
   "text": "On #NYR 10th shot of the period @mooredom almost sneaks it through from right wing..#NYR down 1-0 with 3:10 to play in first period", 
   "label": "O", 
   "id": 431587681949478912, 
   "hashtags": [
    "NYR", 
    "NYR"
   ], 
   "user_mentions": [
    "mooredom"
   ], 
   "created_at": "Fri Feb 07 00:38:16 +0000 2014", 
   "retweet_count": 8, 
   "favorite_count": 25
  }, 
  {
   "text": "10:13 gone by in first period, #NYR up 6-5 in shots, trail 1-0 on scoreboard", 
   "label": "O", 
   "id": 431584541916930048, 
   "hashtags": [
    "NYR"
   ], 
   "user_mentions": [], 
   "created_at": "Fri Feb 07 00:25:47 +0000 2014", 
   "retweet_count": 9, 
   "favorite_count": 27
  }, 
  {
   "text": "\u201c@MSGNetworks: Joining @jaygeemsg at the @NYRangers 1st Intermission is @HLundqvist30! Send your questions using #NYR.\u201d Be sure to tune in!!", 
   "label": "O", 
   "id": 431583937518120960, 
   "hashtags": [
    "NYR"
   ], 
   "user_mentions": [
    "MSGNetworks", 
    "jaygeemsg", 
    "NYRangers", 
    "HLundqvist30"
   ], 
   "created_at": "Fri Feb 07 00:23:23 +0000 2014", 
   "retweet_count": 8, 
   "favorite_count": 28
  }, 
  {
   "text": "During TV timeout crowd acknowledges #NYR Olympians: Nash, Zuccarello, Hagelin, Lundqvist, Stepan, McDonagh &amp; Callahan", 
   "label": "O", 
   "id": 431583165757792256, 
   "hashtags": [
    "NYR"
   ], 
   "user_mentions": [], 
   "created_at": "Fri Feb 07 00:20:19 +0000 2014", 
   "retweet_count": 51, 
   "favorite_count": 135
  }, 
  {
   "text": "CAM!!! Talbot with quick glove save on Taylor Hall snap shot..#NYR still trail 1-0 at 6:23", 
   "label": "O", 
   "id": 431582714018660352, 
   "hashtags": [
    "NYR"
   ], 
   "user_mentions": [], 
   "created_at": "Fri Feb 07 00:18:32 +0000 2014", 
   "retweet_count": 24, 
   "favorite_count": 65
  }, 
  {
   "text": "#NYR trail 1-0 at 2:56 as Ryan Smyth taps rebound over goal line after Talbot shoulder save", 
   "label": "O", 
   "id": 431581653061083137, 
   "hashtags": [
    "NYR"
   ], 
   "user_mentions": [], 
   "created_at": "Fri Feb 07 00:14:19 +0000 2014", 
   "retweet_count": 9, 
   "favorite_count": 25
  }, 
  {
   "text": "The 6,000th regular season game in #NYR history is underway! catch the action on @MSGNetworks", 
   "label": "O", 
   "id": 431580231670194176, 
   "hashtags": [
    "NYR"
   ], 
   "user_mentions": [
    "MSGNetworks"
   ], 
   "created_at": "Fri Feb 07 00:08:40 +0000 2014", 
   "retweet_count": 105, 
   "favorite_count": 124
  }, 
  {
   "text": "PHOTO: #NYR line up on Youth Hockey night with guests from @HockeyinHarlem! http://t.co/j4cwtAmbQy #NYRGoSkate #HWNY http://t.co/bPv3xIKpgx", 
   "label": "O", 
   "id": 431579874823012352, 
   "hashtags": [
    "NYR", 
    "NYRGoSkate", 
    "HWNY"
   ], 
   "user_mentions": [
    "HockeyinHarlem"
   ], 
   "created_at": "Fri Feb 07 00:07:15 +0000 2014", 
   "retweet_count": 44, 
   "favorite_count": 86
  }, 
  {
   "text": "#NYR Starters: Talbot, Staal, Stralman, Pouliot, Brassard, Zuccarello   Scratch: Falk", 
   "label": "O", 
   "id": 431578850167095296, 
   "hashtags": [
    "NYR"
   ], 
   "user_mentions": [], 
   "created_at": "Fri Feb 07 00:03:10 +0000 2014", 
   "retweet_count": 42, 
   "favorite_count": 74
  }, 
  {
   "text": "INSTAVID: @ctalbot33 leads #NYR on to the ice @TheGarden for warmups http://t.co/VSjT0A6HMB. #GoalBuster", 
   "label": "O", 
   "id": 431571213241294848, 
   "hashtags": [
    "NYR", 
    "GoalBuster"
   ], 
   "user_mentions": [
    "ctalbot33", 
    "TheGarden"
   ], 
   "created_at": "Thu Feb 06 23:32:50 +0000 2014", 
   "retweet_count": 21, 
   "favorite_count": 52
  }, 
  {
   "text": "The #NYR to play in the most career games is Harry Howell with 1,160. #NYR6K", 
   "label": "O", 
   "id": 431568969422893056, 
   "hashtags": [
    "NYR", 
    "NYR6K"
   ], 
   "user_mentions": [], 
   "created_at": "Thu Feb 06 23:23:55 +0000 2014", 
   "retweet_count": 19, 
   "favorite_count": 67
  }, 
  {
   "text": "Don't forget #NYR and @Chase are accepting youth hockey equipment donations tonight in Chase Square. #NYRAssist #HWNY", 
   "label": "O", 
   "id": 431567432374026240, 
   "hashtags": [
    "NYR", 
    "NYRAssist", 
    "HWNY"
   ], 
   "user_mentions": [
    "Chase"
   ], 
   "created_at": "Thu Feb 06 23:17:48 +0000 2014", 
   "retweet_count": 11, 
   "favorite_count": 48
  }, 
  {
   "text": "Little known fact when he was 12 #NYR alum Stephane Matteau pitched in the Little League World Series in Williamsport. #NYRGoSkate #HWNY", 
   "label": "O", 
   "id": 431553300241326080, 
   "hashtags": [
    "NYR", 
    "NYRGoSkate", 
    "HWNY"
   ], 
   "user_mentions": [], 
   "created_at": "Thu Feb 06 22:21:39 +0000 2014", 
   "retweet_count": 20, 
   "favorite_count": 60
  }, 
  {
   "text": "Here live at the #NYR Youth Hockey Night forum with some very special guests! #NYRGoSkate #HWNY http://t.co/ONesf7ya96", 
   "label": "O", 
   "id": 431550961929441280, 
   "hashtags": [
    "NYR", 
    "NYRGoSkate", 
    "HWNY"
   ], 
   "user_mentions": [], 
   "created_at": "Thu Feb 06 22:12:21 +0000 2014", 
   "retweet_count": 10, 
   "favorite_count": 48
  }, 
  {
   "text": "#NYR have played 1,778 games at the current Madison Square Garden, posting a 935-599-200-44 record. #NYR6K", 
   "label": "O", 
   "id": 431549913785442304, 
   "hashtags": [
    "NYR", 
    "NYR6K"
   ], 
   "user_mentions": [], 
   "created_at": "Thu Feb 06 22:08:11 +0000 2014", 
   "retweet_count": 86, 
   "favorite_count": 122
  }, 
  {
   "text": "#NYR have played at least 200 regular season games against 10 NHL franchises: BOS, MON, CHI, PHI, PIT, NYI, NJD/KC/COL &amp; WAS. #NYR6K", 
   "label": "O", 
   "id": 431545610194665472, 
   "hashtags": [
    "NYR", 
    "NYR6K"
   ], 
   "user_mentions": [], 
   "created_at": "Thu Feb 06 21:51:05 +0000 2014", 
   "retweet_count": 36, 
   "favorite_count": 60
  }, 
  {
   "text": "#NYR have played more games (633) and won more games (249) against the Boston Bruins than any other NHL opponent. #NYR6K", 
   "label": "O", 
   "id": 431543881470341121, 
   "hashtags": [
    "NYR", 
    "NYR6K"
   ], 
   "user_mentions": [], 
   "created_at": "Thu Feb 06 21:44:13 +0000 2014", 
   "retweet_count": 105, 
   "favorite_count": 105
  }, 
  {
   "text": "#NYR 1st game was played on Nov. 16, 1926 against the Montreal Maroons at MSG where the Blueshirts won 1-0. #NYR6K", 
   "label": "O", 
   "id": 431542052665716736, 
   "hashtags": [
    "NYR", 
    "NYR6K"
   ], 
   "user_mentions": [], 
   "created_at": "Thu Feb 06 21:36:57 +0000 2014", 
   "retweet_count": 107, 
   "favorite_count": 130
  }, 
  {
   "text": "VIDEO: Replay of our look in at #NYR morning skate today, with insight form @martybiron43 of @MSGNetworks  http://t.co/f9Vp1CRHtD", 
   "label": "O", 
   "id": 431527580752412672, 
   "hashtags": [
    "NYR"
   ], 
   "user_mentions": [
    "martybiron43", 
    "MSGNetworks"
   ], 
   "created_at": "Thu Feb 06 20:39:27 +0000 2014", 
   "retweet_count": 13, 
   "favorite_count": 22
  }, 
  {
   "text": "Do you have an idea for the next RANGERSTOWN commercial? Now is the chance to submit your idea! Visit http://t.co/0Ssis1NpEY to submit! #NYR", 
   "label": "O", 
   "id": 431515990568882176, 
   "hashtags": [
    "NYR"
   ], 
   "user_mentions": [], 
   "created_at": "Thu Feb 06 19:53:23 +0000 2014", 
   "retweet_count": 17, 
   "favorite_count": 44
  }, 
  {
   "text": "Tonight #NYR play in their 6,000th regular season game! http://t.co/axIxinQ7Ke.  Which was your favorite? #NYR6K http://t.co/luL36nJ898", 
   "label": "O", 
   "id": 431498419451219968, 
   "hashtags": [
    "NYR", 
    "NYR6K"
   ], 
   "user_mentions": [], 
   "created_at": "Thu Feb 06 18:43:34 +0000 2014", 
   "retweet_count": 220, 
   "favorite_count": 229
  }, 
  {
   "text": "VIDEO: \"We've been playing some real good hockey for some time now\"-Alain Vigneault press conference: http://t.co/2jcAOspI02  #NYR", 
   "label": "O", 
   "id": 431489751770988544, 
   "hashtags": [
    "NYR"
   ], 
   "user_mentions": [], 
   "created_at": "Thu Feb 06 18:09:08 +0000 2014", 
   "retweet_count": 8, 
   "favorite_count": 39
  }, 
  {
   "text": "VIDEO: 'We're playing better and better\"- @CarlHagelin talks team, Olympics, and more earlier today: http://t.co/Kh4mSQfjlS  #NYR", 
   "label": "O", 
   "id": 431488545124265984, 
   "hashtags": [
    "NYR"
   ], 
   "user_mentions": [
    "CarlHagelin"
   ], 
   "created_at": "Thu Feb 06 18:04:20 +0000 2014", 
   "retweet_count": 15, 
   "favorite_count": 45
  }, 
  {
   "text": "VIDEO: @RMcDonagh27 discusses packing for Sochi, but remaining focused on #NYR remaining 2 games b4 the break: http://t.co/QDTjrQ4fiE", 
   "label": "O", 
   "id": 431487348862640128, 
   "hashtags": [
    "NYR"
   ], 
   "user_mentions": [
    "RMcDonagh27"
   ], 
   "created_at": "Thu Feb 06 17:59:35 +0000 2014", 
   "retweet_count": 14, 
   "favorite_count": 33
  }, 
  {
   "text": "#NYR morning skate report: Talbot starts, AV praises skill level of tonight's opponent, the Oilers: http://t.co/5Aeav8tHIq", 
   "label": "O", 
   "id": 431485639377563648, 
   "hashtags": [
    "NYR"
   ], 
   "user_mentions": [], 
   "created_at": "Thu Feb 06 17:52:47 +0000 2014", 
   "retweet_count": 16, 
   "favorite_count": 35
  }, 
  {
   "text": "Starting in goal for the #NYR tonight is @ctalbot33, rest of lineup remains the same as Blueshirts host the Oilers @TheGarden", 
   "label": "O", 
   "id": 431471451603214337, 
   "hashtags": [
    "NYR"
   ], 
   "user_mentions": [
    "ctalbot33", 
    "TheGarden"
   ], 
   "created_at": "Thu Feb 06 16:56:25 +0000 2014", 
   "retweet_count": 81, 
   "favorite_count": 121
  }, 
  {
   "text": "First goalie off the ice for the #NYR is @ctalbot33 ...", 
   "label": "O", 
   "id": 431457584311468032, 
   "hashtags": [
    "NYR"
   ], 
   "user_mentions": [
    "ctalbot33"
   ], 
   "created_at": "Thu Feb 06 16:01:18 +0000 2014", 
   "retweet_count": 36, 
   "favorite_count": 93
  }, 
  {
   "text": "Tune into the #NYR live stream of morning skate with special guest @martybiron43 on http://t.co/K9loI1q9of!!", 
   "label": "O", 
   "id": 431451744116441088, 
   "hashtags": [
    "NYR"
   ], 
   "user_mentions": [
    "martybiron43"
   ], 
   "created_at": "Thu Feb 06 15:38:06 +0000 2014", 
   "retweet_count": 9, 
   "favorite_count": 19
  }, 
  {
   "text": "Be sure to tune into the exclusive LIVE stream of #NYR morning skate at 10:30 on http://t.co/9Kp9UVvJQM!", 
   "label": "O", 
   "id": 431445881762504707, 
   "hashtags": [
    "NYR"
   ], 
   "user_mentions": [], 
   "created_at": "Thu Feb 06 15:14:48 +0000 2014", 
   "retweet_count": 12, 
   "favorite_count": 25
  }, 
  {
   "text": "RT @RayCastoldi: Put sound in arena bowl today, organ sounded good and then I mixed for awhile. First \"Let's Go Rangers!\" In Russia. #nyran\u2026", 
   "label": "O", 
   "id": 431421888020373504, 
   "hashtags": [
    "nyrangers", 
    "sochi2014"
   ], 
   "user_mentions": [
    "RayCastoldi"
   ], 
   "created_at": "Thu Feb 06 13:39:28 +0000 2014", 
   "retweet_count": 22, 
   "favorite_count": 0
  }, 
  {
   "text": "RT @RickNadeau: One of my favorite nights of the year is tonight... 7th Annual #NYR Youth Hockey Night @TheGarden #NYRGoSkate", 
   "label": "O", 
   "id": 431416078783479809, 
   "hashtags": [
    "NYR", 
    "NYRGoSkate"
   ], 
   "user_mentions": [
    "RickNadeau", 
    "TheGarden"
   ], 
   "created_at": "Thu Feb 06 13:16:23 +0000 2014", 
   "retweet_count": 13, 
   "favorite_count": 0
  }
 ]
}