{
 "num_road_team_goals": "1", 
 "home_team": "New York Rangers", 
 "num_home_team_goals": "4", 
 "summary_url": "http://www.flyershistory.com/cgi-bin/poboxscore.cgi?H20130819", 
 "result": "W", 
 "road_team": "New York Islanders", 
 "date": "2014-01-31", 
 "goals": [
  {
   "season_index": "4", 
   "strength": "(EV)", 
   "time": "3:29", 
   "period": "1", 
   "player": "B.Boyle", 
   "assists": "(M.Staal)", 
   "game_index": "1", 
   "team": "NYR"
  }, 
  {
   "season_index": "24", 
   "strength": "(EV)", 
   "time": "14:28", 
   "period": "2", 
   "player": "K.Okposo", 
   "assists": "(C.de, J.Bailey)", 
   "game_index": "2", 
   "team": "NYI"
  }, 
  {
   "season_index": "9", 
   "strength": "(EV)", 
   "time": "12:14", 
   "period": "3", 
   "player": "D.Brassard", 
   "assists": "(M.Staal, M.Zuccarello)", 
   "game_index": "3", 
   "team": "NYR"
  }, 
  {
   "season_index": "14", 
   "strength": "(EV)", 
   "time": "14:59", 
   "period": "3", 
   "player": "B.Richards", 
   "assists": "(R.Callahan, C.Hagelin)", 
   "game_index": "4", 
   "team": "NYR"
  }, 
  {
   "season_index": "8", 
   "strength": "(EV-EN)", 
   "time": "19:59", 
   "period": "3", 
   "player": "R.McDonagh", 
   "assists": "(D.Moore)", 
   "game_index": "5", 
   "team": "NYR"
  }
 ], 
 "tweets": [
  {
   "text": "VIDEO: postgame Alain Vigneault press conference after #NYR win third straight, 4-1 over the Islanders: http://t.co/XaJhaJc3Bd", 
   "label": "O", 
   "id": 429469939305836544, 
   "hashtags": [
    "NYR"
   ], 
   "user_mentions": [], 
   "created_at": "Sat Feb 01 04:23:07 +0000 2014", 
   "retweet_count": 20, 
   "favorite_count": 45
  }, 
  {
   "text": "VIDEO: @MSGNetworks provides all of the highlights and analysis from the #NYR 4-1 win over the Islanders @TheGarden   http://t.co/A2M5DO2qKm", 
   "label": "O", 
   "id": 429468403397853185, 
   "hashtags": [
    "NYR"
   ], 
   "user_mentions": [
    "MSGNetworks", 
    "TheGarden"
   ], 
   "created_at": "Sat Feb 01 04:17:01 +0000 2014", 
   "retweet_count": 16, 
   "favorite_count": 30
  }, 
  {
   "text": "VIDEO: \"Hank was our best player\"-Derick Brassard postgame on @MSGNetworks; Brass scored game-winner in 4-1 #NYR win http://t.co/nheOp0cCVX", 
   "label": "O", 
   "id": 429467145454755840, 
   "hashtags": [
    "NYR"
   ], 
   "user_mentions": [
    "MSGNetworks"
   ], 
   "created_at": "Sat Feb 01 04:12:01 +0000 2014", 
   "retweet_count": 19, 
   "favorite_count": 65
  }, 
  {
   "text": "VIDEO: \"It was exciting to be back\" @TheGarden- @HLundqvist30 makes 38 saves in #NYR 4-1 win: http://t.co/604Q3ucC7g", 
   "label": "O", 
   "id": 429463249185411072, 
   "hashtags": [
    "NYR"
   ], 
   "user_mentions": [
    "TheGarden", 
    "HLundqvist30"
   ], 
   "created_at": "Sat Feb 01 03:56:32 +0000 2014", 
   "retweet_count": 21, 
   "favorite_count": 56
  }, 
  {
   "text": "RECAP: @HLundqvist30 with 38 saves as the #NYR win third straight, beat Islanders 4-1 @TheGarden tonight; full story: http://t.co/xrT4plehOd", 
   "label": "O", 
   "id": 429458242595725312, 
   "hashtags": [
    "NYR"
   ], 
   "user_mentions": [
    "HLundqvist30", 
    "TheGarden"
   ], 
   "created_at": "Sat Feb 01 03:36:38 +0000 2014", 
   "retweet_count": 49, 
   "favorite_count": 87
  }, 
  {
   "text": "\"Our goalie, that's as big as I've seen him come up this year 4 us. He made some real hard saves, in total control\" AV on @HLundqvist30 #NYR", 
   "label": "O", 
   "id": 429454137789804544, 
   "hashtags": [
    "NYR"
   ], 
   "user_mentions": [
    "HLundqvist30"
   ], 
   "created_at": "Sat Feb 01 03:20:19 +0000 2014", 
   "retweet_count": 84, 
   "favorite_count": 171
  }, 
  {
   "text": "RT @MSGNetworks: Don't go anywhere after @nyrangers Postgame! The #SamRosen30 Special premieres immediately following #NYRExtra. Retweet if\u2026", 
   "label": "O", 
   "id": 429454106714206208, 
   "hashtags": [
    "SamRosen30", 
    "NYRExtra"
   ], 
   "user_mentions": [
    "MSGNetworks", 
    "NYRangers"
   ], 
   "created_at": "Sat Feb 01 03:20:12 +0000 2014", 
   "retweet_count": 36, 
   "favorite_count": 0
  }, 
  {
   "text": "PHOTO: @BriBrows22 gets the #NYR Broadway Hat with a guest appearance by @DerekStepan21!!! http://t.co/8NVYt8xQ81 http://t.co/gqDfvYLQrm", 
   "label": "O", 
   "id": 429448711706787840, 
   "hashtags": [
    "NYR"
   ], 
   "user_mentions": [
    "BriBrows22", 
    "DerekStepan21"
   ], 
   "created_at": "Sat Feb 01 02:58:46 +0000 2014", 
   "retweet_count": 157, 
   "favorite_count": 280
  }, 
  {
   "text": "PHOTO: #NYR pick up another big win!!! http://t.co/7P89BqLWox @PartyCity http://t.co/8IJFJHTXdN", 
   "label": "O", 
   "id": 429446004463894528, 
   "hashtags": [
    "NYR"
   ], 
   "user_mentions": [
    "PartyCity"
   ], 
   "created_at": "Sat Feb 01 02:48:00 +0000 2014", 
   "retweet_count": 156, 
   "favorite_count": 203
  }, 
  {
   "text": "#NYR 3 Stars of the game:\n3. Marc Staal\n2. @zuccarello36 \n1. @HLundqvist30", 
   "label": "O", 
   "id": 429445643292401664, 
   "hashtags": [
    "NYR"
   ], 
   "user_mentions": [
    "zuccarello36", 
    "HLundqvist30"
   ], 
   "created_at": "Sat Feb 01 02:46:34 +0000 2014", 
   "retweet_count": 251, 
   "favorite_count": 420
  }, 
  {
   "text": "#NYR beat the Islanders tonight 4-1!! @HLundqvist30 with 38 saves in the game!", 
   "label": "O", 
   "id": 429445103317299200, 
   "hashtags": [
    "NYR"
   ], 
   "user_mentions": [
    "HLundqvist30"
   ], 
   "created_at": "Sat Feb 01 02:44:25 +0000 2014", 
   "retweet_count": 553, 
   "favorite_count": 383
  }, 
  {
   "text": "GOAL!!! @RMcDonagh27 into the empty net and it's 4-1 #NYR!!!", 
   "label": "O", 
   "id": 429444953463615489, 
   "hashtags": [
    "NYR"
   ], 
   "user_mentions": [
    "RMcDonagh27"
   ], 
   "created_at": "Sat Feb 01 02:43:50 +0000 2014", 
   "retweet_count": 172, 
   "favorite_count": 287
  }, 
  {
   "text": "RT @BruceBeck4NY: Indoors - outdoors - it does not matter - @NYRangers are on fire! Looking forward 2 Sam Rosen's 30th tribute later @MSGNe\u2026", 
   "label": "O", 
   "id": 429444034520952832, 
   "hashtags": [], 
   "user_mentions": [
    "BruceBeck4NY", 
    "NYRangers", 
    "MSGNetworks"
   ], 
   "created_at": "Sat Feb 01 02:40:11 +0000 2014", 
   "retweet_count": 70, 
   "favorite_count": 0
  }, 
  {
   "text": "PHOTO: @BRichards_1991 adds another goal to give #NYR a 3-1 lead!! http://t.co/NCzRiPKeAx http://t.co/Nm0Xcqitz0", 
   "label": "O", 
   "id": 429442888825864192, 
   "hashtags": [
    "NYR"
   ], 
   "user_mentions": [
    "BRichards_1991"
   ], 
   "created_at": "Sat Feb 01 02:35:38 +0000 2014", 
   "retweet_count": 65, 
   "favorite_count": 149
  }, 
  {
   "text": "The #FoxwoodsFinalFive sees the #NYR holding a 3-1 lead here @TheGarden!!", 
   "label": "O", 
   "id": 429442031791124480, 
   "hashtags": [
    "FoxwoodsFinalFive", 
    "NYR"
   ], 
   "user_mentions": [
    "TheGarden"
   ], 
   "created_at": "Sat Feb 01 02:32:13 +0000 2014", 
   "retweet_count": 61, 
   "favorite_count": 103
  }, 
  {
   "text": "GOAL!!!! @BRichards_1991 goes five hole on Nabokov at 14:59 and it's 3-1 #NYR!!!!  #Richie", 
   "label": "O", 
   "id": 429441844150534144, 
   "hashtags": [
    "NYR", 
    "Richie"
   ], 
   "user_mentions": [
    "BRichards_1991"
   ], 
   "created_at": "Sat Feb 01 02:31:28 +0000 2014", 
   "retweet_count": 242, 
   "favorite_count": 259
  }, 
  {
   "text": "PHOTO: Brass gives #NYR the 2-1 lead!! http://t.co/XgHZk7GNqb http://t.co/emDQCHj9Mv", 
   "label": "O", 
   "id": 429441456047423488, 
   "hashtags": [
    "NYR"
   ], 
   "user_mentions": [], 
   "created_at": "Sat Feb 01 02:29:56 +0000 2014", 
   "retweet_count": 67, 
   "favorite_count": 137
  }, 
  {
   "text": "Credit Marc Staal and @zuccarello36 with the assists on Brassard's 9th goal of the season  #LGR  #NYR", 
   "label": "O", 
   "id": 429441156058189824, 
   "hashtags": [
    "LGR", 
    "NYR"
   ], 
   "user_mentions": [
    "zuccarello36"
   ], 
   "created_at": "Sat Feb 01 02:28:44 +0000 2014", 
   "retweet_count": 26, 
   "favorite_count": 103
  }, 
  {
   "text": "GOAL!!!! Derick Brassard on delayed penalty makes it 2-1 #NYR with 7:46 to play in third period!!!", 
   "label": "O", 
   "id": 429440912897622016, 
   "hashtags": [
    "NYR"
   ], 
   "user_mentions": [], 
   "created_at": "Sat Feb 01 02:27:46 +0000 2014", 
   "retweet_count": 239, 
   "favorite_count": 225
  }, 
  {
   "text": "Kreider and Cizikas now head to the box for melee after the whistle at 11:39...#NYR and Islanders still tied 1-1", 
   "label": "O", 
   "id": 429440233307131904, 
   "hashtags": [
    "NYR"
   ], 
   "user_mentions": [], 
   "created_at": "Sat Feb 01 02:25:04 +0000 2014", 
   "retweet_count": 15, 
   "favorite_count": 47
  }, 
  {
   "text": "KILL!!! Richards back on the ice for the #NYR..Lundqvist now with 37 saves tonight", 
   "label": "O", 
   "id": 429439147322146816, 
   "hashtags": [
    "NYR"
   ], 
   "user_mentions": [], 
   "created_at": "Sat Feb 01 02:20:45 +0000 2014", 
   "retweet_count": 23, 
   "favorite_count": 80
  }, 
  {
   "text": "Staal and Nelson head to the box for post-whistle skirmish  #NYR", 
   "label": "O", 
   "id": 429438819352719360, 
   "hashtags": [
    "NYR"
   ], 
   "user_mentions": [], 
   "created_at": "Sat Feb 01 02:19:27 +0000 2014", 
   "retweet_count": 9, 
   "favorite_count": 33
  }, 
  {
   "text": "Henrik!!! point blank right pad save on Neilsen, then Lundqvist denies Tavares..still 44 seconds to go on penalty kill for the #NYR", 
   "label": "O", 
   "id": 429438414614962177, 
   "hashtags": [
    "NYR"
   ], 
   "user_mentions": [], 
   "created_at": "Sat Feb 01 02:17:51 +0000 2014", 
   "retweet_count": 16, 
   "favorite_count": 73
  }, 
  {
   "text": "Brad Richards whistled for hooking at 7:31..big penalty kill coming up for the #NYR in a 1-1 game", 
   "label": "O", 
   "id": 429437482493829120, 
   "hashtags": [
    "NYR"
   ], 
   "user_mentions": [], 
   "created_at": "Sat Feb 01 02:14:09 +0000 2014", 
   "retweet_count": 7, 
   "favorite_count": 22
  }, 
  {
   "text": "Four shots on #NYR power play..back to even strength, still tied 1-1", 
   "label": "O", 
   "id": 429435180710129664, 
   "hashtags": [
    "NYR"
   ], 
   "user_mentions": [], 
   "created_at": "Sat Feb 01 02:05:00 +0000 2014", 
   "retweet_count": 12, 
   "favorite_count": 39
  }, 
  {
   "text": "Here we go, #NYR on the power play to start the third period of a 1-1 game  #LGR", 
   "label": "O", 
   "id": 429434558959075328, 
   "hashtags": [
    "NYR", 
    "LGR"
   ], 
   "user_mentions": [], 
   "created_at": "Sat Feb 01 02:02:32 +0000 2014", 
   "retweet_count": 24, 
   "favorite_count": 39
  }, 
  {
   "text": "After two periods #NYR and Islanders tied 1-1..#NYR power play to start third period..Lundqvist with 29 saves so far", 
   "label": "O", 
   "id": 429430041500741633, 
   "hashtags": [
    "NYR", 
    "NYR"
   ], 
   "user_mentions": [], 
   "created_at": "Sat Feb 01 01:44:34 +0000 2014", 
   "retweet_count": 25, 
   "favorite_count": 36
  }, 
  {
   "text": "\u201c@mowilkerson: Let's Go Rangers #NYR http://t.co/ZQiUKVYI93\u201d Welcome back!!", 
   "label": "O", 
   "id": 429427914741125120, 
   "hashtags": [
    "NYR"
   ], 
   "user_mentions": [
    "mowilkerson"
   ], 
   "created_at": "Sat Feb 01 01:36:07 +0000 2014", 
   "retweet_count": 19, 
   "favorite_count": 73
  }, 
  {
   "text": "Five seconds after power play ends Isles tie the game on Okposo goal from in front..1-1 game at 14:28  #NYR", 
   "label": "O", 
   "id": 429427242201255936, 
   "hashtags": [
    "NYR"
   ], 
   "user_mentions": [], 
   "created_at": "Sat Feb 01 01:33:27 +0000 2014", 
   "retweet_count": 12, 
   "favorite_count": 22
  }, 
  {
   "text": "McDonagh called for hooking penalty at 12:23..second PK tonight for the #NYR", 
   "label": "O", 
   "id": 429426522274152449, 
   "hashtags": [
    "NYR"
   ], 
   "user_mentions": [], 
   "created_at": "Sat Feb 01 01:30:35 +0000 2014", 
   "retweet_count": 3, 
   "favorite_count": 16
  }, 
  {
   "text": "Welcome to the #NYR game @T_HardJR! #Knicks", 
   "label": "O", 
   "id": 429425984560189440, 
   "hashtags": [
    "NYR", 
    "Knicks"
   ], 
   "user_mentions": [
    "T_HardJR"
   ], 
   "created_at": "Sat Feb 01 01:28:27 +0000 2014", 
   "retweet_count": 36, 
   "favorite_count": 76
  }, 
  {
   "text": "Henrik!!! Lundqvist comes up big again, stopping Clutterbuck off the rush and Nelson on the rebound..20 saves so far..#NYR lead 1-0 at 10:26", 
   "label": "O", 
   "id": 429425416185847808, 
   "hashtags": [
    "NYR"
   ], 
   "user_mentions": [], 
   "created_at": "Sat Feb 01 01:26:12 +0000 2014", 
   "retweet_count": 28, 
   "favorite_count": 77
  }, 
  {
   "text": "Back to 5-on-5 as sharp Lundqvist makes big save on Donovan deflection  #NYR", 
   "label": "O", 
   "id": 429423303091310593, 
   "hashtags": [
    "NYR"
   ], 
   "user_mentions": [], 
   "created_at": "Sat Feb 01 01:17:48 +0000 2014", 
   "retweet_count": 15, 
   "favorite_count": 31
  }, 
  {
   "text": "Strong forecheck by the #NYR leads to Islanders penalty and first power play tonight for the #NYR at 3:26 of second", 
   "label": "O", 
   "id": 429422606463565824, 
   "hashtags": [
    "NYR", 
    "NYR"
   ], 
   "user_mentions": [], 
   "created_at": "Sat Feb 01 01:15:02 +0000 2014", 
   "retweet_count": 13, 
   "favorite_count": 23
  }, 
  {
   "text": "Second period is underway @TheGarden with the #NYR holding a 1-0 lead", 
   "label": "O", 
   "id": 429421165648809984, 
   "hashtags": [
    "NYR"
   ], 
   "user_mentions": [
    "TheGarden"
   ], 
   "created_at": "Sat Feb 01 01:09:18 +0000 2014", 
   "retweet_count": 27, 
   "favorite_count": 48
  }, 
  {
   "text": "#NYR Stats: @RMcDonagh27 led all players with 4 blocked shots in first period, while Derick Brassard had game-high four shots on goal", 
   "label": "O", 
   "id": 429419043381338113, 
   "hashtags": [
    "NYR"
   ], 
   "user_mentions": [
    "RMcDonagh27"
   ], 
   "created_at": "Sat Feb 01 01:00:52 +0000 2014", 
   "retweet_count": 10, 
   "favorite_count": 43
  }, 
  {
   "text": "#NYR Facts: With points in 1st both @BriBrows22 &amp; Marc Staal now have 3 points in last 3 games, and Boyle has 3-game point scoring streak", 
   "label": "O", 
   "id": 429417495670566912, 
   "hashtags": [
    "NYR"
   ], 
   "user_mentions": [
    "BriBrows22"
   ], 
   "created_at": "Sat Feb 01 00:54:43 +0000 2014", 
   "retweet_count": 24, 
   "favorite_count": 49
  }, 
  {
   "text": "First period ends with #NYR holding a 1-0 lead..Lundqvist with 12 saves, Nabokov with 13", 
   "label": "O", 
   "id": 429416705266569217, 
   "hashtags": [
    "NYR"
   ], 
   "user_mentions": [], 
   "created_at": "Sat Feb 01 00:51:35 +0000 2014", 
   "retweet_count": 55, 
   "favorite_count": 78
  }, 
  {
   "text": "So Close!!! Nabokov with 2 huge saves on Brassard tip and Zuccarello rebound at 15:10  #NYR", 
   "label": "O", 
   "id": 429414734757376000, 
   "hashtags": [
    "NYR"
   ], 
   "user_mentions": [], 
   "created_at": "Sat Feb 01 00:43:45 +0000 2014", 
   "retweet_count": 8, 
   "favorite_count": 36
  }, 
  {
   "text": "Lundqvist with a pair of solid stops and the #NYR kill off Islanders power play..6:30 to play in first, leading 1-0", 
   "label": "O", 
   "id": 429413340889513984, 
   "hashtags": [
    "NYR"
   ], 
   "user_mentions": [], 
   "created_at": "Sat Feb 01 00:38:13 +0000 2014", 
   "retweet_count": 24, 
   "favorite_count": 62
  }, 
  {
   "text": "Derick Brassard whistled for holding penalty at 10:58..first penalty kill tonight for the #NYR upcoming", 
   "label": "O", 
   "id": 429412148826370048, 
   "hashtags": [
    "NYR"
   ], 
   "user_mentions": [], 
   "created_at": "Sat Feb 01 00:33:29 +0000 2014", 
   "retweet_count": 7, 
   "favorite_count": 26
  }, 
  {
   "text": "Henrik!!! What a save by Lundqvist, dropping into the splits to rob open one-timer by Bailey at 9 minutes mark of first...#NYR still up 1-0", 
   "label": "O", 
   "id": 429411704968318976, 
   "hashtags": [
    "NYR"
   ], 
   "user_mentions": [], 
   "created_at": "Sat Feb 01 00:31:43 +0000 2014", 
   "retweet_count": 69, 
   "favorite_count": 136
  }, 
  {
   "text": "7:02 gone by in first period, the #NYR leading the Islanders 1-0...Blueshirts up 8-3 in shots, took first 6 shots in the game", 
   "label": "O", 
   "id": 429410531720830976, 
   "hashtags": [
    "NYR"
   ], 
   "user_mentions": [], 
   "created_at": "Sat Feb 01 00:27:03 +0000 2014", 
   "retweet_count": 26, 
   "favorite_count": 51
  }, 
  {
   "text": "PHOTO: @BriBrows22 gives #NYR the early lead!! http://t.co/ZzcHVfrjhg http://t.co/8ENFYttVGn", 
   "label": "O", 
   "id": 429409381407809536, 
   "hashtags": [
    "NYR"
   ], 
   "user_mentions": [
    "BriBrows22"
   ], 
   "created_at": "Sat Feb 01 00:22:29 +0000 2014", 
   "retweet_count": 100, 
   "favorite_count": 171
  }, 
  {
   "text": "GOAL!!!! @BriBrows22 deflects Marc Staal shot past Nabokov at 3:29 and the #NYR have taken an early 1-0 lead!!  #Boyler", 
   "label": "O", 
   "id": 429409054398881793, 
   "hashtags": [
    "NYR", 
    "Boyler"
   ], 
   "user_mentions": [
    "BriBrows22"
   ], 
   "created_at": "Sat Feb 01 00:21:11 +0000 2014", 
   "retweet_count": 190, 
   "favorite_count": 213
  }, 
  {
   "text": "Skirmish in Islanders crease after Nabokov save on Nash..Kreider in middle of things..no penalties  #NYR", 
   "label": "O", 
   "id": 429407821579706368, 
   "hashtags": [
    "NYR"
   ], 
   "user_mentions": [], 
   "created_at": "Sat Feb 01 00:16:17 +0000 2014", 
   "retweet_count": 7, 
   "favorite_count": 25
  }, 
  {
   "text": "Time for hockey! puck dropped and #NYR underway against the Islanders..catch the action on @MSGNetworks", 
   "label": "O", 
   "id": 429407302253543424, 
   "hashtags": [
    "NYR"
   ], 
   "user_mentions": [
    "MSGNetworks"
   ], 
   "created_at": "Sat Feb 01 00:14:13 +0000 2014", 
   "retweet_count": 31, 
   "favorite_count": 55
  }, 
  {
   "text": "PHOTO: Great moment tonight @TheGarden including a surprise visitor for #SamRosen30 http://t.co/bLpKKc88BT  #NYR", 
   "label": "O", 
   "id": 429407240257544192, 
   "hashtags": [
    "SamRosen30", 
    "NYR"
   ], 
   "user_mentions": [
    "TheGarden"
   ], 
   "created_at": "Sat Feb 01 00:13:58 +0000 2014", 
   "retweet_count": 22, 
   "favorite_count": 42
  }, 
  {
   "text": "Now back to work for Sam on @MSGNetworks after receiving loud final ovation from @TheGarden Faithful..Congrats Sam!!  #NYR #SamRosen30", 
   "label": "O", 
   "id": 429406883754307584, 
   "hashtags": [
    "NYR", 
    "SamRosen30"
   ], 
   "user_mentions": [
    "MSGNetworks", 
    "TheGarden"
   ], 
   "created_at": "Sat Feb 01 00:12:33 +0000 2014", 
   "retweet_count": 37, 
   "favorite_count": 65
  }, 
  {
   "text": "Huge ovation for John Davidson, Sam's long-time TV partner, and now a video retrospective of Rosen's @MSGNetworks career  #SamRosen30", 
   "label": "O", 
   "id": 429406305154240512, 
   "hashtags": [
    "SamRosen30"
   ], 
   "user_mentions": [
    "MSGNetworks"
   ], 
   "created_at": "Sat Feb 01 00:10:15 +0000 2014", 
   "retweet_count": 26, 
   "favorite_count": 76
  }, 
  {
   "text": "Joe  Micheletti from @MSGNetworks joins the Rosen's on the ice  #SamRosen30", 
   "label": "O", 
   "id": 429405833668333569, 
   "hashtags": [
    "SamRosen30"
   ], 
   "user_mentions": [
    "MSGNetworks"
   ], 
   "created_at": "Sat Feb 01 00:08:23 +0000 2014", 
   "retweet_count": 10, 
   "favorite_count": 40
  }, 
  {
   "text": "#samRosen30 joined on the ice by wife Jill and his children, and now former #NYR legend Mike Richter!", 
   "label": "O", 
   "id": 429405612624347136, 
   "hashtags": [
    "samRosen30", 
    "NYR"
   ], 
   "user_mentions": [], 
   "created_at": "Sat Feb 01 00:07:30 +0000 2014", 
   "retweet_count": 22, 
   "favorite_count": 57
  }, 
  {
   "text": "Special pre-game on-ice ceremony beginning now to honor @MSGNetworks Sam Rosen's 30 years as TV Voice of the #NYR  #SamRosen30", 
   "label": "O", 
   "id": 429405342284660736, 
   "hashtags": [
    "NYR", 
    "SamRosen30"
   ], 
   "user_mentions": [
    "MSGNetworks"
   ], 
   "created_at": "Sat Feb 01 00:06:26 +0000 2014", 
   "retweet_count": 45, 
   "favorite_count": 71
  }, 
  {
   "text": "#NYR Starters: Lundqvist, Staal, Stralman, Pouliot, Brassard, Zuccarello  Scratch: Falk", 
   "label": "O", 
   "id": 429403257203871744, 
   "hashtags": [
    "NYR"
   ], 
   "user_mentions": [], 
   "created_at": "Fri Jan 31 23:58:09 +0000 2014", 
   "retweet_count": 58, 
   "favorite_count": 115
  }, 
  {
   "text": "Wearing their #StadiumSeries jerseys the #NYR take to the ice for pre-game warmups here @TheGarden led by @HLundqvist30..", 
   "label": "O", 
   "id": 429397023163703296, 
   "hashtags": [
    "StadiumSeries", 
    "NYR"
   ], 
   "user_mentions": [
    "TheGarden", 
    "HLundqvist30"
   ], 
   "created_at": "Fri Jan 31 23:33:22 +0000 2014", 
   "retweet_count": 60, 
   "favorite_count": 97
  }, 
  {
   "text": "RT @KennyAlbert: Congratulations to colleague and friend Sam Rosen on 30 years of @NYRangers hockey. \"This One Will Last a Lifetime\" 10:30 \u2026", 
   "label": "O", 
   "id": 429382578731503616, 
   "hashtags": [], 
   "user_mentions": [
    "KennyAlbert", 
    "NYRangers", 
    "MSGNetworks"
   ], 
   "created_at": "Fri Jan 31 22:35:58 +0000 2014", 
   "retweet_count": 67, 
   "favorite_count": 0
  }, 
  {
   "text": "\"He's thinking about the team all of the time, and I've got a lot of time for players like that\"-AV speaking about Marc Staal  #NYR", 
   "label": "O", 
   "id": 429378535594012672, 
   "hashtags": [
    "NYR"
   ], 
   "user_mentions": [], 
   "created_at": "Fri Jan 31 22:19:55 +0000 2014", 
   "retweet_count": 37, 
   "favorite_count": 70
  }, 
  {
   "text": "\"We know that we are up against a real tough opponent..we have a real tough game ahead of us, &amp; we're ready for it\"-Alain Vigneault #NYR", 
   "label": "O", 
   "id": 429377396102684673, 
   "hashtags": [
    "NYR"
   ], 
   "user_mentions": [], 
   "created_at": "Fri Jan 31 22:15:23 +0000 2014", 
   "retweet_count": 27, 
   "favorite_count": 56
  }, 
  {
   "text": "Come join #NYR &amp; @Chase on 2/3 for the #NYRAssist event in Coney Island. #21 &amp; #27 will be on site!!! For full info: http://t.co/2glxPi7URD.", 
   "label": "O", 
   "id": 429344902560751616, 
   "hashtags": [
    "NYR", 
    "NYRAssist"
   ], 
   "user_mentions": [
    "Chase"
   ], 
   "created_at": "Fri Jan 31 20:06:16 +0000 2014", 
   "retweet_count": 17, 
   "favorite_count": 30
  }, 
  {
   "text": "#NYR pre-game report: \"We can't relax at any point bc this is a team that can strike at will\"- @RMcDonagh27 on Isles http://t.co/UznG0k2Whp", 
   "label": "O", 
   "id": 429343009428504576, 
   "hashtags": [
    "NYR"
   ], 
   "user_mentions": [
    "RMcDonagh27"
   ], 
   "created_at": "Fri Jan 31 19:58:44 +0000 2014", 
   "retweet_count": 13, 
   "favorite_count": 30
  }, 
  {
   "text": "PHOTO: #NYR wearing their Stadium Series jerseys tonight @TheGarden http://t.co/qdn70Avz6a. http://t.co/0nro1eaCve", 
   "label": "O", 
   "id": 429334911330553856, 
   "hashtags": [
    "NYR"
   ], 
   "user_mentions": [
    "TheGarden"
   ], 
   "created_at": "Fri Jan 31 19:26:34 +0000 2014", 
   "retweet_count": 171, 
   "favorite_count": 240
  }, 
  {
   "text": "VIDEO: #NYR players discuss facing Islanders tonight, 2nd game in a row and 3rd time in 11 days:  http://t.co/fjns9mLYXz", 
   "label": "O", 
   "id": 429334646657003520, 
   "hashtags": [
    "NYR"
   ], 
   "user_mentions": [], 
   "created_at": "Fri Jan 31 19:25:31 +0000 2014", 
   "retweet_count": 5, 
   "favorite_count": 25
  }, 
  {
   "text": "VIDEO: After 30 years with the #NYR, why @MSGNetworks Sam Rosen is one of a kind; watch and enjoy: http://t.co/QNrqaTdKud", 
   "label": "O", 
   "id": 429315377689272320, 
   "hashtags": [
    "NYR"
   ], 
   "user_mentions": [
    "MSGNetworks"
   ], 
   "created_at": "Fri Jan 31 18:08:56 +0000 2014", 
   "retweet_count": 25, 
   "favorite_count": 49
  }, 
  {
   "text": "#NYR Exclusive: #ChaseBridges ticket offer includes limited edition t-shirt! Select games only, buy your tix now! http://t.co/LAqYS0T4dd", 
   "label": "O", 
   "id": 429302701357150209, 
   "hashtags": [
    "NYR", 
    "ChaseBridges"
   ], 
   "user_mentions": [], 
   "created_at": "Fri Jan 31 17:18:34 +0000 2014", 
   "retweet_count": 9, 
   "favorite_count": 25
  }, 
  {
   "text": "W2W4: The #NYR are back indoors tonight as they host the Islanders @TheGarden; here's your game primer: http://t.co/d3t0q5wZJp", 
   "label": "O", 
   "id": 429267622514130944, 
   "hashtags": [
    "NYR"
   ], 
   "user_mentions": [
    "TheGarden"
   ], 
   "created_at": "Fri Jan 31 14:59:11 +0000 2014", 
   "retweet_count": 21, 
   "favorite_count": 42
  }
 ]
}