{
 "num_road_team_goals": "2", 
 "home_team": "Philadelphia Flyers", 
 "num_home_team_goals": "4", 
 "summary_url": "http://www.flyershistory.com/cgi-bin/poboxscore.cgi?H20130904", 
 "result": "L", 
 "road_team": "New York Rangers", 
 "date": "2014-03-01", 
 "goals": [
  {
   "season_index": "13", 
   "strength": "(EV)", 
   "time": "7:04", 
   "period": "1", 
   "player": "Vincent Lecavalier", 
   "assists": "(Wayne Simmonds, Mark Streit)", 
   "game_index": "1", 
   "team": "PHI"
  }, 
  {
   "season_index": "10", 
   "strength": "(EV)", 
   "time": "8:10", 
   "period": "1", 
   "player": "Sean Couturier", 
   "assists": "(Matt Read, Kimmo Timonen)", 
   "game_index": "2", 
   "team": "PHI"
  }, 
  {
   "season_index": "14", 
   "strength": "(EV)", 
   "time": "4:59", 
   "period": "2", 
   "player": "C.Kreider", 
   "assists": "(R.Nash, D.Stepan)", 
   "game_index": "3", 
   "team": "NYR"
  }, 
  {
   "season_index": "13", 
   "strength": "(PP)", 
   "time": "11:42", 
   "period": "2", 
   "player": "D.Brassard", 
   "assists": "(B.Richards, H.Lundqvist)", 
   "game_index": "4", 
   "team": "NYR"
  }, 
  {
   "season_index": "19", 
   "strength": "(PP)", 
   "time": "13:23", 
   "period": "2", 
   "player": "Wayne Simmonds", 
   "assists": "(Kimmo Timonen, Brayden Schenn)", 
   "game_index": "5", 
   "team": "PHI"
  }, 
  {
   "season_index": "4", 
   "strength": "(EV)", 
   "time": "16:15", 
   "period": "3", 
   "player": "Luke Schenn", 
   "assists": "(Scott Hartnell, Claude Giroux)", 
   "game_index": "6", 
   "team": "PHI"
  }
 ], 
 "tweets": [
  {
   "text": "RT @WolfPackAHL: GOALLLL!! Dylan McIlrath with a nasty dangle in front of the net to score and make it 3-0 pack with 5:59 to go in the firs\u2026", 
   "label": "O", 
   "id": 439919973079982080, 
   "hashtags": [
    "HWP", 
    "NYR"
   ], 
   "user_mentions": [
    "WolfPackAHL"
   ], 
   "created_at": "Sun Mar 02 00:27:49 +0000 2014", 
   "retweet_count": 27, 
   "favorite_count": 0
  }, 
  {
   "text": "\"I'm just really excited about the deal and to be a #NYR for my career\"-Dan Girardi postgame talking abut his contract extension", 
   "label": "O", 
   "id": 439878175758516224, 
   "hashtags": [
    "NYR"
   ], 
   "user_mentions": [], 
   "created_at": "Sat Mar 01 21:41:44 +0000 2014", 
   "retweet_count": 82, 
   "favorite_count": 148
  }, 
  {
   "text": "#NYR Stats: Dan Girardi blocked 6 shots, was credited with 5 hits, and had 3 shots on goal in 24:40 today", 
   "label": "O", 
   "id": 439877750644817920, 
   "hashtags": [
    "NYR"
   ], 
   "user_mentions": [], 
   "created_at": "Sat Mar 01 21:40:02 +0000 2014", 
   "retweet_count": 30, 
   "favorite_count": 65
  }, 
  {
   "text": "RECAP: #NYR fall to Flyers in Saturday matinee, 4-2; full story:  http://t.co/uoVkAqTLs4", 
   "label": "O", 
   "id": 439875819968954369, 
   "hashtags": [
    "NYR"
   ], 
   "user_mentions": [], 
   "created_at": "Sat Mar 01 21:32:22 +0000 2014", 
   "retweet_count": 10, 
   "favorite_count": 15
  }, 
  {
   "text": "RT @WolfPackAHL: ICYMI: Marek Hrivik's (@Hrivo15) shootout goal has to be #SCTop10 right? http://t.co/V8wI0gbmtC @Buccigross @lindacohn #HW\u2026", 
   "label": "O", 
   "id": 439873860612411392, 
   "hashtags": [
    "SCTop10", 
    "HWP", 
    "NYR"
   ], 
   "user_mentions": [
    "WolfPackAHL", 
    "Hrivo15", 
    "Buccigross", 
    "lindacohn"
   ], 
   "created_at": "Sat Mar 01 21:24:35 +0000 2014", 
   "retweet_count": 44, 
   "favorite_count": 0
  }, 
  {
   "text": "#NYR fall today in Philly 4-2", 
   "label": "O", 
   "id": 439863566121046016, 
   "hashtags": [
    "NYR"
   ], 
   "user_mentions": [], 
   "created_at": "Sat Mar 01 20:43:41 +0000 2014", 
   "retweet_count": 43, 
   "favorite_count": 41
  }, 
  {
   "text": "Luke Schenn scores off rebound in front and #NYR trail 4-2 here in Philly", 
   "label": "O", 
   "id": 439861789493579777, 
   "hashtags": [
    "NYR"
   ], 
   "user_mentions": [], 
   "created_at": "Sat Mar 01 20:36:37 +0000 2014", 
   "retweet_count": 9, 
   "favorite_count": 16
  }, 
  {
   "text": "Here at the #FoxwoodsFinalFive the #NYR trail the Flyers 3-2", 
   "label": "O", 
   "id": 439861570659946497, 
   "hashtags": [
    "FoxwoodsFinalFive", 
    "NYR"
   ], 
   "user_mentions": [], 
   "created_at": "Sat Mar 01 20:35:45 +0000 2014", 
   "retweet_count": 6, 
   "favorite_count": 14
  }, 
  {
   "text": "KILL! #NYR kill off Flyers power play..now have 5:22 left to at least pull even, down 3-2", 
   "label": "O", 
   "id": 439860755257892864, 
   "hashtags": [
    "NYR"
   ], 
   "user_mentions": [], 
   "created_at": "Sat Mar 01 20:32:30 +0000 2014", 
   "retweet_count": 28, 
   "favorite_count": 35
  }, 
  {
   "text": "Brassard off for tripping with 7:38 left in regulation  #NYR", 
   "label": "O", 
   "id": 439859850974334976, 
   "hashtags": [
    "NYR"
   ], 
   "user_mentions": [], 
   "created_at": "Sat Mar 01 20:28:55 +0000 2014", 
   "retweet_count": 6, 
   "favorite_count": 21
  }, 
  {
   "text": "So Close! Stepan put back of Girardi shot denied at goal line by Mason..#NYR still down 3-2 with 9:19 to play", 
   "label": "O", 
   "id": 439858617215614976, 
   "hashtags": [
    "NYR"
   ], 
   "user_mentions": [], 
   "created_at": "Sat Mar 01 20:24:01 +0000 2014", 
   "retweet_count": 19, 
   "favorite_count": 35
  }, 
  {
   "text": "#NYR kill off penalty, and then Brassard streaks out of box but shoots wide after head-man pass", 
   "label": "O", 
   "id": 439856080706076672, 
   "hashtags": [
    "NYR"
   ], 
   "user_mentions": [], 
   "created_at": "Sat Mar 01 20:13:56 +0000 2014", 
   "retweet_count": 19, 
   "favorite_count": 32
  }, 
  {
   "text": "What a save by Lundqvist!! robs Hartnell on perfect deflection in front  #NYR", 
   "label": "O", 
   "id": 439855259935330304, 
   "hashtags": [
    "NYR"
   ], 
   "user_mentions": [], 
   "created_at": "Sat Mar 01 20:10:40 +0000 2014", 
   "retweet_count": 37, 
   "favorite_count": 68
  }, 
  {
   "text": "Brassard takes slashing penalty at 2:19..#NYR to the PK", 
   "label": "O", 
   "id": 439854956318056448, 
   "hashtags": [
    "NYR"
   ], 
   "user_mentions": [], 
   "created_at": "Sat Mar 01 20:09:28 +0000 2014", 
   "retweet_count": 7, 
   "favorite_count": 22
  }, 
  {
   "text": "Third period underway with #NYR chasing a goal", 
   "label": "O", 
   "id": 439854125963284480, 
   "hashtags": [
    "NYR"
   ], 
   "user_mentions": [], 
   "created_at": "Sat Mar 01 20:06:10 +0000 2014", 
   "retweet_count": 23, 
   "favorite_count": 40
  }, 
  {
   "text": "Miller misses net on rebound in front..horn sounds..after two, #NYR trail 3-2, up in shots 25-17", 
   "label": "O", 
   "id": 439849374542487552, 
   "hashtags": [
    "NYR"
   ], 
   "user_mentions": [], 
   "created_at": "Sat Mar 01 19:47:17 +0000 2014", 
   "retweet_count": 23, 
   "favorite_count": 30
  }, 
  {
   "text": "HENRIK!!! great glove save to deny Couturier off the rush by Lundqvist..#NYR still down 3-2 with 2 minutes to play in second", 
   "label": "O", 
   "id": 439848487375867904, 
   "hashtags": [
    "NYR"
   ], 
   "user_mentions": [], 
   "created_at": "Sat Mar 01 19:43:46 +0000 2014", 
   "retweet_count": 25, 
   "favorite_count": 115
  }, 
  {
   "text": "Wayne Simmonds power play goal at 13:23 and #NYR trail again, 3-2", 
   "label": "O", 
   "id": 439846366832234496, 
   "hashtags": [
    "NYR"
   ], 
   "user_mentions": [], 
   "created_at": "Sat Mar 01 19:35:20 +0000 2014", 
   "retweet_count": 11, 
   "favorite_count": 19
  }, 
  {
   "text": "Credit @BRichards_1991 and @HLundqvist30 with the assists on Brassard's 13th goal..Brass with 8-game point scoring streak  #NYR", 
   "label": "O", 
   "id": 439846114414833664, 
   "hashtags": [
    "NYR"
   ], 
   "user_mentions": [
    "BRichards_1991", 
    "HLundqvist30"
   ], 
   "created_at": "Sat Mar 01 19:34:20 +0000 2014", 
   "retweet_count": 23, 
   "favorite_count": 80
  }, 
  {
   "text": "GOAL!!!! Derick Brassard slaps one through Steve Mason at 11:42 and we are tied 2-2!! #itsapowerplaygoal  #NYR", 
   "label": "O", 
   "id": 439845820683526144, 
   "hashtags": [
    "itsapowerplaygoal", 
    "NYR"
   ], 
   "user_mentions": [], 
   "created_at": "Sat Mar 01 19:33:10 +0000 2014", 
   "retweet_count": 164, 
   "favorite_count": 198
  }, 
  {
   "text": "Great feed from Nash springs Kreider in alone, but he shoots backhand wide..bright side: #NYR heading to power play at 10:17", 
   "label": "O", 
   "id": 439844258296922112, 
   "hashtags": [
    "NYR"
   ], 
   "user_mentions": [], 
   "created_at": "Sat Mar 01 19:26:57 +0000 2014", 
   "retweet_count": 27, 
   "favorite_count": 33
  }, 
  {
   "text": "Out of penalty boxes Carcillo and Rinaldo go right back in for 10-minute misconducts, now yelling back and forth in penalty boxes  #NYR", 
   "label": "O", 
   "id": 439843685732450304, 
   "hashtags": [
    "NYR"
   ], 
   "user_mentions": [], 
   "created_at": "Sat Mar 01 19:24:41 +0000 2014", 
   "retweet_count": 60, 
   "favorite_count": 66
  }, 
  {
   "text": "Carcillo and Rinaldo both head to the box after post-whistle skirmish behind Philly net  #NYR", 
   "label": "O", 
   "id": 439842275943014400, 
   "hashtags": [
    "NYR"
   ], 
   "user_mentions": [], 
   "created_at": "Sat Mar 01 19:19:05 +0000 2014", 
   "retweet_count": 13, 
   "favorite_count": 31
  }, 
  {
   "text": "Credit Rick Nash and @DerekStepan21 with the assists on Kreider's 14th goal of the season  #NYR", 
   "label": "O", 
   "id": 439841860354584576, 
   "hashtags": [
    "NYR"
   ], 
   "user_mentions": [
    "DerekStepan21"
   ], 
   "created_at": "Sat Mar 01 19:17:26 +0000 2014", 
   "retweet_count": 52, 
   "favorite_count": 86
  }, 
  {
   "text": "GOAL!!!! this one will count! @ChrisKreider goes to net and redirects Rick Nash pass into the cage..#NYR trail 2-1  #CK20", 
   "label": "O", 
   "id": 439841438101426176, 
   "hashtags": [
    "NYR", 
    "CK20"
   ], 
   "user_mentions": [
    "ChrisKreider"
   ], 
   "created_at": "Sat Mar 01 19:15:45 +0000 2014", 
   "retweet_count": 175, 
   "favorite_count": 241
  }, 
  {
   "text": "Pouliot goal does not count upon video review--stick above crossbar..#NYR still trail 2-0", 
   "label": "O", 
   "id": 439840428410810368, 
   "hashtags": [
    "NYR"
   ], 
   "user_mentions": [], 
   "created_at": "Sat Mar 01 19:11:44 +0000 2014", 
   "retweet_count": 15, 
   "favorite_count": 22
  }, 
  {
   "text": "Is it a goal or not? Pouliot deflection into net is under video review  #NYR", 
   "label": "O", 
   "id": 439839835990544385, 
   "hashtags": [
    "NYR"
   ], 
   "user_mentions": [], 
   "created_at": "Sat Mar 01 19:09:23 +0000 2014", 
   "retweet_count": 25, 
   "favorite_count": 34
  }, 
  {
   "text": "Second period underway in Philly..#NYR trail the Flyers 2-0", 
   "label": "O", 
   "id": 439838801712939009, 
   "hashtags": [
    "NYR"
   ], 
   "user_mentions": [], 
   "created_at": "Sat Mar 01 19:05:16 +0000 2014", 
   "retweet_count": 12, 
   "favorite_count": 20
  }, 
  {
   "text": "#NYR Stats: Dan Carcillo with 2 shots on goal, 2 hits in just 3:49 ice time; Ryan McDonagh blocked 4 shots in 9:31 #CarBomb #MacTruck", 
   "label": "O", 
   "id": 439837779623940096, 
   "hashtags": [
    "NYR", 
    "CarBomb", 
    "MacTruck"
   ], 
   "user_mentions": [], 
   "created_at": "Sat Mar 01 19:01:13 +0000 2014", 
   "retweet_count": 16, 
   "favorite_count": 40
  }, 
  {
   "text": "RT @MSGNetworks: Dan Girardi is the @nyrangers 1st Intermission guest. Keep watching for his interview on MSG.", 
   "label": "O", 
   "id": 439834533366882304, 
   "hashtags": [], 
   "user_mentions": [
    "MSGNetworks", 
    "NYRangers"
   ], 
   "created_at": "Sat Mar 01 18:48:19 +0000 2014", 
   "retweet_count": 10, 
   "favorite_count": 0
  }, 
  {
   "text": "First period ends with #NYR trailing 2-0..up 12-10 in shots..players from both sides jawing with one another at buzzer", 
   "label": "O", 
   "id": 439834320770191361, 
   "hashtags": [
    "NYR"
   ], 
   "user_mentions": [], 
   "created_at": "Sat Mar 01 18:47:28 +0000 2014", 
   "retweet_count": 17, 
   "favorite_count": 24
  }, 
  {
   "text": "Derek Stepan penalized for boarding Steve Downie at 17:40  #NYR", 
   "label": "O", 
   "id": 439832955276763136, 
   "hashtags": [
    "NYR"
   ], 
   "user_mentions": [], 
   "created_at": "Sat Mar 01 18:42:02 +0000 2014", 
   "retweet_count": 12, 
   "favorite_count": 27
  }, 
  {
   "text": "Matt Read rings iron..break for #NYR who still trail 2-0", 
   "label": "O", 
   "id": 439831661191372800, 
   "hashtags": [
    "NYR"
   ], 
   "user_mentions": [], 
   "created_at": "Sat Mar 01 18:36:54 +0000 2014", 
   "retweet_count": 7, 
   "favorite_count": 21
  }, 
  {
   "text": "Carcillo energizes #NYR with strong shift and couple scoring chances..#NYR still trail 2-0 with 6:08 to play in first", 
   "label": "O", 
   "id": 439830437377355776, 
   "hashtags": [
    "NYR", 
    "NYR"
   ], 
   "user_mentions": [], 
   "created_at": "Sat Mar 01 18:32:02 +0000 2014", 
   "retweet_count": 15, 
   "favorite_count": 35
  }, 
  {
   "text": "Great glove save by Lundqvist keeps deficit at two with 9:25 gone by in opening period here in Philly  #NYR", 
   "label": "O", 
   "id": 439828441647820800, 
   "hashtags": [
    "NYR"
   ], 
   "user_mentions": [], 
   "created_at": "Sat Mar 01 18:24:06 +0000 2014", 
   "retweet_count": 17, 
   "favorite_count": 41
  }, 
  {
   "text": "Sean Couturier scores at 8:10 and #NYR trail 2-0", 
   "label": "O", 
   "id": 439828157513097216, 
   "hashtags": [
    "NYR"
   ], 
   "user_mentions": [], 
   "created_at": "Sat Mar 01 18:22:59 +0000 2014", 
   "retweet_count": 19, 
   "favorite_count": 19
  }, 
  {
   "text": "Brayden Schenn scores from in front at 7:04 and #NYR trail 1-0", 
   "label": "O", 
   "id": 439827526593302528, 
   "hashtags": [
    "NYR"
   ], 
   "user_mentions": [], 
   "created_at": "Sat Mar 01 18:20:28 +0000 2014", 
   "retweet_count": 10, 
   "favorite_count": 18
  }, 
  {
   "text": "Great chances for Pouliot and Nash, but game still scoreless as #NYR 0-for-2 on power play", 
   "label": "O", 
   "id": 439827042620944384, 
   "hashtags": [
    "NYR"
   ], 
   "user_mentions": [], 
   "created_at": "Sat Mar 01 18:18:33 +0000 2014", 
   "retweet_count": 11, 
   "favorite_count": 23
  }, 
  {
   "text": "Callahan with great backhand try but stoned by Mason..PP ends but Hartnell takes another penalty at 4:05..right back to power play for #NYR", 
   "label": "O", 
   "id": 439826350774697984, 
   "hashtags": [
    "NYR"
   ], 
   "user_mentions": [], 
   "created_at": "Sat Mar 01 18:15:48 +0000 2014", 
   "retweet_count": 12, 
   "favorite_count": 38
  }, 
  {
   "text": "Just 1:57 into game #NYR head to power play after Hartnell boarding penalty", 
   "label": "O", 
   "id": 439825529102159872, 
   "hashtags": [
    "NYR"
   ], 
   "user_mentions": [], 
   "created_at": "Sat Mar 01 18:12:32 +0000 2014", 
   "retweet_count": 13, 
   "favorite_count": 39
  }, 
  {
   "text": "Here we go, Saturday matinee in Philly underway between #NYR and Flyers  #LGR", 
   "label": "O", 
   "id": 439824653797052416, 
   "hashtags": [
    "NYR", 
    "LGR"
   ], 
   "user_mentions": [], 
   "created_at": "Sat Mar 01 18:09:03 +0000 2014", 
   "retweet_count": 53, 
   "favorite_count": 57
  }, 
  {
   "text": "#NYR Starters: Lundqvist, McDonagh, Girardi, Kreider, Stepan, Nash  Scratches: D. Moore, Falk", 
   "label": "O", 
   "id": 439821795034931200, 
   "hashtags": [
    "NYR"
   ], 
   "user_mentions": [], 
   "created_at": "Sat Mar 01 17:57:42 +0000 2014", 
   "retweet_count": 64, 
   "favorite_count": 99
  }, 
  {
   "text": "PHOTO: #NYR on the ice for warmups http://t.co/8cPf7w2zrz. LET'S GO RANGERS!! http://t.co/G0aWZY4w8K", 
   "label": "O", 
   "id": 439817418689757184, 
   "hashtags": [
    "NYR"
   ], 
   "user_mentions": [], 
   "created_at": "Sat Mar 01 17:40:18 +0000 2014", 
   "retweet_count": 55, 
   "favorite_count": 123
  }, 
  {
   "text": "#NYR and Flyers take to ice at Wells Fargo Center for pre-game warmups..Goalies: @HLundqvist30 vs. Steve Mason", 
   "label": "O", 
   "id": 439814688508219393, 
   "hashtags": [
    "NYR"
   ], 
   "user_mentions": [
    "HLundqvist30"
   ], 
   "created_at": "Sat Mar 01 17:29:27 +0000 2014", 
   "retweet_count": 24, 
   "favorite_count": 54
  }, 
  {
   "text": "#NYR Pre-Game Report from Philly: all the latest from AV on lineup changes, Girardi signing &amp; more:  http://t.co/ZnH85hrNYl", 
   "label": "O", 
   "id": 439801716821991425, 
   "hashtags": [
    "NYR"
   ], 
   "user_mentions": [], 
   "created_at": "Sat Mar 01 16:37:55 +0000 2014", 
   "retweet_count": 15, 
   "favorite_count": 24
  }, 
  {
   "text": "\"Dan (Girardi) is a #NYR, been one all his life, and he's a big part of our team..for that to get done is very positive for our group\"-AV", 
   "label": "O", 
   "id": 439796219183771648, 
   "hashtags": [
    "NYR"
   ], 
   "user_mentions": [], 
   "created_at": "Sat Mar 01 16:16:04 +0000 2014", 
   "retweet_count": 78, 
   "favorite_count": 149
  }, 
  {
   "text": "\"Dom has done everything we want, he's been playing real well, but sometimes you've got to make some tough decisions\"-AV #NYR", 
   "label": "O", 
   "id": 439795788399775744, 
   "hashtags": [
    "NYR"
   ], 
   "user_mentions": [], 
   "created_at": "Sat Mar 01 16:14:21 +0000 2014", 
   "retweet_count": 15, 
   "favorite_count": 34
  }, 
  {
   "text": "\"I want to see what a line with Carcillo and Dorsett on it would look like\"-AV  #NYR", 
   "label": "O", 
   "id": 439795512997584896, 
   "hashtags": [
    "NYR"
   ], 
   "user_mentions": [], 
   "created_at": "Sat Mar 01 16:13:15 +0000 2014", 
   "retweet_count": 54, 
   "favorite_count": 84
  }, 
  {
   "text": "Dorsett will skate on fourth line with Boyle and Carcillo, and will take D. Moore's spot on the PK #NYR", 
   "label": "O", 
   "id": 439795353781796864, 
   "hashtags": [
    "NYR"
   ], 
   "user_mentions": [], 
   "created_at": "Sat Mar 01 16:12:38 +0000 2014", 
   "retweet_count": 31, 
   "favorite_count": 52
  }, 
  {
   "text": "#NYR lineup: @twigy15 is in for @mooredom...@HLundqvist30 starts in goal", 
   "label": "O", 
   "id": 439794047788802048, 
   "hashtags": [
    "NYR"
   ], 
   "user_mentions": [
    "Twigy15", 
    "mooredom", 
    "HLundqvist30"
   ], 
   "created_at": "Sat Mar 01 16:07:26 +0000 2014", 
   "retweet_count": 47, 
   "favorite_count": 76
  }, 
  {
   "text": "W2W4: #NYR skate in Philly matinee against Flyers today, important Metropolitan Division clash; here's your primer:  http://t.co/tyObXpPPxg", 
   "label": "O", 
   "id": 439767052900122624, 
   "hashtags": [
    "NYR"
   ], 
   "user_mentions": [], 
   "created_at": "Sat Mar 01 14:20:10 +0000 2014", 
   "retweet_count": 20, 
   "favorite_count": 27
  }, 
  {
   "text": "On 3/4 stop by @Chase at MSG to donate equipment to help local youth hockey &amp; meet #NYR players! Info: http://t.co/nNvKNADjgU #NYRAssist", 
   "label": "O", 
   "id": 439758130977972225, 
   "hashtags": [
    "NYR", 
    "NYRAssist"
   ], 
   "user_mentions": [
    "Chase"
   ], 
   "created_at": "Sat Mar 01 13:44:43 +0000 2014", 
   "retweet_count": 20, 
   "favorite_count": 22
  }
 ]
}