{
 "num_road_team_goals": "1", 
 "home_team": "Carolina Hurricanes", 
 "num_home_team_goals": "3", 
 "summary_url": "http://www.flyershistory.com/cgi-bin/poboxscore.cgi?H20130978", 
 "result": "L", 
 "road_team": "New York Rangers", 
 "date": "2014-03-11", 
 "goals": [
  {
   "season_index": "11", 
   "strength": "(EV)", 
   "time": "0:33", 
   "period": "2", 
   "player": "J.Tlusty", 
   "assists": "(J.Staal, A.Sekera)", 
   "game_index": "1", 
   "team": "CAR"
  }, 
  {
   "season_index": "2", 
   "strength": "(EV)", 
   "time": "4:22", 
   "period": "2", 
   "player": "K.Klein", 
   "assists": "(M.Zuccarello, B.Pouliot)", 
   "game_index": "2", 
   "team": "NYR"
  }, 
  {
   "season_index": "13", 
   "strength": "(EV)", 
   "time": "18:18", 
   "period": "2", 
   "player": "J.Staal", 
   "assists": "(J.Tlusty, A.Semin)", 
   "game_index": "3", 
   "team": "CAR"
  }, 
  {
   "season_index": "6", 
   "strength": "(EV)", 
   "time": "14:31", 
   "period": "3", 
   "player": "E.Lindholm", 
   "assists": "(J.Skinner, E.Staal)", 
   "game_index": "4", 
   "team": "CAR"
  }
 ], 
 "tweets": [
  {
   "text": "VIDEO: Alain Vigneault postgame press conference following #NYR 3-1 loss in Carolina:  http://t.co/f6062Rbthv", 
   "label": "O", 
   "id": 443578048697618432, 
   "hashtags": [
    "NYR"
   ], 
   "user_mentions": [], 
   "created_at": "Wed Mar 12 02:43:42 +0000 2014", 
   "retweet_count": 13, 
   "favorite_count": 26
  }, 
  {
   "text": "VIDEO: \"We made it too easy for them\"- @HLundqvist30 reacts to #NYR 3-1 loss tonight in Carolina: http://t.co/WgpIMWZhCk", 
   "label": "O", 
   "id": 443574667157446657, 
   "hashtags": [
    "NYR"
   ], 
   "user_mentions": [
    "HLundqvist30"
   ], 
   "created_at": "Wed Mar 12 02:30:16 +0000 2014", 
   "retweet_count": 14, 
   "favorite_count": 35
  }, 
  {
   "text": "\"No one hands you points this time of year, &amp; we didn't earn it tonight\"-Marty St. Louis  #NYR", 
   "label": "O", 
   "id": 443573872496222208, 
   "hashtags": [
    "NYR"
   ], 
   "user_mentions": [], 
   "created_at": "Wed Mar 12 02:27:07 +0000 2014", 
   "retweet_count": 50, 
   "favorite_count": 76
  }, 
  {
   "text": "RECAP: #NYR fall in Carolina 3-1, losing to Hurricanes for first time in 11 games; full story:  http://t.co/YkhIH1bbDC", 
   "label": "O", 
   "id": 443572171085185024, 
   "hashtags": [
    "NYR"
   ], 
   "user_mentions": [], 
   "created_at": "Wed Mar 12 02:20:21 +0000 2014", 
   "retweet_count": 17, 
   "favorite_count": 23
  }, 
  {
   "text": "\"We made it too easy for them\"- @HLundqvist30  #NYR", 
   "label": "O", 
   "id": 443566983955898368, 
   "hashtags": [
    "NYR"
   ], 
   "user_mentions": [
    "HLundqvist30"
   ], 
   "created_at": "Wed Mar 12 01:59:44 +0000 2014", 
   "retweet_count": 43, 
   "favorite_count": 107
  }, 
  {
   "text": "\"We (gave) away two points because we didn't work..right from the start our work ethic was not what it needs to be\"-Alain Vigneault #NYR", 
   "label": "O", 
   "id": 443566548603924480, 
   "hashtags": [
    "NYR"
   ], 
   "user_mentions": [], 
   "created_at": "Wed Mar 12 01:58:00 +0000 2014", 
   "retweet_count": 44, 
   "favorite_count": 55
  }, 
  {
   "text": "#NYR fall in Raleigh to the Hurricanes tonight 3-1", 
   "label": "O", 
   "id": 443560257982578688, 
   "hashtags": [
    "NYR"
   ], 
   "user_mentions": [], 
   "created_at": "Wed Mar 12 01:33:01 +0000 2014", 
   "retweet_count": 34, 
   "favorite_count": 34
  }, 
  {
   "text": "John Moore to the box with 2:52 to play  #NYR", 
   "label": "O", 
   "id": 443558985363623936, 
   "hashtags": [
    "NYR"
   ], 
   "user_mentions": [], 
   "created_at": "Wed Mar 12 01:27:57 +0000 2014", 
   "retweet_count": 9, 
   "favorite_count": 28
  }, 
  {
   "text": "As we reach #FoxwoodsFinalFive #NYR now trail Hurricanes 3-1 after Lindholm scores", 
   "label": "O", 
   "id": 443557670088605696, 
   "hashtags": [
    "FoxwoodsFinalFive", 
    "NYR"
   ], 
   "user_mentions": [], 
   "created_at": "Wed Mar 12 01:22:44 +0000 2014", 
   "retweet_count": 17, 
   "favorite_count": 29
  }, 
  {
   "text": "7:27 to play in regulation as Carolina ices the puck..#NYR trail 2-1", 
   "label": "O", 
   "id": 443556880825483264, 
   "hashtags": [
    "NYR"
   ], 
   "user_mentions": [], 
   "created_at": "Wed Mar 12 01:19:35 +0000 2014", 
   "retweet_count": 9, 
   "favorite_count": 25
  }, 
  {
   "text": "KILL!!! #NYR now 3-for-3 on the penalty kill tonight", 
   "label": "O", 
   "id": 443555673746710528, 
   "hashtags": [
    "NYR"
   ], 
   "user_mentions": [], 
   "created_at": "Wed Mar 12 01:14:48 +0000 2014", 
   "retweet_count": 26, 
   "favorite_count": 74
  }, 
  {
   "text": "Lundqvist standing tall for the #NYR, keeping his team in this game...", 
   "label": "O", 
   "id": 443555308548685824, 
   "hashtags": [
    "NYR"
   ], 
   "user_mentions": [], 
   "created_at": "Wed Mar 12 01:13:21 +0000 2014", 
   "retweet_count": 52, 
   "favorite_count": 108
  }, 
  {
   "text": "Zuccarello to the box at 8:12 with #NYR down a goal..big PK coming up here...", 
   "label": "O", 
   "id": 443554835649298432, 
   "hashtags": [
    "NYR"
   ], 
   "user_mentions": [], 
   "created_at": "Wed Mar 12 01:11:28 +0000 2014", 
   "retweet_count": 12, 
   "favorite_count": 32
  }, 
  {
   "text": "Wow, catch your breath! No whistles here in Raleigh until this one..already 7:28 gone by in third, with #NYR trailing 2-1", 
   "label": "O", 
   "id": 443554151478607872, 
   "hashtags": [
    "NYR"
   ], 
   "user_mentions": [], 
   "created_at": "Wed Mar 12 01:08:45 +0000 2014", 
   "retweet_count": 8, 
   "favorite_count": 31
  }, 
  {
   "text": "Third period underway in Raleigh..#NYR trail 2-1", 
   "label": "O", 
   "id": 443551793348636672, 
   "hashtags": [
    "NYR"
   ], 
   "user_mentions": [], 
   "created_at": "Wed Mar 12 00:59:22 +0000 2014", 
   "retweet_count": 23, 
   "favorite_count": 31
  }, 
  {
   "text": "after two periods of play #NYR trail Hurricanes 2-1...18 saves for Lundqvist...15 for Ward", 
   "label": "O", 
   "id": 443547257540202496, 
   "hashtags": [
    "NYR"
   ], 
   "user_mentions": [], 
   "created_at": "Wed Mar 12 00:41:21 +0000 2014", 
   "retweet_count": 15, 
   "favorite_count": 39
  }, 
  {
   "text": "Jordan Staal scores off a 2-on-0 breakdown in #NYR end and Blueshirts trail 2-1", 
   "label": "O", 
   "id": 443546714574958592, 
   "hashtags": [
    "NYR"
   ], 
   "user_mentions": [], 
   "created_at": "Wed Mar 12 00:39:12 +0000 2014", 
   "retweet_count": 9, 
   "favorite_count": 26
  }, 
  {
   "text": "Nice job by fourth line getting the puck and bodies to the net..Dorsett nearly scores...still 1-1 with 2 minutes to go in second  #NYR", 
   "label": "O", 
   "id": 443545920270262272, 
   "hashtags": [
    "NYR"
   ], 
   "user_mentions": [], 
   "created_at": "Wed Mar 12 00:36:02 +0000 2014", 
   "retweet_count": 14, 
   "favorite_count": 33
  }, 
  {
   "text": "RT @gardenofdreams: Phones are ringing! Call 212-465-3900 for a chance at @NYRangers prizes &amp; support the Foundation cc: @MSGNetworks http:\u2026", 
   "label": "O", 
   "id": 443544826446110721, 
   "hashtags": [], 
   "user_mentions": [
    "gardenofdreams", 
    "NYRangers", 
    "MSGNetworks"
   ], 
   "created_at": "Wed Mar 12 00:31:41 +0000 2014", 
   "retweet_count": 20, 
   "favorite_count": 0
  }, 
  {
   "text": "5:54 to play in second period, #NYR and Hurricanes remain tied 1-1...18 saves for Lundqvist, 9 for Ward", 
   "label": "O", 
   "id": 443544075351113728, 
   "hashtags": [
    "NYR"
   ], 
   "user_mentions": [], 
   "created_at": "Wed Mar 12 00:28:42 +0000 2014", 
   "retweet_count": 14, 
   "favorite_count": 35
  }, 
  {
   "text": "Iron is Henrik's friend tonight..'Canes Dwyer rings post on backhand...still 1-1 nine minutes into second  #NYR", 
   "label": "O", 
   "id": 443542703440416768, 
   "hashtags": [
    "NYR"
   ], 
   "user_mentions": [], 
   "created_at": "Wed Mar 12 00:23:15 +0000 2014", 
   "retweet_count": 14, 
   "favorite_count": 51
  }, 
  {
   "text": "@slipknottin a while...", 
   "label": "O", 
   "id": 443542111376646145, 
   "hashtags": [], 
   "user_mentions": [
    "slipknottin"
   ], 
   "created_at": "Wed Mar 12 00:20:54 +0000 2014", 
   "retweet_count": 1, 
   "favorite_count": 4
  }, 
  {
   "text": "RT @MSGNetworks: .@AnsonCarterLA answering phones for @NYRangers @gardenofdreams so call in 212 465 3900 &amp; buy a raffle! http://t.co/7ikzCr\u2026", 
   "label": "O", 
   "id": 443541639039299585, 
   "hashtags": [
    "GDFNYR"
   ], 
   "user_mentions": [
    "MSGNetworks", 
    "AnsonCarterLA", 
    "NYRangers", 
    "gardenofdreams"
   ], 
   "created_at": "Wed Mar 12 00:19:02 +0000 2014", 
   "retweet_count": 3, 
   "favorite_count": 0
  }, 
  {
   "text": "How bout that Klein drive!! #NYR", 
   "label": "O", 
   "id": 443541118974980096, 
   "hashtags": [
    "NYR"
   ], 
   "user_mentions": [], 
   "created_at": "Wed Mar 12 00:16:58 +0000 2014", 
   "retweet_count": 55, 
   "favorite_count": 161
  }, 
  {
   "text": "GOAL!!! @Realkevinklein8 whips shot past Cam Ward off pretty @zuccarello36 pass and #NYR pull even 1-1..Klein's 1st as a Blueshirt!!", 
   "label": "O", 
   "id": 443540380991365121, 
   "hashtags": [
    "NYR"
   ], 
   "user_mentions": [
    "Realkevinklein8", 
    "zuccarello36"
   ], 
   "created_at": "Wed Mar 12 00:14:02 +0000 2014", 
   "retweet_count": 206, 
   "favorite_count": 235
  }, 
  {
   "text": "Jiri Tlusty scores 33 seconds into the second period and #NYR trail 1-0", 
   "label": "O", 
   "id": 443539215268478976, 
   "hashtags": [
    "NYR"
   ], 
   "user_mentions": [], 
   "created_at": "Wed Mar 12 00:09:24 +0000 2014", 
   "retweet_count": 12, 
   "favorite_count": 27
  }, 
  {
   "text": "Scoreless first period ends with Lundqvist stopping all 13 shots he faced..#NYR recorded 5 on Cam Ward", 
   "label": "O", 
   "id": 443534120082485248, 
   "hashtags": [
    "NYR"
   ], 
   "user_mentions": [], 
   "created_at": "Tue Mar 11 23:49:09 +0000 2014", 
   "retweet_count": 23, 
   "favorite_count": 68
  }, 
  {
   "text": "Oh So Close! St. Louis breaks in, but Ward stops his backhand attempt..still scoreless at 15:20  #NYR", 
   "label": "O", 
   "id": 443531835474444288, 
   "hashtags": [
    "NYR"
   ], 
   "user_mentions": [], 
   "created_at": "Tue Mar 11 23:40:04 +0000 2014", 
   "retweet_count": 38, 
   "favorite_count": 68
  }, 
  {
   "text": "Penalty called on Ryan Murphy, and we are now 4-on-4 with #NYR power play coming up shortly", 
   "label": "O", 
   "id": 443531260661878784, 
   "hashtags": [
    "NYR"
   ], 
   "user_mentions": [], 
   "created_at": "Tue Mar 11 23:37:47 +0000 2014", 
   "retweet_count": 11, 
   "favorite_count": 26
  }, 
  {
   "text": "2-3 big saves by Lundqvist so far on the penalty kill...10 saves so far in scoreless first  #NYR", 
   "label": "O", 
   "id": 443530929727086593, 
   "hashtags": [
    "NYR"
   ], 
   "user_mentions": [], 
   "created_at": "Tue Mar 11 23:36:28 +0000 2014", 
   "retweet_count": 20, 
   "favorite_count": 46
  }, 
  {
   "text": "McDonagh nails Tlusty w/ hit at center ice then altercation ensues... #MacTruck 4 mins in penalties and Hurricanes head to power play  #NYR", 
   "label": "O", 
   "id": 443530251172601856, 
   "hashtags": [
    "MacTruck", 
    "NYR"
   ], 
   "user_mentions": [], 
   "created_at": "Tue Mar 11 23:33:46 +0000 2014", 
   "retweet_count": 14, 
   "favorite_count": 32
  }, 
  {
   "text": "RT @MSGNetworks: Look who's answering phones! Call 212 465 3900 to purchase your raffle ticket for @gardenofdreams\u2026 http://t.co/4mu6n5Nqd1", 
   "label": "O", 
   "id": 443528853122977792, 
   "hashtags": [], 
   "user_mentions": [
    "MSGNetworks", 
    "gardenofdreams"
   ], 
   "created_at": "Tue Mar 11 23:28:13 +0000 2014", 
   "retweet_count": 5, 
   "favorite_count": 0
  }, 
  {
   "text": "Alex Semin hits post during penalty kill for Hurricanes...back to even strength...#NYR", 
   "label": "O", 
   "id": 443528009736523776, 
   "hashtags": [
    "NYR"
   ], 
   "user_mentions": [], 
   "created_at": "Tue Mar 11 23:24:52 +0000 2014", 
   "retweet_count": 7, 
   "favorite_count": 23
  }, 
  {
   "text": "Manny Malhotra whistled for tripping penalty at 6:17..first #NYR PP tonight...Blueshirts own the 9th ranked power play in the NHL", 
   "label": "O", 
   "id": 443527208087609344, 
   "hashtags": [
    "NYR"
   ], 
   "user_mentions": [], 
   "created_at": "Tue Mar 11 23:21:41 +0000 2014", 
   "retweet_count": 8, 
   "favorite_count": 28
  }, 
  {
   "text": "Zucc to Brassard on 3-on-2, but his shot is smothered by Ward  #NYR", 
   "label": "O", 
   "id": 443525683747508226, 
   "hashtags": [
    "NYR"
   ], 
   "user_mentions": [], 
   "created_at": "Tue Mar 11 23:15:37 +0000 2014", 
   "retweet_count": 7, 
   "favorite_count": 33
  }, 
  {
   "text": "strong kill by the #NYR and we are back to even strength", 
   "label": "O", 
   "id": 443525221853954048, 
   "hashtags": [
    "NYR"
   ], 
   "user_mentions": [], 
   "created_at": "Tue Mar 11 23:13:47 +0000 2014", 
   "retweet_count": 16, 
   "favorite_count": 53
  }, 
  {
   "text": "16 seconds into the game Stralman off for hooking..#NYR to the PK", 
   "label": "O", 
   "id": 443524117157789696, 
   "hashtags": [
    "NYR"
   ], 
   "user_mentions": [], 
   "created_at": "Tue Mar 11 23:09:24 +0000 2014", 
   "retweet_count": 20, 
   "favorite_count": 40
  }, 
  {
   "text": "Puck is dropped, #NYR and 'Canes underway in Raleigh..catch the action on @MSGNetworks   #LGR", 
   "label": "O", 
   "id": 443523905127735296, 
   "hashtags": [
    "NYR", 
    "LGR"
   ], 
   "user_mentions": [
    "MSGNetworks"
   ], 
   "created_at": "Tue Mar 11 23:08:33 +0000 2014", 
   "retweet_count": 37, 
   "favorite_count": 59
  }, 
  {
   "text": "#NYR Starters: Lundqvist, Staal, Stralman, Kreider, Stepan, Nash  Scratches: Carcillo, Falk, Diaz", 
   "label": "O", 
   "id": 443520959589646336, 
   "hashtags": [
    "NYR"
   ], 
   "user_mentions": [], 
   "created_at": "Tue Mar 11 22:56:51 +0000 2014", 
   "retweet_count": 49, 
   "favorite_count": 111
  }, 
  {
   "text": "#NYR on the ice for warmups! http://t.co/zpskcoGX2x", 
   "label": "O", 
   "id": 443516603398127617, 
   "hashtags": [
    "NYR"
   ], 
   "user_mentions": [], 
   "created_at": "Tue Mar 11 22:39:33 +0000 2014", 
   "retweet_count": 54, 
   "favorite_count": 228
  }, 
  {
   "text": "warmups underway here in Raleigh..#NYR and 'Canes tonight for 2nd time in 5 nights...Goalies: @HLundqvist30 and Cam Ward", 
   "label": "O", 
   "id": 443514090208907264, 
   "hashtags": [
    "NYR"
   ], 
   "user_mentions": [
    "HLundqvist30"
   ], 
   "created_at": "Tue Mar 11 22:29:33 +0000 2014", 
   "retweet_count": 28, 
   "favorite_count": 65
  }, 
  {
   "text": "RT @MSGNetworks: Tonight is @gardenofdreams Fundraiser night! Call 212 465 3900 during @nyrangers telecast to buy your raffle ticket! http:\u2026", 
   "label": "O", 
   "id": 443511927780962305, 
   "hashtags": [], 
   "user_mentions": [
    "MSGNetworks", 
    "gardenofdreams", 
    "NYRangers"
   ], 
   "created_at": "Tue Mar 11 22:20:58 +0000 2014", 
   "retweet_count": 49, 
   "favorite_count": 0
  }, 
  {
   "text": "#NYR Prospect Pool: this week @boonieves leads our prospects feature after a strong week in the NCAA: http://t.co/naTTXcx9vl", 
   "label": "O", 
   "id": 443479680906428418, 
   "hashtags": [
    "NYR"
   ], 
   "user_mentions": [
    "boonieves"
   ], 
   "created_at": "Tue Mar 11 20:12:50 +0000 2014", 
   "retweet_count": 15, 
   "favorite_count": 27
  }, 
  {
   "text": "Morning Skate in Raleigh: Dorsett in for Carcillo \"I know I can help this team\"- @Twigy15; full story:  http://t.co/hGQ5i7tJrm  #NYR", 
   "label": "O", 
   "id": 443462303431004160, 
   "hashtags": [
    "NYR"
   ], 
   "user_mentions": [
    "Twigy15"
   ], 
   "created_at": "Tue Mar 11 19:03:46 +0000 2014", 
   "retweet_count": 15, 
   "favorite_count": 39
  }, 
  {
   "text": "RT @NHL: If you were a fantasy camper skating with @OfficialGretzky this week, what would you ask him? Tweet your question using #GretzkyCa\u2026", 
   "label": "O", 
   "id": 443461552935813120, 
   "hashtags": [
    "GretzkyCamp"
   ], 
   "user_mentions": [
    "NHL", 
    "OfficialGretzky"
   ], 
   "created_at": "Tue Mar 11 19:00:48 +0000 2014", 
   "retweet_count": 32, 
   "favorite_count": 0
  }, 
  {
   "text": "\"We have a lot of games coming up here, and I wanted to get (Dorsett) in\"-Alain Vigneault  #NYR", 
   "label": "O", 
   "id": 443434542129750016, 
   "hashtags": [
    "NYR"
   ], 
   "user_mentions": [], 
   "created_at": "Tue Mar 11 17:13:28 +0000 2014", 
   "retweet_count": 22, 
   "favorite_count": 57
  }, 
  {
   "text": "\"I felt I was playing well, then I break my leg, now I am fighting for my job..All I can do is bury my head &amp; keep working\"- @Twigy15 #NYR", 
   "label": "O", 
   "id": 443430086520631297, 
   "hashtags": [
    "NYR"
   ], 
   "user_mentions": [
    "Twigy15"
   ], 
   "created_at": "Tue Mar 11 16:55:45 +0000 2014", 
   "retweet_count": 38, 
   "favorite_count": 88
  }, 
  {
   "text": "#NYR lineup: @twigy15 replaces Dan Carcillo and @HLundqvist30 starts in goal", 
   "label": "O", 
   "id": 443419608499118080, 
   "hashtags": [
    "NYR"
   ], 
   "user_mentions": [
    "Twigy15", 
    "HLundqvist30"
   ], 
   "created_at": "Tue Mar 11 16:14:07 +0000 2014", 
   "retweet_count": 51, 
   "favorite_count": 83
  }, 
  {
   "text": "Full morning skate in Raleigh for #NYR. ..All players are on ice", 
   "label": "O", 
   "id": 443410014498455552, 
   "hashtags": [
    "NYR"
   ], 
   "user_mentions": [], 
   "created_at": "Tue Mar 11 15:36:00 +0000 2014", 
   "retweet_count": 29, 
   "favorite_count": 99
  }, 
  {
   "text": "W2W4: #NYR return to Raleigh seeking another win over the Hurricanes; here's your game primer: http://t.co/SYnt6IuY6U", 
   "label": "O", 
   "id": 443384299833020416, 
   "hashtags": [
    "NYR"
   ], 
   "user_mentions": [], 
   "created_at": "Tue Mar 11 13:53:49 +0000 2014", 
   "retweet_count": 22, 
   "favorite_count": 40
  }, 
  {
   "text": "@Jedweiss Jed we apologize. We sent out several tweets announcing the time change and posted it on our websites. We also sent out emails.", 
   "label": "O", 
   "id": 443371204821680128, 
   "hashtags": [], 
   "user_mentions": [
    "Jedweiss"
   ], 
   "created_at": "Tue Mar 11 13:01:47 +0000 2014", 
   "retweet_count": 0, 
   "favorite_count": 1
  }
 ]
}